0.6 0.0080695058713 0.0
1.2 0.006263890378 0.0
1.8 0.0207151384475 0.0
2.4 0.0173285790667 0.0
3.0 0.0121478483222 0.0
3.6 0.0128184282293 0.0
4.2 0.00955443399545 0.0
4.8 0.0129851657031 0.0
5.4 0.0112102638446 0.0
6.0 0.0101291871449 0.0
6.6 0.0120459838812 0.0
7.2 0.00900207233301 0.0
7.8 0.0105278226096 0.0
8.4 0.0102443217458 0.0
9.0 0.0092902178314 0.0
9.6 0.00942881932589 0.0
10.2 0.00928942675915 0.0
10.8 0.00918837381496 0.0
11.4 0.00848908093087 0.0
12.0 0.00954706371941 0.0
12.6 0.00879095659787 0.0
13.2 0.0089724015076 0.0
13.8 0.00951744679717 0.0
14.4 0.0096649006355 0.0
15.0 0.0102942952721 0.0
15.6 0.0111312606726 0.0
16.2 0.0123585623653 0.0
16.8 0.0137689661811 0.0
17.4 0.0164550426456 0.0
18.0 0.0183848732018 0.0
18.6 0.0270303594335 0.0
19.2 0.0366057442441 0.0
19.8 0.00225117310111 0.0
20.4 0.091473928811 0.0
21.0 0.126159510905 0.0
21.6 0.02069846143 0.0
22.2 0.174909444247 0.0
22.8 0.237691536066 0.0
23.4 0.169773502504 0.0
24.0 0.228236128554 0.0
24.6 0.147299599919 0.0
25.2 0.0587133471099 0.0
25.8 0.0756674275136 0.0
26.4 0.0175726942625 0.0
27.0 0.00608171134086 0.0
27.6 0.0312864180514 0.0
28.2 0.0444967690072 0.0
28.8 0.045777944025 0.0
29.4 0.0384029289992 0.0
30.0 0.0370824380606 0.0
30.6 0.0465003058833 0.0
31.2 0.0439523597594 0.0
31.8 0.0300330455362 0.0
32.4 0.0174356121025 0.0
33.0 0.00226950041976 0.0
33.6 0.0286782424868 0.0
34.2 0.0904863901182 0.0
34.8 0.272523739962 0.0
35.4 1.03252595166 -0.184517478402
36.0 0.506949707725 -0.0432201653369
36.6 0.139464597255 0.185588953693
37.2 0.039236454047 0.0494035856069
37.8 0.0069064079338 -0.00638740140719
38.4 0.0363169119742 -0.038139611854
39.0 0.062508340402 -0.0638757058875
39.6 0.0759716862064 -0.0765911011757
40.2 0.073232320585 -0.0718297146782
40.8 0.0529014598189 -0.0511046575445
41.4 0.0207935937891 -0.0191029761243
42.0 0.0215107552094 0.0235288429903
42.6 0.0565740406433 0.0567794611494
43.2 0.0729310112041 0.0735760955729
43.8 0.0756147742937 0.0743428779904
44.4 0.0794770899284 0.0806437808962
45.0 0.0840405568447 0.0830925969085
45.6 0.0697001337183 0.0702456894092
46.2 0.0632251009119 0.0626196081577
46.8 0.0759996296358 0.0784843769493
47.4 0.0903220567573 0.0890962944786
48.0 0.0918664594858 0.094102607248
48.6 0.125432570891 0.122181941854
49.2 0.144721745939 0.145165693416
49.8 0.142509445321 0.137910457041
50.4 0.114146468881 0.113593671459
51.0 0.0799809996066 0.0803792306801
51.6 0.045382448911 0.0461158059092
52.2 0.0122357982557 0.0137372723357
52.8 0.0106609339339 -0.0106812981506
53.4 0.0179584981659 -0.0175416308003
54.0 0.0219909041873 -0.0222192911099
54.6 0.0235188376238 -0.0236349466398
55.2 0.0270341313844 -0.0269783620552
55.8 0.0328921853649 -0.0334782076687
56.4 0.0429717141116 -0.0429385353577
57.0 0.0417681026593 -0.0421578213573
57.6 0.0341899001426 -0.0343013099336
58.2 0.0185675102217 -0.018055521783
58.8 0.00174525023934 -0.00141117107796
59.4 0.0229691466949 0.0246577789537
60.0 0.0513832134465 0.0520809525381
60.6 0.0980661893141 0.0998105559936
61.2 0.136879217653 0.138627062441
61.8 0.170763548485 -0.549615624488
62.4 0.179663354371 -0.61798266084
63.0 0.16943150792 0.0
63.6 0.113983317914 0.0
64.2 0.0686922364339 0.0
64.8 0.0356732631667 0.0
65.4 0.0204402119234 0.0
66.0 0.000807287084115 0.0
66.6 0.0092717222983 0.0
67.2 0.0178438963909 0.0
67.8 0.0230817333176 0.0
68.4 0.0245189929098 0.0
69.0 0.0216559582294 0.0
69.6 0.020626889218 0.0
70.2 0.0266564543521 0.0
70.8 0.0303901863927 0.0
71.4 0.0307045179996 0.0
72.0 0.018655790372 0.0
72.6 0.00993132529262 0.0
73.2 0.0655131328217 0.0
73.8 0.139839564599 0.0
74.4 0.20303345545 0.0
75.0 0.210876941569 0.0
75.6 0.169817872363 0.0
76.2 0.104041724969 0.0
76.8 0.0552559521392 0.0
77.4 0.0234996892034 0.0
78.0 0.000971987517793 0.0
78.6 0.009971951142 0.0
79.2 0.0105886530926 0.0
79.8 0.0169574843535 0.0
80.4 0.0166695321629 0.0
81.0 0.0247922393438 0.0
81.6 0.014665282572 0.0
82.2 0.0143293089254 0.0
82.8 0.00976502492637 0.0
83.4 0.00553638637666 0.0
84.0 0.0142712541934 0.0
84.6 0.0274530518709 0.0
85.2 0.0403577828237 0.0
85.8 0.0603973138216 0.0
86.4 0.0775368890157 0.0
87.0 0.152067477912 0.0
87.6 0.205743281903 0.0
88.2 0.217534360984 0.0
88.8 0.160262921884 0.0
89.4 0.098254736859 0.0
90.0 0.028205088842 0.0
90.6 0.0147219960983 0.0
91.2 0.0483327289518 0.0
91.8 0.0611838078524 0.0
92.4 0.0533806751942 0.0
93.0 0.0477670931938 0.0
93.6 0.0391944059664 0.0
94.2 0.0402003870367 0.0
94.8 0.0399769327926 0.0
95.4 0.0419072262961 0.0
96.0 0.0264890036066 0.0
96.6 0.0125899023025 0.0
97.2 0.00901349350668 0.0
97.8 0.0373462025104 0.0
98.4 0.0608551838739 0.0
99.0 0.0870420378176 0.0
99.6 0.118891775532 0.0
100.2 0.152428502214 0.0
100.8 0.18652094052 -0.630784612432
101.4 0.173829073991 -0.552211565389
102.0 0.148353869969 0.140757384103
102.6 0.0953770490408 0.099954325229
103.2 0.0621737549739 0.061188126192
103.8 0.0300856102873 0.0331024183259
104.4 0.00958723293608 0.00998634159383
105.0 0.0173350481605 -0.0173849237076
105.6 0.0368431230472 -0.0358261222527
106.2 0.0430685257278 -0.0442183968324
106.8 0.0449807297279 -0.0442085989222
107.4 0.03905383599 -0.0399172253168
108.0 0.0352861079219 -0.0349674675872
108.6 0.03109048617 -0.0319094373424
109.2 0.0393565340506 -0.0390928370084
109.8 0.0516454412461 -0.0534484580038
110.4 0.0561282306488 -0.0548345501389
111.0 0.0380717994578 -0.0382874266839
111.6 0.0129947967095 -0.011114000944
112.2 0.0315413723198 0.0346927827923
112.8 0.090491630242 0.0916663110713
113.4 0.148095381054 0.151836939319
114.0 0.177670868483 0.169524060121
114.6 0.182437972146 0.179732076122
115.2 0.174413465203 0.171183921201
115.8 0.137214057077 0.136202752304
116.4 0.0962365104176 0.0994683935275
117.0 0.0595604303859 0.0606975446289
117.6 0.0390642329629 0.0406531460317
118.2 0.0164459092201 0.0176143101061
118.8 0.00551884165536 0.00563411544876
119.4 0.00882869944843 -0.00868272624601
120.0 0.0303769988071 -0.0308691840177
120.6 0.0412585250245 -0.0415097363718
121.2 0.039784561873 -0.0398334064011
121.8 0.0346163276506 -0.0344682189574
122.4 0.0242589006862 -0.0240065097309
123.0 0.0158201553788 -0.0158672216021
123.6 0.00577734521077 -0.00505407908166
124.2 0.00879815507174 -0.0101346829754
124.8 0.00569006013775 -0.0033731843038
125.4 0.0106071415741 0.00915860157316
126.0 0.0351253023909 0.0400929056892
126.6 0.0986919316541 0.0983484273407
127.2 0.145186493409 0.143292161522
127.8 0.187957404173 0.182087241684
128.4 0.164708966837 0.163616030468
129.0 0.118146442003 0.117766371405
129.6 0.062354316939 0.0665525677573
130.2 0.0353277362329 0.0347373116621
130.8 0.0203656846324 0.0220250273281
131.4 0.0130490472833 0.0125029751775
132.0 0.015663359418 0.0157544411731
132.6 0.00511334844923 0.00588087467696
133.2 0.00244969897971 -0.00245166165285
133.8 0.00628985254649 -0.00627511466393
134.4 0.0155552224797 -0.0156453745499
135.0 0.0215948912867 -0.0219607467848
135.6 0.0219784428601 -0.021923419582
136.2 0.0145765043702 -0.0144557174551
136.8 0.000192052220723 0.000672915579611
137.4 0.0211873801367 0.022251532166
138.0 0.0434650069855 0.044197698246
138.6 0.0548435516805 0.0557446261216
139.2 0.065702883654 0.0664077587497
139.8 0.0816813372399 0.0813567296845
140.4 0.111195975672 0.112522370255
141.0 0.144258804841 0.138907495689
141.6 0.145659725966 0.143051948943
142.2 0.119960258112 -0.541843737676
142.8 0.0800160065072 -0.614262616395
143.4 0.0447730967098 0.0
144.0 0.0179307514955 0.0
144.6 0.00027758242049 0.0
145.2 0.0130985065476 0.0
145.8 0.0170414189675 0.0
146.4 0.0207204448136 0.0
147.0 0.0161145295999 0.0
147.6 0.00927220686002 0.0
148.2 0.00160190489804 0.0
148.8 0.00326013756298 0.0
149.4 0.0130040373497 0.0
150.0 0.0126102790824 0.653816181697
150.6 0.00142977317555 0.0
151.2 0.0247371156947 -0.653816181697
151.8 0.0532979627317 0.0
152.4 0.0777158644129 0.0
153.0 0.100366033706 0.0
153.6 0.117798017719 0.0
154.2 0.118423682077 0.0
154.8 0.119489427585 0.0
155.4 0.109050481691 0.0
156.0 0.0842313552982 0.0
156.6 0.0653790640947 0.0
157.2 0.0486438717984 0.0
157.8 0.0355259382842 0.0
158.4 0.0162149072878 0.0
159.0 0.00743199345005 0.0
159.6 0.000476988239695 0.0
160.2 0.00605818555734 0.0
160.8 0.00723311631728 0.0
161.4 0.003062176589 0.0
162.0 0.00213663667225 0.0
162.6 0.00102979814341 0.0
163.2 0.0149564932484 0.0
163.8 0.0231818442554 0.0
164.4 0.0320453900997 0.0
165.0 0.0259749908658 0.0
165.6 0.0329303224854 0.0
166.2 0.045556079314 0.0
166.8 0.0784623599495 0.0
167.4 0.107999502682 0.0
168.0 0.111029810729 0.0
168.6 0.102013848721 0.0
169.2 0.0830468928862 0.0
169.8 0.061689365495 0.0
170.4 0.0484935323587 0.0
171.0 0.0414279369598 0.0
171.6 0.0332523591962 0.0
172.2 0.0292801908445 0.0
172.8 0.0272165492182 0.0
173.4 0.0230389965254 0.0
174.0 0.0174405938687 0.0
174.6 0.0167588465243 0.0
175.2 0.021178254436 0.0
175.8 0.0200169792567 0.0
176.4 0.0289720251871 0.0
177.0 0.0356961377113 0.0
177.6 0.0467547267838 0.0
178.2 0.0510287626255 0.0
178.8 0.0649465953525 0.0
179.4 0.076292508026 0.0
180.0 0.0825317089003 0.0
180.6 0.0857499810916 0.0
181.2 0.0786056274613 0.0
181.8 0.0666194126413 0.0
182.4 0.0576687323918 -0.634089654063
183.0 0.0559131187778 -0.601765860781
183.6 0.0526493719404 0.0533697928783
184.2 0.038800260153 0.0388447703637
184.8 0.0304781766973 0.0310413890433
185.4 0.0267894909066 0.0267394090595
186.0 0.0195085449474 0.0199443853477
186.6 0.0139800785193 0.0138923127206
187.2 0.0191737772796 0.0191823879199
187.8 0.0278462319537 0.0278844235155
188.4 0.0344298059632 0.0344572534392
189.0 0.0356359912511 0.0359892728922
189.6 0.0366992828927 0.0367510394662
190.2 0.0411463295015 0.0414253021364
190.8 0.0481086658994 0.0478588873897
191.4 0.0565847787695 0.0572599014556
192.0 0.0629478651355 0.0625080406048
192.6 0.0742595899528 0.0746196619432
193.2 0.0870504408258 0.0863341968142
193.8 0.0877001912221 0.087638717692
194.4 0.0832215782432 0.083522280292
195.0 0.081497390001 0.0807433330116
195.6 0.0838351033609 0.0839260578456
196.2 0.0722538323084 0.0721080511996
196.8 0.0651705167787 0.065175154683
197.4 0.0511887323596 0.0519400467464
198.0 0.0398033356894 0.0399926895002
198.6 0.0360653334057 0.0361294136002
199.2 0.0369874861378 0.0368254039205
199.8 0.0344228637807 0.0347108295126
200.4 0.0257160156258 0.0259979541292
201.0 0.0280508635052 0.027986714941
201.6 0.0289894184616 0.0292455479323
202.2 0.0340045479835 0.0338904570385
202.8 0.033239899652 0.033454376325
203.4 0.0435134556548 0.0431791647788
204.0 0.0546251351307 0.0549061184036
204.6 0.0648152985102 0.064667924284
205.2 0.0700557002713 0.0702118355902
205.8 0.0742381495107 0.0738772912278
206.4 0.0796351079926 0.0796998396442
207.0 0.0766825541692 0.0768060965775
207.6 0.0769755573404 0.0766885845743
208.2 0.0758206811041 0.0757453505829
208.8 0.0715396224051 0.0716830503557
209.4 0.0669541789299 0.0669119842089
210.0 0.0671783738262 0.0669047407106
210.6 0.0622520421764 0.0624509843962
211.2 0.0542007273657 0.0545408267771
211.8 0.0465876240493 0.0468700490757
212.4 0.0464732630836 -0.630132179524
213.0 0.0462354174618 -0.65054560218
213.6 0.0474803269919 0.0
214.2 0.049575521894 0.0
214.8 0.0514439424583 0.0
215.4 0.053440788219 0.0
216.0 0.0549521210665 0.0
216.6 0.0591157172766 0.0
217.2 0.0650151657309 0.0
217.8 0.0710122012964 0.0
218.4 0.0730884463565 0.0
219.0 0.0757763408399 0.0
219.6 0.0807700534533 0.0
220.2 0.0869502848781 0.0
220.8 0.0796976475918 0.0
221.4 0.0761369717112 0.0
222.0 0.0707880457965 0.0
222.6 0.0708515616481 0.0
223.2 0.0656933817528 0.0
223.8 0.0633058121534 0.0
224.4 0.0611450656409 0.0
225.0 0.0570720088065 0.0
225.6 0.0570484665409 0.0
226.2 0.0547854451883 0.0
226.8 0.0570478504301 0.0
227.4 0.0520203369711 0.0
228.0 0.0566139786874 0.0
228.6 0.0577340516929 0.0
229.2 0.0616062380639 0.0
229.8 0.0644214741854 0.0
230.4 0.0717801493996 0.0
231.0 0.079994866888 0.0
231.6 0.0822193459032 0.0
232.2 0.0823508052676 0.0
232.8 0.0804270882471 0.0
233.4 0.0804055133109 0.0
234.0 0.0791243061623 0.0
234.6 0.0782596565021 0.0
235.2 0.0796715617271 0.0
235.8 0.0799526088936 -0.625716975187
236.4 0.07772177932 -0.588042207048
237.0 0.0750724418148 0.0753364591377
237.6 0.0707068199202 0.0710740380049
238.2 0.068578044879 0.0690248244215
238.8 0.0677494957027 0.0677293058371
239.4 0.0684749136539 0.0685719037375
240.0 0.0706565816654 0.0706459901899
240.6 0.0746471727191 0.0747661033475
241.2 0.0765004952946 0.0764747505109
241.8 0.0743561795455 0.0744812484655
242.4 0.0763392922765 0.0765580875769
243.0 0.0761918831919 0.0762088055394
243.6 0.0777412253178 0.0779544324964
244.2 0.0787323204207 0.0788231928013
244.8 0.0807878387247 0.0806826853907
245.4 0.0836297881145 0.083644069139
246.0 0.084866824231 0.0847782666538
246.6 0.0834335922216 0.0834475343084
247.2 0.0825051098973 0.0827339100131
247.8 0.0841101992835 0.0840245235619
248.4 0.083178479944 0.0834259476377
249.0 0.0813939904913 0.0816484150487
249.6 0.0814844336679 0.0817352300511
250.2 0.0814846898859 0.0816293967005
250.8 0.0820645766428 0.0823929113101
251.4 0.0814585338794 0.0816526559094
252.0 0.0804847003911 0.0804545965301
252.6 0.0803804995569 0.0805090056514
253.2 0.0802771771198 0.0804305633989
253.8 0.0816381641141 0.0819183365399
254.4 0.0829538594775 0.0832340319968
255.0 0.0845687358717 0.0845950042006
255.6 0.0869145752099 -0.592262540551
256.2 0.0873393861416 -0.634564503323
256.8 0.0853532142917 0.0
257.4 0.0859852173923 0.0
258.0 0.0871627027999 0.0
258.6 0.0866316976622 0.0
259.2 0.0892868369589 0.0
259.8 0.0886297802421 0.0
260.4 0.0915378675661 0.0
261.0 0.0917300736928 0.0
261.6 0.0920730728015 0.0
262.2 0.0929331682362 0.0
262.8 0.0946868446944 0.0
263.4 0.0933551602466 0.0
264.0 0.0941242566943 0.0
264.6 0.0960867058193 0.0
265.2 0.0954543422485 0.0
265.8 0.0985481928606 0.0
266.4 0.0975951902789 0.0
267.0 0.0989902798949 0.0
267.6 0.0999483392388 0.0
268.2 0.0995089647064 0.0
268.8 0.101276979161 0.0
269.4 0.100277818986 0.0
270.0 0.0996533254449 0.0
270.6 0.100331981577 0.0
271.2 0.0987483310264 0.0
271.8 0.0982738213035 0.0
272.4 0.0990969103703 -0.611603881584
273.0 0.0982033007365 -0.56291248442
273.6 0.100312454344 0.100273132687
274.2 0.101865786117 0.10212591214
274.8 0.10345234515 0.103268691008
275.4 0.106424717149 0.106733275069
276.0 0.106181578259 0.106563775828
276.6 0.108217554905 0.108333244826
277.2 0.11085163773 0.111426041838
277.8 0.112633636991 0.112672888969
278.4 0.114423390737 0.114759779695
279.0 0.116999679932 0.117339345097
279.6 0.118778192563 0.119133089174
280.2 0.119252511568 0.119738478721
280.8 0.121254189192 0.121617256774
281.4 0.122109470034 0.122301943184
282.0 0.122469551861 0.122711722355
282.6 0.123355942047 0.123660633223
283.2 0.122698273636 0.123125355016
283.8 0.125346264802 0.125813055317
284.4 0.126495460277 0.12700854451
285.0 0.126379950646 0.126664750897
285.6 0.131035391212 -0.538283507301
286.2 0.131876320641 -0.602471043022
286.8 0.132705097918 0.0
287.4 0.135889085132 0.0
288.0 0.136826498607 0.0
288.6 0.138162482165 0.0
289.2 0.140714945027 0.0
289.8 0.14337310362 0.0
290.4 0.14520970631 0.0
291.0 0.148989058807 0.0
291.6 0.155505712485 0.0
292.2 0.160979748376 0.0
292.8 0.165659217952 0.0
293.4 0.170760475443 0.0
294.0 0.174334247372 0.0
294.6 0.176618071369 0.0
295.2 0.17830073135 0.0
295.8 0.180546004229 -0.621188010649
296.4 0.183722543679 -0.527483956263
297.0 0.186868054748 0.188621549116
297.6 0.187971265969 0.189961881084
298.2 0.18983350828 0.191912186147
298.8 0.193903042076 0.195743561727
299.4 0.196885504782 0.198819266975
300.0 0.198577728634 0.200838070325
300.6 0.200225436377 0.202415238603
301.2 0.201494392713 0.203467366701
301.8 0.202752758794 0.204829550429
302.4 0.204430924483 0.206794632228
303.0 0.206092545607 0.20846451734
303.6 0.207302051689 -0.469321555801
304.2 0.208607644324 -0.573874297961
304.8 0.210856122293 0.0
305.4 0.21382524344 0.0
306.0 0.217053642382 0.0
306.6 0.220160935438 0.0
307.2 0.223787420459 0.0
307.8 0.22803848334 0.0
308.4 0.232121367013 0.0
309.0 0.235801481551 0.0
309.6 0.239086757016 0.0
310.2 0.241856226841 0.0
310.8 0.243782730833 -0.553093169619
311.4 0.244820774364 -0.428500349009
312.0 0.244911297032 0.248959313395
312.6 0.244485665103 0.248315885706
313.2 0.244003739096 0.247589098733
313.8 0.244029018661 0.247437360605
314.4 0.24488838752 0.248208377444
315.0 0.246574361194 0.249923722402
315.6 0.248702119529 0.252217587073
316.2 0.251179951121 0.25490099086
316.8 0.254353932327 -0.443881207026
317.4 0.258327845681 -0.572077610564
318.0 0.262753915978 0.0
318.6 0.267365577516 0.0
319.2 0.271956773483 0.0
319.8 0.276233074236 0.0
320.4 0.279822161206 0.0
321.0 0.282494627147 0.0
321.6 0.283755511514 0.0
322.2 0.28341132722 -0.650278098978
322.8 0.281227829551 -0.507898038034
323.4 0.277479292527 0.282108845138
324.0 0.273523761087 0.277471205914
324.6 0.271391094698 0.275226041595
325.2 0.271784960208 0.275922321972
325.8 0.273833455209 0.278296829797
326.4 0.276483562111 0.281277049666
327.0 0.27962468824 0.284890615265
327.6 0.283877515645 0.289603891331
328.2 0.289183911987 -0.470244232817
328.8 0.294449633726 -0.616376430849
329.4 0.298892004775 0.0
330.0 0.302140165308 0.0
330.6 0.303782369042 0.0
331.2 0.303652039029 0.0
331.8 0.301641985753 0.0
332.4 0.297900656727 0.0
333.0 0.292879223023 -0.627973644522
333.6 0.287690359228 -0.483456133939
334.2 0.285350938812 0.289325736951
334.8 0.287755005432 0.292497561595
335.4 0.292864572594 0.298398763783
336.0 0.297724536465 0.303669940531
336.6 0.301549507457 0.308034140155
337.2 0.305224217983 0.312560744331
337.8 0.309567231625 0.317532366018
338.4 0.313800939545 -0.425272112519
339.0 0.317238010978 -0.585317362385
339.6 0.31961789833 0.0
340.2 0.320229818288 0.0
340.8 0.318937971947 0.0
341.4 0.315708397657 0.0
342.0 0.310777989827 0.0
342.6 0.305660850173 0.0
343.2 0.303057203 -0.590783368001
343.8 0.304999451082 -0.433572275266
344.4 0.31101709723 0.318673192561
345.0 0.317808092707 0.326186780747
345.6 0.32383115295 0.332607104282
346.2 0.329613753223 0.33932596895
346.8 0.335525556033 0.345996446046
347.4 0.339913465496 0.350672894014
348.0 0.341371980113 -0.406493374887
348.6 0.339382390134 -0.582613368444
349.2 0.334196297174 0.0
349.8 0.327035192129 0.0
350.4 0.319522145515 0.0
351.0 0.314110842088 0.0
351.6 0.31352140848 0.0
352.2 0.317731703089 0.0
352.8 0.325820620508 -0.536831313774
353.4 0.335385343886 -0.362610811711
354.0 0.339768972687 0.348830485064
354.6 0.337663515276 0.347388294706
355.2 0.332872947315 0.343076815866
355.8 0.328279800209 0.338403292811
356.4 0.326619495421 0.33616974649
357.0 0.32819201028 -0.323180775805
357.6 0.327763489373 -0.491245733646
358.2 0.321368839227 0.0
358.8 0.312434345515 0.0
359.4 0.305448138612 0.0
360.0 0.30298943472 0.0
360.6 0.303337872949 0.0
361.2 0.3021091404 0.0
361.8 0.302995510153 0.0
362.4 0.31281065963 -0.537399143621
363.0 0.323929970005 -0.370419471331
363.6 0.325161536925 0.331805104686
364.2 0.318347813566 0.325623488538
364.8 0.309181265716 0.316646475508
365.4 0.300826268261 0.308651074671
366.0 0.298835696893 0.305129792706
366.6 0.29563919984 0.299972232284
367.2 0.284596813629 -0.416182229279
367.8 0.277643312354 -0.563827324162
368.4 0.276157735111 0.0
369.0 0.279535232423 0.0
369.6 0.285415769982 0.0
370.2 0.282545426651 0.0
370.8 0.274890650323 0.0
371.4 0.274278522246 0.0
372.0 0.283598841264 0.0
372.6 0.29665361054 -0.620758265531
373.2 0.293535686041 -0.475888789332
373.8 0.27115127953 0.276293038669
374.4 0.261929273265 0.268960739359
375.0 0.286592758575 0.286640581337
375.6 0.294334707301 0.29036810314
376.2 0.263448237325 0.26644595016
376.8 0.234292512494 0.242260477746
377.4 0.234714162925 0.242765652983
378.0 0.26286269614 0.268038390338
378.6 0.28138522017 -0.451386957617
379.2 0.245689329896 -0.593738921252
379.8 0.194813871992 0.0
380.4 0.189667122868 0.0
381.0 0.238936893322 0.0
381.6 0.282235038763 0.0
382.2 0.238579493921 0.0
382.8 0.183801783911 0.0
383.4 0.192275315394 0.0
384.0 0.26976599419 0.0
384.6 0.352309949259 0.653444515505
385.2 0.295327788797 -0.542952195523
385.8 0.180646014333 -1.12560403998
386.4 0.169187546395 0.176011437698
387.0 0.295478411095 0.274283326111
387.6 0.34258881711 0.327373121619
388.2 0.241074992303 0.267422250527
388.8 0.207425320555 0.23244237819
389.4 0.29266497163 0.311979607172
390.0 0.37566707692 0.332366194614
390.6 0.126454936198 0.138933635317
391.2 0.0422495774845 -0.040174284748
391.8 0.00232962900074 -0.00315830917559
392.4 0.172315158793 -1.11503730018
393.0 0.407259782432 -0.517300985478
393.6 0.314500211656 0.629970648326
394.2 0.118496818862 0.0
394.8 0.00385982974943 0.0
395.4 0.0182990855852 0.0
396.0 0.321269368873 0.0
396.6 0.240173506683 0.0
397.2 0.068956907469 0.0
397.8 0.0676058320926 0.0
398.4 0.14306937471 0.0
399.0 0.536736646878 -0.374173525296
399.6 1.34132470631 -0.163195152126
400.2 0.093851785343 0.175078006707
400.8 0.095704413073 0.0495142044353
401.4 0.174119746136 0.199299659448
402.0 0.283100704875 0.4009270134
402.6 0.777148530874 0.605438773121
403.2 0.157684641202 0.28163093831
403.8 0.167177034915 -0.130255790569
404.4 0.117223000708 -0.140668434714
405.0 0.00676760068244 -0.0151524473796
405.6 0.185286159172 0.200240639775
406.2 0.385236884908 -0.460234676031
406.8 0.249269910333 -0.62844920908
407.4 0.0247678116493 0.0
408.0 0.141640638948 -0.565825256462
408.6 0.185088342331 -0.631196319365
409.2 0.0466643881971 -0.0384089080449
409.8 0.177067464288 0.631196319365
410.4 0.347385013613 0.604234164507
411.0 0.15713649241 0.0
411.6 0.0119710487127 0.0
412.2 0.0814634124086 0.0
412.8 0.125721747749 0.0
413.4 0.112882645744 0.0
414.0 0.0702494175238 0.0
414.6 0.179195160519 0.0
415.2 0.374995001195 0.0
415.8 0.119047432238 0.0
416.4 0.0721263712182 -0.319932759672
417.0 0.973913693416 0.368967981847
417.6 0.48283340831 0.586009728114
418.2 0.0428531247506 -0.0880110122466
418.8 0.0488057014703 0.0463990720643
419.4 0.0981698354648 0.0959925605178
420.0 0.125311697755 0.128131315549
420.6 0.142800545025 0.146654767589
421.2 0.127900542234 0.128793907715
421.8 0.0665015957441 0.064220550096
422.4 0.0775754414999 0.0705507443816
423.0 0.162776166147 -0.587824847803
423.6 0.233810523531 -0.639952008151
424.2 0.206556609428 0.0
424.8 0.141983383375 0.0
425.4 0.0965751681466 0.0
426.0 0.0622839312959 0.0
426.6 0.0341421370169 0.0
427.2 0.0507506875009 0.0
427.8 0.167654401978 0.0
428.4 0.248702690397 0.0
429.0 0.236864052468 0.0
429.6 0.337824219352 0.572920648404
430.2 1.21882431406 -0.207936012319
430.8 0.448545491393 -0.664397089675
431.4 0.126418660273 0.166068919017
432.0 0.110279831023 0.116745802908
432.6 0.159833966068 0.159434628982
433.2 0.178178534664 0.171748282099
433.8 0.149115064573 0.149079860162
434.4 0.157421970995 0.164423037914
435.0 0.240314277803 0.254291722773
435.6 0.345326850745 -0.361440681651
436.2 0.33406409083 -0.520939118615
436.8 0.22073154572 0.0
437.4 0.115347452549 0.0
438.0 0.0841490323704 0.0
438.6 0.134779868136 0.0
439.2 0.235816425179 0.0
439.8 0.279804220281 0.0
440.4 0.24386385949 0.0
441.0 0.202170850573 0.0
