   0.0000000E+00  -0.2235673E-05  -0.1673630E-05
   0.1000000E+00   0.1600500E-14  -0.2447324E-15
   0.2000000E+00   0.1261298E-13  -0.3066965E-14
   0.3000000E+00   0.4279457E-13  -0.1225769E-13
   0.4000000E+00   0.1056704E-12  -0.3614791E-13
   0.5000000E+00   0.2174012E-12  -0.8585928E-13
   0.6000000E+00   0.3927543E-12  -0.1687045E-12
   0.7000000E+00   0.6285501E-12  -0.2760195E-12
   0.8000000E+00   0.8965756E-12  -0.3791610E-12
   0.9000000E+00   0.1145965E-11  -0.4349965E-12
   0.1000000E+01   0.1326423E-11  -0.4135734E-12
   0.1100000E+01   0.1416911E-11  -0.3221454E-12
   0.1200000E+01   0.1436617E-11  -0.2116628E-12
   0.1300000E+01   0.1431643E-11  -0.1534668E-12
   0.1400000E+01   0.1432762E-11  -0.1959499E-12
   0.1500000E+01   0.1416246E-11  -0.3237126E-12
   0.1600000E+01   0.1292465E-11  -0.4676840E-12
   0.1700000E+01   0.9396645E-12  -0.5674350E-12
   0.1800000E+01   0.2569295E-12  -0.6633066E-12
   0.1900000E+01  -0.8134004E-12  -0.9783695E-12
   0.2000000E+01  -0.2339655E-11  -0.1934205E-11
   0.2100000E+01  -0.4523057E-11  -0.4105829E-11
   0.2200000E+01  -0.7851834E-11  -0.8131064E-11
   0.2300000E+01  -0.1317512E-10  -0.1464024E-10
   0.2400000E+01  -0.2161834E-10  -0.2421755E-10
   0.2500000E+01  -0.3427654E-10  -0.3735441E-10
   0.2600000E+01  -0.5170730E-10  -0.5429857E-10
   0.2700000E+01  -0.7332063E-10  -0.7467511E-10
   0.2800000E+01  -0.9681428E-10  -0.9685403E-10
   0.2900000E+01  -0.1178350E-09  -0.1171659E-09
   0.3000000E+01  -0.1300297E-09  -0.1292701E-09
   0.3100000E+01  -0.1256223E-09  -0.1241203E-09
   0.3200000E+01  -0.9657681E-10  -0.9096031E-10
   0.3300000E+01  -0.3631379E-10  -0.1959460E-10
   0.3400000E+01   0.5819985E-10   0.9620867E-10
   0.3500000E+01   0.1843212E-09   0.2548517E-09
   0.3600000E+01   0.3320663E-09   0.4437007E-09
   0.3700000E+01   0.4834751E-09   0.6379114E-09
   0.3800000E+01   0.6135596E-09   0.8024463E-09
   0.3900000E+01   0.6931373E-09   0.8977477E-09
   0.4000000E+01   0.6934649E-09   0.8883961E-09
   0.4100000E+01   0.5920364E-09   0.7528521E-09
   0.4200000E+01   0.3783764E-09   0.4914317E-09
   0.4300000E+01   0.5833159E-10   0.1295572E-09
   0.4400000E+01  -0.3445814E-09  -0.2856892E-09
   0.4500000E+01  -0.7916286E-09  -0.6956575E-09
   0.4600000E+01  -0.1234953E-08  -0.1044222E-08
   0.4700000E+01  -0.1625923E-08  -0.1291047E-08
   0.4800000E+01  -0.1923411E-08  -0.1418388E-08
   0.4900000E+01  -0.2099359E-08  -0.1427188E-08
   0.5000000E+01  -0.2139687E-08  -0.1321783E-08
   0.5100000E+01  -0.2040112E-08  -0.1087436E-08
   0.5200000E+01  -0.1798439E-08  -0.6693289E-09
   0.5300000E+01  -0.1406472E-08   0.3644697E-10
   0.5400000E+01  -0.8452648E-09   0.1171464E-08
   0.5500000E+01  -0.8654313E-10   0.2881069E-08
   0.5600000E+01   0.8991213E-09   0.5265099E-08
   0.5700000E+01   0.2129533E-08   0.8328937E-08
   0.5800000E+01   0.3597908E-08   0.1195513E-07
   0.5900000E+01   0.5264917E-08   0.1591315E-07
   0.6000000E+01   0.7059746E-08   0.1991458E-07
   0.6100000E+01   0.8891442E-08   0.2370512E-07
   0.6200000E+01   0.1066832E-07   0.2716893E-07
   0.6300000E+01   0.1232041E-07   0.3041061E-07
   0.6400000E+01   0.1381879E-07   0.3378089E-07
   0.6500000E+01   0.1518643E-07   0.3782584E-07
   0.6600000E+01   0.1649803E-07   0.4316243E-07
   0.6700000E+01   0.1786923E-07   0.5030951E-07
   0.6800000E+01   0.1943876E-07   0.5952291E-07
   0.6900000E+01   0.2134824E-07   0.7068893E-07
   0.7000000E+01   0.2372424E-07   0.8331806E-07
   0.7100000E+01   0.2666580E-07   0.9665283E-07
   0.7200000E+01   0.3023861E-07   0.1098680E-06
   0.7300000E+01   0.3447515E-07   0.1223095E-06
   0.7400000E+01   0.3937890E-07   0.1337001E-06
   0.7500000E+01   0.4492970E-07   0.1442463E-06
   0.7600000E+01   0.5108716E-07   0.1546023E-06
   0.7700000E+01   0.5778881E-07   0.1656907E-06
   0.7800000E+01   0.6494084E-07   0.1784212E-06
   0.7900000E+01   0.7240102E-07   0.1933804E-06
   0.8000000E+01   0.7995716E-07   0.2105803E-06
   0.8100000E+01   0.8730856E-07   0.2293410E-06
   0.8200000E+01   0.9406153E-07   0.2483481E-06
   0.8300000E+01   0.9975048E-07   0.2658821E-06
   0.8400000E+01   0.1038917E-06   0.2801703E-06
   0.8500000E+01   0.1060686E-06   0.2897793E-06
   0.8600000E+01   0.1060344E-06   0.2939553E-06
   0.8700000E+01   0.1038101E-06   0.2928290E-06
   0.8800000E+01   0.9974677E-07   0.2874392E-06
   0.8900000E+01   0.9453071E-07   0.2795658E-06
   0.9000000E+01   0.8911699E-07   0.2714122E-06
   0.9100000E+01   0.8460003E-07   0.2652076E-06
   0.9200000E+01   0.8204576E-07   0.2628149E-06
   0.9300000E+01   0.8232253E-07   0.2654255E-06
   0.9400000E+01   0.8596995E-07   0.2733965E-06
   0.9500000E+01   0.9313421E-07   0.2862493E-06
   0.9600000E+01   0.1035801E-06   0.3028140E-06
   0.9700000E+01   0.1167681E-06   0.3214698E-06
   0.9800000E+01   0.1319696E-06   0.3404211E-06
   0.9900000E+01   0.1483851E-06   0.3579483E-06
   0.1000000E+02   0.1652325E-06   0.3725906E-06
   0.1010000E+02   0.1817934E-06   0.3832422E-06
   0.1020000E+02   0.1974134E-06   0.3891710E-06
   0.1030000E+02   0.2114793E-06   0.3899811E-06
   0.1040000E+02   0.2233926E-06   0.3855519E-06
   0.1050000E+02   0.2325617E-06   0.3759803E-06
   0.1060000E+02   0.2384211E-06   0.3615388E-06
   0.1070000E+02   0.2404736E-06   0.3426526E-06
   0.1080000E+02   0.2383358E-06   0.3198811E-06
   0.1090000E+02   0.2317689E-06   0.2938926E-06
   0.1100000E+02   0.2206821E-06   0.2654201E-06
   0.1110000E+02   0.2051166E-06   0.2352029E-06
   0.1120000E+02   0.1852241E-06   0.2039249E-06
   0.1130000E+02   0.1612577E-06   0.1721606E-06
   0.1140000E+02   0.1335820E-06   0.1403359E-06
   0.1150000E+02   0.1027027E-06   0.1087091E-06
   0.1160000E+02   0.6930127E-07   0.7737266E-07
   0.1170000E+02   0.3424959E-07   0.4626779E-07
   0.1180000E+02  -0.1423618E-08   0.1519796E-07
   0.1190000E+02  -0.3662620E-07  -0.1616359E-07
   0.1200000E+02  -0.7034017E-07  -0.4826365E-07
   0.1210000E+02  -0.1017707E-06  -0.8164092E-07
   0.1220000E+02  -0.1304686E-06  -0.1168628E-06
   0.1230000E+02  -0.1563963E-06  -0.1544208E-06
   0.1240000E+02  -0.1799283E-06  -0.1945972E-06
   0.1250000E+02  -0.2017861E-06  -0.2373255E-06
   0.1260000E+02  -0.2229141E-06  -0.2820710E-06
   0.1270000E+02  -0.2443046E-06  -0.3277577E-06
   0.1280000E+02  -0.2667930E-06  -0.3727722E-06
   0.1290000E+02  -0.2908639E-06  -0.4150717E-06
   0.1300000E+02  -0.3165026E-06  -0.4524014E-06
   0.1310000E+02  -0.3431170E-06  -0.4825865E-06
   0.1320000E+02  -0.3695398E-06  -0.5038403E-06
   0.1330000E+02  -0.3941159E-06  -0.5150301E-06
   0.1340000E+02  -0.4148750E-06  -0.5158657E-06
   0.1350000E+02  -0.4297761E-06  -0.5069883E-06
   0.1360000E+02  -0.4369884E-06  -0.4899448E-06
   0.1370000E+02  -0.4351537E-06  -0.4670232E-06
   0.1380000E+02  -0.4235728E-06  -0.4409531E-06
   0.1390000E+02  -0.4022965E-06  -0.4145286E-06
   0.1400000E+02  -0.3721319E-06  -0.3902398E-06
   0.1410000E+02  -0.3345708E-06  -0.3699768E-06
   0.1420000E+02  -0.2916380E-06  -0.3548194E-06
   0.1430000E+02  -0.2456614E-06  -0.3449194E-06
   0.1440000E+02  -0.1990146E-06  -0.3395061E-06
   0.1450000E+02  -0.1538946E-06  -0.3370361E-06
   0.1460000E+02  -0.1121648E-06  -0.3354593E-06
   0.1470000E+02  -0.7524678E-07  -0.3325300E-06
   0.1480000E+02  -0.4404730E-07  -0.3261076E-06
   0.1490000E+02  -0.1893924E-07  -0.3144288E-06
   0.1500000E+02   0.1878337E-09  -0.2963359E-06
   0.1510000E+02   0.1383386E-07  -0.2714252E-06
   0.1520000E+02   0.2279571E-07  -0.2400749E-06
   0.1530000E+02   0.2809033E-07  -0.2033535E-06
   0.1540000E+02   0.3087703E-07  -0.1628465E-06
   0.1550000E+02   0.3236930E-07  -0.1204416E-06
   0.1560000E+02   0.3374766E-07  -0.7809631E-07
   0.1570000E+02   0.3608344E-07  -0.3761712E-07
   0.1580000E+02   0.4026939E-07  -0.4896810E-09
   0.1590000E+02   0.4695261E-07   0.3221045E-07
   0.1600000E+02   0.5647851E-07   0.5982621E-07
   0.1610000E+02   0.6885637E-07   0.8206467E-07
   0.1620000E+02   0.8375643E-07   0.9890247E-07
   0.1630000E+02   0.1005490E-06   0.1104782E-06
   0.1640000E+02   0.1183893E-06   0.1170056E-06
   0.1650000E+02   0.1363277E-06   0.1187386E-06
   0.1660000E+02   0.1534167E-06   0.1159968E-06
   0.1670000E+02   0.1687984E-06   0.1092437E-06
   0.1680000E+02   0.1817737E-06   0.9919207E-07
   0.1690000E+02   0.1918490E-06   0.8690292E-07
   0.1700000E+02   0.1987439E-06   0.7383489E-07
   0.1710000E+02   0.2023639E-06   0.6180878E-07
   0.1720000E+02   0.2027623E-06   0.5287090E-07
   0.1730000E+02   0.2001118E-06   0.4906168E-07
   0.1740000E+02   0.1946830E-06   0.5211517E-07
   0.1750000E+02   0.1868234E-06   0.6313632E-07
   0.1760000E+02   0.1769442E-06   0.8232238E-07
   0.1770000E+02   0.1655296E-06   0.1087952E-06
   0.1780000E+02   0.1531628E-06   0.1405886E-06
   0.1790000E+02   0.1405527E-06   0.1748042E-06
   0.1800000E+02   0.1285424E-06   0.2079259E-06
   0.1810000E+02   0.1180922E-06   0.2362586E-06
   0.1820000E+02   0.1102304E-06   0.2564293E-06
   0.1830000E+02   0.1059606E-06   0.2658688E-06
   0.1840000E+02   0.1061249E-06   0.2631930E-06
   0.1850000E+02   0.1112337E-06   0.2484216E-06
   0.1860000E+02   0.1212940E-06   0.2230040E-06
   0.1870000E+02   0.1356780E-06   0.1896486E-06
   0.1880000E+02   0.1530648E-06   0.1519814E-06
   0.1890000E+02   0.1714878E-06   0.1140790E-06
   0.1900000E+02   0.1885065E-06   0.7994400E-07
   0.1910000E+02   0.2015088E-06   0.5300300E-07
   0.1920000E+02   0.2081113E-06   0.3569930E-07
   0.1930000E+02   0.2065861E-06   0.2923337E-07
   0.1940000E+02   0.1962165E-06   0.3347799E-07
   0.1950000E+02   0.1775052E-06   0.4707629E-07
   0.1960000E+02   0.1521819E-06   0.6770481E-07
   0.1970000E+02   0.1229991E-06   0.9244919E-07
   0.1980000E+02   0.9333511E-07   0.1182169E-06
   0.1990000E+02   0.6667631E-07   0.1421153E-06
   0.2000000E+02   0.4608001E-07   0.1617487E-06
   0.2010000E+02   0.3372544E-07   0.1754084E-06
   0.2020000E+02   0.3063075E-07   0.1821479E-06
   0.2030000E+02   0.3656965E-07   0.1817484E-06
   0.2040000E+02   0.5018036E-07   0.1746035E-06
   0.2050000E+02   0.6922909E-07   0.1615671E-06
   0.2060000E+02   0.9096959E-07   0.1438042E-06
   0.2070000E+02   0.1125271E-06   0.1226627E-06
   0.2080000E+02   0.1312371E-06   0.9956472E-07
   0.2090000E+02   0.1448971E-06   0.7591503E-07
   0.2100000E+02   0.1519285E-06   0.5303132E-07
   0.2110000E+02   0.1514684E-06   0.3210073E-07
   0.2120000E+02   0.1434068E-06   0.1415014E-07
   0.2130000E+02   0.1283658E-06   0.1195614E-10
   0.2140000E+02   0.1076242E-06  -0.9714679E-08
   0.2150000E+02   0.8300072E-07  -0.1468707E-07
   0.2160000E+02   0.5670883E-07  -0.1481637E-07
   0.2170000E+02   0.3117675E-07  -0.1025762E-07
   0.2180000E+02   0.8817027E-08  -0.1414041E-08
   0.2190000E+02  -0.8243753E-08   0.1105238E-07
   0.2200000E+02  -0.1843246E-07   0.2623337E-07
   0.2210000E+02  -0.2094248E-07   0.4302143E-07
   0.2220000E+02  -0.1585490E-07   0.6016904E-07
   0.2230000E+02  -0.4144633E-08   0.7633904E-07
   0.2240000E+02   0.1243305E-07   0.9015890E-07
   0.2250000E+02   0.3156497E-07   0.1003123E-06
   0.2260000E+02   0.5068982E-07   0.1056815E-06
   0.2270000E+02   0.6735377E-07   0.1055159E-06
   0.2280000E+02   0.7954663E-07   0.9957317E-07
   0.2290000E+02   0.8595078E-07   0.8818749E-07
   0.2300000E+02   0.8606335E-07   0.7224535E-07
   0.2310000E+02   0.8019640E-07   0.5309393E-07
   0.2320000E+02   0.6938755E-07   0.3241978E-07
   0.2330000E+02   0.5524202E-07   0.1211376E-07
   0.2340000E+02   0.3970975E-07  -0.5886710E-08
   0.2350000E+02   0.2481093E-07  -0.1978443E-07
   0.2360000E+02   0.1235300E-07  -0.2811846E-07
   0.2370000E+02   0.3698741E-08  -0.2993437E-07
   0.2380000E+02  -0.3752899E-09  -0.2490658E-07
   0.2390000E+02   0.2751430E-09  -0.1340757E-07
   0.2400000E+02   0.5200824E-08   0.3493156E-08
   0.2410000E+02   0.1347790E-07   0.2413549E-07
   0.2420000E+02   0.2389829E-07   0.4649125E-07
   0.2430000E+02   0.3519285E-07   0.6844859E-07
   0.2440000E+02   0.4622189E-07   0.8806345E-07
   0.2450000E+02   0.5608763E-07   0.1037178E-06
   0.2460000E+02   0.6417514E-07   0.1141955E-06
   0.2470000E+02   0.7016047E-07   0.1187214E-06
   0.2480000E+02   0.7400503E-07   0.1169825E-06
   0.2490000E+02   0.7592343E-07   0.1091213E-06
   0.2500000E+02   0.7631011E-07   0.9569132E-07
   0.2510000E+02   0.7563498E-07   0.7760416E-07
   0.2520000E+02   0.7433852E-07   0.5610481E-07
   0.2530000E+02   0.7275317E-07   0.3277474E-07
   0.2540000E+02   0.7106161E-07   0.9506945E-08
   0.2550000E+02   0.6929319E-07  -0.1160842E-07
   0.2560000E+02   0.6735860E-07  -0.2849755E-07
   0.2570000E+02   0.6512347E-07  -0.3936145E-07
   0.2580000E+02   0.6250852E-07  -0.4290332E-07
   0.2590000E+02   0.5959077E-07  -0.3847713E-07
   0.2600000E+02   0.5666582E-07  -0.2615608E-07
   0.2610000E+02   0.5424416E-07  -0.6739647E-08
   0.2620000E+02   0.5297410E-07   0.1829406E-07
   0.2630000E+02   0.5350856E-07   0.4690430E-07
   0.2640000E+02   0.5634810E-07   0.7667943E-07
   0.2650000E+02   0.6169706E-07   0.1050836E-06
   0.2660000E+02   0.6936833E-07   0.1297171E-06
   0.2670000E+02   0.7876384E-07   0.1485525E-06
   0.2680000E+02   0.8893986E-07   0.1601260E-06
   0.2690000E+02   0.9874497E-07   0.1636694E-06
   0.2700000E+02   0.1070021E-06   0.1591724E-06
   0.2710000E+02   0.1126982E-06   0.1473662E-06
   0.2720000E+02   0.1151471E-06   0.1296292E-06
   0.2730000E+02   0.1140959E-06   0.1078300E-06
   0.2740000E+02   0.1097583E-06   0.8412766E-07
   0.2750000E+02   0.1027704E-06   0.6075353E-07
   0.2760000E+02   0.9408037E-07   0.3979833E-07
   0.2770000E+02   0.8479421E-07   0.2302442E-07
   0.2780000E+02   0.7600645E-07   0.1171876E-07
   0.2790000E+02   0.6864331E-07   0.6594332E-08
   0.2800000E+02   0.6334269E-07   0.7741856E-08
   0.2810000E+02   0.6038698E-07   0.1463171E-07
   0.2820000E+02   0.5969621E-07   0.2616831E-07
   0.2830000E+02   0.6087850E-07   0.4079934E-07
   0.2840000E+02   0.6332456E-07   0.5667521E-07
   0.2850000E+02   0.6632523E-07   0.7184143E-07
   0.2860000E+02   0.6918892E-07   0.8443589E-07
   0.2870000E+02   0.7133915E-07   0.9286346E-07
   0.2880000E+02   0.7238035E-07   0.9592972E-07
   0.2890000E+02   0.7212617E-07   0.9292884E-07
   0.2900000E+02   0.7059008E-07   0.8368741E-07
   0.2910000E+02   0.6794329E-07   0.6856665E-07
   0.2920000E+02   0.6445133E-07   0.4842307E-07
   0.2930000E+02   0.6040389E-07   0.2452719E-07
   0.2940000E+02   0.5605197E-07  -0.1555991E-08
   0.2950000E+02   0.5156160E-07  -0.2811572E-07
   0.2960000E+02   0.4698797E-07  -0.5345860E-07
   0.2970000E+02   0.4227127E-07  -0.7606790E-07
   0.2980000E+02   0.3725544E-07  -0.9474012E-07
   0.2990000E+02   0.3172984E-07  -0.1086815E-06
   0.3000000E+02   0.2548961E-07  -0.1175527E-06
   0.3010000E+02   0.1840414E-07  -0.1214569E-06
   0.3020000E+02   0.1047867E-07  -0.1208780E-06
   0.3030000E+02   0.1892884E-08  -0.1165848E-06
   0.3040000E+02  -0.6996706E-08  -0.1095209E-06
   0.3050000E+02  -0.1569819E-07  -0.1007028E-06
   0.3060000E+02  -0.2366747E-07  -0.9114192E-07
   0.3070000E+02  -0.3042000E-07  -0.8179494E-07
   0.3080000E+02  -0.3564721E-07  -0.7353938E-07
   0.3090000E+02  -0.3930965E-07  -0.6716441E-07
   0.3100000E+02  -0.4168409E-07  -0.6336310E-07
   0.3110000E+02  -0.4335323E-07  -0.6271492E-07
   0.3120000E+02  -0.4514045E-07  -0.6565318E-07
   0.3130000E+02  -0.4800172E-07  -0.7242054E-07
   0.3140000E+02  -0.5289361E-07  -0.8302256E-07
   0.3150000E+02  -0.6063795E-07  -0.9719220E-07
   0.3160000E+02  -0.7180254E-07  -0.1143775E-06
   0.3170000E+02  -0.8661417E-07  -0.1337607E-06
   0.3180000E+02  -0.1049159E-06  -0.1543115E-06
   0.3190000E+02  -0.1261749E-06  -0.1748715E-06
   0.3200000E+02  -0.1495422E-06  -0.1942598E-06
   0.3210000E+02  -0.1739578E-06  -0.2113912E-06
   0.3220000E+02  -0.1982864E-06  -0.2253938E-06
   0.3230000E+02  -0.2214630E-06  -0.2357164E-06
   0.3240000E+02  -0.2426244E-06  -0.2422129E-06
   0.3250000E+02  -0.2612059E-06  -0.2451889E-06
   0.3260000E+02  -0.2769899E-06  -0.2453978E-06
   0.3270000E+02  -0.2901015E-06  -0.2439776E-06
   0.3280000E+02  -0.3009536E-06  -0.2423343E-06
   0.3290000E+02  -0.3101535E-06  -0.2419806E-06
   0.3300000E+02  -0.3183891E-06  -0.2443531E-06
   0.3310000E+02  -0.3263164E-06  -0.2506296E-06
   0.3320000E+02  -0.3344706E-06  -0.2615739E-06
   0.3330000E+02  -0.3432107E-06  -0.2774321E-06
   0.3340000E+02  -0.3527039E-06  -0.2978971E-06
   0.3350000E+02  -0.3629425E-06  -0.3221472E-06
   0.3360000E+02  -0.3737834E-06  -0.3489549E-06
   0.3370000E+02  -0.3849982E-06  -0.3768465E-06
   0.3380000E+02  -0.3963239E-06  -0.4042898E-06
   0.3390000E+02  -0.4075084E-06  -0.4298821E-06
   0.3400000E+02  -0.4183453E-06  -0.4525108E-06
   0.3410000E+02  -0.4286973E-06  -0.4714658E-06
   0.3420000E+02  -0.4385063E-06  -0.4864867E-06
   0.3430000E+02  -0.4477912E-06  -0.4977446E-06
   0.3440000E+02  -0.4566325E-06  -0.5057632E-06
   0.3450000E+02  -0.4651473E-06  -0.5113026E-06
   0.3460000E+02  -0.4734597E-06  -0.5152269E-06
   0.3470000E+02  -0.4816727E-06  -0.5183809E-06
   0.3480000E+02  -0.4898523E-06  -0.5214897E-06
   0.3490000E+02  -0.4980307E-06  -0.5250888E-06
   0.3500000E+02  -0.5062297E-06  -0.5294871E-06
   0.3510000E+02  -0.5144987E-06  -0.5347631E-06
   0.3520000E+02  -0.5229526E-06  -0.5407940E-06
   0.3530000E+02  -0.5317954E-06  -0.5473140E-06
   0.3540000E+02  -0.5413133E-06  -0.5539908E-06
   0.3550000E+02  -0.5518365E-06  -0.5605064E-06
   0.3560000E+02  -0.5636761E-06  -0.5666244E-06
   0.3570000E+02  -0.5770516E-06  -0.5722280E-06
   0.3580000E+02  -0.5920258E-06  -0.5773227E-06
   0.3590000E+02  -0.6084617E-06  -0.5820012E-06
   0.3600000E+02  -0.6260063E-06  -0.5863811E-06
   0.3610000E+02  -0.6441038E-06  -0.5905283E-06
   0.3620000E+02  -0.6620346E-06  -0.5943842E-06
   0.3630000E+02  -0.6789729E-06  -0.5977126E-06
   0.3640000E+02  -0.6940531E-06  -0.6000806E-06
   0.3650000E+02  -0.7064351E-06  -0.6008791E-06
   0.3660000E+02  -0.7153632E-06  -0.5993834E-06
   0.3670000E+02  -0.7202164E-06  -0.5948433E-06
   0.3680000E+02  -0.7205470E-06  -0.5865872E-06
   0.3690000E+02  -0.7161089E-06  -0.5741210E-06
   0.3700000E+02  -0.7068676E-06  -0.5572047E-06
   0.3710000E+02  -0.6929932E-06  -0.5358964E-06
   0.3720000E+02  -0.6748338E-06  -0.5105581E-06
   0.3730000E+02  -0.6528736E-06  -0.4818226E-06
   0.3740000E+02  -0.6276818E-06  -0.4505251E-06
   0.3750000E+02  -0.5998567E-06  -0.4176036E-06
   0.3760000E+02  -0.5699721E-06  -0.3839821E-06
   0.3770000E+02  -0.5385331E-06  -0.3504500E-06
   0.3780000E+02  -0.5059475E-06  -0.3175582E-06
   0.3790000E+02  -0.4725171E-06  -0.2855471E-06
   0.3800000E+02  -0.4384463E-06  -0.2543213E-06
   0.3810000E+02  -0.4038610E-06  -0.2234723E-06
   0.3820000E+02  -0.3688288E-06  -0.1923489E-06
   0.3830000E+02  -0.3333721E-06  -0.1601650E-06
   0.3840000E+02  -0.2974751E-06  -0.1261290E-06
   0.3850000E+02  -0.2610870E-06  -0.8957729E-07
   0.3860000E+02  -0.2241287E-06  -0.5008856E-07
   0.3870000E+02  -0.1865031E-06  -0.7558911E-08
   0.3880000E+02  -0.1481111E-06   0.3777403E-07
   0.3890000E+02  -0.1088710E-06   0.8535982E-07
   0.3900000E+02  -0.6874071E-07   0.1344065E-06
   0.3910000E+02  -0.2774439E-07   0.1839780E-06
   0.3920000E+02   0.1399883E-07   0.2330980E-06
   0.3930000E+02   0.5624856E-07   0.2808466E-06
   0.3940000E+02   0.9862696E-07   0.3264337E-06
   0.3950000E+02   0.1406197E-06   0.3692456E-06
   0.3960000E+02   0.1815976E-06   0.4088623E-06
   0.3970000E+02   0.2208580E-06   0.4450501E-06
   0.3980000E+02   0.2576822E-06   0.4777381E-06
   0.3990000E+02   0.2914044E-06   0.5069873E-06
   0.4000000E+02   0.3214842E-06   0.5329557E-06
   0.4010000E+02   0.3475703E-06   0.5558622E-06
   0.4020000E+02   0.3695461E-06   0.5759491E-06
   0.4030000E+02   0.3875463E-06   0.5934433E-06
   0.4040000E+02   0.4019425E-06   0.6085220E-06
   0.4050000E+02   0.4132973E-06   0.6212882E-06
   0.4060000E+02   0.4222937E-06   0.6317613E-06
   0.4070000E+02   0.4296461E-06   0.6398861E-06
   0.4080000E+02   0.4360067E-06   0.6455589E-06
   0.4090000E+02   0.4418801E-06   0.6486660E-06
   0.4100000E+02   0.4475623E-06   0.6491234E-06
   0.4110000E+02   0.4531118E-06   0.6469068E-06
   0.4120000E+02   0.4583557E-06   0.6420631E-06
   0.4130000E+02   0.4629259E-06   0.6347004E-06
   0.4140000E+02   0.4663176E-06   0.6249641E-06
   0.4150000E+02   0.4679571E-06   0.6130082E-06
   0.4160000E+02   0.4672715E-06   0.5989722E-06
   0.4170000E+02   0.4637495E-06   0.5829689E-06
   0.4180000E+02   0.4569905E-06   0.5650819E-06
   0.4190000E+02   0.4467421E-06   0.5453707E-06
   0.4200000E+02   0.4329249E-06   0.5238788E-06
   0.4210000E+02   0.4156464E-06   0.5006454E-06
   0.4220000E+02   0.3951994E-06   0.4757188E-06
   0.4230000E+02   0.3720412E-06   0.4491750E-06
   0.4240000E+02   0.3467543E-06   0.4211393E-06
   0.4250000E+02   0.3199897E-06   0.3918121E-06
   0.4260000E+02   0.2924038E-06   0.3614909E-06
   0.4270000E+02   0.2645965E-06   0.3305845E-06
   0.4280000E+02   0.2370636E-06   0.2996118E-06
   0.4290000E+02   0.2101688E-06   0.2691812E-06
   0.4300000E+02   0.1841397E-06   0.2399492E-06
   0.4310000E+02   0.1590869E-06   0.2125628E-06
   0.4320000E+02   0.1350417E-06   0.1875918E-06
   0.4330000E+02   0.1120013E-06   0.1654620E-06
   0.4340000E+02   0.8997270E-07   0.1464023E-06
   0.4350000E+02   0.6900299E-07   0.1304176E-06
   0.4360000E+02   0.4919215E-07   0.1172948E-06
   0.4370000E+02   0.3068629E-07   0.1066411E-06
   0.4380000E+02   0.1365484E-07   0.9794736E-07
   0.4390000E+02  -0.1742004E-08   0.9065961E-07
   0.4400000E+02  -0.1538769E-07   0.8424817E-07
   0.4410000E+02  -0.2723757E-07   0.7826201E-07
   0.4420000E+02  -0.3733549E-07   0.7236432E-07
   0.4430000E+02  -0.4581757E-07   0.6634889E-07
   0.4440000E+02  -0.5290478E-07   0.6014028E-07
   0.4450000E+02  -0.5888650E-07   0.5378237E-07
   0.4460000E+02  -0.6409559E-07   0.4741927E-07
   0.4470000E+02  -0.6887485E-07   0.4127048E-07
   0.4480000E+02  -0.7353527E-07   0.3559967E-07
   0.4490000E+02  -0.7831062E-07   0.3067667E-07
   0.4500000E+02  -0.8331560E-07   0.2673430E-07
   0.4510000E+02  -0.8851708E-07   0.2392529E-07
   0.4520000E+02  -0.9372674E-07   0.2228736E-07
   0.4530000E+02  -0.9861944E-07   0.2172434E-07
   0.4540000E+02  -0.1027758E-06   0.2200853E-07
   0.4550000E+02  -0.1057427E-06   0.2280503E-07
   0.4560000E+02  -0.1071017E-06   0.2371377E-07
   0.4570000E+02  -0.1065368E-06   0.2432177E-07
   0.4580000E+02  -0.1038923E-06   0.2425690E-07
   0.4590000E+02  -0.9921354E-07   0.2323531E-07
   0.4600000E+02  -0.9276339E-07   0.2109588E-07
   0.4610000E+02  -0.8501204E-07   0.1781794E-07
   0.4620000E+02  -0.7659871E-07   0.1352026E-07
   0.4630000E+02  -0.6827053E-07   0.8441259E-08
   0.4640000E+02  -0.6080575E-07   0.2902370E-08
   0.4650000E+02  -0.5492998E-07  -0.2741471E-08
   0.4660000E+02  -0.5123518E-07  -0.8157491E-08
   0.4670000E+02  -0.5011144E-07  -0.1308731E-07
   0.4680000E+02  -0.5170153E-07  -0.1738555E-07
   0.4690000E+02  -0.5588602E-07  -0.2103712E-07
   0.4700000E+02  -0.6230337E-07  -0.2415029E-07
   0.4710000E+02  -0.7040287E-07  -0.2692787E-07
   0.4720000E+02  -0.7952254E-07  -0.2962194E-07
   0.4730000E+02  -0.8897717E-07  -0.3247964E-07
   0.4740000E+02  -0.9813995E-07  -0.3568902E-07
   0.4750000E+02  -0.1065038E-06  -0.3933487E-07
   0.4760000E+02  -0.1137176E-06  -0.4337349E-07
   0.4770000E+02  -0.1195998E-06  -0.4763068E-07
   0.4780000E+02  -0.1241363E-06  -0.5182118E-07
   0.4790000E+02  -0.1274643E-06  -0.5558299E-07
   0.4800000E+02  -0.1298394E-06  -0.5851998E-07
   0.4810000E+02  -0.1315880E-06  -0.6024919E-07
   0.4820000E+02  -0.1330528E-06  -0.6045088E-07
   0.4830000E+02  -0.1345475E-06  -0.5891786E-07
   0.4840000E+02  -0.1363265E-06  -0.5559649E-07
   0.4850000E+02  -0.1385702E-06  -0.5061012E-07
   0.4860000E+02  -0.1413753E-06  -0.4425880E-07
   0.4870000E+02  -0.1447464E-06  -0.3699529E-07
   0.4880000E+02  -0.1485973E-06  -0.2938159E-07
   0.4890000E+02  -0.1527664E-06  -0.2203219E-07
   0.4900000E+02  -0.1570497E-06  -0.1554892E-07
   0.4910000E+02  -0.1612356E-06  -0.1045344E-07
   0.4920000E+02  -0.1651327E-06  -0.7125926E-08
   0.4930000E+02  -0.1685841E-06  -0.5760407E-08
   0.4940000E+02  -0.1714744E-06  -0.6345044E-08
   0.4950000E+02  -0.1737366E-06  -0.8669217E-08
   0.4960000E+02  -0.1753570E-06  -0.1235310E-07
   0.4970000E+02  -0.1763725E-06  -0.1689271E-07
   0.4980000E+02  -0.1768550E-06  -0.2171488E-07
   0.4990000E+02  -0.1768886E-06  -0.2623830E-07
   0.5000000E+02  -0.1765470E-06  -0.2993658E-07
   0.5010000E+02  -0.1758808E-06  -0.3239666E-07
   0.5020000E+02  -0.1749152E-06  -0.3336443E-07
   0.5030000E+02  -0.1736521E-06  -0.3277093E-07
   0.5040000E+02  -0.1720735E-06  -0.3073671E-07
   0.5050000E+02  -0.1701458E-06  -0.2755492E-07
   0.5060000E+02  -0.1678279E-06  -0.2365612E-07
   0.5070000E+02  -0.1650850E-06  -0.1955776E-07
   0.5080000E+02  -0.1619026E-06  -0.1580364E-07
   0.5090000E+02  -0.1582975E-06  -0.1290057E-07
   0.5100000E+02  -0.1543229E-06  -0.1126064E-07
   0.5110000E+02  -0.1500708E-06  -0.1115539E-07
   0.5120000E+02  -0.1456743E-06  -0.1268589E-07
   0.5130000E+02  -0.1413111E-06  -0.1577121E-07
   0.5140000E+02  -0.1372026E-06  -0.2015753E-07
   0.5150000E+02  -0.1336084E-06  -0.2544826E-07
   0.5160000E+02  -0.1308114E-06  -0.3115035E-07
   0.5170000E+02  -0.1290969E-06  -0.3672854E-07
   0.5180000E+02  -0.1287263E-06  -0.4165823E-07
   0.5190000E+02  -0.1299085E-06  -0.4547147E-07
   0.5200000E+02  -0.1327712E-06  -0.4779388E-07
   0.5210000E+02  -0.1373353E-06  -0.4837027E-07
   0.5220000E+02  -0.1434940E-06  -0.4707630E-07
   0.5230000E+02  -0.1510020E-06  -0.4391407E-07
   0.5240000E+02  -0.1594730E-06  -0.3899373E-07
   0.5250000E+02  -0.1683903E-06  -0.3250745E-07
   0.5260000E+02  -0.1771291E-06  -0.2470321E-07
   0.5270000E+02  -0.1849916E-06  -0.1586421E-07
   0.5280000E+02  -0.1912538E-06  -0.6295925E-08
   0.5290000E+02  -0.1952209E-06   0.3679836E-08
   0.5300000E+02  -0.1962864E-06   0.1372580E-07
   0.5310000E+02  -0.1939923E-06   0.2348835E-07
   0.5320000E+02  -0.1880831E-06   0.3259859E-07
   0.5330000E+02  -0.1785493E-06   0.4067960E-07
   0.5340000E+02  -0.1656536E-06   0.4736254E-07
   0.5350000E+02  -0.1499343E-06   0.5231264E-07
   0.5360000E+02  -0.1321828E-06   0.5526297E-07
   0.5370000E+02  -0.1133947E-06   0.5605177E-07
   0.5380000E+02  -0.9469657E-07   0.5465724E-07
   0.5390000E+02  -0.7725298E-07   0.5122312E-07
   0.5400000E+02  -0.6216159E-07   0.4606850E-07
   0.5410000E+02  -0.5034631E-07   0.3967695E-07
   0.5420000E+02  -0.4246097E-07   0.3266301E-07
   0.5430000E+02  -0.3881510E-07   0.2571775E-07
   0.5440000E+02  -0.3933092E-07   0.1953884E-07
   0.5450000E+02  -0.4353697E-07   0.1475382E-07
   0.5460000E+02  -0.5060008E-07   0.1184609E-07
   0.5470000E+02  -0.5939404E-07   0.1109376E-07
   0.5480000E+02  -0.6860037E-07   0.1252905E-07
   0.5490000E+02  -0.7683276E-07   0.1592431E-07
   0.5500000E+02  -0.8277304E-07   0.2080757E-07
   0.5510000E+02  -0.8530413E-07   0.2650765E-07
   0.5520000E+02  -0.8362499E-07   0.3222540E-07
   0.5530000E+02  -0.7733539E-07   0.3712406E-07
   0.5540000E+02  -0.6648246E-07   0.4042861E-07
   0.5550000E+02  -0.5156462E-07   0.4152227E-07
   0.5560000E+02  -0.3349219E-07   0.4002845E-07
   0.5570000E+02  -0.1350728E-07   0.3586715E-07
   0.5580000E+02   0.6931071E-08   0.2927763E-07
   0.5590000E+02   0.2628675E-07   0.2080195E-07
   0.5600000E+02   0.4309819E-07   0.1122954E-07
   0.5610000E+02   0.5612669E-07   0.1508704E-08
   0.5620000E+02   0.6448602E-07  -0.7363766E-08
   0.5630000E+02   0.6773971E-07  -0.1446014E-07
   0.5640000E+02   0.6595508E-07  -0.1903148E-07
   0.5650000E+02   0.5970622E-07  -0.2059581E-07
   0.5660000E+02   0.5002239E-07  -0.1899350E-07
   0.5670000E+02   0.3828456E-07  -0.1440309E-07
   0.5680000E+02   0.2608156E-07  -0.7316024E-08
   0.5690000E+02   0.1504469E-07   0.1524659E-08
   0.5700000E+02   0.6681656E-08   0.1121211E-07
   0.5710000E+02   0.2228439E-08   0.2077854E-07
   0.5720000E+02   0.2532341E-08   0.2930196E-07
   0.5730000E+02   0.7977027E-08   0.3600545E-07
   0.5740000E+02   0.1845822E-07   0.4033672E-07
   0.5750000E+02   0.3341334E-07   0.4201740E-07
   0.5760000E+02   0.5189890E-07   0.4105658E-07
   0.5770000E+02   0.7270073E-07   0.3773096E-07
   0.5780000E+02   0.9446087E-07   0.3253786E-07
   0.5790000E+02   0.1158082E-06   0.2612746E-07
   0.5800000E+02   0.1354832E-06   0.1922016E-07
   0.5810000E+02   0.1524469E-06   0.1251784E-07
   0.5820000E+02   0.1659600E-06   0.6622986E-08
   0.5830000E+02   0.1756262E-06   0.1979153E-08
   0.5840000E+02   0.1813979E-06  -0.1161333E-08
   0.5850000E+02   0.1835520E-06  -0.2745098E-08
   0.5860000E+02   0.1826412E-06  -0.2905638E-08
   0.5870000E+02   0.1794265E-06  -0.1932116E-08
   0.5880000E+02   0.1747932E-06  -0.2183084E-09
   0.5890000E+02   0.1696603E-06   0.1802390E-08
   0.5900000E+02   0.1648937E-06   0.3721420E-08
   0.5910000E+02   0.1612332E-06   0.5204423E-08
   0.5920000E+02   0.1592386E-06   0.6020858E-08
   0.5930000E+02   0.1592545E-06   0.6058553E-08
   0.5940000E+02   0.1613975E-06   0.5327001E-08
   0.5950000E+02   0.1655639E-06   0.3945559E-08
   0.5960000E+02   0.1714575E-06   0.2111099E-08
   0.5970000E+02   0.1786315E-06   0.4954279E-10
   0.5980000E+02   0.1865390E-06  -0.2032454E-08
   0.5990000E+02   0.1945867E-06  -0.3979551E-08
   0.6000000E+02   0.2021886E-06  -0.5700506E-08
   0.6010000E+02   0.2088117E-06  -0.7170545E-08
   0.6020000E+02   0.2140096E-06  -0.8430396E-08
   0.6030000E+02   0.2174431E-06  -0.9577502E-08
   0.6040000E+02   0.2188905E-06  -0.1073979E-07
   0.6050000E+02   0.2182514E-06  -0.1203224E-07
   0.6060000E+02   0.2155459E-06  -0.1351212E-07
   0.6070000E+02   0.2109071E-06  -0.1515252E-07
   0.6080000E+02   0.2045661E-06  -0.1684153E-07
   0.6090000E+02   0.1968299E-06  -0.1839804E-07
   0.6100000E+02   0.1880570E-06  -0.1959146E-07
   0.6110000E+02   0.1786347E-06  -0.2016264E-07
   0.6120000E+02   0.1689550E-06  -0.1985302E-07
   0.6130000E+02   0.1593904E-06  -0.1844731E-07
   0.6140000E+02   0.1502685E-06  -0.1582248E-07
   0.6150000E+02   0.1418501E-06  -0.1198675E-07
   0.6160000E+02   0.1343145E-06  -0.7095500E-08
   0.6170000E+02   0.1277530E-06  -0.1442411E-08
   0.6180000E+02   0.1221698E-06   0.4566473E-08
   0.6190000E+02   0.1174883E-06   0.1044833E-07
   0.6200000E+02   0.1135628E-06   0.1568631E-07
   0.6210000E+02   0.1101944E-06   0.1977991E-07
   0.6220000E+02   0.1071496E-06   0.2230043E-07
   0.6230000E+02   0.1041807E-06   0.2294385E-07
   0.6240000E+02   0.1010442E-06   0.2157084E-07
   0.6250000E+02   0.9751609E-07   0.1822634E-07
   0.6260000E+02   0.9340296E-07   0.1313643E-07
   0.6270000E+02   0.8854968E-07   0.6684717E-08
   0.6280000E+02   0.8284500E-07  -0.6273177E-09
   0.6290000E+02   0.7622559E-07  -0.8231326E-08
   0.6300000E+02   0.6867840E-07  -0.1554964E-07
   0.6310000E+02   0.6024060E-07  -0.2205387E-07
   0.6320000E+02   0.5099599E-07  -0.2731791E-07
   0.6330000E+02   0.4106814E-07  -0.3105852E-07
   0.6340000E+02   0.3061135E-07  -0.3315789E-07
   0.6350000E+02   0.1980096E-07  -0.3366598E-07
   0.6360000E+02   0.8824416E-08  -0.3278335E-07
   0.6370000E+02  -0.2126558E-08  -0.3082831E-07
   0.6380000E+02  -0.1286246E-07  -0.2819273E-07
   0.6390000E+02  -0.2320104E-07  -0.2529184E-07
   0.6400000E+02  -0.3297050E-07  -0.2251364E-07
   0.6410000E+02  -0.4201106E-07  -0.2017400E-07
   0.6420000E+02  -0.5017533E-07  -0.1848390E-07
   0.6430000E+02  -0.5732884E-07  -0.1753308E-07
   0.6440000E+02  -0.6335225E-07  -0.1729179E-07
   0.6450000E+02  -0.6814587E-07  -0.1762839E-07
   0.6460000E+02  -0.7163667E-07  -0.1833871E-07
   0.6470000E+02  -0.7378679E-07  -0.1918143E-07
   0.6480000E+02  -0.7460176E-07  -0.1991452E-07
   0.6490000E+02  -0.7413681E-07  -0.2032761E-07
   0.6500000E+02  -0.7249959E-07  -0.2026673E-07
   0.6510000E+02  -0.6984826E-07  -0.1964839E-07
   0.6520000E+02  -0.6638433E-07  -0.1846227E-07
   0.6530000E+02  -0.6234019E-07  -0.1676372E-07
   0.6540000E+02  -0.5796211E-07  -0.1465885E-07
   0.6550000E+02  -0.5349016E-07  -0.1228587E-07
   0.6560000E+02  -0.4913703E-07  -0.9796315E-08
   0.6570000E+02  -0.4506819E-07  -0.7338885E-08
   0.6580000E+02  -0.4138558E-07  -0.5047946E-08
   0.6590000E+02  -0.3811670E-07  -0.3037447E-08
   0.6600000E+02  -0.3521055E-07  -0.1400003E-08
   0.6610000E+02  -0.3254166E-07  -0.2099211E-09
   0.6620000E+02  -0.2992285E-07   0.4716895E-09
   0.6630000E+02  -0.2712696E-07   0.5918662E-09
   0.6640000E+02  -0.2391646E-07   0.1027312E-09
   0.6650000E+02  -0.2007885E-07  -0.1038212E-08
   0.6660000E+02  -0.1546366E-07  -0.2863927E-08
   0.6670000E+02  -0.1001622E-07  -0.5390265E-08
   0.6680000E+02  -0.3802381E-08  -0.8606215E-08
   0.6690000E+02   0.2980461E-08  -0.1246369E-07
   0.6700000E+02   0.1000940E-07  -0.1686879E-07
   0.6710000E+02   0.1685993E-07  -0.2167645E-07
   0.6720000E+02   0.2304601E-07  -0.2668996E-07
   0.6730000E+02   0.2807216E-07  -0.3166685E-07
   0.6740000E+02   0.3149149E-07  -0.3633143E-07
   0.6750000E+02   0.3296198E-07  -0.4039389E-07
   0.6760000E+02   0.3229331E-07  -0.4357466E-07
   0.6770000E+02   0.2947721E-07  -0.4563185E-07
   0.6780000E+02   0.2469674E-07  -0.4638873E-07
   0.6790000E+02   0.1831245E-07  -0.4575762E-07
   0.6800000E+02   0.1082716E-07  -0.4375620E-07
   0.6810000E+02   0.2834064E-08  -0.4051284E-07
   0.6820000E+02  -0.5045014E-08  -0.3625883E-07
   0.6830000E+02  -0.1222261E-07  -0.3130704E-07
   0.6840000E+02  -0.1820175E-07  -0.2601932E-07
   0.6850000E+02  -0.2261834E-07  -0.2076631E-07
   0.6860000E+02  -0.2526521E-07  -0.1588519E-07
   0.6870000E+02  -0.2609660E-07  -0.1164125E-07
   0.6880000E+02  -0.2521442E-07  -0.8198924E-08
   0.6890000E+02  -0.2284015E-07  -0.5606560E-08
   0.6900000E+02  -0.1927777E-07  -0.3796949E-08
   0.6910000E+02  -0.1487323E-07  -0.2603252E-08
   0.6920000E+02  -0.9976009E-08  -0.1787469E-08
   0.6930000E+02  -0.4906684E-08  -0.1077122E-08
   0.6940000E+02   0.6662547E-10  -0.2051995E-09
   0.6950000E+02   0.4742277E-08   0.1051466E-08
   0.6960000E+02   0.8990148E-08   0.2839783E-08
   0.6970000E+02   0.1274936E-07   0.5207765E-08
   0.6980000E+02   0.1602066E-07   0.8094660E-08
   0.6990000E+02   0.1885541E-07   0.1133558E-07
   0.7000000E+02   0.2134278E-07   0.1468048E-07
   0.7010000E+02   0.2359647E-07   0.1782516E-07
   0.7020000E+02   0.2574186E-07   0.2045003E-07
   0.7030000E+02   0.2790451E-07   0.2226098E-07
   0.7040000E+02   0.3019973E-07   0.2302683E-07
   0.7050000E+02   0.3272355E-07   0.2260820E-07
   0.7060000E+02   0.3554474E-07   0.2097446E-07
   0.7070000E+02   0.3869887E-07   0.1820703E-07
   0.7080000E+02   0.4218519E-07   0.1448905E-07
   0.7090000E+02   0.4596785E-07   0.1008345E-07
   0.7100000E+02   0.4998152E-07   0.5302641E-08
   0.7110000E+02   0.5414097E-07   0.4743348E-09
   0.7120000E+02   0.5835265E-07  -0.4091584E-08
   0.7130000E+02   0.6252605E-07  -0.8130566E-08
   0.7140000E+02   0.6658314E-07  -0.1144185E-07
   0.7150000E+02   0.7046427E-07  -0.1389616E-07
   0.7160000E+02   0.7412983E-07  -0.1543292E-07
   0.7170000E+02   0.7755741E-07  -0.1604878E-07
   0.7180000E+02   0.8073496E-07  -0.1578047E-07
   0.7190000E+02   0.8365137E-07  -0.1468508E-07
   0.7200000E+02   0.8628655E-07  -0.1282097E-07
   0.7210000E+02   0.8860328E-07  -0.1023166E-07
   0.7220000E+02   0.9054288E-07  -0.6934506E-08
   0.7230000E+02   0.9202586E-07  -0.2915343E-08
   0.7240000E+02   0.9295748E-07   0.1870304E-08
   0.7250000E+02   0.9323788E-07   0.7489081E-08
   0.7260000E+02   0.9277523E-07   0.1401519E-07
   0.7270000E+02   0.9150068E-07   0.2151065E-07
   0.7280000E+02   0.8938304E-07   0.3000297E-07
   0.7290000E+02   0.8644104E-07   0.3946385E-07
   0.7300000E+02   0.8275090E-07   0.4979258E-07
   0.7310000E+02   0.7844705E-07   0.6080710E-07
   0.7320000E+02   0.7371500E-07   0.7224429E-07
   0.7330000E+02   0.6877639E-07   0.8376964E-07
   0.7340000E+02   0.6386805E-07   0.9499514E-07
   0.7350000E+02   0.5921775E-07   0.1055039E-06
   0.7360000E+02   0.5502012E-07   0.1148787E-06
   0.7370000E+02   0.5141655E-07   0.1227327E-06
   0.7380000E+02   0.4848193E-07   0.1287369E-06
   0.7390000E+02   0.4622078E-07   0.1326435E-06
   0.7400000E+02   0.4457295E-07   0.1343006E-06
   0.7410000E+02   0.4342792E-07   0.1336586E-06
   0.7420000E+02   0.4264469E-07   0.1307673E-06
   0.7430000E+02   0.4207386E-07   0.1257663E-06
   0.7440000E+02   0.4157831E-07   0.1188684E-06
   0.7450000E+02   0.4104960E-07   0.1103388E-06
   0.7460000E+02   0.4041800E-07   0.1004736E-06
   0.7470000E+02   0.3965512E-07   0.8957935E-07
   0.7480000E+02   0.3876920E-07   0.7795809E-07
   0.7490000E+02   0.3779434E-07   0.6589910E-07
   0.7500000E+02   0.3677597E-07   0.5367794E-07
   0.7510000E+02   0.3575558E-07   0.4156111E-07
   0.7520000E+02   0.3475776E-07   0.2981380E-07
   0.7530000E+02   0.3378171E-07   0.1870809E-07
   0.7540000E+02   0.3279861E-07   0.8529319E-08
   0.7550000E+02   0.3175472E-07  -0.4213318E-09
   0.7560000E+02   0.3057938E-07  -0.7829077E-08
   0.7570000E+02   0.2919596E-07  -0.1337357E-07
   0.7580000E+02   0.2753358E-07  -0.1674287E-07
   0.7590000E+02   0.2553790E-07  -0.1765296E-07
   0.7600000E+02   0.2317935E-07  -0.1587147E-07
   0.7610000E+02   0.2045823E-07  -0.1124383E-07
   0.7620000E+02   0.1740627E-07  -0.3719043E-08
   0.7630000E+02   0.1408466E-07   0.6627986E-08
   0.7640000E+02   0.1057854E-07   0.1958113E-07
   0.7650000E+02   0.6988506E-08   0.3477769E-07
   0.7660000E+02   0.3420065E-08   0.5171498E-07
   0.7670000E+02  -0.2766792E-10   0.6976926E-07
   0.7680000E+02  -0.3272224E-08   0.8822538E-07
   0.7690000E+02  -0.6255509E-08   0.1063143E-06
   0.7700000E+02  -0.8947838E-08   0.1232548E-06
   0.7710000E+02  -0.1134771E-07   0.1382945E-06
   0.7720000E+02  -0.1347758E-07   0.1507478E-06
   0.7730000E+02  -0.1537658E-07   0.1600269E-06
   0.7740000E+02  -0.1709162E-07   0.1656639E-06
   0.7750000E+02  -0.1866889E-07   0.1673245E-06
   0.7760000E+02  -0.2014729E-07   0.1648130E-06
   0.7770000E+02  -0.2155491E-07   0.1580695E-06
   0.7780000E+02  -0.2290853E-07   0.1471621E-06
   0.7790000E+02  -0.2421551E-07   0.1322744E-06
   0.7800000E+02  -0.2547677E-07   0.1136916E-06
   0.7810000E+02  -0.2669006E-07   0.9178540E-07
   0.7820000E+02  -0.2785286E-07   0.6699969E-07
   0.7830000E+02  -0.2896462E-07   0.3983739E-07
   0.7840000E+02  -0.3002833E-07   0.1084803E-07
   0.7850000E+02  -0.3105122E-07  -0.1938435E-07
   0.7860000E+02  -0.3204472E-07  -0.5025374E-07
   0.7870000E+02  -0.3302382E-07  -0.8114514E-07
   0.7880000E+02  -0.3400610E-07  -0.1114475E-06
   0.7890000E+02  -0.3501125E-07  -0.1405656E-06
   0.7900000E+02  -0.3606134E-07  -0.1679299E-06
   0.7910000E+02  -0.3718176E-07  -0.1930045E-06
   0.7920000E+02  -0.3840212E-07  -0.2152935E-06
   0.7930000E+02  -0.3975596E-07  -0.2343477E-06
   0.7940000E+02  -0.4127829E-07  -0.2497717E-06
   0.7950000E+02  -0.4300056E-07  -0.2612326E-06
   0.7960000E+02  -0.4494402E-07  -0.2684699E-06
   0.7970000E+02  -0.4711307E-07  -0.2713048E-06
   0.7980000E+02  -0.4949083E-07  -0.2696495E-06
   0.7990000E+02  -0.5203850E-07  -0.2635125E-06
   0.8000000E+02  -0.5469879E-07  -0.2530009E-06
   0.8010000E+02  -0.5740231E-07  -0.2383189E-06
   0.8020000E+02  -0.6007476E-07  -0.2197633E-06
   0.8030000E+02  -0.6264246E-07  -0.1977162E-06
   0.8040000E+02  -0.6503497E-07  -0.1726378E-06
   0.8050000E+02  -0.6718437E-07  -0.1450574E-06
   0.8060000E+02  -0.6902291E-07  -0.1155634E-06
   0.8070000E+02  -0.7048079E-07  -0.8479019E-07
   0.8080000E+02  -0.7148652E-07  -0.5340145E-07
   0.8090000E+02  -0.7197110E-07  -0.2206977E-07
   0.8100000E+02  -0.7187635E-07   0.8546035E-08
   0.8110000E+02  -0.7116653E-07   0.3782353E-07
   0.8120000E+02  -0.6984189E-07   0.6519646E-07
   0.8130000E+02  -0.6795152E-07   0.9016938E-07
   0.8140000E+02  -0.6560328E-07   0.1123256E-06
   0.8150000E+02  -0.6296780E-07   0.1313277E-06
   0.8160000E+02  -0.6027441E-07   0.1469116E-06
   0.8170000E+02  -0.5779786E-07   0.1588757E-06
   0.8180000E+02  -0.5583633E-07   0.1670674E-06
   0.8190000E+02  -0.5468258E-07   0.1713706E-06
   0.8200000E+02  -0.5459138E-07   0.1716964E-06
   0.8210000E+02  -0.5574673E-07   0.1679794E-06
   0.8220000E+02  -0.5823218E-07   0.1601807E-06
   0.8230000E+02  -0.6200786E-07   0.1482965E-06
   0.8240000E+02  -0.6689695E-07   0.1323727E-06
   0.8250000E+02  -0.7258346E-07   0.1125212E-06
   0.8260000E+02  -0.7862207E-07   0.8893706E-07
   0.8270000E+02  -0.8445886E-07   0.6191437E-07
   0.8280000E+02  -0.8946132E-07   0.3185775E-07
   0.8290000E+02  -0.9295477E-07  -0.7113080E-09
   0.8300000E+02  -0.9426251E-07  -0.3515467E-07
   0.8310000E+02  -0.9274675E-07  -0.7072491E-07
   0.8320000E+02  -0.8784783E-07  -0.1065800E-06
   0.8330000E+02  -0.7911989E-07  -0.1418052E-06
   0.8340000E+02  -0.6626144E-07  -0.1754410E-06
   0.8350000E+02  -0.4913908E-07  -0.2065180E-06
   0.8360000E+02  -0.2780287E-07  -0.2340944E-06
   0.8370000E+02  -0.2491594E-08  -0.2572981E-06
   0.8380000E+02   0.2637235E-07  -0.2753683E-06
   0.8390000E+02   0.5819731E-07  -0.2876955E-06
   0.8400000E+02   0.9224378E-07  -0.2938565E-06
   0.8410000E+02   0.1276504E-06  -0.2936419E-06
   0.8420000E+02   0.1634631E-06  -0.2870736E-06
   0.8430000E+02   0.1986653E-06  -0.2744087E-06
   0.8440000E+02   0.2322098E-06  -0.2561306E-06
   0.8450000E+02   0.2630478E-06  -0.2329255E-06
   0.8460000E+02   0.2901586E-06  -0.2056483E-06
   0.8470000E+02   0.3125764E-06  -0.1752785E-06
   0.8480000E+02   0.3294199E-06  -0.1428715E-06
   0.8490000E+02   0.3399218E-06  -0.1095087E-06
   0.8500000E+02   0.3434591E-06  -0.7624821E-07
   0.8510000E+02   0.3395818E-06  -0.4408162E-07
   0.8520000E+02   0.3280368E-06  -0.1389782E-07
   0.8530000E+02   0.3087864E-06   0.1354451E-07
   0.8540000E+02   0.2820193E-06   0.3763526E-07
   0.8550000E+02   0.2481533E-06   0.5792273E-07
   0.8560000E+02   0.2078292E-06   0.7411514E-07
   0.8570000E+02   0.1618941E-06   0.8607433E-07
   0.8580000E+02   0.1113763E-06   0.9380205E-07
   0.8590000E+02   0.5745486E-07   0.9741977E-07
   0.8600000E+02   0.1423718E-08   0.9714407E-07
   0.8610000E+02  -0.5534417E-07   0.9326033E-07
   0.8620000E+02  -0.1114345E-06   0.8609802E-07
   0.8630000E+02  -0.1654289E-06   0.7601097E-07
   0.8640000E+02  -0.2159417E-06   0.6336485E-07
   0.8650000E+02  -0.2616551E-06   0.4853294E-07
   0.8660000E+02  -0.3013521E-06   0.3189932E-07
   0.8670000E+02  -0.3339482E-06   0.1386746E-07
   0.8680000E+02  -0.3585188E-06  -0.5129359E-08
   0.8690000E+02  -0.3743248E-06  -0.2461895E-07
   0.8700000E+02  -0.3808337E-06  -0.4408598E-07
   0.8710000E+02  -0.3777361E-06  -0.6297513E-07
   0.8720000E+02  -0.3649595E-06  -0.8070348E-07
   0.8730000E+02  -0.3426768E-06  -0.9668256E-07
   0.8740000E+02  -0.3113123E-06  -0.1103491E-06
   0.8750000E+02  -0.2715416E-06  -0.1212022E-06
   0.8760000E+02  -0.2242865E-06  -0.1288430E-06
   0.8770000E+02  -0.1707007E-06  -0.1330130E-06
   0.8780000E+02  -0.1121481E-06  -0.1336257E-06
   0.8790000E+02  -0.5017159E-07  -0.1307867E-06
   0.8800000E+02   0.1354692E-07  -0.1247979E-06
   0.8810000E+02   0.7723493E-07  -0.1161442E-06
   0.8820000E+02   0.1390849E-06  -0.1054596E-06
   0.8830000E+02   0.1973144E-06  -0.9347799E-07
   0.8840000E+02   0.2502289E-06  -0.8097081E-07
   0.8850000E+02   0.2962813E-06  -0.6867901E-07
   0.8860000E+02   0.3341268E-06  -0.5724662E-07
   0.8870000E+02   0.3626690E-06  -0.4716344E-07
   0.8880000E+02   0.3810946E-06  -0.3872343E-07
   0.8890000E+02   0.3888965E-06  -0.3200360E-07
   0.8900000E+02   0.3858843E-06  -0.2686576E-07
   0.8910000E+02   0.3721819E-06  -0.2298082E-07
   0.8920000E+02   0.3482135E-06  -0.1987263E-07
   0.8930000E+02   0.3146792E-06  -0.1697668E-07
   0.8940000E+02   0.2725224E-06  -0.1370699E-07
   0.8950000E+02   0.2228920E-06  -0.9524159E-08
   0.8960000E+02   0.1670999E-06  -0.3996943E-08
   0.8970000E+02   0.1065778E-06   0.3149653E-08
   0.8980000E+02   0.4283314E-07   0.1200518E-07
   0.8990000E+02  -0.2259305E-07   0.2246643E-07
   0.9000000E+02  -0.8816531E-07   0.3425170E-07
   0.9010000E+02  -0.1523883E-06   0.4693365E-07
   0.9020000E+02  -0.2138354E-06   0.5998527E-07
   0.9030000E+02  -0.2711716E-06   0.7283301E-07
   0.9040000E+02  -0.3231696E-06   0.8491124E-07
   0.9050000E+02  -0.3687231E-06   0.9571302E-07
   0.9060000E+02  -0.4068559E-06   0.1048328E-06
   0.9070000E+02  -0.4367328E-06   0.1119977E-06
   0.9080000E+02  -0.4576719E-06   0.1170833E-06
   0.9090000E+02  -0.4691594E-06   0.1201135E-06
   0.9100000E+02  -0.4708685E-06   0.1212419E-06
   0.9110000E+02  -0.4626780E-06   0.1207200E-06
   0.9120000E+02  -0.4446905E-06   0.1188531E-06
   0.9130000E+02  -0.4172462E-06   0.1159546E-06
   0.9140000E+02  -0.3809321E-06   0.1123014E-06
   0.9150000E+02  -0.3365828E-06   0.1080990E-06
   0.9160000E+02  -0.2852742E-06   0.1034609E-06
   0.9170000E+02  -0.2283060E-06   0.9840203E-07
   0.9180000E+02  -0.1671739E-06   0.9284933E-07
   0.9190000E+02  -0.1035295E-06   0.8666472E-07
   0.9200000E+02  -0.3912945E-07   0.7967825E-07
   0.9210000E+02   0.2422462E-07   0.7172578E-07
   0.9220000E+02   0.8475183E-07   0.6268679E-07
   0.9230000E+02   0.1407589E-06   0.5251726E-07
   0.9240000E+02   0.1907044E-06   0.4127420E-07
   0.9250000E+02   0.2332554E-06   0.2912879E-07
   0.9260000E+02   0.2673340E-06   0.1636675E-07
   0.9270000E+02   0.2921496E-06   0.3375693E-08
   0.9280000E+02   0.3072172E-06  -0.9378954E-08
   0.9290000E+02   0.3123585E-06  -0.2138645E-07
   0.9300000E+02   0.3076900E-06  -0.3212735E-07
   0.9310000E+02   0.2935987E-06  -0.4110979E-07
   0.9320000E+02   0.2707097E-06  -0.4790152E-07
   0.9330000E+02   0.2398500E-06  -0.5215530E-07
   0.9340000E+02   0.2020126E-06  -0.5362637E-07
   0.9350000E+02   0.1583238E-06  -0.5218183E-07
   0.9360000E+02   0.1100150E-06  -0.4780225E-07
   0.9370000E+02   0.5839960E-07  -0.4057600E-07
   0.9380000E+02   0.4852510E-08  -0.3068769E-07
   0.9390000E+02  -0.4920839E-07  -0.1840186E-07
   0.9400000E+02  -0.1023425E-06  -0.4044305E-08
   0.9410000E+02  -0.1531094E-06   0.1201711E-07
   0.9420000E+02  -0.2000972E-06   0.2939010E-07
   0.9430000E+02  -0.2419549E-06   0.4767242E-07
   0.9440000E+02  -0.2774293E-06   0.6646201E-07
   0.9450000E+02  -0.3054043E-06   0.8536217E-07
   0.9460000E+02  -0.3249391E-06   0.1039821E-06
   0.9470000E+02  -0.3353033E-06   0.1219337E-06
   0.9480000E+02  -0.3360076E-06   0.1388269E-06
   0.9490000E+02  -0.3268273E-06   0.1542655E-06
   0.9500000E+02  -0.3078169E-06   0.1678474E-06
   0.9510000E+02  -0.2793160E-06   0.1791690E-06
   0.9520000E+02  -0.2419430E-06   0.1878365E-06
   0.9530000E+02  -0.1965776E-06   0.1934823E-06
   0.9540000E+02  -0.1443322E-06   0.1957843E-06
   0.9550000E+02  -0.8651313E-07   0.1944881E-06
   0.9560000E+02  -0.2457335E-07   0.1894278E-06
   0.9570000E+02   0.3993887E-07   0.1805453E-06
   0.9580000E+02   0.1054332E-06   0.1679054E-06
   0.9590000E+02   0.1703281E-06   0.1517047E-06
   0.9600000E+02   0.2330982E-06   0.1322734E-06
   0.9610000E+02   0.2923152E-06   0.1100678E-06
   0.9620000E+02   0.3466839E-06   0.8565563E-07
   0.9630000E+02   0.3950720E-06   0.5969401E-07
   0.9640000E+02   0.4365328E-06   0.3290297E-07
   0.9650000E+02   0.4703221E-06   0.6036580E-08
   0.9660000E+02   0.4959080E-06  -0.2014637E-07
   0.9670000E+02   0.5129752E-06  -0.4491032E-07
   0.9680000E+02   0.5214232E-06  -0.6756858E-07
   0.9690000E+02   0.5213597E-06  -0.8750600E-07
   0.9700000E+02   0.5130881E-06  -0.1041987E-06
   0.9710000E+02   0.4970899E-06  -0.1172307E-06
   0.9720000E+02   0.4740020E-06  -0.1263071E-06
   0.9730000E+02   0.4445903E-06  -0.1312625E-06
   0.9740000E+02   0.4097205E-06  -0.1320657E-06
   0.9750000E+02   0.3703275E-06  -0.1288184E-06
   0.9760000E+02   0.3273862E-06  -0.1217485E-06
   0.9770000E+02   0.2818838E-06  -0.1111998E-06
   0.9780000E+02   0.2347985E-06  -0.9761666E-07
   0.9790000E+02   0.1870827E-06  -0.8152561E-07
   0.9800000E+02   0.1396526E-06  -0.6351414E-07
   0.9810000E+02   0.9338204E-07  -0.4420780E-07
   0.9820000E+02   0.4909858E-07  -0.2424652E-07
   0.9830000E+02   0.7580375E-08  -0.4261399E-08
   0.9840000E+02  -0.3044821E-07   0.1514713E-07
   0.9850000E+02  -0.6432309E-07   0.3342853E-07
   0.9860000E+02  -0.9344981E-07   0.5009779E-07
   0.9870000E+02  -0.1173157E-06   0.6474644E-07
   0.9880000E+02  -0.1355046E-06   0.7704812E-07
   0.9890000E+02  -0.1477125E-06   0.8675859E-07
   0.9900000E+02  -0.1537644E-06   0.9371072E-07
   0.9910000E+02  -0.1536284E-06   0.9780582E-07
   0.9920000E+02  -0.1474284E-06   0.9900314E-07
   0.9930000E+02  -0.1354512E-06   0.9730976E-07
   0.9940000E+02  -0.1181497E-06   0.9277275E-07
   0.9950000E+02  -0.9613794E-07   0.8547517E-07
   0.9960000E+02  -0.7017956E-07   0.7553668E-07
   0.9970000E+02  -0.4116737E-07   0.6311875E-07
   0.9980000E+02  -0.1009515E-07   0.4843363E-07
   0.9990000E+02   0.2197748E-07   0.3175517E-07
   0.1000000E+03   0.5396492E-07   0.1342942E-07
   0.1001000E+03   0.8479728E-07  -0.6118004E-08
   0.1002000E+03   0.1134611E-06  -0.2638037E-07
   0.1003000E+03   0.1390356E-06  -0.4677656E-07
   0.1004000E+03   0.1607222E-06  -0.6666726E-07
   0.1005000E+03   0.1778645E-06  -0.8538092E-07
   0.1006000E+03   0.1899584E-06  -0.1022477E-06
   0.1007000E+03   0.1966528E-06  -0.1166391E-06
   0.1008000E+03   0.1977412E-06  -0.1280084E-06
   0.1009000E+03   0.1931484E-06  -0.1359295E-06
   0.1010000E+03   0.1829149E-06  -0.1401285E-06
   0.1011000E+03   0.1671818E-06  -0.1405053E-06
   0.1012000E+03   0.1461788E-06  -0.1371432E-06
   0.1013000E+03   0.1202158E-06  -0.1303040E-06
   0.1014000E+03   0.8967911E-07  -0.1204091E-06
   0.1015000E+03   0.5502972E-07  -0.1080077E-06
   0.1016000E+03   0.1680293E-07  -0.9373542E-07
   0.1017000E+03  -0.2439221E-07  -0.7826577E-07
   0.1018000E+03  -0.6787535E-07  -0.6226181E-07
   0.1019000E+03  -0.1129000E-06  -0.4633089E-07
   0.1020000E+03  -0.1586617E-06  -0.3098823E-07
   0.1021000E+03  -0.2043098E-06  -0.1663229E-07
   0.1022000E+03  -0.2489623E-06  -0.3534123E-08
   0.1023000E+03  -0.2917243E-06   0.8159270E-08
   0.1024000E+03  -0.3317094E-06   0.1840866E-07
   0.1025000E+03  -0.3680643E-06   0.2725633E-07
   0.1026000E+03  -0.3999956E-06   0.3479363E-07
   0.1027000E+03  -0.4267982E-06   0.4112681E-07
   0.1028000E+03  -0.4478832E-06   0.4634598E-07
   0.1029000E+03  -0.4628032E-06   0.5050138E-07
   0.1030000E+03  -0.4712723E-06   0.5359019E-07
   0.1031000E+03  -0.4731788E-06   0.5555559E-07
   0.1032000E+03  -0.4685895E-06   0.5629803E-07
   0.1033000E+03  -0.4577443E-06   0.5569644E-07
   0.1034000E+03  -0.4410426E-06   0.5363616E-07
   0.1035000E+03  -0.4190238E-06   0.5003883E-07
   0.1036000E+03  -0.3923438E-06   0.4488972E-07
   0.1037000E+03  -0.3617518E-06   0.3825790E-07
   0.1038000E+03  -0.3280686E-06   0.3030645E-07
   0.1039000E+03  -0.2921691E-06   0.2129073E-07
   0.1040000E+03  -0.2549692E-06   0.1154531E-07
   0.1041000E+03  -0.2174152E-06   0.1461195E-08
   0.1042000E+03  -0.1804754E-06  -0.8543293E-08
   0.1043000E+03  -0.1451295E-06  -0.1805429E-07
   0.1044000E+03  -0.1123545E-06  -0.2669299E-07
   0.1045000E+03  -0.8310515E-07  -0.3414185E-07
   0.1046000E+03  -0.5828787E-07  -0.4016419E-07
   0.1047000E+03  -0.3872933E-07  -0.4461572E-07
   0.1048000E+03  -0.2514180E-07  -0.4744778E-07
   0.1049000E+03  -0.1808795E-07  -0.4870234E-07
   0.1050000E+03  -0.1794824E-07  -0.4849980E-07
   0.1051000E+03  -0.2489384E-07  -0.4702094E-07
   0.1052000E+03  -0.3886721E-07  -0.4448502E-07
   0.1053000E+03  -0.5957182E-07  -0.4112654E-07
   0.1054000E+03  -0.8647180E-07  -0.3717346E-07
   0.1055000E+03  -0.1188019E-06  -0.3282946E-07
   0.1056000E+03  -0.1555878E-06  -0.2826230E-07
   0.1057000E+03  -0.1956776E-06  -0.2359923E-07
   0.1058000E+03  -0.2377823E-06  -0.1892924E-07
   0.1059000E+03  -0.2805271E-06  -0.1431066E-07
   0.1060000E+03  -0.3225090E-06  -0.9782185E-08
   0.1061000E+03  -0.3623581E-06  -0.5374912E-08
   0.1062000E+03  -0.3987983E-06  -0.1123273E-08
   0.1063000E+03  -0.4307020E-06   0.2926795E-08
   0.1064000E+03  -0.4571335E-06   0.6713505E-08
   0.1065000E+03  -0.4773778E-06   0.1015902E-07
   0.1066000E+03  -0.4909533E-06   0.1317312E-07
   0.1067000E+03  -0.4976070E-06   0.1565994E-07
   0.1068000E+03  -0.4972971E-06   0.1752649E-07
   0.1069000E+03  -0.4901647E-06   0.1869180E-07
   0.1070000E+03  -0.4764996E-06   0.1909545E-07
   0.1071000E+03  -0.4567066E-06   0.1870450E-07
   0.1072000E+03  -0.4312727E-06   0.1751846E-07
   0.1073000E+03  -0.4007425E-06   0.1557169E-07
   0.1074000E+03  -0.3656986E-06   0.1293334E-07
   0.1075000E+03  -0.3267497E-06   0.9704636E-08
   0.1076000E+03  -0.2845234E-06   0.6013797E-08
   0.1077000E+03  -0.2396624E-06   0.2008661E-08
   0.1078000E+03  -0.1928221E-06  -0.2152328E-08
   0.1079000E+03  -0.1446670E-06  -0.6310003E-08
   0.1080000E+03  -0.9586622E-07  -0.1031408E-07
   0.1081000E+03  -0.4708690E-07  -0.1403119E-07
   0.1082000E+03   0.1015766E-08  -0.1735033E-07
   0.1083000E+03   0.4781077E-07  -0.2018482E-07
   0.1084000E+03   0.9270673E-07  -0.2247101E-07
   0.1085000E+03   0.1351701E-06  -0.2416408E-07
   0.1086000E+03   0.1747455E-06  -0.2523224E-07
   0.1087000E+03   0.2110764E-06  -0.2565072E-07
   0.1088000E+03   0.2439243E-06  -0.2539685E-07
   0.1089000E+03   0.2731838E-06  -0.2444750E-07
   0.1090000E+03   0.2988892E-06  -0.2277969E-07
   0.1091000E+03   0.3212136E-06  -0.2037462E-07
   0.1092000E+03   0.3404547E-06  -0.1722476E-07
   0.1093000E+03   0.3570123E-06  -0.1334340E-07
   0.1094000E+03   0.3713552E-06  -0.8774830E-08
   0.1095000E+03   0.3839822E-06  -0.3603621E-08
   0.1096000E+03   0.3953827E-06   0.2039018E-08
   0.1097000E+03   0.4059978E-06   0.7973537E-08
   0.1098000E+03   0.4161893E-06   0.1397608E-07
   0.1099000E+03   0.4262181E-06   0.1978868E-07
   0.1100000E+03   0.4362339E-06   0.2513497E-07
   0.1101000E+03   0.4462759E-06   0.2974016E-07
   0.1102000E+03   0.4562840E-06   0.3335297E-07
   0.1103000E+03   0.4661186E-06   0.3576730E-07
   0.1104000E+03   0.4755841E-06   0.3684087E-07
   0.1105000E+03   0.4844568E-06   0.3650872E-07
   0.1106000E+03   0.4925104E-06   0.3479007E-07
   0.1107000E+03   0.4995408E-06   0.3178750E-07
   0.1108000E+03   0.5053849E-06   0.2767848E-07
   0.1109000E+03   0.5099349E-06   0.2270037E-07
   0.1110000E+03   0.5131454E-06   0.1713028E-07
   0.1111000E+03   0.5150336E-06   0.1126233E-07
   0.1112000E+03   0.5156727E-06   0.5384906E-08
   0.1113000E+03   0.5151785E-06  -0.2393879E-09
   0.1114000E+03   0.5136912E-06  -0.5388853E-08
   0.1115000E+03   0.5113521E-06  -0.9891178E-08
   0.1116000E+03   0.5082801E-06  -0.1362475E-07
   0.1117000E+03   0.5045486E-06  -0.1651325E-07
   0.1118000E+03   0.5001682E-06  -0.1851517E-07
   0.1119000E+03   0.4950769E-06  -0.1961063E-07
   0.1120000E+03   0.4891403E-06  -0.1978841E-07
   0.1121000E+03   0.4821620E-06  -0.1903592E-07
   0.1122000E+03   0.4739021E-06  -0.1733407E-07
   0.1123000E+03   0.4641016E-06  -0.1465820E-07
   0.1124000E+03   0.4525075E-06  -0.1098477E-07
   0.1125000E+03   0.4388959E-06  -0.6302638E-08
   0.1126000E+03   0.4230886E-06  -0.6269438E-09
   0.1127000E+03   0.4049624E-06   0.5986849E-08
   0.1128000E+03   0.3844520E-06   0.1343103E-07
   0.1129000E+03   0.3615458E-06   0.2153792E-07
   0.1130000E+03   0.3362797E-06   0.3007787E-07
   0.1131000E+03   0.3087298E-06   0.3876356E-07
   0.1132000E+03   0.2790072E-06   0.4726077E-07
   0.1133000E+03   0.2472557E-06   0.5520473E-07
   0.1134000E+03   0.2136526E-06   0.6222080E-07
   0.1135000E+03   0.1784128E-06   0.6794762E-07
   0.1136000E+03   0.1417928E-06   0.7206085E-07
   0.1137000E+03   0.1040957E-06   0.7429527E-07
   0.1138000E+03   0.6567426E-07   0.7446370E-07
   0.1139000E+03   0.2693122E-07   0.7247093E-07
   0.1140000E+03  -0.1168238E-07   0.6832193E-07
   0.1141000E+03  -0.4967231E-07   0.6212349E-07
   0.1142000E+03  -0.8650871E-07   0.5407927E-07
   0.1143000E+03  -0.1216367E-06   0.4447849E-07
   0.1144000E+03  -0.1544895E-06   0.3367895E-07
   0.1145000E+03  -0.1845054E-06   0.2208559E-07
   0.1146000E+03  -0.2111471E-06   0.1012604E-07
   0.1147000E+03  -0.2339240E-06  -0.1774719E-08
   0.1148000E+03  -0.2524160E-06  -0.1321875E-07
   0.1149000E+03  -0.2662973E-06  -0.2385639E-07
   0.1150000E+03  -0.2753569E-06  -0.3340284E-07
   0.1151000E+03  -0.2795143E-06  -0.4164894E-07
   0.1152000E+03  -0.2788280E-06  -0.4846564E-07
   0.1153000E+03  -0.2734965E-06  -0.5380256E-07
   0.1154000E+03  -0.2638505E-06  -0.5768117E-07
   0.1155000E+03  -0.2503393E-06  -0.6018392E-07
   0.1156000E+03  -0.2335123E-06  -0.6144055E-07
   0.1157000E+03  -0.2140003E-06  -0.6161301E-07
   0.1158000E+03  -0.1924955E-06  -0.6088007E-07
   0.1159000E+03  -0.1697360E-06  -0.5942294E-07
   0.1160000E+03  -0.1464910E-06  -0.5741252E-07
   0.1161000E+03  -0.1235488E-06  -0.5499931E-07
   0.1162000E+03  -0.1017024E-06  -0.5230641E-07
   0.1163000E+03  -0.8173313E-07  -0.4942602E-07
   0.1164000E+03  -0.6438895E-07  -0.4641986E-07
   0.1165000E+03  -0.5035705E-07  -0.4332315E-07
   0.1166000E+03  -0.4023292E-07  -0.4015198E-07
   0.1167000E+03  -0.3448791E-07  -0.3691304E-07
   0.1168000E+03  -0.3343936E-07  -0.3361452E-07
   0.1169000E+03  -0.3722727E-07  -0.3027634E-07
   0.1170000E+03  -0.4580083E-07  -0.2693793E-07
   0.1171000E+03  -0.5891703E-07  -0.2366195E-07
   0.1172000E+03  -0.7615160E-07  -0.2053278E-07
   0.1173000E+03  -0.9692139E-07  -0.1764953E-07
   0.1174000E+03  -0.1205156E-06  -0.1511438E-07
   0.1175000E+03  -0.1461327E-06  -0.1301745E-07
   0.1176000E+03  -0.1729200E-06  -0.1142070E-07
   0.1177000E+03  -0.2000127E-06  -0.1034303E-07
   0.1178000E+03  -0.2265705E-06  -0.9749202E-08
   0.1179000E+03  -0.2518091E-06  -0.9544667E-08
   0.1180000E+03  -0.2750273E-06  -0.9577604E-08
   0.1181000E+03  -0.2956261E-06  -0.9648674E-08
   0.1182000E+03  -0.3131221E-06  -0.9527777E-08
   0.1183000E+03  -0.3271527E-06  -0.8976086E-08
   0.1184000E+03  -0.3374741E-06  -0.7770944E-08
   0.1185000E+03  -0.3439530E-06  -0.5730753E-08
   0.1186000E+03  -0.3465526E-06  -0.2737046E-08
   0.1187000E+03  -0.3453161E-06   0.1248752E-08
   0.1188000E+03  -0.3403487E-06   0.6175794E-08
   0.1189000E+03  -0.3318018E-06   0.1190273E-07
   0.1190000E+03  -0.3198612E-06   0.1820544E-07
   0.1191000E+03  -0.3047401E-06   0.2479321E-07
   0.1192000E+03  -0.2866769E-06   0.3133179E-07
   0.1193000E+03  -0.2659373E-06   0.3747147E-07
   0.1194000E+03  -0.2428180E-06   0.4287702E-07
   0.1195000E+03  -0.2176492E-06   0.4725661E-07
   0.1196000E+03  -0.1907948E-06   0.5038626E-07
   0.1197000E+03  -0.1626480E-06   0.5212714E-07
   0.1198000E+03  -0.1336226E-06   0.5243354E-07
   0.1199000E+03  -0.1041413E-06   0.5135052E-07
   0.1200000E+03  -0.7462282E-07   0.4900148E-07
   0.1201000E+03  -0.4547080E-07   0.4556768E-07
   0.1202000E+03  -0.1706583E-07   0.4126241E-07
   0.1203000E+03   0.1023776E-07   0.3630393E-07
   0.1204000E+03   0.3611091E-07   0.3089104E-07
   0.1205000E+03   0.6024576E-07   0.2518483E-07
   0.1206000E+03   0.8235061E-07   0.1929871E-07
   0.1207000E+03   0.1021463E-06   0.1329757E-07
   0.1208000E+03   0.1193661E-06   0.7205459E-08
   0.1209000E+03   0.1337591E-06   0.1019838E-08
   0.1210000E+03   0.1450997E-06  -0.5270183E-08
   0.1211000E+03   0.1531987E-06  -0.1166445E-07
   0.1212000E+03   0.1579176E-06  -0.1813408E-07
   0.1213000E+03   0.1591821E-06  -0.2460779E-07
   0.1214000E+03   0.1569945E-06  -0.3096404E-07
   0.1215000E+03   0.1514430E-06  -0.3702996E-07
   0.1216000E+03   0.1427087E-06  -0.4258747E-07
   0.1217000E+03   0.1310687E-06  -0.4738617E-07
   0.1218000E+03   0.1168950E-06  -0.5116208E-07
   0.1219000E+03   0.1006503E-06  -0.5366043E-07
   0.1220000E+03   0.8287646E-07  -0.5466037E-07
   0.1221000E+03   0.6417824E-07  -0.5399884E-07
   0.1222000E+03   0.4519911E-07  -0.5159126E-07
   0.1223000E+03   0.2659060E-07  -0.4744651E-07
   0.1224000E+03   0.8976438E-08  -0.4167446E-07
   0.1225000E+03  -0.7085761E-08  -0.3448512E-07
   0.1226000E+03  -0.2114124E-07  -0.2617882E-07
   0.1227000E+03  -0.3286868E-07  -0.1712820E-07
   0.1228000E+03  -0.4210034E-07  -0.7753498E-08
   0.1229000E+03  -0.4882843E-07   0.1506822E-08
   0.1230000E+03  -0.5319628E-07   0.1022703E-07
   0.1231000E+03  -0.5547451E-07   0.1802397E-07
   0.1232000E+03  -0.5602498E-07   0.2458276E-07
   0.1233000E+03  -0.5525628E-07   0.2967629E-07
   0.1234000E+03  -0.5357622E-07   0.3317675E-07
   0.1235000E+03  -0.5134644E-07   0.3505876E-07
   0.1236000E+03  -0.4884419E-07   0.3539422E-07
   0.1237000E+03  -0.4623516E-07   0.3434005E-07
   0.1238000E+03  -0.4355957E-07   0.3212030E-07
   0.1239000E+03  -0.4073275E-07   0.2900468E-07
   0.1240000E+03  -0.3755963E-07   0.2528517E-07
   0.1241000E+03  -0.3376178E-07   0.2125288E-07
   0.1242000E+03  -0.2901446E-07   0.1717642E-07
   0.1243000E+03  -0.2299053E-07   0.1328327E-07
   0.1244000E+03  -0.1540726E-07   0.9745196E-08
   0.1245000E+03  -0.6071618E-08   0.6668645E-08
   0.1246000E+03   0.5080857E-08   0.4090696E-08
   0.1247000E+03   0.1795810E-07   0.1981195E-08
   0.1248000E+03   0.3229872E-07   0.2511381E-09
   0.1249000E+03   0.4767721E-07  -0.1233041E-08
   0.1250000E+03   0.6352803E-07  -0.2630252E-08
   0.1251000E+03   0.7918728E-07  -0.4102179E-08
   0.1252000E+03   0.9394788E-07  -0.5789536E-08
   0.1253000E+03   0.1071222E-06  -0.7789612E-08
   0.1254000E+03   0.1181043E-06  -0.1013767E-07
   0.1255000E+03   0.1264242E-06  -0.1279450E-07
   0.1256000E+03   0.1317870E-06  -0.1564195E-07
   0.1257000E+03   0.1340916E-06  -0.1848735E-07
   0.1258000E+03   0.1334290E-06  -0.2107706E-07
   0.1259000E+03   0.1300583E-06  -0.2311807E-07
   0.1260000E+03   0.1243683E-06  -0.2430608E-07
   0.1261000E+03   0.1168273E-06  -0.2435739E-07
   0.1262000E+03   0.1079309E-06  -0.2304162E-07
   0.1263000E+03   0.9815399E-07  -0.2021213E-07
   0.1264000E+03   0.8791082E-07  -0.1583076E-07
   0.1265000E+03   0.7752971E-07  -0.9984138E-08
   0.1266000E+03   0.6724114E-07  -0.2889014E-08
   0.1267000E+03   0.5718013E-07   0.5114682E-08
   0.1268000E+03   0.4740015E-07   0.1358353E-07
   0.1269000E+03   0.3789583E-07   0.2200191E-07
   0.1270000E+03   0.2863098E-07   0.2982234E-07
   0.1271000E+03   0.1956801E-07   0.3651113E-07
   0.1272000E+03   0.1069550E-07   0.4159466E-07
   0.1273000E+03   0.2050173E-08   0.4470131E-07
   0.1274000E+03  -0.6269438E-08   0.4559439E-07
   0.1275000E+03  -0.1409988E-07   0.4419244E-07
   0.1276000E+03  -0.2122105E-07   0.4057467E-07
   0.1277000E+03  -0.2737533E-07   0.3497091E-07
   0.1278000E+03  -0.3229545E-07   0.2773757E-07
   0.1279000E+03  -0.3573726E-07   0.1932236E-07
   0.1280000E+03  -0.3751309E-07   0.1022205E-07
   0.1281000E+03  -0.3752040E-07   0.9383003E-09
   0.1282000E+03  -0.3576157E-07  -0.8063633E-08
   0.1283000E+03  -0.3235155E-07  -0.1638874E-07
   0.1284000E+03  -0.2751232E-07  -0.2373539E-07
   0.1285000E+03  -0.2155491E-07  -0.2990607E-07
   0.1286000E+03  -0.1485207E-07  -0.3480551E-07
   0.1287000E+03  -0.7805696E-08  -0.3842777E-07
   0.1288000E+03  -0.8139315E-09  -0.4083504E-07
   0.1289000E+03   0.5758081E-08  -0.4213176E-07
   0.1290000E+03   0.1160056E-07  -0.4243799E-07
   0.1291000E+03   0.1647336E-07  -0.4186593E-07
   0.1292000E+03   0.2021224E-07  -0.4050257E-07
   0.1293000E+03   0.2272877E-07  -0.3840062E-07
   0.1294000E+03   0.2400562E-07  -0.3557860E-07
   0.1295000E+03   0.2408929E-07  -0.3202944E-07
   0.1296000E+03   0.2308158E-07  -0.2773613E-07
   0.1297000E+03   0.2113049E-07  -0.2269138E-07
   0.1298000E+03   0.1842043E-07  -0.1691840E-07
   0.1299000E+03   0.1516155E-07  -0.1048904E-07
   0.1300000E+03   0.1157750E-07  -0.3536429E-08
   0.1301000E+03   0.7891951E-08   0.3740447E-08
   0.1302000E+03   0.4314139E-08   0.1108132E-07
   0.1303000E+03   0.1024792E-08   0.1817848E-07
   0.1304000E+03  -0.1836218E-08   0.2469839E-07
   0.1305000E+03  -0.4178937E-08   0.3030853E-07
   0.1306000E+03  -0.5968009E-08   0.3470616E-07
   0.1307000E+03  -0.7222538E-08   0.3764511E-07
   0.1308000E+03  -0.8011393E-08   0.3895748E-07
   0.1309000E+03  -0.8444884E-08   0.3856742E-07
   0.1310000E+03  -0.8663979E-08   0.3649591E-07
   0.1311000E+03  -0.8828232E-08   0.3285658E-07
   0.1312000E+03  -0.9103281E-08   0.2784365E-07
   0.1313000E+03  -0.9648353E-08   0.2171443E-07
   0.1314000E+03  -0.1060391E-07   0.1476863E-07
   0.1315000E+03  -0.1207954E-07   0.7327196E-08
   0.1316000E+03  -0.1414235E-07  -0.2872243E-09
   0.1317000E+03  -0.1680684E-07  -0.7766695E-08
   0.1318000E+03  -0.2002738E-07  -0.1483039E-07
   0.1319000E+03  -0.2369512E-07  -0.2123296E-07
   0.1320000E+03  -0.2764097E-07  -0.2676932E-07
   0.1321000E+03  -0.3164541E-07  -0.3127676E-07
   0.1322000E+03  -0.3545535E-07  -0.3463538E-07
   0.1323000E+03  -0.3880624E-07  -0.3676749E-07
   0.1324000E+03  -0.4144695E-07  -0.3763683E-07
   0.1325000E+03  -0.4316379E-07  -0.3724779E-07
   0.1326000E+03  -0.4379999E-07  -0.3564496E-07
   0.1327000E+03  -0.4326770E-07  -0.3291268E-07
   0.1328000E+03  -0.4155110E-07  -0.2917430E-07
   0.1329000E+03  -0.3870064E-07  -0.2459039E-07
   0.1330000E+03  -0.3482043E-07  -0.1935530E-07
   0.1331000E+03  -0.3005175E-07  -0.1369138E-07
   0.1332000E+03  -0.2455618E-07  -0.7840697E-08
   0.1333000E+03  -0.1850150E-07  -0.2054179E-08
   0.1334000E+03  -0.1205239E-07   0.3421311E-08
   0.1335000E+03  -0.5366671E-08   0.8357133E-08
   0.1336000E+03   0.1403736E-08   0.1255707E-07
   0.1337000E+03   0.8108834E-08   0.1587009E-07
   0.1338000E+03   0.1459592E-07   0.1820021E-07
   0.1339000E+03   0.2070646E-07   0.1951206E-07
   0.1340000E+03   0.2627606E-07   0.1983142E-07
   0.1341000E+03   0.3113806E-07   0.1924044E-07
   0.1342000E+03   0.3513051E-07   0.1786805E-07
   0.1343000E+03   0.3810547E-07   0.1587665E-07
   0.1344000E+03   0.3993915E-07   0.1344685E-07
   0.1345000E+03   0.4054154E-07   0.1076200E-07
   0.1346000E+03   0.3986445E-07   0.7994439E-08
   0.1347000E+03   0.3790703E-07   0.5294873E-08
   0.1348000E+03   0.3471850E-07   0.2785636E-08
   0.1349000E+03   0.3039765E-07   0.5580343E-09
   0.1350000E+03   0.2508923E-07  -0.1326741E-08
   0.1351000E+03   0.1897711E-07  -0.2834064E-08
   0.1352000E+03   0.1227463E-07  -0.3950783E-08
   0.1353000E+03   0.5212695E-08  -0.4679724E-08
   0.1354000E+03  -0.1973381E-08  -0.5034682E-08
   0.1355000E+03  -0.9057055E-08  -0.5036588E-08
   0.1356000E+03  -0.1583218E-07  -0.4711156E-08
   0.1357000E+03  -0.2212155E-07  -0.4088097E-08
   0.1358000E+03  -0.2778121E-07  -0.3201725E-08
   0.1359000E+03  -0.3269975E-07  -0.2092615E-08
   0.1360000E+03  -0.3679314E-07  -0.8098544E-09
   0.1361000E+03  -0.3999608E-07   0.5867208E-09
   0.1362000E+03  -0.4225224E-07   0.2024932E-08
   0.1363000E+03  -0.4350585E-07   0.3419949E-08
   0.1364000E+03  -0.4369719E-07   0.4675788E-08
   0.1365000E+03  -0.4276360E-07   0.5688926E-08
   0.1366000E+03  -0.4064686E-07   0.6354063E-08
   0.1367000E+03  -0.3730578E-07   0.6571726E-08
   0.1368000E+03  -0.3273207E-07   0.6257117E-08
   0.1369000E+03  -0.2696634E-07   0.5349291E-08
   0.1370000E+03  -0.2011092E-07   0.3819608E-08
   0.1371000E+03  -0.1233675E-07   0.1678313E-08
   0.1372000E+03  -0.3882431E-08  -0.1021783E-08
   0.1373000E+03   0.4954901E-08  -0.4185239E-08
   0.1374000E+03   0.1383586E-07  -0.7677859E-08
   0.1375000E+03   0.2240014E-07  -0.1133426E-07
   0.1376000E+03   0.3029019E-07  -0.1496845E-07
   0.1377000E+03   0.3717447E-07  -0.1838623E-07
   0.1378000E+03   0.4276792E-07  -0.2139823E-07
   0.1379000E+03   0.4684817E-07  -0.2383225E-07
   0.1380000E+03   0.4926651E-07  -0.2554368E-07
   0.1381000E+03   0.4995342E-07  -0.2642346E-07
   0.1382000E+03   0.4891894E-07  -0.2640297E-07
   0.1383000E+03   0.4624815E-07  -0.2545597E-07
   0.1384000E+03   0.4209245E-07  -0.2359791E-07
   0.1385000E+03   0.3665735E-07  -0.2088303E-07
   0.1386000E+03   0.3018740E-07  -0.1739988E-07
   0.1387000E+03   0.2294953E-07  -0.1326585E-07
   0.1388000E+03   0.1521612E-07  -0.8620967E-08
   0.1389000E+03   0.7249330E-08  -0.3621573E-08
   0.1390000E+03  -0.7114775E-09   0.1566229E-08
   0.1391000E+03  -0.8458087E-08   0.6772893E-08
   0.1392000E+03  -0.1581669E-07   0.1183147E-07
   0.1393000E+03  -0.2264633E-07   0.1658313E-07
   0.1394000E+03  -0.2883353E-07   0.2088203E-07
   0.1395000E+03  -0.3428505E-07   0.2459940E-07
   0.1396000E+03  -0.3892069E-07   0.2762685E-07
   0.1397000E+03  -0.4266832E-07   0.2987894E-07
   0.1398000E+03  -0.4546218E-07   0.3129512E-07
   0.1399000E+03  -0.4724494E-07   0.3184123E-07
   0.1400000E+03  -0.4797270E-07   0.3151042E-07
   0.1401000E+03  -0.4762149E-07   0.3032365E-07
   0.1402000E+03  -0.4619317E-07   0.2832946E-07
   0.1403000E+03  -0.4371913E-07   0.2560306E-07
   0.1404000E+03  -0.4026059E-07   0.2224436E-07
   0.1405000E+03  -0.3590530E-07   0.1837495E-07
   0.1406000E+03  -0.3076158E-07   0.1413392E-07
   0.1407000E+03  -0.2495110E-07   0.9672649E-08
   0.1408000E+03  -0.1860218E-07   0.5148758E-08
   0.1409000E+03  -0.1184515E-07   0.7195399E-09
   0.1410000E+03  -0.4810416E-08  -0.3464730E-08
   0.1411000E+03   0.2370863E-08  -0.7267189E-08
   0.1412000E+03   0.9564411E-08  -0.1057008E-07
   0.1413000E+03   0.1663031E-07  -0.1327943E-07
   0.1414000E+03   0.2342181E-07  -0.1532855E-07
   0.1415000E+03   0.2978678E-07  -0.1668031E-07
   0.1416000E+03   0.3557212E-07  -0.1732812E-07
   0.1417000E+03   0.4063102E-07  -0.1729590E-07
   0.1418000E+03   0.4483188E-07  -0.1663700E-07
   0.1419000E+03   0.4806756E-07  -0.1543201E-07
   0.1420000E+03   0.5026318E-07  -0.1378553E-07
   0.1421000E+03   0.5138153E-07  -0.1182164E-07
   0.1422000E+03   0.5142510E-07  -0.9678193E-08
   0.1423000E+03   0.5043484E-07  -0.7499735E-08
   0.1424000E+03   0.4848610E-07  -0.5429599E-08
   0.1425000E+03   0.4568245E-07  -0.3601450E-08
   0.1426000E+03   0.4214828E-07  -0.2131022E-08
   0.1427000E+03   0.3802079E-07  -0.1108750E-08
   0.1428000E+03   0.3344195E-07  -0.5939579E-09
   0.1429000E+03   0.2855060E-07  -0.6111368E-09
   0.1430000E+03   0.2347485E-07  -0.1148566E-08
   0.1431000E+03   0.1832529E-07  -0.2159277E-08
   0.1432000E+03   0.1318919E-07  -0.3564133E-08
   0.1433000E+03   0.8126780E-08  -0.5256630E-08
   0.1434000E+03   0.3169977E-08  -0.7109017E-08
   0.1435000E+03  -0.1675497E-08  -0.8979358E-08
   0.1436000E+03  -0.6424569E-08  -0.1071924E-07
   0.1437000E+03  -0.1110415E-07  -0.1218189E-07
   0.1438000E+03  -0.1574240E-07  -0.1323045E-07
   0.1439000E+03  -0.2035740E-07  -0.1374618E-07
   0.1440000E+03  -0.2494718E-07  -0.1363601E-07
   0.1441000E+03  -0.2948259E-07  -0.1283920E-07
   0.1442000E+03  -0.3390438E-07  -0.1133223E-07
   0.1443000E+03  -0.3812478E-07  -0.9131679E-08
   0.1444000E+03  -0.4203330E-07  -0.6294472E-08
   0.1445000E+03  -0.4550571E-07  -0.2915525E-08
   0.1446000E+03  -0.4841464E-07   0.8771830E-09
   0.1447000E+03  -0.5064047E-07   0.4929685E-08
   0.1448000E+03  -0.5208109E-07   0.9070695E-08
   0.1449000E+03  -0.5265976E-07   0.1312119E-07
   0.1450000E+03  -0.5233058E-07   0.1690420E-07
   0.1451000E+03  -0.5108153E-07   0.2025422E-07
   0.1452000E+03  -0.4893506E-07   0.2302558E-07
   0.1453000E+03  -0.4594636E-07   0.2509958E-07
   0.1454000E+03  -0.4219943E-07   0.2638991E-07
   0.1455000E+03  -0.3780098E-07   0.2684632E-07
   0.1456000E+03  -0.3287233E-07   0.2645637E-07
   0.1457000E+03  -0.2753992E-07   0.2524528E-07
   0.1458000E+03  -0.2192524E-07   0.2327378E-07
   0.1459000E+03  -0.1613549E-07   0.2063413E-07
   0.1460000E+03  -0.1025643E-07   0.1744442E-07
   0.1461000E+03  -0.4348953E-08   0.1384136E-07
   0.1462000E+03   0.1549690E-08   0.9972203E-08
   0.1463000E+03   0.7419705E-08   0.5986160E-08
   0.1464000E+03   0.1324839E-07   0.2026193E-08
   0.1465000E+03   0.1901736E-07  -0.1778347E-08
   0.1466000E+03   0.2468988E-07  -0.5317597E-08
   0.1467000E+03   0.3020108E-07  -0.8505230E-08
   0.1468000E+03   0.3545345E-07  -0.1128053E-07
   0.1469000E+03   0.4031927E-07  -0.1360857E-07
   0.1470000E+03   0.4464998E-07  -0.1547866E-07
   0.1471000E+03   0.4829154E-07  -0.1690158E-07
   0.1472000E+03   0.5110315E-07  -0.1790576E-07
   0.1473000E+03   0.5297626E-07  -0.1853297E-07
   0.1474000E+03   0.5385049E-07  -0.1883354E-07
   0.1475000E+03   0.5372369E-07  -0.1886149E-07
   0.1476000E+03   0.5265436E-07  -0.1866957E-07
   0.1477000E+03   0.5075587E-07  -0.1830441E-07
   0.1478000E+03   0.4818358E-07  -0.1780197E-07
   0.1479000E+03   0.4511656E-07  -0.1718358E-07
   0.1480000E+03   0.4173676E-07  -0.1645301E-07
   0.1481000E+03   0.3820832E-07  -0.1559487E-07
   0.1482000E+03   0.3465970E-07  -0.1457485E-07
   0.1483000E+03   0.3117059E-07  -0.1334196E-07
   0.1484000E+03   0.2776500E-07  -0.1183278E-07
   0.1485000E+03   0.2441109E-07  -0.9977820E-08
   0.1486000E+03   0.2102777E-07  -0.7709318E-08
   0.1487000E+03   0.1749708E-07  -0.4970110E-08
   0.1488000E+03   0.1368139E-07  -0.1722754E-08
   0.1489000E+03   0.9443411E-08   0.2041882E-08
   0.1490000E+03   0.4666901E-08   0.6297372E-08
   0.1491000E+03  -0.7242301E-09   0.1097658E-07
   0.1492000E+03  -0.6750816E-08   0.1596920E-07
   0.1493000E+03  -0.1336927E-07   0.2112252E-07
   0.1494000E+03  -0.2046965E-07   0.2624550E-07
   0.1495000E+03  -0.2788127E-07   0.3111644E-07
   0.1496000E+03  -0.3538515E-07   0.3549377E-07
   0.1497000E+03  -0.4273136E-07   0.3912953E-07
   0.1498000E+03  -0.4965898E-07   0.4178473E-07
   0.1499000E+03  -0.5591538E-07   0.4324541E-07
   0.1500000E+03  -0.6127245E-07   0.4333826E-07
   0.1501000E+03  -0.6553755E-07   0.4194442E-07
   0.1502000E+03  -0.6855850E-07   0.3901037E-07
   0.1503000E+03  -0.7022277E-07   0.3455488E-07
   0.1504000E+03  -0.7045261E-07   0.2867133E-07
   0.1505000E+03  -0.6919818E-07   0.2152530E-07
   0.1506000E+03  -0.6643131E-07   0.1334743E-07
   0.1507000E+03  -0.6214180E-07   0.4422227E-08
   0.1508000E+03  -0.5633771E-07  -0.4926194E-08
   0.1509000E+03  -0.4904977E-07  -0.1435044E-07
   0.1510000E+03  -0.4033923E-07  -0.2349690E-07
   0.1511000E+03  -0.3030735E-07  -0.3202246E-07
   0.1512000E+03  -0.1910443E-07  -0.3960992E-07
   0.1513000E+03  -0.6936334E-08  -0.4598136E-07
   0.1514000E+03   0.5933480E-08  -0.5090900E-07
   0.1515000E+03   0.1918733E-07  -0.5422328E-07
   0.1516000E+03   0.3246241E-07  -0.5581790E-07
   0.1517000E+03   0.4536503E-07  -0.5565192E-07
   0.1518000E+03   0.5748891E-07  -0.5374890E-07
   0.1519000E+03   0.6843586E-07  -0.5019323E-07
   0.1520000E+03   0.7783723E-07  -0.4512420E-07
   0.1521000E+03   0.8537435E-07  -0.3872799E-07
   0.1522000E+03   0.9079657E-07  -0.3122843E-07
   0.1523000E+03   0.9393541E-07  -0.2287697E-07
   0.1524000E+03   0.9471377E-07  -0.1394267E-07
   0.1525000E+03   0.9314926E-07  -0.4702737E-08
   0.1526000E+03   0.8935127E-07   0.4566141E-08
   0.1527000E+03   0.8351158E-07   0.1359526E-07
   0.1528000E+03   0.7588944E-07   0.2213037E-07
   0.1529000E+03   0.6679217E-07   0.2993716E-07
   0.1530000E+03   0.5655344E-07   0.3680611E-07
   0.1531000E+03   0.4551153E-07   0.4255690E-07
   0.1532000E+03   0.3398999E-07   0.4704256E-07
   0.1533000E+03   0.2228288E-07   0.5015344E-07
   0.1534000E+03   0.1064598E-07   0.5182074E-07
   0.1535000E+03  -0.7054879E-09   0.5201961E-07
   0.1536000E+03  -0.1159312E-07   0.5077124E-07
   0.1537000E+03  -0.2186728E-07   0.4814373E-07
   0.1538000E+03  -0.3139667E-07   0.4425130E-07
   0.1539000E+03  -0.4005794E-07   0.3925167E-07
   0.1540000E+03  -0.4772751E-07   0.3334136E-07
   0.1541000E+03  -0.5427706E-07   0.2674897E-07
   0.1542000E+03  -0.5957347E-07   0.1972656E-07
   0.1543000E+03  -0.6348315E-07   0.1253930E-07
   0.1544000E+03  -0.6587995E-07   0.5453889E-08
   0.1545000E+03  -0.6665545E-07  -0.1273790E-08
   0.1546000E+03  -0.6573022E-07  -0.7411024E-08
   0.1547000E+03  -0.6306468E-07  -0.1275993E-07
   0.1548000E+03  -0.5866837E-07  -0.1716753E-07
   0.1549000E+03  -0.5260669E-07  -0.2053334E-07
   0.1550000E+03  -0.4500453E-07  -0.2281388E-07
   0.1551000E+03  -0.3604647E-07  -0.2402341E-07
   0.1552000E+03  -0.2597317E-07  -0.2423091E-07
   0.1553000E+03  -0.1507419E-07  -0.2355313E-07
   0.1554000E+03  -0.3677397E-08  -0.2214454E-07
   0.1555000E+03   0.7864488E-08  -0.2018475E-07
   0.1556000E+03   0.1918918E-07  -0.1786459E-07
   0.1557000E+03   0.2994084E-07  -0.1537193E-07
   0.1558000E+03   0.3978540E-07  -0.1287866E-07
   0.1559000E+03   0.4842375E-07  -0.1052979E-07
   0.1560000E+03   0.5560186E-07  -0.8435628E-08
   0.1561000E+03   0.6111714E-07  -0.6667743E-08
   0.1562000E+03   0.6482114E-07  -0.5258810E-08
   0.1563000E+03   0.6661906E-07  -0.4206094E-08
   0.1564000E+03   0.6646723E-07  -0.3477957E-08
   0.1565000E+03   0.6436982E-07  -0.3022423E-08
   0.1566000E+03   0.6037582E-07  -0.2776703E-08
   0.1567000E+03   0.5457725E-07  -0.2676528E-08
   0.1568000E+03   0.4710885E-07  -0.2664277E-08
   0.1569000E+03   0.3814880E-07  -0.2695065E-08
   0.1570000E+03   0.2791956E-07  -0.2740286E-08
   0.1571000E+03   0.1668776E-07  -0.2788355E-08
   0.1572000E+03   0.4761703E-08  -0.2842792E-08
   0.1573000E+03  -0.7514173E-08  -0.2918011E-08
   0.1574000E+03  -0.1976841E-07  -0.3033482E-08
   0.1575000E+03  -0.3161490E-07  -0.3207116E-08
   0.1576000E+03  -0.4266763E-07  -0.3448815E-08
   0.1577000E+03  -0.5255671E-07  -0.3755151E-08
   0.1578000E+03  -0.6094413E-07  -0.4106001E-08
   0.1579000E+03  -0.6753822E-07  -0.4463725E-08
   0.1580000E+03  -0.7210557E-07  -0.4775120E-08
   0.1581000E+03  -0.7448012E-07  -0.4976012E-08
   0.1582000E+03  -0.7456900E-07  -0.4997988E-08
   0.1583000E+03  -0.7235522E-07  -0.4776429E-08
   0.1584000E+03  -0.6789747E-07  -0.4258808E-08
   0.1585000E+03  -0.6132720E-07  -0.3412160E-08
   0.1586000E+03  -0.5284316E-07  -0.2228688E-08
   0.1587000E+03  -0.4270383E-07  -0.7287302E-09
   0.1588000E+03  -0.3121791E-07   0.1039377E-08
   0.1589000E+03  -0.1873337E-07   0.3002574E-08
   0.1590000E+03  -0.5625677E-08   0.5069150E-08
   0.1591000E+03   0.7714259E-08   0.7136905E-08
   0.1592000E+03   0.2089177E-07   0.9102486E-08
   0.1593000E+03   0.3351928E-07   0.1087082E-07
   0.1594000E+03   0.4522620E-07   0.1236357E-07
   0.1595000E+03   0.5566794E-07   0.1352573E-07
   0.1596000E+03   0.6453450E-07   0.1432951E-07
   0.1597000E+03   0.7155891E-07   0.1477522E-07
   0.1598000E+03   0.7652606E-07   0.1488892E-07
   0.1599000E+03   0.7928173E-07   0.1471725E-07
   0.1600000E+03   0.7974152E-07   0.1432000E-07
   0.1601000E+03   0.7789867E-07   0.1376142E-07
   0.1602000E+03   0.7382963E-07   0.1310131E-07
   0.1603000E+03   0.6769595E-07   0.1238713E-07
   0.1604000E+03   0.5974136E-07   0.1164816E-07
   0.1605000E+03   0.5028338E-07   0.1089253E-07
   0.1606000E+03   0.3969934E-07   0.1010755E-07
   0.1607000E+03   0.2840760E-07   0.9263221E-08
   0.1608000E+03   0.1684536E-07   0.8318572E-08
   0.1609000E+03   0.5445037E-08   0.7229824E-08
   0.1610000E+03  -0.5388716E-08   0.5959192E-08
   0.1611000E+03  -0.1529930E-07   0.4483054E-08
   0.1612000E+03  -0.2399419E-07   0.2798215E-08
   0.1613000E+03  -0.3125556E-07   0.9253231E-09
   0.1614000E+03  -0.3694526E-07  -0.1091157E-08
   0.1615000E+03  -0.4100421E-07  -0.3186491E-08
   0.1616000E+03  -0.4344706E-07  -0.5282325E-08
   0.1617000E+03  -0.4435282E-07  -0.7295595E-08
   0.1618000E+03  -0.4385287E-07  -0.9148525E-08
   0.1619000E+03  -0.4211726E-07  -0.1077840E-07
   0.1620000E+03  -0.3934054E-07  -0.1214576E-07
   0.1621000E+03  -0.3572805E-07  -0.1324004E-07
   0.1622000E+03  -0.3148382E-07  -0.1408158E-07
   0.1623000E+03  -0.2680070E-07  -0.1472000E-07
   0.1624000E+03  -0.2185348E-07  -0.1522864E-07
   0.1625000E+03  -0.1679526E-07  -0.1569588E-07
   0.1626000E+03  -0.1175703E-07  -0.1621395E-07
   0.1627000E+03  -0.6849866E-08  -0.1686671E-07
   0.1628000E+03  -0.2169039E-08  -0.1771745E-07
   0.1629000E+03   0.2201331E-08  -0.1879826E-07
   0.1630000E+03   0.6184073E-08  -0.2010212E-07
   0.1631000E+03   0.9706361E-08  -0.2157876E-07
   0.1632000E+03   0.1269936E-07  -0.2313485E-07
   0.1633000E+03   0.1510023E-07  -0.2463882E-07
   0.1634000E+03   0.1685620E-07  -0.2592986E-07
   0.1635000E+03   0.1792971E-07  -0.2683057E-07
   0.1636000E+03   0.1830375E-07  -0.2716197E-07
   0.1637000E+03   0.1798614E-07  -0.2675959E-07
   0.1638000E+03   0.1701186E-07  -0.2548917E-07
   0.1639000E+03   0.1544302E-07  -0.2326036E-07
   0.1640000E+03   0.1336627E-07  -0.2003744E-07
   0.1641000E+03   0.1088811E-07  -0.1584576E-07
   0.1642000E+03   0.8128684E-08  -0.1077355E-07
   0.1643000E+03   0.5214873E-08  -0.4968874E-08
   0.1644000E+03   0.2273479E-08   0.1368024E-08
   0.1645000E+03  -0.5748929E-09   0.7996307E-08
   0.1646000E+03  -0.3220821E-08   0.1464907E-07
   0.1647000E+03  -0.5569731E-08   0.2104966E-07
   0.1648000E+03  -0.7544178E-08   0.2692843E-07
   0.1649000E+03  -0.9084841E-08   0.3203886E-07
   0.1650000E+03  -0.1015032E-07   0.3617166E-07
   0.1651000E+03  -0.1071591E-07   0.3916616E-07
   0.1652000E+03  -0.1077148E-07   0.4091825E-07
   0.1653000E+03  -0.1031877E-07   0.4138440E-07
   0.1654000E+03  -0.9368360E-08   0.4058188E-07
   0.1655000E+03  -0.7936797E-08   0.3858531E-07
   0.1656000E+03  -0.6044334E-08   0.3552001E-07
   0.1657000E+03  -0.3713779E-08   0.3155291E-07
   0.1658000E+03  -0.9707638E-09   0.2688164E-07
   0.1659000E+03   0.2154459E-08   0.2172281E-07
   0.1660000E+03   0.5623859E-08   0.1630010E-07
   0.1661000E+03   0.9387627E-08   0.1083292E-07
   0.1662000E+03   0.1338005E-07   0.5526131E-08
   0.1663000E+03   0.1751612E-07   0.5612272E-09
   0.1664000E+03   0.2168959E-07  -0.3910826E-08
   0.1665000E+03   0.2577318E-07  -0.7774985E-08
   0.1666000E+03   0.2962113E-07  -0.1095572E-07
   0.1667000E+03   0.3307395E-07  -0.1341877E-07
   0.1668000E+03   0.3596515E-07  -0.1517109E-07
   0.1669000E+03   0.3812922E-07  -0.1625894E-07
   0.1670000E+03   0.3941028E-07  -0.1676408E-07
   0.1671000E+03   0.3967077E-07  -0.1679813E-07
   0.1672000E+03   0.3879974E-07  -0.1649514E-07
   0.1673000E+03   0.3672034E-07  -0.1600278E-07
   0.1674000E+03   0.3339633E-07  -0.1547217E-07
   0.1675000E+03   0.2883723E-07  -0.1504727E-07
   0.1676000E+03   0.2310210E-07  -0.1485423E-07
   0.1677000E+03   0.1630134E-07  -0.1499150E-07
   0.1678000E+03   0.8596374E-08  -0.1552160E-07
   0.1679000E+03   0.1967774E-09  -0.1646512E-07
   0.1680000E+03  -0.8645423E-08  -0.1779774E-07
   0.1681000E+03  -0.1764423E-07  -0.1945048E-07
   0.1682000E+03  -0.2649073E-07  -0.2131356E-07
   0.1683000E+03  -0.3486631E-07  -0.2324345E-07
   0.1684000E+03  -0.4245711E-07  -0.2507292E-07
   0.1685000E+03  -0.4896898E-07  -0.2662321E-07
   0.1686000E+03  -0.5414198E-07  -0.2771745E-07
   0.1687000E+03  -0.5776338E-07  -0.2819419E-07
   0.1688000E+03  -0.5967868E-07  -0.2792009E-07
   0.1689000E+03  -0.5979981E-07  -0.2680048E-07
   0.1690000E+03  -0.5811040E-07  -0.2478710E-07
   0.1691000E+03  -0.5466776E-07  -0.2188228E-07
   0.1692000E+03  -0.4960146E-07  -0.1813922E-07
   0.1693000E+03  -0.4310865E-07  -0.1365856E-07
   0.1694000E+03  -0.3544594E-07  -0.8581453E-08
   0.1695000E+03  -0.2691824E-07  -0.3080082E-08
   0.1696000E+03  -0.1786479E-07   0.2653484E-08
   0.1697000E+03  -0.8642955E-08   0.8418974E-08
   0.1698000E+03   0.3893305E-09   0.1401905E-07
   0.1699000E+03   0.8891379E-08   0.1926896E-07
   0.1700000E+03   0.1655665E-07   0.2400415E-07
   0.1701000E+03   0.2312746E-07   0.2808539E-07
   0.1702000E+03   0.2840634E-07   0.3140158E-07
   0.1703000E+03   0.3226343E-07   0.3387046E-07
   0.1704000E+03   0.3463930E-07   0.3543782E-07
   0.1705000E+03   0.3554351E-07   0.3607578E-07
   0.1706000E+03   0.3504925E-07   0.3578085E-07
   0.1707000E+03   0.3328494E-07   0.3457203E-07
   0.1708000E+03   0.3042376E-07   0.3248938E-07
   0.1709000E+03   0.2667196E-07   0.2959302E-07
   0.1710000E+03   0.2225703E-07   0.2596236E-07
   0.1711000E+03   0.1741609E-07   0.2169540E-07
   0.1712000E+03   0.1238516E-07   0.1690751E-07
   0.1713000E+03   0.7389525E-08   0.1172944E-07
   0.1714000E+03   0.2635307E-08   0.6304236E-08
   0.1715000E+03  -0.1697582E-08   0.7828742E-09
   0.1716000E+03  -0.5461009E-08  -0.4681367E-08
   0.1717000E+03  -0.8542656E-08  -0.9939464E-08
   0.1718000E+03  -0.1086842E-07  -0.1485374E-07
   0.1719000E+03  -0.1240320E-07  -0.1930486E-07
   0.1720000E+03  -0.1315008E-07  -0.2319792E-07
   0.1721000E+03  -0.1314815E-07  -0.2646701E-07
   0.1722000E+03  -0.1246897E-07  -0.2907746E-07
   0.1723000E+03  -0.1121202E-07  -0.3102540E-07
   0.1724000E+03  -0.9499268E-08  -0.3233448E-07
   0.1725000E+03  -0.7468999E-08  -0.3304988E-07
   0.1726000E+03  -0.5268967E-08  -0.3323016E-07
   0.1727000E+03  -0.3049032E-08  -0.3293794E-07
   0.1728000E+03  -0.9533794E-09  -0.3223030E-07
   0.1729000E+03   0.8873569E-09  -0.3115033E-07
   0.1730000E+03   0.2363662E-08  -0.2972097E-07
   0.1731000E+03   0.3393816E-08  -0.2794192E-07
   0.1732000E+03   0.3929047E-08  -0.2579050E-07
   0.1733000E+03   0.3956486E-08  -0.2322634E-07
   0.1734000E+03   0.3499419E-08  -0.2019964E-07
   0.1735000E+03   0.2614560E-08  -0.1666214E-07
   0.1736000E+03   0.1386468E-08  -0.1257946E-07
   0.1737000E+03  -0.8040319E-10  -0.7943316E-08
   0.1738000E+03  -0.1671195E-08  -0.2782188E-08
   0.1739000E+03  -0.3270689E-08   0.2831280E-08
   0.1740000E+03  -0.4772846E-08   0.8777003E-08
   0.1741000E+03  -0.6088831E-08   0.1488912E-07
   0.1742000E+03  -0.7152806E-08   0.2096259E-07
   0.1743000E+03  -0.7925026E-08   0.2676437E-07
   0.1744000E+03  -0.8392183E-08   0.3204796E-07
   0.1745000E+03  -0.8565207E-08   0.3657016E-07
   0.1746000E+03  -0.8474978E-08   0.4010818E-07
   0.1747000E+03  -0.8166547E-08   0.4247568E-07
   0.1748000E+03  -0.7692565E-08   0.4353597E-07
   0.1749000E+03  -0.7106589E-08   0.4321146E-07
   0.1750000E+03  -0.6456927E-08   0.4148834E-07
   0.1751000E+03  -0.5781569E-08   0.3841649E-07
   0.1752000E+03  -0.5104647E-08   0.3410474E-07
   0.1753000E+03  -0.4434756E-08   0.2871219E-07
   0.1754000E+03  -0.3765284E-08   0.2243684E-07
   0.1755000E+03  -0.3076723E-08   0.1550262E-07
   0.1756000E+03  -0.2340718E-08   0.8146488E-08
   0.1757000E+03  -0.1525358E-08   0.6064881E-09
   0.1758000E+03  -0.6010883E-09  -0.6887906E-08
   0.1759000E+03   0.4535831E-09  -0.1412282E-07
   0.1760000E+03   0.1647390E-08  -0.2090417E-07
   0.1761000E+03   0.2973326E-08  -0.2705928E-07
   0.1762000E+03   0.4407838E-08  -0.3243676E-07
   0.1763000E+03   0.5912332E-08  -0.3690533E-07
   0.1764000E+03   0.7436738E-08  -0.4035285E-07
   0.1765000E+03   0.8924520E-08  -0.4268611E-07
   0.1766000E+03   0.1031832E-07  -0.4383226E-07
   0.1767000E+03   0.1156532E-07  -0.4374199E-07
   0.1768000E+03   0.1262143E-07  -0.4239431E-07
   0.1769000E+03   0.1345380E-07  -0.3980245E-07
   0.1770000E+03   0.1404133E-07  -0.3601990E-07
   0.1771000E+03   0.1437319E-07  -0.3114550E-07
   0.1772000E+03   0.1444598E-07  -0.2532652E-07
   0.1773000E+03   0.1425987E-07  -0.1875846E-07
   0.1774000E+03   0.1381473E-07  -0.1168106E-07
   0.1775000E+03   0.1310667E-07  -0.4369837E-08
   0.1776000E+03   0.1212589E-07   0.2876420E-08
   0.1777000E+03   0.1085599E-07   0.9751858E-08
   0.1778000E+03   0.9275051E-08   0.1596212E-07
   0.1779000E+03   0.7358639E-08   0.2124384E-07
   0.1780000E+03   0.5084285E-08   0.2538325E-07
   0.1781000E+03   0.2437284E-08   0.2823206E-07
   0.1782000E+03  -0.5828432E-09   0.2971891E-07
   0.1783000E+03  -0.3955924E-08   0.2985514E-07
   0.1784000E+03  -0.7635551E-08   0.2873387E-07
   0.1785000E+03  -0.1154520E-07   0.2652239E-07
   0.1786000E+03  -0.1557687E-07   0.2344834E-07
   0.1787000E+03  -0.1959276E-07   0.1978071E-07
   0.1788000E+03  -0.2343040E-07   0.1580761E-07
   0.1789000E+03  -0.2691110E-07   0.1181274E-07
   0.1790000E+03  -0.2985120E-07   0.8052915E-08
   0.1791000E+03  -0.3207531E-07   0.4738767E-08
   0.1792000E+03  -0.3343019E-07   0.2020406E-08
   0.1793000E+03  -0.3379802E-07  -0.2063205E-10
   0.1794000E+03  -0.3310757E-07  -0.1372632E-08
   0.1795000E+03  -0.3134202E-07  -0.2088335E-08
   0.1796000E+03  -0.2854270E-07  -0.2273837E-08
   0.1797000E+03  -0.2480812E-07  -0.2073267E-08
   0.1798000E+03  -0.2028845E-07  -0.1651110E-08
   0.1799000E+03  -0.1517594E-07  -0.1174218E-08
   0.1800000E+03  -0.9692305E-08  -0.7954386E-09
   0.1801000E+03  -0.4074027E-08  -0.6404717E-09
   0.1802000E+03   0.1442913E-08  -0.7990668E-09
   0.1803000E+03   0.6637715E-08  -0.1321103E-08
   0.1804000E+03   0.1131769E-07  -0.2217456E-08
   0.1805000E+03   0.1532851E-07  -0.3465004E-08
   0.1806000E+03   0.1856101E-07  -0.5014658E-08
   0.1807000E+03   0.2095436E-07  -0.6801030E-08
   0.1808000E+03   0.2249514E-07  -0.8752216E-08
   0.1809000E+03   0.2321294E-07  -0.1079829E-07
   0.1810000E+03   0.2317258E-07  -0.1287732E-07
   0.1811000E+03   0.2246412E-07  -0.1493829E-07
   0.1812000E+03   0.2119138E-07  -0.1694054E-07
   0.1813000E+03   0.1946051E-07  -0.1885020E-07
   0.1814000E+03   0.1736966E-07  -0.2063446E-07
   0.1815000E+03   0.1500102E-07  -0.2225469E-07
   0.1816000E+03   0.1241616E-07  -0.2366004E-07
   0.1817000E+03   0.9655105E-08  -0.2478279E-07
   0.1818000E+03   0.6739189E-08  -0.2553674E-07
   0.1819000E+03   0.3677167E-08  -0.2581936E-07
   0.1820000E+03   0.4736359E-09  -0.2551803E-07
   0.1821000E+03  -0.2861503E-08  -0.2452006E-07
   0.1822000E+03  -0.6303952E-08  -0.2272553E-07
   0.1823000E+03  -0.9807636E-08  -0.2006165E-07
   0.1824000E+03  -0.1330016E-07  -0.1649680E-07
   0.1825000E+03  -0.1668182E-07  -0.1205253E-07
   0.1826000E+03  -0.1982854E-07  -0.6811778E-08
   0.1827000E+03  -0.2259854E-07  -0.9219000E-09
   0.1828000E+03  -0.2484216E-07   0.5408227E-08
   0.1829000E+03  -0.2641404E-07   0.1191730E-07
   0.1830000E+03  -0.2718647E-07   0.1830637E-07
   0.1831000E+03  -0.2706256E-07   0.2425815E-07
   0.1832000E+03  -0.2598815E-07   0.2945925E-07
   0.1833000E+03  -0.2396094E-07   0.3362340E-07
   0.1834000E+03  -0.2103596E-07   0.3651342E-07
   0.1835000E+03  -0.1732664E-07   0.3796000E-07
   0.1836000E+03  -0.1300083E-07   0.3787547E-07
   0.1837000E+03  -0.8272127E-08   0.3626128E-07
   0.1838000E+03  -0.3386725E-08   0.3320846E-07
   0.1839000E+03   0.1392983E-08   0.2889100E-07
   0.1840000E+03   0.5806843E-08   0.2355281E-07
   0.1841000E+03   0.9615704E-08   0.1748947E-07
   0.1842000E+03   0.1261882E-07   0.1102650E-07
   0.1843000E+03   0.1466829E-07   0.4496288E-08
   0.1844000E+03   0.1567920E-07  -0.1784453E-08
   0.1845000E+03   0.1563464E-07  -0.7534383E-08
   0.1846000E+03   0.1458526E-07  -0.1252305E-07
   0.1847000E+03   0.1264361E-07  -0.1658099E-07
   0.1848000E+03   0.9973907E-08  -0.1960406E-07
   0.1849000E+03   0.6778484E-08  -0.2155207E-07
   0.1850000E+03   0.3282150E-08  -0.2244265E-07
   0.1851000E+03  -0.2840698E-09  -0.2234150E-07
   0.1852000E+03  -0.3698470E-08  -0.2135044E-07
   0.1853000E+03  -0.6762340E-08  -0.1959506E-07
   0.1854000E+03  -0.9310883E-08  -0.1721319E-07
   0.1855000E+03  -0.1122081E-07  -0.1434533E-07
   0.1856000E+03  -0.1241430E-07  -0.1112796E-07
   0.1857000E+03  -0.1285951E-07  -0.7689704E-08
   0.1858000E+03  -0.1256768E-07  -0.4150339E-08
   0.1859000E+03  -0.1158773E-07  -0.6220304E-09
   0.1860000E+03  -0.9998651E-08   0.2788148E-08
   0.1861000E+03  -0.7900873E-08   0.5975353E-08
   0.1862000E+03  -0.5407283E-08   0.8834776E-08
   0.1863000E+03  -0.2634771E-08   0.1126098E-07
   0.1864000E+03   0.3029695E-09   0.1314934E-07
   0.1865000E+03   0.3300895E-08   0.1439984E-07
   0.1866000E+03   0.6266097E-08   0.1492309E-07
   0.1867000E+03   0.9119336E-08   0.1464798E-07
   0.1868000E+03   0.1179490E-07   0.1353034E-07
   0.1869000E+03   0.1423929E-07   0.1156127E-07
   0.1870000E+03   0.1640921E-07   0.8774234E-08
   0.1871000E+03   0.1826952E-07   0.5249661E-08
   0.1872000E+03   0.1979144E-07   0.1116209E-08
   0.1873000E+03   0.2095144E-07  -0.3451959E-08
   0.1874000E+03   0.2173080E-07  -0.8242086E-08
   0.1875000E+03   0.2211583E-07  -0.1301364E-07
   0.1876000E+03   0.2209857E-07  -0.1751235E-07
   0.1877000E+03   0.2167770E-07  -0.2148637E-07
   0.1878000E+03   0.2085960E-07  -0.2470318E-07
   0.1879000E+03   0.1965920E-07  -0.2696572E-07
   0.1880000E+03   0.1810076E-07  -0.2812631E-07
   0.1881000E+03   0.1621834E-07  -0.2809715E-07
   0.1882000E+03   0.1405614E-07  -0.2685633E-07
   0.1883000E+03   0.1166852E-07  -0.2444909E-07
   0.1884000E+03   0.9119723E-08  -0.2098411E-07
   0.1885000E+03   0.6483231E-08  -0.1662538E-07
   0.1886000E+03   0.3840567E-08  -0.1158039E-07
   0.1887000E+03   0.1279483E-08  -0.6085731E-08
   0.1888000E+03  -0.1108541E-08  -0.3913873E-09
   0.1889000E+03  -0.3231504E-08   0.5255107E-08
   0.1890000E+03  -0.5000680E-08   0.1062340E-07
   0.1891000E+03  -0.6334861E-08   0.1551297E-07
   0.1892000E+03  -0.7164787E-08   0.1976291E-07
   0.1893000E+03  -0.7437497E-08   0.2325831E-07
   0.1894000E+03  -0.7120318E-08   0.2593312E-07
   0.1895000E+03  -0.6204228E-08   0.2776945E-07
   0.1896000E+03  -0.4706378E-08   0.2879366E-07
   0.1897000E+03  -0.2671573E-08   0.2906982E-07
   0.1898000E+03  -0.1725600E-09   0.2869123E-07
   0.1899000E+03   0.2691020E-08   0.2777075E-07
   0.1900000E+03   0.5795122E-08   0.2643082E-07
   0.1901000E+03   0.8995304E-08   0.2479391E-07
   0.1902000E+03   0.1213223E-07   0.2297403E-07
   0.1903000E+03   0.1503856E-07   0.2106972E-07
   0.1904000E+03   0.1754701E-07   0.1915894E-07
   0.1905000E+03   0.1949906E-07   0.1729586E-07
   0.1906000E+03   0.2075389E-07   0.1550959E-07
   0.1907000E+03   0.2119684E-07   0.1380474E-07
   0.1908000E+03   0.2074681E-07   0.1216365E-07
   0.1909000E+03   0.1936181E-07   0.1055003E-07
   0.1910000E+03   0.1704253E-07   0.8913726E-08
   0.1911000E+03   0.1383329E-07   0.7196519E-08
   0.1912000E+03   0.9820608E-08   0.5338388E-08
   0.1913000E+03   0.5129366E-08   0.3284074E-08
   0.1914000E+03  -0.8299789E-10   0.9894540E-09
   0.1915000E+03  -0.5633857E-08  -0.1572712E-08
   0.1916000E+03  -0.1132379E-07  -0.4408109E-08
   0.1917000E+03  -0.1694546E-07  -0.7497696E-08
   0.1918000E+03  -0.2229258E-07  -0.1079641E-07
   0.1919000E+03  -0.2716845E-07  -0.1423388E-07
   0.1920000E+03  -0.3139378E-07  -0.1771733E-07
   0.1921000E+03  -0.3481365E-07  -0.2113635E-07
   0.1922000E+03  -0.3730322E-07  -0.2436923E-07
   0.1923000E+03  -0.3877217E-07  -0.2729049E-07
   0.1924000E+03  -0.3916769E-07  -0.2977868E-07
   0.1925000E+03  -0.3847603E-07  -0.3172406E-07
   0.1926000E+03  -0.3672246E-07  -0.3303536E-07
   0.1927000E+03  -0.3396975E-07  -0.3364505E-07
   0.1928000E+03  -0.3031518E-07  -0.3351288E-07
   0.1929000E+03  -0.2588635E-07  -0.3262727E-07
   0.1930000E+03  -0.2083582E-07  -0.3100469E-07
   0.1931000E+03  -0.1533497E-07  -0.2868709E-07
   0.1932000E+03  -0.9567327E-08  -0.2573781E-07
   0.1933000E+03  -0.3721499E-08  -0.2223635E-07
   0.1934000E+03   0.2015829E-08  -0.1827263E-07
   0.1935000E+03   0.7466792E-08  -0.1394145E-07
   0.1936000E+03   0.1246880E-07  -0.9337568E-08
   0.1937000E+03   0.1688038E-07  -0.4552085E-08
   0.1938000E+03   0.2058609E-07   0.3296574E-09
   0.1939000E+03   0.2350040E-07   0.5228455E-08
   0.1940000E+03   0.2557011E-07   0.1007009E-07
   0.1941000E+03   0.2677540E-07   0.1478296E-07
   0.1942000E+03   0.2712912E-07   0.1929515E-07
   0.1943000E+03   0.2667463E-07   0.2353154E-07
   0.1944000E+03   0.2548214E-07   0.2741183E-07
   0.1945000E+03   0.2364391E-07   0.3085001E-07
   0.1946000E+03   0.2126881E-07   0.3375573E-07
   0.1947000E+03   0.1847649E-07   0.3603775E-07
   0.1948000E+03   0.1539177E-07   0.3760918E-07
   0.1949000E+03   0.1213952E-07   0.3839402E-07
   0.1950000E+03   0.8840238E-08   0.3833429E-07
   0.1951000E+03   0.5606539E-08   0.3739664E-07
   0.1952000E+03   0.2540428E-08   0.3557776E-07
   0.1953000E+03  -0.2687545E-09   0.3290755E-07
   0.1954000E+03  -0.2745887E-08   0.2944973E-07
   0.1955000E+03  -0.4831295E-08   0.2529944E-07
   0.1956000E+03  -0.6481790E-08   0.2057828E-07
   0.1957000E+03  -0.7671542E-08   0.1542706E-07
   0.1958000E+03  -0.8392765E-08   0.9997177E-08
   0.1959000E+03  -0.8656064E-08   0.4441562E-08
   0.1960000E+03  -0.8490307E-08  -0.1093742E-08
   0.1961000E+03  -0.7941835E-08  -0.6476503E-08
   0.1962000E+03  -0.7072856E-08  -0.1159294E-07
   0.1963000E+03  -0.5958963E-08  -0.1634967E-07
   0.1964000E+03  -0.4685734E-08  -0.2067297E-07
   0.1965000E+03  -0.3344517E-08  -0.2450554E-07
   0.1966000E+03  -0.2027549E-08  -0.2780164E-07
   0.1967000E+03  -0.8226791E-09  -0.3052141E-07
   0.1968000E+03   0.1919720E-09  -0.3262550E-07
   0.1969000E+03   0.9530257E-09  -0.3407111E-07
   0.1970000E+03   0.1416086E-08  -0.3481051E-07
   0.1971000E+03   0.1558779E-08  -0.3479237E-07
   0.1972000E+03   0.1382192E-08  -0.3396642E-07
   0.1973000E+03   0.9104342E-09  -0.3229085E-07
   0.1974000E+03   0.1881649E-09  -0.2974168E-07
   0.1975000E+03  -0.7238150E-09  -0.2632287E-07
   0.1976000E+03  -0.1754611E-08  -0.2207555E-07
   0.1977000E+03  -0.2830375E-08  -0.1708480E-07
   0.1978000E+03  -0.3881794E-08  -0.1148260E-07
   0.1979000E+03  -0.4851078E-08  -0.5445895E-08
   0.1980000E+03  -0.5697584E-08   0.8104932E-09
   0.1981000E+03  -0.6401339E-08   0.7045865E-08
   0.1982000E+03  -0.6963945E-08   0.1300955E-07
   0.1983000E+03  -0.7406668E-08   0.1845913E-07
   0.1984000E+03  -0.7765864E-08   0.2317903E-07
   0.1985000E+03  -0.8086265E-08   0.2699739E-07
   0.1986000E+03  -0.8412906E-08   0.2979922E-07
   0.1987000E+03  -0.8782686E-08   0.3153432E-07
   0.1988000E+03  -0.9216594E-08   0.3221894E-07
   0.1989000E+03  -0.9713570E-08   0.3193091E-07
   0.1990000E+03  -0.1024680E-07   0.3079877E-07
   0.1991000E+03  -0.1076293E-07   0.2898604E-07
   0.1992000E+03  -0.1118444E-07   0.2667251E-07
   0.1993000E+03  -0.1141493E-07   0.2403457E-07
   0.1994000E+03  -0.1134701E-07   0.2122707E-07
   0.1995000E+03  -0.1087187E-07   0.1836872E-07
   0.1996000E+03  -0.9889832E-08   0.1553282E-07
   0.1997000E+03  -0.8320631E-08   0.1274448E-07
   0.1998000E+03  -0.6112559E-08   0.9984610E-08
   0.1999000E+03  -0.3249451E-08   0.7200253E-08
   0.2000000E+03   0.2451916E-09   0.4319860E-08
