%!PS-Adobe-3.0 EPSF-3.0
%%Title: phi_C.eps
%%Creator: matplotlib version 1.3.1, http://matplotlib.org/
%%CreationDate: Tue Oct  2 16:54:05 2018
%%Orientation: portrait
%%BoundingBox: 40 193 571 598
%%EndComments
%%BeginProlog
/mpldict 10 dict def
mpldict begin
/m { moveto } bind def
/l { lineto } bind def
/r { rlineto } bind def
/c { curveto } bind def
/cl { closepath } bind def
/box {
m
1 index 0 r
0 exch r
neg 0 r
cl
} bind def
/clipbox {
box
clip
newpath
} bind def
%!PS-Adobe-3.0 Resource-Font
%%Title: cmmi10
%%Copyright: Copyright (C) 1994, Basil K. Malyshev. All Rights Reserved.012BaKoMa Fonts Collection, Level-B.
%%Creator: Converted from TrueType to type 3 by PPR
25 dict begin
/_d{bind def}bind def
/_m{moveto}_d
/_l{lineto}_d
/_cl{closepath eofill}_d
/_c{curveto}_d
/_sc{7 -1 roll{setcachedevice}{pop pop pop pop pop pop}ifelse}_d
/_e{exec}_d
/FontName /Cmmi10 def
/PaintType 0 def
/FontMatrix[.001 0 0 .001 0 0]def
/FontBBox[-34 -250 1048 750]def
/FontType 3 def
/Encoding [ /sigma /phi /M /period /slash /C /R /c ] def
/FontInfo 10 dict dup begin
/FamilyName (cmmi10) def
/FullName (cmmi10) def
/Notice (Copyright (C) 1994, Basil K. Malyshev. All Rights Reserved.012BaKoMa Fonts Collection, Level-B. ) def
/Weight (Regular) def
/Version (1.1/12-Nov-94) def
/ItalicAngle 0.0 def
/isFixedPitch false def
/UnderlinePosition -133 def
/UnderlineThickness 20 def
end readonly def
/CharStrings 8 dict dup begin
/sigma{{571 0 36 -10 568 431 _sc
187 -10 _m
157 -10 131 -3 108 10 _c
85 24 67 43 55 67 _c
42 91 36 118 36 147 _c
36 177 43 210 57 244 _c
71 278 90 310 114 338 _c
138 366 166 389 197 406 _c
227 422 259 431 291 431 _c
543 431 _l
549 431 555 428 560 424 _c
565 419 568 413 568 406 _c
568 396 564 387 557 380 _c
550 372 542 369 532 369 _c
410 369 _l
}_e{429 340 439 305 439 265 _c
439 231 432 198 419 166 _c
406 133 388 103 365 77 _c
342 50 315 29 284 13 _c
253 -2 221 -10 187 -10 _c
188 15 _m
224 15 257 29 285 58 _c
313 86 334 121 349 162 _c
364 203 372 241 372 277 _c
372 305 364 328 348 344 _c
332 360 310 369 282 369 _c
243 369 210 356 183 330 _c
156 304 136 271 122 232 _c
108 192 102 154 102 118 _c
}_e{102 89 109 65 124 45 _c
139 25 160 15 188 15 _c
_cl}_e}_d
/phi{{595 0 47 -204 575 694 _sc
194 -194 _m
239 -13 _l
205 -13 173 -5 144 10 _c
114 25 91 47 73 75 _c
55 103 47 134 47 168 _c
47 204 56 238 74 271 _c
92 304 116 334 147 361 _c
178 387 211 408 247 423 _c
283 437 318 445 354 445 _c
414 688 _l
415 692 418 694 422 694 _c
434 694 _l
436 694 438 692 440 690 _c
442 688 443 686 443 684 _c
383 445 _l
407 445 431 440 455 431 _c
}_e{479 421 500 408 518 392 _c
536 376 550 356 560 334 _c
570 312 575 288 575 263 _c
575 227 566 192 548 159 _c
530 126 506 96 476 70 _c
446 44 412 23 375 9 _c
337 -5 302 -13 268 -13 _c
222 -198 _l
220 -202 218 -204 214 -204 _c
202 -204 _l
199 -204 197 -202 196 -200 _c
194 -198 194 -196 194 -194 _c
245 12 _m
347 419 _l
330 419 312 415 294 408 _c
275 401 257 392 241 382 _c
}_e{225 372 210 360 197 347 _c
180 331 165 311 153 289 _c
141 267 131 243 125 219 _c
119 195 116 171 116 147 _c
116 121 121 98 132 78 _c
142 58 157 42 177 30 _c
197 18 219 12 245 12 _c
275 12 _m
300 12 327 19 355 33 _c
383 47 406 64 425 84 _c
449 108 469 139 484 175 _c
498 211 506 247 506 284 _c
506 308 500 331 490 352 _c
479 372 464 389 444 401 _c
}_e{424 413 402 419 377 419 _c
275 12 _l
_cl}_e}_d
/M{{970 0 41 0 1046 683 _sc
51 0 _m
44 0 41 4 41 13 _c
41 15 42 17 43 21 _c
43 25 44 28 46 31 _c
48 33 50 35 54 35 _c
117 35 154 55 165 96 _c
295 618 _l
296 624 297 629 297 632 _c
297 639 293 643 285 644 _c
272 646 248 648 213 648 _c
206 648 203 652 203 661 _c
203 663 204 666 205 670 _c
206 674 207 677 209 679 _c
211 681 213 683 216 683 _c
}_e{392 683 _l
399 683 403 679 405 672 _c
483 99 _l
847 672 _l
851 679 858 683 866 683 _c
1036 683 _l
1042 683 1046 678 1046 670 _c
1045 668 1044 665 1043 661 _c
1042 657 1041 653 1039 651 _c
1037 649 1035 648 1033 648 _c
992 648 964 645 948 641 _c
939 638 933 629 929 614 _c
792 65 _l
790 58 790 53 790 51 _c
790 48 790 46 791 44 _c
791 42 792 41 794 41 _c
}_e{796 40 798 39 802 39 _c
814 36 838 35 874 35 _c
880 35 884 30 884 22 _c
881 12 879 6 878 4 _c
876 1 873 0 867 0 _c
606 0 _l
599 0 596 4 596 13 _c
596 15 597 18 598 22 _c
599 26 600 29 602 31 _c
604 33 606 35 609 35 _c
649 35 678 37 694 42 _c
702 44 709 53 713 69 _c
857 648 _l
453 11 _l
449 3 442 0 433 0 _c
}_e{424 0 419 3 419 11 _c
334 640 _l
197 92 _l
196 90 195 87 195 85 _c
195 83 194 80 194 77 _c
194 59 201 48 216 43 _c
231 37 250 35 272 35 _c
278 35 282 30 282 22 _c
280 13 278 7 276 4 _c
274 1 271 0 265 0 _c
51 0 _l
_cl}_e}_d
/period{277 0 84 0 194 110 _sc
84 55 _m
84 70 89 83 100 94 _c
111 104 124 110 139 110 _c
148 110 157 107 166 102 _c
174 97 181 90 186 82 _c
191 73 194 64 194 55 _c
194 40 188 27 178 16 _c
167 5 154 0 139 0 _c
124 0 111 5 100 16 _c
89 27 84 40 84 55 _c
_cl}_d
/slash{500 0 56 -249 443 750 _sc
56 -229 _m
56 -227 56 -225 57 -225 _c
405 738 _l
406 742 408 745 412 747 _c
415 749 419 750 423 750 _c
429 750 433 748 437 744 _c
441 740 443 736 443 730 _c
443 726 _l
95 -237 _l
91 -245 84 -249 76 -249 _c
70 -249 66 -247 62 -243 _c
58 -239 56 -234 56 -229 _c
_cl}_d
/C{{714 0 51 -21 760 705 _sc
146 216 _m
146 176 153 140 169 110 _c
184 79 206 55 236 38 _c
266 21 301 13 341 13 _c
383 13 423 23 462 45 _c
501 67 534 96 562 132 _c
589 168 608 206 618 246 _c
619 250 622 252 626 252 _c
638 252 _l
640 252 642 251 644 249 _c
646 247 647 245 647 243 _c
647 242 646 241 646 240 _c
634 194 612 150 580 110 _c
547 69 508 37 462 14 _c
}_e{416 -9 370 -21 322 -21 _c
270 -21 223 -9 182 13 _c
140 36 108 68 85 110 _c
62 152 51 199 51 252 _c
51 308 63 363 88 418 _c
113 472 147 521 189 564 _c
231 607 280 641 334 667 _c
388 692 443 705 499 705 _c
521 705 542 701 562 695 _c
582 688 601 678 619 664 _c
636 650 650 635 661 617 _c
740 703 _l
740 704 741 705 745 705 _c
751 705 _l
753 705 755 703 757 701 _c
}_e{759 699 760 697 760 695 _c
692 425 _l
692 420 689 418 684 418 _c
666 418 _l
660 418 658 421 658 429 _c
660 443 662 461 662 482 _c
662 514 656 545 645 574 _c
634 602 617 625 594 643 _c
570 661 542 670 509 670 _c
454 670 404 656 359 629 _c
314 601 276 565 244 521 _c
212 477 188 427 171 373 _c
154 319 146 266 146 216 _c
_cl}_e}_d
/R{{759 0 39 -21 755 683 _sc
49 0 _m
42 0 39 4 39 13 _c
39 15 40 18 41 22 _c
41 26 43 29 45 31 _c
47 33 49 35 52 35 _c
92 35 121 37 137 42 _c
145 44 152 53 156 69 _c
293 618 _l
294 624 295 629 295 632 _c
295 639 291 643 283 644 _c
270 646 246 648 211 648 _c
204 648 201 652 201 661 _c
201 663 202 666 203 670 _c
204 674 205 677 207 679 _c
}_e{209 681 211 683 214 683 _c
517 683 _l
541 683 566 680 592 675 _c
618 669 642 661 664 649 _c
686 637 704 621 718 601 _c
732 581 739 558 739 532 _c
739 498 727 468 705 442 _c
683 416 655 394 621 376 _c
587 358 555 346 523 339 _c
549 329 570 314 587 294 _c
603 273 612 249 612 222 _c
612 218 611 216 611 214 _c
611 212 611 210 611 208 _c
603 119 _l
602 106 601 95 601 86 _c
}_e{600 76 600 69 600 64 _c
600 46 602 31 608 20 _c
613 9 624 4 640 4 _c
660 4 679 13 695 33 _c
711 52 721 73 726 96 _c
728 102 732 105 736 105 _c
745 105 _l
751 105 755 100 755 92 _c
750 72 742 54 732 37 _c
721 19 707 5 691 -5 _c
675 -15 657 -21 639 -21 _c
600 -21 567 -12 539 4 _c
511 21 498 48 498 86 _c
498 100 499 112 502 123 _c
524 212 _l
}_e{526 220 528 229 528 240 _c
528 268 518 289 500 305 _c
481 321 457 329 429 329 _c
306 329 _l
240 65 _l
238 59 238 55 238 51 _c
238 44 242 40 250 39 _c
262 36 286 35 322 35 _c
328 35 332 30 332 22 _c
330 12 328 6 327 4 _c
325 1 321 0 315 0 _c
49 0 _l
312 355 _m
423 355 _l
495 355 550 373 587 410 _c
603 427 617 449 627 475 _c
}_e{637 501 642 527 642 553 _c
642 577 634 597 620 611 _c
606 625 588 634 567 640 _c
545 645 522 648 496 648 _c
429 648 _l
411 648 399 646 393 643 _c
387 640 381 630 377 614 _c
312 355 _l
_cl}_e}_d
/c{{432 0 40 -10 430 442 _sc
117 119 _m
117 90 124 65 139 45 _c
154 25 175 15 203 15 _c
243 15 281 24 318 42 _c
354 60 384 86 407 118 _c
409 120 411 121 415 121 _c
418 121 421 119 425 115 _c
428 111 430 108 430 105 _c
430 102 429 100 428 99 _c
404 65 371 38 330 19 _c
288 0 245 -10 201 -10 _c
169 -10 140 -2 116 12 _c
92 26 73 46 60 72 _c
}_e{46 97 40 126 40 158 _c
40 203 52 248 77 292 _c
102 336 135 372 177 400 _c
219 428 263 442 309 442 _c
339 442 366 434 390 420 _c
414 405 426 384 426 356 _c
426 338 420 322 410 309 _c
399 296 385 290 367 290 _c
356 290 347 293 340 300 _c
332 306 329 315 329 326 _c
329 342 334 355 346 366 _c
357 377 370 383 386 383 _c
388 383 _l
380 394 368 402 354 408 _c
}_e{339 413 324 416 308 416 _c
269 416 235 399 206 366 _c
176 332 154 292 139 246 _c
124 200 117 157 117 119 _c
_cl}_e}_d
end readonly def

/BuildGlyph
 {exch begin
 CharStrings exch
 2 copy known not{pop /.notdef}if
 true 3 1 roll get exec
 end}_d

/BuildChar {
 1 index /Encoding get exch get
 1 index /BuildGlyph get exec
}_d

FontName currentdict end definefont pop
%!PS-Adobe-3.0 Resource-Font
%%Title: DejaVu Sans
%%Copyright: Copyright (c) 2003 by Bitstream, Inc. All Rights Reserved. Copyright (c) 2006 by Tavmjong Bah. All Rights Reserved. DejaVu changes are in public domain 
%%Creator: Converted from TrueType to type 3 by PPR
25 dict begin
/_d{bind def}bind def
/_m{moveto}_d
/_l{lineto}_d
/_cl{closepath eofill}_d
/_c{curveto}_d
/_sc{7 -1 roll{setcachedevice}{pop pop pop pop pop pop}ifelse}_d
/_e{exec}_d
/FontName /DejaVuSans def
/PaintType 0 def
/FontMatrix[.001 0 0 .001 0 0]def
/FontBBox[-1021 -415 1681 1167]def
/FontType 3 def
/Encoding [ /period /zero /one /two /three /four /five /six /eight ] def
/FontInfo 10 dict dup begin
/FamilyName (DejaVu Sans) def
/FullName (DejaVu Sans) def
/Notice (Copyright (c) 2003 by Bitstream, Inc. All Rights Reserved. Copyright (c) 2006 by Tavmjong Bah. All Rights Reserved. DejaVu changes are in public domain ) def
/Weight (Book) def
/Version (Version 2.34) def
/ItalicAngle 0.0 def
/isFixedPitch false def
/UnderlinePosition -130 def
/UnderlineThickness 90 def
end readonly def
/CharStrings 9 dict dup begin
/period{318 0 107 0 210 124 _sc
107 124 _m
210 124 _l
210 0 _l
107 0 _l
107 124 _l
_cl}_d
/zero{636 0 66 -13 570 742 _sc
318 664 _m
267 664 229 639 203 589 _c
177 539 165 464 165 364 _c
165 264 177 189 203 139 _c
229 89 267 64 318 64 _c
369 64 407 89 433 139 _c
458 189 471 264 471 364 _c
471 464 458 539 433 589 _c
407 639 369 664 318 664 _c
318 742 _m
399 742 461 709 505 645 _c
548 580 570 486 570 364 _c
570 241 548 147 505 83 _c
461 19 399 -13 318 -13 _c
236 -13 173 19 130 83 _c
87 147 66 241 66 364 _c
66 486 87 580 130 645 _c
173 709 236 742 318 742 _c
_cl}_d
/one{636 0 110 0 544 729 _sc
124 83 _m
285 83 _l
285 639 _l
110 604 _l
110 694 _l
284 729 _l
383 729 _l
383 83 _l
544 83 _l
544 0 _l
124 0 _l
124 83 _l
_cl}_d
/two{{636 0 73 0 536 742 _sc
192 83 _m
536 83 _l
536 0 _l
73 0 _l
73 83 _l
110 121 161 173 226 239 _c
290 304 331 346 348 365 _c
380 400 402 430 414 455 _c
426 479 433 504 433 528 _c
433 566 419 598 392 622 _c
365 646 330 659 286 659 _c
255 659 222 653 188 643 _c
154 632 117 616 78 594 _c
78 694 _l
118 710 155 722 189 730 _c
223 738 255 742 284 742 _c
}_e{359 742 419 723 464 685 _c
509 647 532 597 532 534 _c
532 504 526 475 515 449 _c
504 422 484 390 454 354 _c
446 344 420 317 376 272 _c
332 227 271 164 192 83 _c
_cl}_e}_d
/three{{636 0 76 -13 556 742 _sc
406 393 _m
453 383 490 362 516 330 _c
542 298 556 258 556 212 _c
556 140 531 84 482 45 _c
432 6 362 -13 271 -13 _c
240 -13 208 -10 176 -4 _c
144 1 110 10 76 22 _c
76 117 _l
103 101 133 89 166 81 _c
198 73 232 69 268 69 _c
330 69 377 81 409 105 _c
441 129 458 165 458 212 _c
458 254 443 288 413 312 _c
383 336 341 349 287 349 _c
}_e{202 349 _l
202 430 _l
291 430 _l
339 430 376 439 402 459 _c
428 478 441 506 441 543 _c
441 580 427 609 401 629 _c
374 649 336 659 287 659 _c
260 659 231 656 200 650 _c
169 644 135 635 98 623 _c
98 711 _l
135 721 170 729 203 734 _c
235 739 266 742 296 742 _c
370 742 429 725 473 691 _c
517 657 539 611 539 553 _c
539 513 527 479 504 451 _c
481 423 448 403 406 393 _c
_cl}_e}_d
/four{636 0 49 0 580 729 _sc
378 643 _m
129 254 _l
378 254 _l
378 643 _l
352 729 _m
476 729 _l
476 254 _l
580 254 _l
580 172 _l
476 172 _l
476 0 _l
378 0 _l
378 172 _l
49 172 _l
49 267 _l
352 729 _l
_cl}_d
/five{{636 0 77 -13 549 729 _sc
108 729 _m
495 729 _l
495 646 _l
198 646 _l
198 467 _l
212 472 227 476 241 478 _c
255 480 270 482 284 482 _c
365 482 429 459 477 415 _c
525 370 549 310 549 234 _c
549 155 524 94 475 51 _c
426 8 357 -13 269 -13 _c
238 -13 207 -10 175 -6 _c
143 -1 111 6 77 17 _c
77 116 _l
106 100 136 88 168 80 _c
199 72 232 69 267 69 _c
}_e{323 69 368 83 401 113 _c
433 143 450 183 450 234 _c
450 284 433 324 401 354 _c
368 384 323 399 267 399 _c
241 399 214 396 188 390 _c
162 384 135 375 108 363 _c
108 729 _l
_cl}_e}_d
/six{{636 0 70 -13 573 742 _sc
330 404 _m
286 404 251 388 225 358 _c
199 328 186 286 186 234 _c
186 181 199 139 225 109 _c
251 79 286 64 330 64 _c
374 64 409 79 435 109 _c
461 139 474 181 474 234 _c
474 286 461 328 435 358 _c
409 388 374 404 330 404 _c
526 713 _m
526 623 _l
501 635 476 644 451 650 _c
425 656 400 659 376 659 _c
310 659 260 637 226 593 _c
}_e{192 549 172 482 168 394 _c
187 422 211 444 240 459 _c
269 474 301 482 336 482 _c
409 482 467 459 509 415 _c
551 371 573 310 573 234 _c
573 159 550 99 506 54 _c
462 9 403 -13 330 -13 _c
246 -13 181 19 137 83 _c
92 147 70 241 70 364 _c
70 479 97 571 152 639 _c
206 707 280 742 372 742 _c
396 742 421 739 447 735 _c
472 730 498 723 526 713 _c
_cl}_e}_d
/eight{{636 0 68 -13 568 742 _sc
318 346 _m
271 346 234 333 207 308 _c
180 283 167 249 167 205 _c
167 161 180 126 207 101 _c
234 76 271 64 318 64 _c
364 64 401 76 428 102 _c
455 127 469 161 469 205 _c
469 249 455 283 429 308 _c
402 333 365 346 318 346 _c
219 388 _m
177 398 144 418 120 447 _c
96 476 85 511 85 553 _c
85 611 105 657 147 691 _c
188 725 245 742 318 742 _c
}_e{390 742 447 725 489 691 _c
530 657 551 611 551 553 _c
551 511 539 476 515 447 _c
491 418 459 398 417 388 _c
464 377 501 355 528 323 _c
554 291 568 251 568 205 _c
568 134 546 80 503 43 _c
459 5 398 -13 318 -13 _c
237 -13 175 5 132 43 _c
89 80 68 134 68 205 _c
68 251 81 291 108 323 _c
134 355 171 377 219 388 _c
183 544 _m
183 506 194 476 218 455 _c
}_e{242 434 275 424 318 424 _c
360 424 393 434 417 455 _c
441 476 453 506 453 544 _c
453 582 441 611 417 632 _c
393 653 360 664 318 664 _c
275 664 242 653 218 632 _c
194 611 183 582 183 544 _c
_cl}_e}_d
end readonly def

/BuildGlyph
 {exch begin
 CharStrings exch
 2 copy known not{pop /.notdef}if
 true 3 1 roll get exec
 end}_d

/BuildChar {
 1 index /Encoding get exch get
 1 index /BuildGlyph get exec
}_d

FontName currentdict end definefont pop
%!PS-Adobe-3.0 Resource-Font
%%Title: cmr10
%%Copyright: Copyright (C) 1994, Basil K. Malyshev. All Rights Reserved.012BaKoMa Fonts Collection, Level-B.
%%Creator: Converted from TrueType to type 3 by PPR
25 dict begin
/_d{bind def}bind def
/_m{moveto}_d
/_l{lineto}_d
/_cl{closepath eofill}_d
/_c{curveto}_d
/_sc{7 -1 roll{setcachedevice}{pop pop pop pop pop pop}ifelse}_d
/_e{exec}_d
/FontName /Cmr10 def
/PaintType 0 def
/FontMatrix[.001 0 0 .001 0 0]def
/FontBBox[-44 -250 1009 750]def
/FontType 3 def
/Encoding [ /zero /equal /two /six /eight /one ] def
/FontInfo 10 dict dup begin
/FamilyName (cmr10) def
/FullName (cmr10) def
/Notice (Copyright (C) 1994, Basil K. Malyshev. All Rights Reserved.012BaKoMa Fonts Collection, Level-B. ) def
/Weight (Regular) def
/Version (1.1/12-Nov-94) def
/ItalicAngle 0.0 def
/isFixedPitch false def
/UnderlinePosition -133 def
/UnderlineThickness 20 def
end readonly def
/CharStrings 6 dict dup begin
/zero{{500 0 39 -21 460 666 _sc
250 -21 _m
168 -21 112 12 83 79 _c
53 146 39 226 39 319 _c
39 377 44 431 55 482 _c
65 533 86 576 118 612 _c
149 648 193 666 250 666 _c
294 666 330 655 358 634 _c
386 612 407 585 422 551 _c
436 517 446 480 452 441 _c
457 402 460 361 460 319 _c
460 261 454 208 444 158 _c
433 108 412 65 381 31 _c
350 -3 306 -21 250 -21 _c
250 4 _m
}_e{287 4 315 23 333 61 _c
351 99 362 141 366 187 _c
370 233 373 283 373 335 _c
373 385 370 431 366 473 _c
362 515 351 554 333 588 _c
315 622 287 640 250 640 _c
212 640 184 622 166 588 _c
148 554 136 515 132 473 _c
128 431 126 385 126 335 _c
126 297 126 262 128 230 _c
130 197 135 163 143 128 _c
151 93 163 64 181 40 _c
198 16 221 4 250 4 _c
_cl}_e}_d
/equal{{777 0 56 133 721 367 _sc
75 133 _m
69 133 65 135 61 139 _c
57 143 56 148 56 153 _c
56 158 57 163 61 167 _c
65 171 69 173 75 173 _c
703 173 _l
707 173 711 171 715 167 _c
719 163 721 158 721 153 _c
721 148 719 143 715 139 _c
711 135 707 133 703 133 _c
75 133 _l
75 327 _m
69 327 65 329 61 333 _c
57 337 56 341 56 347 _c
56 351 57 356 61 360 _c
}_e{65 364 69 367 75 367 _c
703 367 _l
707 367 711 364 715 360 _c
719 356 721 351 721 347 _c
721 341 719 337 715 333 _c
711 329 707 327 703 327 _c
75 327 _l
_cl}_e}_d
/two{{500 0 50 0 449 666 _sc
50 0 _m
50 27 _l
50 28 50 30 52 32 _c
207 204 _l
230 229 249 250 264 268 _c
278 285 293 305 307 327 _c
321 349 333 372 341 396 _c
349 419 354 444 354 470 _c
354 497 349 523 339 548 _c
329 573 314 593 294 608 _c
274 623 249 631 221 631 _c
192 631 166 622 143 605 _c
119 587 103 565 94 537 _c
96 537 100 538 105 538 _c
}_e{119 538 132 533 143 523 _c
153 513 159 500 159 484 _c
159 468 153 455 143 445 _c
132 434 119 429 105 429 _c
89 429 76 434 66 445 _c
55 456 50 469 50 484 _c
50 508 54 532 64 554 _c
73 576 86 595 104 613 _c
122 630 142 643 164 652 _c
186 661 210 666 236 666 _c
274 666 309 658 342 642 _c
375 626 401 603 420 573 _c
439 543 449 509 449 470 _c
}_e{449 441 442 414 430 388 _c
417 362 401 338 381 317 _c
361 295 336 271 305 244 _c
274 217 254 199 244 190 _c
131 81 _l
227 81 _l
274 81 313 81 345 82 _c
377 82 394 84 396 86 _c
404 94 412 125 420 178 _c
449 178 _l
421 0 _l
50 0 _l
_cl}_e}_d
/six{{500 0 42 -21 457 666 _sc
250 -21 _m
208 -21 174 -10 146 11 _c
118 33 97 61 82 96 _c
67 131 57 168 51 206 _c
45 244 42 283 42 323 _c
42 375 52 428 73 482 _c
93 535 123 579 163 614 _c
203 648 250 666 305 666 _c
327 666 348 661 368 653 _c
388 644 403 631 415 615 _c
426 598 432 578 432 554 _c
432 540 427 529 418 520 _c
408 510 397 506 384 506 _c
}_e{370 506 359 510 350 520 _c
340 529 336 540 336 554 _c
336 567 340 578 350 588 _c
359 597 370 602 384 602 _c
389 602 _l
380 614 368 622 353 628 _c
337 634 321 637 305 637 _c
285 637 266 632 249 624 _c
232 615 217 603 203 588 _c
189 573 178 557 169 539 _c
159 521 152 500 147 477 _c
142 453 139 432 138 412 _c
136 392 136 366 136 336 _c
148 363 164 385 186 403 _c
}_e{207 420 231 429 259 429 _c
288 429 315 423 339 411 _c
363 399 384 382 402 361 _c
420 339 433 315 443 288 _c
452 260 457 233 457 205 _c
457 165 448 128 431 93 _c
413 58 389 30 357 10 _c
325 -10 290 -21 250 -21 _c
250 10 _m
276 10 296 15 312 27 _c
327 39 338 54 346 74 _c
353 93 358 112 360 132 _c
362 152 363 176 363 205 _c
363 243 361 275 357 302 _c
}_e{353 328 344 352 328 372 _c
312 392 287 403 255 403 _c
227 403 205 393 188 375 _c
170 357 158 334 150 306 _c
142 278 138 252 138 226 _c
138 217 138 210 139 206 _c
139 205 139 204 139 204 _c
139 203 138 202 138 201 _c
138 172 141 143 147 114 _c
153 84 164 60 181 40 _c
197 20 220 10 250 10 _c
_cl}_e}_d
/eight{{500 0 42 -21 457 666 _sc
42 152 _m
42 192 55 227 81 258 _c
107 288 141 314 183 335 _c
146 359 _l
123 373 104 393 90 418 _c
76 443 69 469 69 497 _c
69 529 77 557 94 583 _c
110 609 133 629 161 644 _c
189 658 218 666 250 666 _c
279 666 307 660 335 648 _c
363 636 385 618 403 596 _c
421 574 430 547 430 516 _c
430 493 424 472 414 453 _c
403 434 388 417 370 402 _c
}_e{352 386 332 373 312 363 _c
369 326 _l
395 308 417 286 433 258 _c
449 230 457 200 457 170 _c
457 134 447 101 428 71 _c
408 41 383 19 351 3 _c
319 -13 285 -21 250 -21 _c
215 -21 182 -14 150 0 _c
118 13 92 33 72 60 _c
52 86 42 117 42 152 _c
96 152 _m
96 125 103 101 118 79 _c
132 57 151 40 175 28 _c
199 16 224 10 250 10 _c
288 10 323 21 355 44 _c
}_e{387 66 403 96 403 134 _c
403 146 400 159 395 171 _c
390 183 383 195 374 205 _c
365 215 355 224 344 231 _c
210 318 _l
189 306 170 292 152 275 _c
134 258 121 239 111 218 _c
101 197 96 175 96 152 _c
165 457 _m
286 379 _l
314 395 337 414 355 438 _c
373 461 382 487 382 516 _c
382 538 375 559 363 578 _c
350 596 334 611 314 621 _c
294 631 272 637 249 637 _c
}_e{229 637 208 633 188 625 _c
167 617 150 606 137 590 _c
123 574 117 556 117 536 _c
117 504 133 478 165 457 _c
_cl}_e}_d
/one{500 0 87 0 421 666 _sc
93 0 _m
93 35 _l
176 35 218 45 218 67 _c
218 592 _l
183 575 139 567 87 567 _c
87 602 _l
168 602 230 623 272 666 _c
286 666 _l
288 666 291 665 293 663 _c
295 661 296 659 296 657 _c
296 67 _l
296 45 337 35 421 35 _c
421 0 _l
93 0 _l
_cl}_d
end readonly def

/BuildGlyph
 {exch begin
 CharStrings exch
 2 copy known not{pop /.notdef}if
 true 3 1 roll get exec
 end}_d

/BuildChar {
 1 index /Encoding get exch get
 1 index /BuildGlyph get exec
}_d

FontName currentdict end definefont pop
end
%%EndProlog
mpldict begin
40.096 193.742 translate
531.808 404.516 0 0 clipbox
gsave
0 0 m
531.808 0 l
531.808 404.516 l
0 404.516 l
cl
1.000 setgray
fill
grestore
gsave
67.6219 51.7156 m
514.022 51.7156 l
514.022 397.316 l
67.6219 397.316 l
cl
1.000 setgray
fill
grestore
1.000 setlinewidth
1 setlinejoin
2 setlinecap
[] 0 setdash
0.000 setgray
gsave
446.4 345.6 67.62 51.72 clipbox
-56.7324 52.4227 m
-1 55.917 m
3.85045 56.0245 l
35.7362 56.2917 l
67.6219 56.5379 l
99.5076 56.829 l
131.393 57.2423 l
163.279 57.8215 l
195.165 58.6688 l
211.108 59.2577 l
227.05 60.0299 l
242.993 61.1093 l
258.936 62.8119 l
262.125 63.2971 l
265.313 63.8658 l
266.908 64.1912 l
268.502 64.5512 l
270.096 64.9541 l
271.69 65.4112 l
273.285 65.9391 l
274.879 66.5642 l
276.473 67.3319 l
278.068 68.3324 l
279.662 69.802 l
281.256 73.2983 l
281.256 76.9341 l
280.618 80.3569 l
279.662 84.096 l
278.068 89.9805 l
276.473 96.4163 l
274.879 104.05 l
273.285 113.585 l
271.69 126.262 l
270.096 144.077 l
268.502 172.057 l
266.908 238.781 l
266.908 282.208 l
268.502 336.955 l
270.096 356.195 l
271.69 367.269 l
273.285 374.463 l
274.879 379.424 l
276.473 382.963 l
278.068 385.533 l
281.256 388.777 l
281.416 388.891 l
281.575 389.001 l
281.894 389.21 l
282.532 389.586 l
282.85 389.755 l
284.445 390.431 l
287.633 391.113 l
290.822 391.162 l
306.765 386.992 l
322.708 380.392 l
386.479 358.528 l
450.25 352.278 l
514.022 354.156 l
stroke
grestore
0.500 setlinewidth
0 setlinecap
gsave
446.4 345.6 67.62 51.72 clipbox
/o {
gsave
newpath
translate
0.5 setlinewidth
1 setlinejoin
0 setlinecap
0 -5 m
1.32602 -5 2.5979 -4.47317 3.53553 -3.53553 c
4.47317 -2.5979 5 -1.32602 5 0 c
5 1.32602 4.47317 2.5979 3.53553 3.53553 c
2.5979 4.47317 1.32602 5 0 5 c
-1.32602 5 -2.5979 4.47317 -3.53553 3.53553 c
-4.47317 2.5979 -5 1.32602 -5 0 c
-5 -1.32602 -4.47317 -2.5979 -3.53553 -3.53553 c
-2.5979 -4.47317 -1.32602 -5 0 -5 c
cl
gsave
1.000 0.000 0.000 setrgbcolor
fill
grestore
stroke
grestore
} bind def
273.285 113.585 o
grestore
gsave
446.4 345.6 67.62 51.72 clipbox
/o {
gsave
newpath
translate
0.5 setlinewidth
1 setlinejoin
0 setlinecap
0 -5 m
1.32602 -5 2.5979 -4.47317 3.53553 -3.53553 c
4.47317 -2.5979 5 -1.32602 5 0 c
5 1.32602 4.47317 2.5979 3.53553 3.53553 c
2.5979 4.47317 1.32602 5 0 5 c
-1.32602 5 -2.5979 4.47317 -3.53553 3.53553 c
-4.47317 2.5979 -5 1.32602 -5 0 c
-5 -1.32602 -4.47317 -2.5979 -3.53553 -3.53553 c
-2.5979 -4.47317 -1.32602 -5 0 -5 c
cl
gsave
0.000 0.000 1.000 setrgbcolor
fill
grestore
stroke
grestore
} bind def
268.502 172.057 o
grestore
gsave
446.4 345.6 67.62 51.72 clipbox
/o {
gsave
newpath
translate
0.5 setlinewidth
1 setlinejoin
0 setlinecap
0 -5 m
1.32602 -5 2.5979 -4.47317 3.53553 -3.53553 c
4.47317 -2.5979 5 -1.32602 5 0 c
5 1.32602 4.47317 2.5979 3.53553 3.53553 c
2.5979 4.47317 1.32602 5 0 5 c
-1.32602 5 -2.5979 4.47317 -3.53553 3.53553 c
-4.47317 2.5979 -5 1.32602 -5 0 c
-5 -1.32602 -4.47317 -2.5979 -3.53553 -3.53553 c
-2.5979 -4.47317 -1.32602 -5 0 -5 c
cl
gsave
0.000 setgray
fill
grestore
stroke
grestore
} bind def
266.908 238.781 o
grestore
gsave
446.4 345.6 67.62 51.72 clipbox
/o {
gsave
newpath
translate
0.5 setlinewidth
1 setlinejoin
0 setlinecap
0 -5 m
1.32602 -5 2.5979 -4.47317 3.53553 -3.53553 c
4.47317 -2.5979 5 -1.32602 5 0 c
5 1.32602 4.47317 2.5979 3.53553 3.53553 c
2.5979 4.47317 1.32602 5 0 5 c
-1.32602 5 -2.5979 4.47317 -3.53553 3.53553 c
-4.47317 2.5979 -5 1.32602 -5 0 c
-5 -1.32602 -4.47317 -2.5979 -3.53553 -3.53553 c
-2.5979 -4.47317 -1.32602 -5 0 -5 c
cl
gsave
0.000 0.500 0.000 setrgbcolor
fill
grestore
stroke
grestore
} bind def
266.908 282.208 o
grestore
gsave
/o {
gsave
newpath
translate
0.5 setlinewidth
1 setlinejoin
0 setlinecap
0 0 m
0 4 l
gsave
0.000 setgray
fill
grestore
stroke
grestore
} bind def
67.6219 51.7156 o
grestore
gsave
/o {
gsave
newpath
translate
0.5 setlinewidth
1 setlinejoin
0 setlinecap
0 0 m
0 -4 l
gsave
0.000 setgray
fill
grestore
stroke
grestore
} bind def
67.6219 397.316 o
grestore
/DejaVuSans findfont
15.000 scalefont
setfont
gsave
56.606250 36.325000 translate
0.000000 rotate
0.000000 0.000000 m /zero glyphshow
9.543457 0.000000 m /period glyphshow
14.311523 0.000000 m /four glyphshow
grestore
gsave
/o {
gsave
newpath
translate
0.5 setlinewidth
1 setlinejoin
0 setlinecap
0 0 m
0 4 l
gsave
0.000 setgray
fill
grestore
stroke
grestore
} bind def
131.393 51.7156 o
grestore
gsave
/o {
gsave
newpath
translate
0.5 setlinewidth
1 setlinejoin
0 setlinecap
0 0 m
0 -4 l
gsave
0.000 setgray
fill
grestore
stroke
grestore
} bind def
131.393 397.316 o
grestore
gsave
120.432366 36.325000 translate
0.000000 rotate
0.000000 0.000000 m /zero glyphshow
9.543457 0.000000 m /period glyphshow
14.311523 0.000000 m /six glyphshow
grestore
gsave
/o {
gsave
newpath
translate
0.5 setlinewidth
1 setlinejoin
0 setlinecap
0 0 m
0 4 l
gsave
0.000 setgray
fill
grestore
stroke
grestore
} bind def
195.165 51.7156 o
grestore
gsave
/o {
gsave
newpath
translate
0.5 setlinewidth
1 setlinejoin
0 setlinecap
0 0 m
0 -4 l
gsave
0.000 setgray
fill
grestore
stroke
grestore
} bind def
195.165 397.316 o
grestore
gsave
184.242857 36.325000 translate
0.000000 rotate
0.000000 0.000000 m /zero glyphshow
9.543457 0.000000 m /period glyphshow
14.311523 0.000000 m /eight glyphshow
grestore
gsave
/o {
gsave
newpath
translate
0.5 setlinewidth
1 setlinejoin
0 setlinecap
0 0 m
0 4 l
gsave
0.000 setgray
fill
grestore
stroke
grestore
} bind def
258.936 51.7156 o
grestore
gsave
/o {
gsave
newpath
translate
0.5 setlinewidth
1 setlinejoin
0 setlinecap
0 0 m
0 -4 l
gsave
0.000 setgray
fill
grestore
stroke
grestore
} bind def
258.936 397.316 o
grestore
gsave
248.334598 36.325000 translate
0.000000 rotate
0.000000 0.000000 m /one glyphshow
9.543457 0.000000 m /period glyphshow
14.311523 0.000000 m /zero glyphshow
grestore
gsave
/o {
gsave
newpath
translate
0.5 setlinewidth
1 setlinejoin
0 setlinecap
0 0 m
0 4 l
gsave
0.000 setgray
fill
grestore
stroke
grestore
} bind def
322.708 51.7156 o
grestore
gsave
/o {
gsave
newpath
translate
0.5 setlinewidth
1 setlinejoin
0 setlinecap
0 0 m
0 -4 l
gsave
0.000 setgray
fill
grestore
stroke
grestore
} bind def
322.708 397.316 o
grestore
gsave
312.356027 36.325000 translate
0.000000 rotate
0.000000 0.000000 m /one glyphshow
9.543457 0.000000 m /period glyphshow
14.311523 0.000000 m /two glyphshow
grestore
gsave
/o {
gsave
newpath
translate
0.5 setlinewidth
1 setlinejoin
0 setlinecap
0 0 m
0 4 l
gsave
0.000 setgray
fill
grestore
stroke
grestore
} bind def
386.479 51.7156 o
grestore
gsave
/o {
gsave
newpath
translate
0.5 setlinewidth
1 setlinejoin
0 setlinecap
0 0 m
0 -4 l
gsave
0.000 setgray
fill
grestore
stroke
grestore
} bind def
386.479 397.316 o
grestore
gsave
375.799330 36.325000 translate
0.000000 rotate
0.000000 0.000000 m /one glyphshow
9.543457 0.000000 m /period glyphshow
14.311523 0.000000 m /four glyphshow
grestore
gsave
/o {
gsave
newpath
translate
0.5 setlinewidth
1 setlinejoin
0 setlinecap
0 0 m
0 4 l
gsave
0.000 setgray
fill
grestore
stroke
grestore
} bind def
450.25 51.7156 o
grestore
gsave
/o {
gsave
newpath
translate
0.5 setlinewidth
1 setlinejoin
0 setlinecap
0 0 m
0 -4 l
gsave
0.000 setgray
fill
grestore
stroke
grestore
} bind def
450.25 397.316 o
grestore
gsave
439.625446 36.325000 translate
0.000000 rotate
0.000000 0.000000 m /one glyphshow
9.543457 0.000000 m /period glyphshow
14.311523 0.000000 m /six glyphshow
grestore
gsave
503.435938 36.325000 translate
0.000000 rotate
0.000000 0.000000 m /one glyphshow
9.543457 0.000000 m /period glyphshow
14.311523 0.000000 m /eight glyphshow
grestore
gsave
267.321875 13.200000 translate
0.000000 rotate
/Cmmi10 findfont
20.0 scalefont
setfont
0.000000 0.000000 moveto
/phi glyphshow

/Cmmi10 findfont
14.0 scalefont
setfont
11.904297 -5.101875 moveto
/c glyphshow

/Cmmi10 findfont
20.0 scalefont
setfont
17.954102 0.000000 moveto
/slash glyphshow

27.954102 0.000000 moveto
/sigma glyphshow

/Cmr10 findfont
14.0 scalefont
setfont
39.370117 -5.101875 moveto
/zero glyphshow


grestore
gsave
/o {
gsave
newpath
translate
0.5 setlinewidth
1 setlinejoin
0 setlinecap
0 0 m
4 0 l
gsave
0.000 setgray
fill
grestore
stroke
grestore
} bind def
67.6219 51.7156 o
grestore
gsave
/o {
gsave
newpath
translate
0.5 setlinewidth
1 setlinejoin
0 setlinecap
0 0 m
-4 0 l
gsave
0.000 setgray
fill
grestore
stroke
grestore
} bind def
514.022 51.7156 o
grestore
gsave
32.200000 47.582813 translate
0.000000 rotate
0.000000 0.000000 m /zero glyphshow
9.543457 0.000000 m /period glyphshow
14.311523 0.000000 m /zero glyphshow
23.854980 0.000000 m /zero glyphshow
grestore
gsave
/o {
gsave
newpath
translate
0.5 setlinewidth
1 setlinejoin
0 setlinecap
0 0 m
4 0 l
gsave
0.000 setgray
fill
grestore
stroke
grestore
} bind def
67.6219 102.539 o
grestore
gsave
/o {
gsave
newpath
translate
0.5 setlinewidth
1 setlinejoin
0 setlinecap
0 0 m
-4 0 l
gsave
0.000 setgray
fill
grestore
stroke
grestore
} bind def
514.022 102.539 o
grestore
gsave
32.512500 98.406342 translate
0.000000 rotate
0.000000 0.000000 m /zero glyphshow
9.543457 0.000000 m /period glyphshow
14.311523 0.000000 m /zero glyphshow
23.854980 0.000000 m /five glyphshow
grestore
gsave
/o {
gsave
newpath
translate
0.5 setlinewidth
1 setlinejoin
0 setlinecap
0 0 m
4 0 l
gsave
0.000 setgray
fill
grestore
stroke
grestore
} bind def
67.6219 153.363 o
grestore
gsave
/o {
gsave
newpath
translate
0.5 setlinewidth
1 setlinejoin
0 setlinecap
0 0 m
-4 0 l
gsave
0.000 setgray
fill
grestore
stroke
grestore
} bind def
514.022 153.363 o
grestore
gsave
32.200000 149.229871 translate
0.000000 rotate
0.000000 0.000000 m /zero glyphshow
9.543457 0.000000 m /period glyphshow
14.311523 0.000000 m /one glyphshow
23.854980 0.000000 m /zero glyphshow
grestore
gsave
/o {
gsave
newpath
translate
0.5 setlinewidth
1 setlinejoin
0 setlinecap
0 0 m
4 0 l
gsave
0.000 setgray
fill
grestore
stroke
grestore
} bind def
67.6219 204.186 o
grestore
gsave
/o {
gsave
newpath
translate
0.5 setlinewidth
1 setlinejoin
0 setlinecap
0 0 m
-4 0 l
gsave
0.000 setgray
fill
grestore
stroke
grestore
} bind def
514.022 204.186 o
grestore
gsave
32.512500 200.053401 translate
0.000000 rotate
0.000000 0.000000 m /zero glyphshow
9.543457 0.000000 m /period glyphshow
14.311523 0.000000 m /one glyphshow
23.854980 0.000000 m /five glyphshow
grestore
gsave
/o {
gsave
newpath
translate
0.5 setlinewidth
1 setlinejoin
0 setlinecap
0 0 m
4 0 l
gsave
0.000 setgray
fill
grestore
stroke
grestore
} bind def
67.6219 255.01 o
grestore
gsave
/o {
gsave
newpath
translate
0.5 setlinewidth
1 setlinejoin
0 setlinecap
0 0 m
-4 0 l
gsave
0.000 setgray
fill
grestore
stroke
grestore
} bind def
514.022 255.01 o
grestore
gsave
32.200000 250.876930 translate
0.000000 rotate
0.000000 0.000000 m /zero glyphshow
9.543457 0.000000 m /period glyphshow
14.311523 0.000000 m /two glyphshow
23.854980 0.000000 m /zero glyphshow
grestore
gsave
/o {
gsave
newpath
translate
0.5 setlinewidth
1 setlinejoin
0 setlinecap
0 0 m
4 0 l
gsave
0.000 setgray
fill
grestore
stroke
grestore
} bind def
67.6219 305.833 o
grestore
gsave
/o {
gsave
newpath
translate
0.5 setlinewidth
1 setlinejoin
0 setlinecap
0 0 m
-4 0 l
gsave
0.000 setgray
fill
grestore
stroke
grestore
} bind def
514.022 305.833 o
grestore
gsave
32.512500 301.700460 translate
0.000000 rotate
0.000000 0.000000 m /zero glyphshow
9.543457 0.000000 m /period glyphshow
14.311523 0.000000 m /two glyphshow
23.854980 0.000000 m /five glyphshow
grestore
gsave
/o {
gsave
newpath
translate
0.5 setlinewidth
1 setlinejoin
0 setlinecap
0 0 m
4 0 l
gsave
0.000 setgray
fill
grestore
stroke
grestore
} bind def
67.6219 356.657 o
grestore
gsave
/o {
gsave
newpath
translate
0.5 setlinewidth
1 setlinejoin
0 setlinecap
0 0 m
-4 0 l
gsave
0.000 setgray
fill
grestore
stroke
grestore
} bind def
514.022 356.657 o
grestore
gsave
32.200000 352.523989 translate
0.000000 rotate
0.000000 0.000000 m /zero glyphshow
9.543457 0.000000 m /period glyphshow
14.311523 0.000000 m /three glyphshow
23.854980 0.000000 m /zero glyphshow
grestore
gsave
22.200000 202.015625 translate
90.000000 rotate
/Cmmi10 findfont
20.0 scalefont
setfont
0.000000 0.000000 moveto
/M glyphshow

19.404297 0.000000 moveto
/slash glyphshow

29.404297 0.000000 moveto
/R glyphshow


grestore
1.000 setlinewidth
gsave
67.6219 397.316 m
514.022 397.316 l
stroke
grestore
gsave
514.022 51.7156 m
514.022 397.316 l
stroke
grestore
gsave
67.6219 51.7156 m
514.022 51.7156 l
stroke
grestore
gsave
67.6219 51.7156 m
67.6219 397.316 l
stroke
grestore
gsave
77.6219 269.878 m
220.622 269.878 l
220.622 387.316 l
77.6219 387.316 l
77.6219 269.878 l
cl
gsave
1.000 setgray
fill
grestore
stroke
grestore
0.500 setlinewidth
gsave
/o {
gsave
newpath
translate
0.5 setlinewidth
1 setlinejoin
0 setlinecap
0 -5 m
1.32602 -5 2.5979 -4.47317 3.53553 -3.53553 c
4.47317 -2.5979 5 -1.32602 5 0 c
5 1.32602 4.47317 2.5979 3.53553 3.53553 c
2.5979 4.47317 1.32602 5 0 5 c
-1.32602 5 -2.5979 4.47317 -3.53553 3.53553 c
-4.47317 2.5979 -5 1.32602 -5 0 c
-5 -1.32602 -4.47317 -2.5979 -3.53553 -3.53553 c
-2.5979 -4.47317 -1.32602 -5 0 -5 c
cl
gsave
1.000 0.000 0.000 setrgbcolor
fill
grestore
stroke
grestore
} bind def
105.622 371.113 o
grestore
gsave
141.621875 364.112500 translate
0.000000 rotate
/Cmmi10 findfont
20.0 scalefont
setfont
0.000000 0.890625 moveto
/C glyphshow

/Cmr10 findfont
20.0 scalefont
setfont
17.789062 0.890625 moveto
/equal glyphshow

34.597656 0.890625 moveto
/zero glyphshow

/Cmmi10 findfont
20.0 scalefont
setfont
44.597656 0.890625 moveto
/period glyphshow

/Cmr10 findfont
20.0 scalefont
setfont
50.296875 0.890625 moveto
/zero glyphshow

60.296875 0.890625 moveto
/six glyphshow


grestore
gsave
/o {
gsave
newpath
translate
0.5 setlinewidth
1 setlinejoin
0 setlinecap
0 -5 m
1.32602 -5 2.5979 -4.47317 3.53553 -3.53553 c
4.47317 -2.5979 5 -1.32602 5 0 c
5 1.32602 4.47317 2.5979 3.53553 3.53553 c
2.5979 4.47317 1.32602 5 0 5 c
-1.32602 5 -2.5979 4.47317 -3.53553 3.53553 c
-4.47317 2.5979 -5 1.32602 -5 0 c
-5 -1.32602 -4.47317 -2.5979 -3.53553 -3.53553 c
-2.5979 -4.47317 -1.32602 -5 0 -5 c
cl
gsave
0.000 0.000 1.000 setrgbcolor
fill
grestore
stroke
grestore
} bind def
105.622 343.753 o
grestore
gsave
141.621875 336.753125 translate
0.000000 rotate
/Cmmi10 findfont
20.0 scalefont
setfont
0.000000 0.890625 moveto
/C glyphshow

/Cmr10 findfont
20.0 scalefont
setfont
17.789062 0.890625 moveto
/equal glyphshow

34.597656 0.890625 moveto
/zero glyphshow

/Cmmi10 findfont
20.0 scalefont
setfont
44.597656 0.890625 moveto
/period glyphshow

/Cmr10 findfont
20.0 scalefont
setfont
50.296875 0.890625 moveto
/one glyphshow

60.296875 0.890625 moveto
/two glyphshow


grestore
gsave
/o {
gsave
newpath
translate
0.5 setlinewidth
1 setlinejoin
0 setlinecap
0 -5 m
1.32602 -5 2.5979 -4.47317 3.53553 -3.53553 c
4.47317 -2.5979 5 -1.32602 5 0 c
5 1.32602 4.47317 2.5979 3.53553 3.53553 c
2.5979 4.47317 1.32602 5 0 5 c
-1.32602 5 -2.5979 4.47317 -3.53553 3.53553 c
-4.47317 2.5979 -5 1.32602 -5 0 c
-5 -1.32602 -4.47317 -2.5979 -3.53553 -3.53553 c
-2.5979 -4.47317 -1.32602 -5 0 -5 c
cl
gsave
0.000 setgray
fill
grestore
stroke
grestore
} bind def
105.622 316.394 o
grestore
gsave
141.621875 309.393750 translate
0.000000 rotate
/Cmmi10 findfont
20.0 scalefont
setfont
0.000000 0.890625 moveto
/C glyphshow

/Cmr10 findfont
20.0 scalefont
setfont
17.789062 0.890625 moveto
/equal glyphshow

34.597656 0.890625 moveto
/zero glyphshow

/Cmmi10 findfont
20.0 scalefont
setfont
44.597656 0.890625 moveto
/period glyphshow

/Cmr10 findfont
20.0 scalefont
setfont
50.296875 0.890625 moveto
/one glyphshow

60.296875 0.890625 moveto
/eight glyphshow


grestore
gsave
/o {
gsave
newpath
translate
0.5 setlinewidth
1 setlinejoin
0 setlinecap
0 -5 m
1.32602 -5 2.5979 -4.47317 3.53553 -3.53553 c
4.47317 -2.5979 5 -1.32602 5 0 c
5 1.32602 4.47317 2.5979 3.53553 3.53553 c
2.5979 4.47317 1.32602 5 0 5 c
-1.32602 5 -2.5979 4.47317 -3.53553 3.53553 c
-4.47317 2.5979 -5 1.32602 -5 0 c
-5 -1.32602 -4.47317 -2.5979 -3.53553 -3.53553 c
-2.5979 -4.47317 -1.32602 -5 0 -5 c
cl
gsave
0.000 0.500 0.000 setrgbcolor
fill
grestore
stroke
grestore
} bind def
105.622 289.034 o
grestore
gsave
141.621875 282.034375 translate
0.000000 rotate
/Cmmi10 findfont
20.0 scalefont
setfont
0.000000 0.890625 moveto
/C glyphshow

/Cmr10 findfont
20.0 scalefont
setfont
17.789062 0.890625 moveto
/equal glyphshow

34.597656 0.890625 moveto
/zero glyphshow

/Cmmi10 findfont
20.0 scalefont
setfont
44.597656 0.890625 moveto
/period glyphshow

/Cmr10 findfont
20.0 scalefont
setfont
50.296875 0.890625 moveto
/two glyphshow

60.296875 0.890625 moveto
/two glyphshow


grestore

end
showpage
