%!PS-Adobe-3.0 EPSF-3.0
%%Title: J_DS.eps
%%Creator: matplotlib version 1.3.1, http://matplotlib.org/
%%CreationDate: Tue Oct  2 16:57:27 2018
%%Orientation: portrait
%%BoundingBox: 49 193 562 598
%%EndComments
%%BeginProlog
/mpldict 11 dict def
mpldict begin
/m { moveto } bind def
/l { lineto } bind def
/r { rlineto } bind def
/c { curveto } bind def
/cl { closepath } bind def
/box {
m
1 index 0 r
0 exch r
neg 0 r
cl
} bind def
/clipbox {
box
clip
newpath
} bind def
%!PS-Adobe-3.0 Resource-Font
%%Title: cmsy10
%%Copyright: Copyright (C) 1994, Basil K. Malyshev. All Rights Reserved.012BaKoMa Fonts Collection, Level-B.
%%Creator: Converted from TrueType to type 3 by PPR
25 dict begin
/_d{bind def}bind def
/_m{moveto}_d
/_l{lineto}_d
/_cl{closepath eofill}_d
/_c{curveto}_d
/_sc{7 -1 roll{setcachedevice}{pop pop pop pop pop pop}ifelse}_d
/_e{exec}_d
/FontName /Cmsy10 def
/PaintType 0 def
/FontMatrix[.001 0 0 .001 0 0]def
/FontBBox[-29 -960 1123 779]def
/FontType 3 def
/Encoding [ /minus ] def
/FontInfo 10 dict dup begin
/FamilyName (cmsy10) def
/FullName (cmsy10) def
/Notice (Copyright (C) 1994, Basil K. Malyshev. All Rights Reserved.012BaKoMa Fonts Collection, Level-B. ) def
/Weight (Regular) def
/Version (1.1/12-Nov-94) def
/ItalicAngle 0.0 def
/isFixedPitch false def
/UnderlinePosition -133 def
/UnderlineThickness 20 def
end readonly def
/CharStrings 1 dict dup begin
/minus{777 0 83 230 694 270 _sc
102 230 _m
96 230 92 232 88 236 _c
84 240 83 245 83 250 _c
83 254 84 259 88 263 _c
92 267 96 270 102 270 _c
676 270 _l
681 270 685 267 689 263 _c
692 259 694 254 694 250 _c
694 245 692 240 689 236 _c
685 232 681 230 676 230 _c
102 230 _l
_cl}_d
end readonly def

/BuildGlyph
 {exch begin
 CharStrings exch
 2 copy known not{pop /.notdef}if
 true 3 1 roll get exec
 end}_d

/BuildChar {
 1 index /Encoding get exch get
 1 index /BuildGlyph get exec
}_d

FontName currentdict end definefont pop
%!PS-Adobe-3.0 Resource-Font
%%Title: cmmi10
%%Copyright: Copyright (C) 1994, Basil K. Malyshev. All Rights Reserved.012BaKoMa Fonts Collection, Level-B.
%%Creator: Converted from TrueType to type 3 by PPR
25 dict begin
/_d{bind def}bind def
/_m{moveto}_d
/_l{lineto}_d
/_cl{closepath eofill}_d
/_c{curveto}_d
/_sc{7 -1 roll{setcachedevice}{pop pop pop pop pop pop}ifelse}_d
/_e{exec}_d
/FontName /Cmmi10 def
/PaintType 0 def
/FontMatrix[.001 0 0 .001 0 0]def
/FontBBox[-34 -250 1048 750]def
/FontType 3 def
/Encoding [ /M /t /period /z /J /slash /C /c ] def
/FontInfo 10 dict dup begin
/FamilyName (cmmi10) def
/FullName (cmmi10) def
/Notice (Copyright (C) 1994, Basil K. Malyshev. All Rights Reserved.012BaKoMa Fonts Collection, Level-B. ) def
/Weight (Regular) def
/Version (1.1/12-Nov-94) def
/ItalicAngle 0.0 def
/isFixedPitch false def
/UnderlinePosition -133 def
/UnderlineThickness 20 def
end readonly def
/CharStrings 8 dict dup begin
/M{{970 0 41 0 1046 683 _sc
51 0 _m
44 0 41 4 41 13 _c
41 15 42 17 43 21 _c
43 25 44 28 46 31 _c
48 33 50 35 54 35 _c
117 35 154 55 165 96 _c
295 618 _l
296 624 297 629 297 632 _c
297 639 293 643 285 644 _c
272 646 248 648 213 648 _c
206 648 203 652 203 661 _c
203 663 204 666 205 670 _c
206 674 207 677 209 679 _c
211 681 213 683 216 683 _c
}_e{392 683 _l
399 683 403 679 405 672 _c
483 99 _l
847 672 _l
851 679 858 683 866 683 _c
1036 683 _l
1042 683 1046 678 1046 670 _c
1045 668 1044 665 1043 661 _c
1042 657 1041 653 1039 651 _c
1037 649 1035 648 1033 648 _c
992 648 964 645 948 641 _c
939 638 933 629 929 614 _c
792 65 _l
790 58 790 53 790 51 _c
790 48 790 46 791 44 _c
791 42 792 41 794 41 _c
}_e{796 40 798 39 802 39 _c
814 36 838 35 874 35 _c
880 35 884 30 884 22 _c
881 12 879 6 878 4 _c
876 1 873 0 867 0 _c
606 0 _l
599 0 596 4 596 13 _c
596 15 597 18 598 22 _c
599 26 600 29 602 31 _c
604 33 606 35 609 35 _c
649 35 678 37 694 42 _c
702 44 709 53 713 69 _c
857 648 _l
453 11 _l
449 3 442 0 433 0 _c
}_e{424 0 419 3 419 11 _c
334 640 _l
197 92 _l
196 90 195 87 195 85 _c
195 83 194 80 194 77 _c
194 59 201 48 216 43 _c
231 37 250 35 272 35 _c
278 35 282 30 282 22 _c
280 13 278 7 276 4 _c
274 1 271 0 265 0 _c
51 0 _l
_cl}_e}_d
/t{{361 0 22 -10 330 626 _sc
62 81 _m
62 91 63 100 65 109 _c
137 396 _l
32 396 _l
25 396 22 400 22 409 _c
24 423 29 431 35 431 _c
146 431 _l
186 594 _l
188 602 193 610 201 616 _c
209 622 218 626 228 626 _c
236 626 243 623 249 618 _c
255 613 258 606 258 598 _c
258 596 257 594 257 593 _c
257 592 257 591 257 590 _c
217 431 _l
320 431 _l
326 431 330 426 330 418 _c
}_e{330 416 329 414 328 410 _c
327 406 326 402 324 400 _c
322 397 320 396 317 396 _c
208 396 _l
136 107 _l
131 88 129 72 129 58 _c
129 29 138 15 158 15 _c
187 15 213 28 236 56 _c
258 84 276 114 288 147 _c
290 151 293 153 296 153 _c
308 153 _l
310 153 312 152 314 150 _c
316 148 317 146 317 144 _c
317 142 316 141 316 141 _c
301 101 280 65 252 35 _c
}_e{224 5 192 -10 156 -10 _c
129 -10 107 -1 89 15 _c
71 32 62 54 62 81 _c
_cl}_e}_d
/period{277 0 84 0 194 110 _sc
84 55 _m
84 70 89 83 100 94 _c
111 104 124 110 139 110 _c
148 110 157 107 166 102 _c
174 97 181 90 186 82 _c
191 73 194 64 194 55 _c
194 40 188 27 178 16 _c
167 5 154 0 139 0 _c
124 0 111 5 100 16 _c
89 27 84 40 84 55 _c
_cl}_d
/z{{465 0 41 -10 468 442 _sc
49 -10 _m
43 -10 41 -7 41 -1 _c
41 1 41 3 43 5 _c
61 35 82 65 108 93 _c
133 121 162 150 194 179 _c
226 207 258 236 290 265 _c
322 294 349 320 369 343 _c
365 343 _l
350 343 328 347 300 357 _c
272 366 250 371 234 371 _c
216 371 199 367 183 359 _c
166 351 155 340 151 324 _c
149 319 147 317 143 317 _c
131 317 _l
}_e{125 317 123 320 123 327 _c
123 330 _l
128 349 137 367 149 384 _c
161 401 175 415 193 426 _c
210 436 228 442 247 442 _c
260 442 271 439 280 433 _c
288 427 299 417 311 405 _c
323 392 332 383 340 377 _c
347 371 356 369 367 369 _c
381 369 394 375 406 389 _c
418 402 429 419 441 439 _c
443 441 445 442 448 442 _c
460 442 _l
462 442 463 441 465 439 _c
467 437 468 435 468 433 _c
}_e{468 431 467 429 466 427 _c
448 395 427 366 403 340 _c
379 313 347 282 309 248 _c
270 213 237 184 211 160 _c
185 136 160 111 137 86 _c
142 87 149 88 158 88 _c
174 88 197 83 225 74 _c
253 64 274 60 290 60 _c
306 60 323 63 340 71 _c
357 78 372 88 384 101 _c
396 114 405 129 409 146 _c
411 150 413 153 417 153 _c
429 153 _l
431 153 433 151 435 149 _c
}_e{437 147 438 145 438 143 _c
438 142 437 141 437 140 _c
431 114 420 90 405 67 _c
389 44 370 25 348 11 _c
326 -3 302 -10 277 -10 _c
264 -10 253 -7 244 -2 _c
235 3 225 12 213 25 _c
201 38 192 47 184 53 _c
176 59 167 62 157 62 _c
123 62 94 39 68 -7 _c
65 -9 63 -10 61 -10 _c
49 -10 _l
_cl}_e}_d
/J{{554 0 69 -21 633 683 _sc
109 60 _m
115 41 127 27 145 18 _c
162 8 181 4 202 4 _c
222 4 242 11 262 25 _c
282 39 298 58 312 80 _c
325 102 334 123 340 145 _c
458 618 _l
458 620 459 622 459 624 _c
459 625 459 626 460 628 _c
460 635 457 639 452 641 _c
434 645 399 648 345 648 _c
338 648 335 652 335 661 _c
336 666 337 670 338 673 _c
338 676 340 678 342 680 _c
}_e{344 682 348 683 352 683 _c
623 683 _l
629 683 633 678 633 670 _c
630 655 626 648 620 648 _c
596 648 579 646 567 642 _c
555 638 546 629 542 614 _c
424 141 _l
416 110 401 82 378 57 _c
355 32 328 13 296 0 _c
264 -14 233 -21 201 -21 _c
165 -21 134 -11 108 8 _c
82 27 69 53 69 87 _c
69 109 75 128 87 144 _c
99 160 116 168 138 168 _c
150 168 161 164 170 156 _c
}_e{178 148 183 138 183 126 _c
183 108 176 92 163 79 _c
149 65 134 59 116 59 _c
112 59 110 59 109 60 _c
_cl}_e}_d
/slash{500 0 56 -249 443 750 _sc
56 -229 _m
56 -227 56 -225 57 -225 _c
405 738 _l
406 742 408 745 412 747 _c
415 749 419 750 423 750 _c
429 750 433 748 437 744 _c
441 740 443 736 443 730 _c
443 726 _l
95 -237 _l
91 -245 84 -249 76 -249 _c
70 -249 66 -247 62 -243 _c
58 -239 56 -234 56 -229 _c
_cl}_d
/C{{714 0 51 -21 760 705 _sc
146 216 _m
146 176 153 140 169 110 _c
184 79 206 55 236 38 _c
266 21 301 13 341 13 _c
383 13 423 23 462 45 _c
501 67 534 96 562 132 _c
589 168 608 206 618 246 _c
619 250 622 252 626 252 _c
638 252 _l
640 252 642 251 644 249 _c
646 247 647 245 647 243 _c
647 242 646 241 646 240 _c
634 194 612 150 580 110 _c
547 69 508 37 462 14 _c
}_e{416 -9 370 -21 322 -21 _c
270 -21 223 -9 182 13 _c
140 36 108 68 85 110 _c
62 152 51 199 51 252 _c
51 308 63 363 88 418 _c
113 472 147 521 189 564 _c
231 607 280 641 334 667 _c
388 692 443 705 499 705 _c
521 705 542 701 562 695 _c
582 688 601 678 619 664 _c
636 650 650 635 661 617 _c
740 703 _l
740 704 741 705 745 705 _c
751 705 _l
753 705 755 703 757 701 _c
}_e{759 699 760 697 760 695 _c
692 425 _l
692 420 689 418 684 418 _c
666 418 _l
660 418 658 421 658 429 _c
660 443 662 461 662 482 _c
662 514 656 545 645 574 _c
634 602 617 625 594 643 _c
570 661 542 670 509 670 _c
454 670 404 656 359 629 _c
314 601 276 565 244 521 _c
212 477 188 427 171 373 _c
154 319 146 266 146 216 _c
_cl}_e}_d
/c{{432 0 40 -10 430 442 _sc
117 119 _m
117 90 124 65 139 45 _c
154 25 175 15 203 15 _c
243 15 281 24 318 42 _c
354 60 384 86 407 118 _c
409 120 411 121 415 121 _c
418 121 421 119 425 115 _c
428 111 430 108 430 105 _c
430 102 429 100 428 99 _c
404 65 371 38 330 19 _c
288 0 245 -10 201 -10 _c
169 -10 140 -2 116 12 _c
92 26 73 46 60 72 _c
}_e{46 97 40 126 40 158 _c
40 203 52 248 77 292 _c
102 336 135 372 177 400 _c
219 428 263 442 309 442 _c
339 442 366 434 390 420 _c
414 405 426 384 426 356 _c
426 338 420 322 410 309 _c
399 296 385 290 367 290 _c
356 290 347 293 340 300 _c
332 306 329 315 329 326 _c
329 342 334 355 346 366 _c
357 377 370 383 386 383 _c
388 383 _l
380 394 368 402 354 408 _c
}_e{339 413 324 416 308 416 _c
269 416 235 399 206 366 _c
176 332 154 292 139 246 _c
124 200 117 157 117 119 _c
_cl}_e}_d
end readonly def

/BuildGlyph
 {exch begin
 CharStrings exch
 2 copy known not{pop /.notdef}if
 true 3 1 roll get exec
 end}_d

/BuildChar {
 1 index /Encoding get exch get
 1 index /BuildGlyph get exec
}_d

FontName currentdict end definefont pop
%!PS-Adobe-3.0 Resource-Font
%%Title: DejaVu Sans
%%Copyright: Copyright (c) 2003 by Bitstream, Inc. All Rights Reserved. Copyright (c) 2006 by Tavmjong Bah. All Rights Reserved. DejaVu changes are in public domain 
%%Creator: Converted from TrueType to type 3 by PPR
25 dict begin
/_d{bind def}bind def
/_m{moveto}_d
/_l{lineto}_d
/_cl{closepath eofill}_d
/_c{curveto}_d
/_sc{7 -1 roll{setcachedevice}{pop pop pop pop pop pop}ifelse}_d
/_e{exec}_d
/FontName /DejaVuSans def
/PaintType 0 def
/FontMatrix[.001 0 0 .001 0 0]def
/FontBBox[-1021 -415 1681 1167]def
/FontType 3 def
/Encoding [ /space /period /zero /one /two /four /six /eight /B /D /S ] def
/FontInfo 10 dict dup begin
/FamilyName (DejaVu Sans) def
/FullName (DejaVu Sans) def
/Notice (Copyright (c) 2003 by Bitstream, Inc. All Rights Reserved. Copyright (c) 2006 by Tavmjong Bah. All Rights Reserved. DejaVu changes are in public domain ) def
/Weight (Book) def
/Version (Version 2.34) def
/ItalicAngle 0.0 def
/isFixedPitch false def
/UnderlinePosition -130 def
/UnderlineThickness 90 def
end readonly def
/CharStrings 11 dict dup begin
/space{318 0 0 0 0 0 _sc
}_d
/period{318 0 107 0 210 124 _sc
107 124 _m
210 124 _l
210 0 _l
107 0 _l
107 124 _l
_cl}_d
/zero{636 0 66 -13 570 742 _sc
318 664 _m
267 664 229 639 203 589 _c
177 539 165 464 165 364 _c
165 264 177 189 203 139 _c
229 89 267 64 318 64 _c
369 64 407 89 433 139 _c
458 189 471 264 471 364 _c
471 464 458 539 433 589 _c
407 639 369 664 318 664 _c
318 742 _m
399 742 461 709 505 645 _c
548 580 570 486 570 364 _c
570 241 548 147 505 83 _c
461 19 399 -13 318 -13 _c
236 -13 173 19 130 83 _c
87 147 66 241 66 364 _c
66 486 87 580 130 645 _c
173 709 236 742 318 742 _c
_cl}_d
/one{636 0 110 0 544 729 _sc
124 83 _m
285 83 _l
285 639 _l
110 604 _l
110 694 _l
284 729 _l
383 729 _l
383 83 _l
544 83 _l
544 0 _l
124 0 _l
124 83 _l
_cl}_d
/two{{636 0 73 0 536 742 _sc
192 83 _m
536 83 _l
536 0 _l
73 0 _l
73 83 _l
110 121 161 173 226 239 _c
290 304 331 346 348 365 _c
380 400 402 430 414 455 _c
426 479 433 504 433 528 _c
433 566 419 598 392 622 _c
365 646 330 659 286 659 _c
255 659 222 653 188 643 _c
154 632 117 616 78 594 _c
78 694 _l
118 710 155 722 189 730 _c
223 738 255 742 284 742 _c
}_e{359 742 419 723 464 685 _c
509 647 532 597 532 534 _c
532 504 526 475 515 449 _c
504 422 484 390 454 354 _c
446 344 420 317 376 272 _c
332 227 271 164 192 83 _c
_cl}_e}_d
/four{636 0 49 0 580 729 _sc
378 643 _m
129 254 _l
378 254 _l
378 643 _l
352 729 _m
476 729 _l
476 254 _l
580 254 _l
580 172 _l
476 172 _l
476 0 _l
378 0 _l
378 172 _l
49 172 _l
49 267 _l
352 729 _l
_cl}_d
/six{{636 0 70 -13 573 742 _sc
330 404 _m
286 404 251 388 225 358 _c
199 328 186 286 186 234 _c
186 181 199 139 225 109 _c
251 79 286 64 330 64 _c
374 64 409 79 435 109 _c
461 139 474 181 474 234 _c
474 286 461 328 435 358 _c
409 388 374 404 330 404 _c
526 713 _m
526 623 _l
501 635 476 644 451 650 _c
425 656 400 659 376 659 _c
310 659 260 637 226 593 _c
}_e{192 549 172 482 168 394 _c
187 422 211 444 240 459 _c
269 474 301 482 336 482 _c
409 482 467 459 509 415 _c
551 371 573 310 573 234 _c
573 159 550 99 506 54 _c
462 9 403 -13 330 -13 _c
246 -13 181 19 137 83 _c
92 147 70 241 70 364 _c
70 479 97 571 152 639 _c
206 707 280 742 372 742 _c
396 742 421 739 447 735 _c
472 730 498 723 526 713 _c
_cl}_e}_d
/eight{{636 0 68 -13 568 742 _sc
318 346 _m
271 346 234 333 207 308 _c
180 283 167 249 167 205 _c
167 161 180 126 207 101 _c
234 76 271 64 318 64 _c
364 64 401 76 428 102 _c
455 127 469 161 469 205 _c
469 249 455 283 429 308 _c
402 333 365 346 318 346 _c
219 388 _m
177 398 144 418 120 447 _c
96 476 85 511 85 553 _c
85 611 105 657 147 691 _c
188 725 245 742 318 742 _c
}_e{390 742 447 725 489 691 _c
530 657 551 611 551 553 _c
551 511 539 476 515 447 _c
491 418 459 398 417 388 _c
464 377 501 355 528 323 _c
554 291 568 251 568 205 _c
568 134 546 80 503 43 _c
459 5 398 -13 318 -13 _c
237 -13 175 5 132 43 _c
89 80 68 134 68 205 _c
68 251 81 291 108 323 _c
134 355 171 377 219 388 _c
183 544 _m
183 506 194 476 218 455 _c
}_e{242 434 275 424 318 424 _c
360 424 393 434 417 455 _c
441 476 453 506 453 544 _c
453 582 441 611 417 632 _c
393 653 360 664 318 664 _c
275 664 242 653 218 632 _c
194 611 183 582 183 544 _c
_cl}_e}_d
/B{{686 0 98 0 615 729 _sc
197 348 _m
197 81 _l
355 81 _l
408 81 447 92 473 114 _c
498 136 511 169 511 215 _c
511 260 498 293 473 315 _c
447 337 408 348 355 348 _c
197 348 _l
197 648 _m
197 428 _l
343 428 _l
391 428 426 437 450 455 _c
474 473 486 500 486 538 _c
486 574 474 602 450 620 _c
426 638 391 648 343 648 _c
197 648 _l
98 729 _m
350 729 _l
}_e{425 729 483 713 524 682 _c
564 650 585 606 585 549 _c
585 504 574 468 553 442 _c
532 416 502 399 462 393 _c
510 382 548 360 575 327 _c
601 294 615 253 615 204 _c
615 138 592 88 548 53 _c
504 17 441 0 360 0 _c
98 0 _l
98 729 _l
_cl}_e}_d
/D{770 0 98 0 711 729 _sc
197 648 _m
197 81 _l
316 81 _l
416 81 490 103 537 149 _c
583 195 607 267 607 365 _c
607 463 583 534 537 580 _c
490 625 416 648 316 648 _c
197 648 _l
98 729 _m
301 729 _l
442 729 546 699 612 641 _c
678 582 711 490 711 365 _c
711 239 677 147 611 88 _c
545 29 441 0 301 0 _c
98 0 _l
98 729 _l
_cl}_d
/S{{635 0 66 -13 579 742 _sc
535 705 _m
535 609 _l
497 627 462 640 429 649 _c
395 657 363 662 333 662 _c
279 662 237 651 208 631 _c
179 610 165 580 165 542 _c
165 510 174 485 194 469 _c
213 452 250 439 304 429 _c
364 417 _l
437 403 491 378 526 343 _c
561 307 579 260 579 201 _c
579 130 555 77 508 41 _c
460 5 391 -13 300 -13 _c
265 -13 228 -9 189 -2 _c
}_e{150 5 110 16 69 32 _c
69 134 _l
109 111 148 94 186 83 _c
224 71 262 66 300 66 _c
356 66 399 77 430 99 _c
460 121 476 152 476 194 _c
476 230 465 258 443 278 _c
421 298 385 313 335 323 _c
275 335 _l
201 349 148 372 115 404 _c
82 435 66 478 66 534 _c
66 598 88 649 134 686 _c
179 723 242 742 322 742 _c
356 742 390 739 426 733 _c
461 727 497 717 535 705 _c
}_e{_cl}_e}_d
end readonly def

/BuildGlyph
 {exch begin
 CharStrings exch
 2 copy known not{pop /.notdef}if
 true 3 1 roll get exec
 end}_d

/BuildChar {
 1 index /Encoding get exch get
 1 index /BuildGlyph get exec
}_d

FontName currentdict end definefont pop
%!PS-Adobe-3.0 Resource-Font
%%Title: cmr10
%%Copyright: Copyright (C) 1994, Basil K. Malyshev. All Rights Reserved.012BaKoMa Fonts Collection, Level-B.
%%Creator: Converted from TrueType to type 3 by PPR
25 dict begin
/_d{bind def}bind def
/_m{moveto}_d
/_l{lineto}_d
/_cl{closepath eofill}_d
/_c{curveto}_d
/_sc{7 -1 roll{setcachedevice}{pop pop pop pop pop pop}ifelse}_d
/_e{exec}_d
/FontName /Cmr10 def
/PaintType 0 def
/FontMatrix[.001 0 0 .001 0 0]def
/FontBBox[-44 -250 1009 750]def
/FontType 3 def
/Encoding [ /zero /equal /two /parenright /six /one /parenleft ] def
/FontInfo 10 dict dup begin
/FamilyName (cmr10) def
/FullName (cmr10) def
/Notice (Copyright (C) 1994, Basil K. Malyshev. All Rights Reserved.012BaKoMa Fonts Collection, Level-B. ) def
/Weight (Regular) def
/Version (1.1/12-Nov-94) def
/ItalicAngle 0.0 def
/isFixedPitch false def
/UnderlinePosition -133 def
/UnderlineThickness 20 def
end readonly def
/CharStrings 7 dict dup begin
/zero{{500 0 39 -21 460 666 _sc
250 -21 _m
168 -21 112 12 83 79 _c
53 146 39 226 39 319 _c
39 377 44 431 55 482 _c
65 533 86 576 118 612 _c
149 648 193 666 250 666 _c
294 666 330 655 358 634 _c
386 612 407 585 422 551 _c
436 517 446 480 452 441 _c
457 402 460 361 460 319 _c
460 261 454 208 444 158 _c
433 108 412 65 381 31 _c
350 -3 306 -21 250 -21 _c
250 4 _m
}_e{287 4 315 23 333 61 _c
351 99 362 141 366 187 _c
370 233 373 283 373 335 _c
373 385 370 431 366 473 _c
362 515 351 554 333 588 _c
315 622 287 640 250 640 _c
212 640 184 622 166 588 _c
148 554 136 515 132 473 _c
128 431 126 385 126 335 _c
126 297 126 262 128 230 _c
130 197 135 163 143 128 _c
151 93 163 64 181 40 _c
198 16 221 4 250 4 _c
_cl}_e}_d
/equal{{777 0 56 133 721 367 _sc
75 133 _m
69 133 65 135 61 139 _c
57 143 56 148 56 153 _c
56 158 57 163 61 167 _c
65 171 69 173 75 173 _c
703 173 _l
707 173 711 171 715 167 _c
719 163 721 158 721 153 _c
721 148 719 143 715 139 _c
711 135 707 133 703 133 _c
75 133 _l
75 327 _m
69 327 65 329 61 333 _c
57 337 56 341 56 347 _c
56 351 57 356 61 360 _c
}_e{65 364 69 367 75 367 _c
703 367 _l
707 367 711 364 715 360 _c
719 356 721 351 721 347 _c
721 341 719 337 715 333 _c
711 329 707 327 703 327 _c
75 327 _l
_cl}_e}_d
/two{{500 0 50 0 449 666 _sc
50 0 _m
50 27 _l
50 28 50 30 52 32 _c
207 204 _l
230 229 249 250 264 268 _c
278 285 293 305 307 327 _c
321 349 333 372 341 396 _c
349 419 354 444 354 470 _c
354 497 349 523 339 548 _c
329 573 314 593 294 608 _c
274 623 249 631 221 631 _c
192 631 166 622 143 605 _c
119 587 103 565 94 537 _c
96 537 100 538 105 538 _c
}_e{119 538 132 533 143 523 _c
153 513 159 500 159 484 _c
159 468 153 455 143 445 _c
132 434 119 429 105 429 _c
89 429 76 434 66 445 _c
55 456 50 469 50 484 _c
50 508 54 532 64 554 _c
73 576 86 595 104 613 _c
122 630 142 643 164 652 _c
186 661 210 666 236 666 _c
274 666 309 658 342 642 _c
375 626 401 603 420 573 _c
439 543 449 509 449 470 _c
}_e{449 441 442 414 430 388 _c
417 362 401 338 381 317 _c
361 295 336 271 305 244 _c
274 217 254 199 244 190 _c
131 81 _l
227 81 _l
274 81 313 81 345 82 _c
377 82 394 84 396 86 _c
404 94 412 125 420 178 _c
449 178 _l
421 0 _l
50 0 _l
_cl}_e}_d
/parenright{{388 0 56 -249 291 750 _sc
65 -249 _m
59 -249 56 -246 56 -240 _c
56 -237 56 -235 58 -234 _c
172 -122 229 38 229 250 _c
229 462 172 623 60 733 _c
57 734 56 737 56 741 _c
56 743 57 745 59 747 _c
61 749 63 750 65 750 _c
74 750 _l
76 750 77 749 79 748 _c
127 710 167 664 199 610 _c
231 556 254 498 269 437 _c
283 376 291 314 291 250 _c
291 202 287 156 279 110 _c
}_e{271 64 258 20 241 -24 _c
223 -68 201 -108 175 -146 _c
148 -184 116 -217 79 -247 _c
77 -248 76 -249 74 -249 _c
65 -249 _l
_cl}_e}_d
/six{{500 0 42 -21 457 666 _sc
250 -21 _m
208 -21 174 -10 146 11 _c
118 33 97 61 82 96 _c
67 131 57 168 51 206 _c
45 244 42 283 42 323 _c
42 375 52 428 73 482 _c
93 535 123 579 163 614 _c
203 648 250 666 305 666 _c
327 666 348 661 368 653 _c
388 644 403 631 415 615 _c
426 598 432 578 432 554 _c
432 540 427 529 418 520 _c
408 510 397 506 384 506 _c
}_e{370 506 359 510 350 520 _c
340 529 336 540 336 554 _c
336 567 340 578 350 588 _c
359 597 370 602 384 602 _c
389 602 _l
380 614 368 622 353 628 _c
337 634 321 637 305 637 _c
285 637 266 632 249 624 _c
232 615 217 603 203 588 _c
189 573 178 557 169 539 _c
159 521 152 500 147 477 _c
142 453 139 432 138 412 _c
136 392 136 366 136 336 _c
148 363 164 385 186 403 _c
}_e{207 420 231 429 259 429 _c
288 429 315 423 339 411 _c
363 399 384 382 402 361 _c
420 339 433 315 443 288 _c
452 260 457 233 457 205 _c
457 165 448 128 431 93 _c
413 58 389 30 357 10 _c
325 -10 290 -21 250 -21 _c
250 10 _m
276 10 296 15 312 27 _c
327 39 338 54 346 74 _c
353 93 358 112 360 132 _c
362 152 363 176 363 205 _c
363 243 361 275 357 302 _c
}_e{353 328 344 352 328 372 _c
312 392 287 403 255 403 _c
227 403 205 393 188 375 _c
170 357 158 334 150 306 _c
142 278 138 252 138 226 _c
138 217 138 210 139 206 _c
139 205 139 204 139 204 _c
139 203 138 202 138 201 _c
138 172 141 143 147 114 _c
153 84 164 60 181 40 _c
197 20 220 10 250 10 _c
_cl}_e}_d
/one{500 0 87 0 421 666 _sc
93 0 _m
93 35 _l
176 35 218 45 218 67 _c
218 592 _l
183 575 139 567 87 567 _c
87 602 _l
168 602 230 623 272 666 _c
286 666 _l
288 666 291 665 293 663 _c
295 661 296 659 296 657 _c
296 67 _l
296 45 337 35 421 35 _c
421 0 _l
93 0 _l
_cl}_d
/parenleft{{388 0 97 -249 332 750 _sc
310 -247 _m
272 -217 240 -184 214 -146 _c
187 -108 165 -67 148 -25 _c
131 17 118 62 110 109 _c
101 155 97 202 97 250 _c
97 298 101 345 110 392 _c
118 438 131 483 149 527 _c
166 570 188 611 215 649 _c
242 687 274 720 310 748 _c
310 749 311 750 315 750 _c
324 750 _l
326 750 327 749 329 747 _c
331 745 332 743 332 741 _c
332 738 331 736 330 735 _c
}_e{297 703 270 668 248 632 _c
226 596 209 557 196 516 _c
183 474 174 432 168 388 _c
162 344 159 298 159 250 _c
159 38 215 -122 329 -232 _c
331 -234 332 -236 332 -240 _c
332 -242 331 -244 329 -246 _c
327 -248 326 -249 324 -249 _c
315 -249 _l
311 -249 310 -248 310 -247 _c
_cl}_e}_d
end readonly def

/BuildGlyph
 {exch begin
 CharStrings exch
 2 copy known not{pop /.notdef}if
 true 3 1 roll get exec
 end}_d

/BuildChar {
 1 index /Encoding get exch get
 1 index /BuildGlyph get exec
}_d

FontName currentdict end definefont pop
end
%%EndProlog
mpldict begin
49.584 193.742 translate
512.831 404.516 0 0 clipbox
gsave
0 0 m
512.831 0 l
512.831 404.516 l
0 404.516 l
cl
1.000 setgray
fill
grestore
gsave
59.2313 51.7156 m
505.631 51.7156 l
505.631 397.316 l
59.2313 397.316 l
cl
1.000 setgray
fill
grestore
3.000 setlinewidth
1 setlinejoin
2 setlinecap
[] 0 setdash
1.000 0.000 0.000 setrgbcolor
gsave
446.4 345.6 59.23 51.72 clipbox
59.2055 366.121 m
59.5918 366.27 l
59.9781 366.376 l
61.137 366.469 l
63.0684 366.409 l
63.841 366.591 l
65.7725 367.262 l
66.5451 367.228 l
67.3176 366.985 l
68.8628 366.369 l
69.6354 366.307 l
71.9532 366.481 l
72.7257 366.182 l
75.0435 364.683 l
75.8161 364.545 l
78.1338 364.47 l
78.9064 364.066 l
80.8379 362.708 l
81.6105 362.474 l
82.3831 362.482 l
83.9282 362.632 l
84.7008 362.473 l
87.4049 361.412 l
88.1775 361.403 l
89.3363 361.702 l
90.4952 361.954 l
92.0404 361.954 l
93.5856 361.847 l
94.7444 362.035 l
96.2896 362.619 l
98.2211 363.332 l
99.38 363.459 l
100.925 363.544 l
102.084 363.895 l
104.788 364.969 l
105.561 364.938 l
107.492 364.669 l
108.265 364.806 l
110.196 365.428 l
110.969 365.343 l
111.741 365.029 l
113.286 364.223 l
114.059 364.073 l
115.218 364.235 l
115.991 364.306 l
116.763 364.12 l
117.536 363.634 l
119.467 362.148 l
120.24 361.916 l
121.399 361.952 l
122.171 361.947 l
122.944 361.714 l
123.716 361.224 l
125.262 360.046 l
126.034 359.747 l
126.807 359.733 l
129.125 360.098 l
129.897 359.987 l
131.829 359.45 l
132.601 359.474 l
133.374 359.692 l
134.533 360.307 l
135.691 360.917 l
136.85 361.224 l
139.554 361.583 l
140.327 361.98 l
142.258 363.18 l
143.031 363.332 l
143.804 363.218 l
145.735 362.718 l
146.508 362.787 l
148.439 363.188 l
149.212 362.913 l
149.984 362.274 l
151.529 360.746 l
152.302 360.303 l
153.075 360.122 l
154.234 359.97 l
155.006 359.634 l
155.779 358.971 l
157.71 356.855 l
158.483 356.412 l
159.255 356.305 l
162.346 356.515 l
164.277 356.178 l
165.05 356.332 l
165.822 356.749 l
166.981 357.773 l
168.14 358.804 l
168.913 359.234 l
169.685 359.402 l
170.844 359.331 l
172.003 359.307 l
173.162 359.632 l
173.934 359.854 l
174.707 359.78 l
175.093 359.572 l
175.866 358.788 l
178.57 355.068 l
179.343 354.451 l
180.888 353.419 l
181.66 352.657 l
183.978 350.034 l
184.751 349.675 l
185.523 349.709 l
186.296 350.064 l
188.614 351.479 l
189.772 351.763 l
191.318 352.04 l
192.09 352.434 l
194.022 353.705 l
194.794 353.838 l
195.567 353.556 l
196.339 352.914 l
197.885 351.452 l
198.657 351.054 l
200.589 350.381 l
201.361 349.69 l
202.52 348.128 l
203.679 346.548 l
204.452 345.85 l
205.224 345.517 l
206.383 345.435 l
207.542 345.305 l
209.087 344.761 l
209.86 344.538 l
210.632 344.508 l
211.405 344.76 l
212.177 345.259 l
214.495 347.167 l
215.268 347.473 l
216.427 347.561 l
217.586 347.624 l
218.744 347.99 l
219.903 348.432 l
220.676 348.445 l
221.062 348.296 l
221.835 347.642 l
222.994 346.05 l
224.153 344.508 l
225.311 343.483 l
226.857 342.373 l
227.629 341.588 l
229.947 338.877 l
230.72 338.432 l
231.492 338.426 l
232.265 338.757 l
234.969 340.362 l
236.128 340.615 l
237.286 340.831 l
238.059 341.147 l
239.991 342.23 l
240.763 342.264 l
241.536 341.865 l
242.308 341.122 l
244.24 338.989 l
245.012 338.467 l
246.558 337.632 l
247.33 336.961 l
248.489 335.512 l
249.648 334.044 l
250.42 333.405 l
251.193 333.099 l
251.966 333.055 l
256.987 333.765 l
257.76 334.212 l
258.919 335.17 l
260.078 336.156 l
260.85 336.547 l
261.623 336.608 l
262.396 336.364 l
264.713 335.333 l
265.872 334.952 l
266.645 334.428 l
267.417 333.571 l
268.576 331.723 l
269.735 329.781 l
270.508 328.804 l
271.28 328.175 l
272.053 327.848 l
275.143 327.021 l
275.916 326.954 l
276.688 327.087 l
277.461 327.465 l
278.62 328.334 l
279.779 329.306 l
280.551 329.745 l
281.324 329.904 l
282.096 329.804 l
283.642 329.241 l
284.801 328.91 l
285.959 328.653 l
286.732 328.24 l
287.505 327.522 l
288.663 325.966 l
289.822 324.404 l
290.595 323.657 l
291.367 323.152 l
296.003 321.096 l
296.776 321.117 l
297.548 321.422 l
298.321 321.977 l
300.252 323.61 l
301.025 324.015 l
301.797 324.164 l
302.956 324.087 l
304.501 323.991 l
305.66 323.891 l
306.433 323.557 l
307.205 322.873 l
307.978 321.85 l
310.296 318.342 l
311.068 317.553 l
312.614 316.424 l
314.159 315.498 l
315.318 314.971 l
316.09 314.883 l
316.863 314.998 l
317.635 315.297 l
318.794 316.091 l
320.339 317.236 l
321.112 317.6 l
321.885 317.747 l
323.044 317.723 l
324.589 317.729 l
325.748 317.714 l
326.52 317.488 l
327.293 316.95 l
328.065 316.089 l
330.383 313.239 l
331.542 312.234 l
334.632 310.086 l
335.405 309.712 l
336.177 309.531 l
336.95 309.58 l
337.723 309.879 l
338.882 310.634 l
340.813 311.989 l
341.586 312.278 l
342.358 312.38 l
343.903 312.133 l
345.448 311.74 l
346.221 311.357 l
346.994 310.77 l
347.766 309.903 l
350.47 306.285 l
351.629 305.34 l
353.174 304.484 l
355.106 303.841 l
355.878 303.774 l
356.651 303.844 l
357.424 304.079 l
358.582 304.734 l
360.9 306.367 l
361.673 306.657 l
362.445 306.761 l
364.377 306.576 l
365.149 306.41 l
365.922 306.09 l
366.695 305.567 l
367.467 304.812 l
369.012 302.721 l
370.558 300.77 l
371.716 299.608 l
372.875 298.766 l
373.648 298.387 l
374.42 298.175 l
375.193 298.121 l
375.966 298.259 l
377.125 298.655 l
378.283 299.285 l
380.215 300.541 l
380.987 300.873 l
381.76 300.964 l
382.919 300.749 l
384.078 300.248 l
386.009 299.233 l
387.168 298.26 l
388.713 296.533 l
390.258 294.874 l
391.417 293.992 l
392.963 293.162 l
393.735 292.959 l
394.894 292.927 l
395.667 293.099 l
397.212 293.865 l
400.688 295.755 l
401.461 295.819 l
402.234 295.628 l
403.006 295.269 l
404.165 294.458 l
405.71 293.092 l
406.869 291.749 l
408.801 289.415 l
409.573 288.741 l
411.505 287.566 l
412.277 287.334 l
413.436 287.217 l
414.209 287.365 l
415.754 288.257 l
418.458 289.652 l
420.003 290.23 l
420.776 290.317 l
421.548 290.189 l
422.707 289.642 l
423.866 288.824 l
425.411 287.337 l
426.57 285.984 l
428.115 284.194 l
429.66 282.977 l
430.819 282.465 l
432.364 282.116 l
433.137 282.237 l
433.91 282.578 l
434.682 283.071 l
436.614 284.402 l
437.386 284.734 l
438.159 284.863 l
439.318 284.77 l
440.09 284.573 l
441.249 284.038 l
442.408 283.293 l
443.567 282.271 l
446.271 279.581 l
447.43 278.544 l
448.202 278.06 l
449.361 277.589 l
450.134 277.418 l
451.293 277.517 l
452.838 277.809 l
454.383 278.75 l
456.315 279.925 l
457.087 280.149 l
457.86 280.164 l
458.632 279.969 l
459.791 279.285 l
460.95 278.233 l
464.813 274.24 l
466.358 272.86 l
467.131 272.388 l
467.903 272.194 l
468.676 272.186 l
469.835 272.627 l
470.994 273.161 l
474.084 274.243 l
475.629 274.971 l
476.402 275.196 l
477.174 275.154 l
477.947 274.857 l
478.72 274.332 l
479.492 273.574 l
482.582 270.117 l
484.128 268.961 l
486.059 267.784 l
486.832 267.423 l
487.218 267.308 l
487.991 267.45 l
489.149 268.047 l
491.467 269.64 l
492.24 269.833 l
493.399 269.917 l
496.489 269.507 l
497.262 269.104 l
498.034 268.504 l
499.193 267.23 l
501.125 264.953 l
502.283 264.065 l
503.056 263.705 l
503.829 263.591 l
505.374 263.337 l
505.76 263.246 l
505.76 263.246 l
stroke
grestore
0.000 0.000 1.000 setrgbcolor
gsave
446.4 345.6 59.23 51.72 clipbox
59.0412 364.216 m
59.7539 364.334 l
60.4665 364.595 l
61.1791 364.608 l
62.6044 364.23 l
63.3171 364.543 l
65.0987 365.458 l
65.455 365.612 l
66.1676 365.58 l
66.8803 365.399 l
67.2366 365.475 l
67.9493 366.019 l
68.6619 366.527 l
69.3745 366.779 l
70.0872 366.818 l
70.7998 366.535 l
71.5125 366.237 l
72.2251 366.423 l
72.9378 366.747 l
73.2941 366.819 l
74.0067 366.607 l
74.7194 366.024 l
76.1447 364.674 l
76.8573 364.572 l
77.5699 364.478 l
77.9263 364.296 l
79.3516 362.81 l
80.4205 361.767 l
80.7768 361.628 l
81.4895 361.793 l
82.2021 362.076 l
82.5585 361.995 l
83.2711 361.466 l
83.9837 360.998 l
84.6964 360.877 l
85.409 361.101 l
86.1217 361.721 l
87.1906 362.636 l
87.547 362.653 l
88.6159 362.249 l
88.9722 362.314 l
89.6849 362.836 l
91.1102 364.055 l
91.4665 364.195 l
91.8228 364.166 l
92.1791 363.98 l
93.6044 362.489 l
93.9608 362.351 l
95.386 362.21 l
96.0987 361.623 l
96.8113 360.515 l
97.8803 358.507 l
98.5929 357.841 l
100.375 357.286 l
101.087 356.679 l
102.156 355.396 l
102.512 355.185 l
102.869 355.182 l
103.225 355.363 l
104.294 356.469 l
105.007 356.729 l
105.719 356.678 l
106.788 356.505 l
107.145 356.563 l
107.501 356.788 l
108.214 357.699 l
108.926 358.58 l
109.283 358.748 l
109.639 358.675 l
110.352 357.957 l
111.421 356.871 l
112.133 356.474 l
113.558 356.154 l
113.915 355.784 l
114.627 354.422 l
115.696 352.069 l
116.409 351.21 l
117.122 350.853 l
118.191 350.71 l
118.903 349.997 l
119.972 348.576 l
120.329 348.308 l
120.685 348.33 l
121.041 348.546 l
121.754 349.302 l
122.466 350.3 l
122.823 350.636 l
123.179 350.802 l
123.535 350.832 l
123.892 350.741 l
124.604 350.326 l
124.961 350.297 l
125.673 350.778 l
126.386 351.533 l
126.742 351.755 l
127.099 351.768 l
127.455 351.601 l
127.811 351.267 l
128.524 349.935 l
129.949 346.591 l
130.306 346.139 l
131.731 345.028 l
132.444 343.861 l
134.225 340.337 l
134.581 340.085 l
134.938 340.129 l
135.65 340.926 l
136.363 341.884 l
137.076 342.406 l
137.432 342.43 l
138.145 342.073 l
139.214 340.855 l
139.926 339.899 l
140.639 338.732 l
141.352 337.072 l
142.064 334.56 l
144.558 323.832 l
145.271 322.297 l
146.34 320.829 l
147.053 319.196 l
147.765 316.581 l
148.478 312.926 l
149.903 304.552 l
150.616 301.439 l
151.329 299.11 l
153.466 293.22 l
154.892 287.666 l
158.099 273.975 l
159.524 268.167 l
160.237 266.011 l
160.949 264.548 l
162.375 262.095 l
163.087 260.395 l
163.8 258.413 l
165.225 253.999 l
165.938 252.597 l
166.65 251.845 l
167.719 251.336 l
168.432 251.192 l
169.145 250.709 l
169.857 249.824 l
170.57 248.564 l
172.708 244.491 l
173.777 243.005 l
175.202 241.48 l
175.915 240.775 l
176.627 240.137 l
177.34 239.155 l
179.478 234.772 l
180.903 231.313 l
181.972 229.533 l
184.11 226.205 l
184.823 224.619 l
185.535 222.648 l
187.317 217.433 l
188.03 215.6 l
189.099 213.617 l
190.168 211.99 l
191.949 208.227 l
193.731 204.284 l
194.444 203.341 l
195.156 202.816 l
196.581 202.499 l
197.294 201.97 l
197.65 201.566 l
198.363 200.212 l
199.432 197.747 l
200.145 196.691 l
200.857 196.145 l
201.57 195.788 l
202.639 195.574 l
202.995 195.182 l
204.777 192.418 l
205.489 191.75 l
205.846 191.562 l
206.202 191.569 l
206.558 191.763 l
207.271 192.764 l
207.984 193.793 l
208.34 194.092 l
208.696 194.186 l
209.053 194.09 l
209.409 193.811 l
210.122 192.649 l
211.903 188.588 l
212.26 188.449 l
212.616 188.728 l
213.685 190.026 l
214.041 190.201 l
214.398 190.174 l
214.754 189.978 l
215.11 189.512 l
215.466 188.755 l
216.179 186.454 l
216.892 184.191 l
217.248 183.514 l
217.604 183.176 l
217.961 183.137 l
218.317 183.395 l
218.673 183.907 l
219.386 185.559 l
220.099 187.641 l
220.455 188.336 l
220.811 188.577 l
221.168 188.273 l
221.524 187.439 l
222.237 184.755 l
223.662 178.765 l
224.018 177.819 l
224.375 177.374 l
224.731 177.511 l
225.087 178.171 l
226.156 181.096 l
226.512 181.467 l
226.869 181.312 l
227.225 180.656 l
227.938 178.097 l
229.363 171.566 l
229.719 170.594 l
230.076 170.153 l
230.432 170.229 l
230.788 170.764 l
231.501 173.021 l
232.57 177.217 l
232.926 177.764 l
233.283 177.641 l
233.639 176.946 l
233.995 175.708 l
234.708 171.895 l
235.777 165.773 l
236.133 164.45 l
236.489 163.886 l
236.846 164.017 l
237.202 164.673 l
237.915 167.139 l
238.627 169.912 l
238.984 170.684 l
239.34 170.772 l
239.696 170.128 l
240.409 167.326 l
241.834 160.89 l
242.191 159.956 l
242.547 159.565 l
242.903 159.927 l
243.26 161.008 l
243.972 164.714 l
244.685 168.229 l
245.041 169.154 l
245.398 169.339 l
245.754 168.801 l
246.11 167.659 l
246.823 163.914 l
247.892 157.092 l
248.248 155.771 l
248.248 155.771 l
stroke
grestore
1.000 setlinewidth
0 setlinecap
[6 6] 0 setdash
1.000 0.000 0.000 setrgbcolor
gsave
446.4 345.6 59.23 51.72 clipbox
59.1797 361.62 m
62.3216 361.122 l
64.3818 360.917 l
65.6695 360.508 l
67.4207 359.969 l
71.0261 359.175 l
73.4468 358.321 l
78.2884 357.206 l
79.679 356.974 l
85.6537 356.537 l
86.7868 356.67 l
87.5594 356.955 l
88.7955 357.694 l
90.1347 358.603 l
90.9073 359.428 l
93.122 362.039 l
93.6886 362.319 l
94.0491 362.339 l
94.2551 362.194 l
94.8732 361.234 l
96.0063 359.271 l
97.3455 356.988 l
98.2211 354.358 l
99.4057 350.234 l
100.23 346.668 l
101.723 338.902 l
103.423 328.943 l
104.608 319.338 l
105.741 308.147 l
106.565 297.368 l
108.11 273.233 l
109.861 242.506 l
112.282 200.422 l
113.57 181.132 l
114.445 171.216 l
115.424 162.789 l
116.248 157.331 l
117.021 153.656 l
117.742 151.379 l
118.257 150.38 l
120.111 147.825 l
122.223 145.532 l
124.077 142.583 l
128.146 133.152 l
128.867 132.367 l
130.052 131.459 l
130.876 130.028 l
131.545 128.927 l
132.163 128.445 l
132.987 127.92 l
133.348 127.36 l
135.46 123.435 l
136.747 121.616 l
138.293 118.896 l
138.808 118.509 l
140.61 117.506 l
141.795 116.375 l
142.258 116.274 l
143.237 116.194 l
143.701 115.927 l
144.164 115.301 l
144.731 114.637 l
145.04 114.576 l
145.4 114.735 l
145.967 115.317 l
146.636 115.94 l
146.997 115.998 l
147.306 115.822 l
147.77 115.244 l
148.388 114.488 l
148.8 114.291 l
149.675 113.992 l
150.036 113.531 l
150.499 112.511 l
151.581 109.916 l
151.942 109.637 l
152.354 109.628 l
152.972 109.612 l
153.332 109.369 l
153.744 108.755 l
154.62 107.375 l
154.929 107.277 l
155.186 107.439 l
155.598 108.05 l
156.371 109.236 l
156.68 109.397 l
156.938 109.302 l
157.35 108.84 l
158.019 108.109 l
158.431 108.011 l
158.946 108.175 l
159.41 108.294 l
159.667 108.153 l
160.028 107.632 l
160.852 105.816 l
161.264 105.19 l
161.625 105.007 l
161.985 105.075 l
162.758 105.303 l
163.067 105.11 l
163.53 104.448 l
164.457 103.059 l
164.869 102.892 l
165.282 102.963 l
166.621 103.444 l
166.981 103.19 l
168.269 101.753 l
168.99 101.079 l
170.432 100.367 l
170.999 100.285 l
171.462 100.428 l
171.926 100.838 l
173.213 102.256 l
173.522 102.145 l
173.883 101.703 l
175.377 99.3651 l
176.407 98.6425 l
176.922 97.8401 l
178.055 95.8928 l
178.415 95.73 l
178.828 95.8468 l
179.446 96.0274 l
179.961 95.8703 l
180.836 95.5512 l
181.145 95.6735 l
181.454 96.0452 l
182.69 97.9242 l
182.948 97.8344 l
183.36 97.4012 l
184.648 95.8623 l
185.008 95.8619 l
185.523 95.9026 l
185.832 95.6766 l
186.244 95.0253 l
187.274 93.2084 l
187.583 93.0702 l
187.893 93.2001 l
188.356 93.7387 l
188.82 94.1937 l
189.077 94.1969 l
189.335 93.9828 l
189.798 93.2089 l
190.416 92.2524 l
190.725 92.1241 l
190.983 92.2425 l
191.395 92.7533 l
191.961 93.4255 l
192.219 93.449 l
192.477 93.2394 l
192.837 92.6204 l
193.816 90.7537 l
194.125 90.5912 l
194.434 90.7143 l
195.567 91.5279 l
195.876 91.3281 l
197.061 90.194 l
197.318 90.3353 l
197.679 90.8559 l
198.812 92.8724 l
199.069 92.8334 l
199.327 92.5408 l
199.739 91.6799 l
200.872 89.1065 l
201.284 88.8174 l
202.005 88.49 l
202.366 87.9931 l
202.829 86.9212 l
203.55 85.2133 l
203.808 85.0262 l
204.014 85.1157 l
204.271 85.5002 l
204.786 86.8097 l
205.404 88.2233 l
205.713 88.4374 l
205.971 88.3063 l
206.332 87.8236 l
207.001 86.9044 l
207.259 86.8909 l
207.516 87.1431 l
207.928 87.9788 l
208.546 89.2149 l
208.804 89.3134 l
209.01 89.1407 l
209.319 88.4862 l
209.731 87.1445 l
209.834 86.6214 l
210.298 85.4535 l
210.555 85.2234 l
210.761 85.2683 l
211.07 85.6238 l
211.791 86.5928 l
211.997 86.5886 l
212.255 86.2996 l
212.615 85.4326 l
213.439 83.2287 l
213.697 83.0713 l
213.903 83.2105 l
214.212 83.8378 l
215.242 86.4205 l
215.448 86.4401 l
215.654 86.1939 l
215.963 85.3858 l
216.839 82.7761 l
217.096 82.657 l
217.302 82.8279 l
217.714 83.5922 l
218.281 84.5389 l
218.538 84.5983 l
218.744 84.3973 l
219.053 83.6673 l
220.135 80.5693 l
220.341 80.6185 l
220.599 81.0485 l
221.011 82.3158 l
221.68 84.3567 l
221.938 84.6585 l
222.144 84.6246 l
222.401 84.2733 l
222.968 82.8951 l
223.38 82.2172 l
223.586 82.1937 l
223.792 82.4038 l
224.153 83.1942 l
224.822 84.713 l
225.08 84.8643 l
225.286 84.716 l
225.543 84.1757 l
225.955 82.605 l
226.831 78.958 l
227.14 78.5544 l
227.346 78.5986 l
227.655 78.9924 l
228.531 80.297 l
228.788 80.2654 l
229.046 79.9368 l
229.509 78.8415 l
229.921 78.0371 l
230.127 77.9372 l
230.333 78.1022 l
230.591 78.669 l
231.106 80.5554 l
231.672 82.4274 l
231.93 82.7734 l
232.136 82.7363 l
232.342 82.4255 l
232.702 81.3881 l
233.424 79.2462 l
233.681 79.0132 l
233.887 79.0978 l
234.196 79.5725 l
234.866 80.7094 l
235.072 80.7483 l
235.278 80.5682 l
235.587 79.895 l
236.153 77.857 l
236.617 76.5354 l
236.874 76.3553 l
237.08 76.5454 l
237.39 77.287 l
238.317 79.9109 l
238.574 80.0366 l
238.78 79.8596 l
239.089 79.2026 l
240.016 76.9109 l
240.222 76.8446 l
240.428 76.9929 l
240.789 77.6242 l
241.407 78.7206 l
241.664 78.7844 l
241.922 78.5324 l
242.283 77.7666 l
243.107 75.9107 l
243.364 75.7356 l
243.57 75.8072 l
243.879 76.2186 l
244.806 77.6811 l
245.012 77.6384 l
245.27 77.3132 l
245.733 76.2358 l
246.248 75.1882 l
246.506 75.0449 l
246.712 75.1727 l
246.97 75.6226 l
247.433 76.9948 l
248.154 79.0424 l
248.463 79.3579 l
248.669 79.3181 l
248.927 79.0208 l
249.442 77.96 l
250.06 76.8224 l
250.575 76.3187 l
251.245 75.7083 l
251.657 75.0282 l
252.12 73.761 l
252.79 72.0055 l
253.047 71.7873 l
253.253 71.8493 l
253.511 72.1959 l
253.923 73.2083 l
254.798 75.4622 l
255.107 75.6865 l
255.365 75.5538 l
255.726 75.0201 l
256.292 74.2098 l
256.55 74.1873 l
256.807 74.4508 l
257.219 75.2929 l
257.786 76.3775 l
258.043 76.5076 l
258.249 76.38 l
258.507 75.9352 l
258.97 74.5788 l
259.588 72.8848 l
259.898 72.6024 l
260.155 72.6985 l
260.516 73.1546 l
261.134 73.9497 l
261.391 73.9914 l
261.649 73.7799 l
262.061 73.027 l
262.679 71.9366 l
262.936 71.8673 l
263.194 72.1072 l
263.554 72.8572 l
264.327 74.5223 l
264.585 74.6327 l
264.791 74.4908 l
265.1 73.9432 l
266.13 71.7481 l
266.387 71.67 l
266.696 71.8605 l
267.623 72.6639 l
267.881 72.5287 l
268.19 72.0872 l
269.323 70.1288 l
269.529 70.2035 l
269.838 70.6372 l
271.023 72.7959 l
271.28 72.7797 l
271.589 72.5075 l
272.413 71.6228 l
272.671 71.6681 l
272.98 72.0245 l
274.113 73.8144 l
274.319 73.703 l
274.577 73.277 l
275.04 71.9348 l
275.864 69.5441 l
276.173 69.2234 l
276.431 69.2559 l
276.894 69.6589 l
277.255 69.8544 l
277.512 69.7693 l
277.821 69.3827 l
278.44 68.075 l
278.852 67.4833 l
279.058 67.4694 l
279.264 67.6926 l
279.573 68.4603 l
280.191 70.8746 l
280.654 72.2991 l
280.912 72.5868 l
281.118 72.5163 l
281.375 72.1039 l
282.509 69.7632 l
282.766 69.794 l
283.075 70.1165 l
283.745 70.8635 l
283.951 70.8006 l
284.208 70.4086 l
284.569 69.3424 l
285.341 66.8963 l
285.599 66.6696 l
285.805 66.8198 l
286.062 67.4034 l
286.577 69.3824 l
287.093 71.0878 l
287.35 71.3748 l
287.505 71.3137 l
287.711 70.973 l
288.071 69.8561 l
288.741 67.7834 l
288.998 67.541 l
289.204 67.6385 l
289.462 68.0658 l
290.492 70.1298 l
290.698 70.0419 l
290.955 69.5687 l
291.367 68.1804 l
291.986 66.1887 l
292.243 65.9244 l
292.449 66.0214 l
292.707 66.4666 l
293.788 68.8259 l
293.994 68.7698 l
294.252 68.3471 l
294.664 67.0889 l
295.179 65.6283 l
295.436 65.4195 l
295.591 65.5253 l
295.848 66.0763 l
296.261 67.6714 l
296.982 70.4968 l
297.239 70.8937 l
297.445 70.8605 l
297.651 70.5237 l
298.012 69.3906 l
298.63 67.3217 l
299.042 67.6363 l
299.505 67.9597 l
299.711 67.9013 l
299.866 67.7243 l
299.866 67.7243 l
stroke
grestore
0.000 0.000 1.000 setrgbcolor
gsave
446.4 345.6 59.23 51.72 clipbox
59.1837 366.42 m
59.8964 366.716 l
60.4665 367.007 l
60.9891 366.996 l
61.7968 366.692 l
62.747 366.141 l
63.1745 366.23 l
63.5546 366.514 l
64.1247 367.283 l
64.8849 368.335 l
65.265 368.508 l
65.645 368.425 l
66.0251 368.105 l
67.1178 367.037 l
67.4029 367.074 l
67.7355 367.396 l
68.2581 368.28 l
69.0182 369.58 l
69.3983 369.818 l
69.6834 369.755 l
69.9684 369.439 l
70.491 368.427 l
71.2037 367.124 l
71.5362 366.982 l
71.8213 367.051 l
72.1539 367.413 l
73.2466 368.8 l
73.5316 368.793 l
73.8167 368.515 l
74.2443 367.73 l
75.6696 364.658 l
76.0021 364.483 l
76.2872 364.538 l
77.665 365.198 l
77.9975 365.01 l
78.4251 364.398 l
79.1378 362.91 l
79.8504 361.65 l
80.278 361.35 l
80.6106 361.345 l
81.0381 361.549 l
81.5132 361.98 l
82.3684 362.772 l
82.7485 362.854 l
83.1761 362.625 l
83.7462 362.034 l
84.5539 361.077 l
84.9339 360.932 l
85.1715 361.093 l
85.2665 361.293 l
85.8366 362.373 l
86.8818 364.591 l
87.2619 364.888 l
87.4994 364.831 l
87.832 364.426 l
88.3546 363.458 l
89.1148 362.021 l
89.3048 361.967 l
89.5899 361.962 l
90.9201 361.917 l
91.4903 362.218 l
91.6803 362.219 l
91.8703 362.219 l
92.8205 362.867 l
93.2481 362.871 l
93.6282 362.729 l
94.0558 362.206 l
94.2458 361.757 l
94.8634 358.902 l
95.1485 357.917 l
95.5286 356.906 l
95.9562 354.39 l
96.7638 349.663 l
97.524 348.095 l
98.1416 345.945 l
98.3791 345.558 l
98.8067 343.656 l
99.2818 340.057 l
99.7094 334.916 l
100.422 326.427 l
101.182 319.401 l
102.417 309.402 l
102.798 303.712 l
103.51 288.986 l
104.175 271.639 l
104.27 267.568 l
105.126 246.158 l
105.981 227.151 l
107.026 187.46 l
108.404 133.625 l
108.974 123.857 l
109.449 118.908 l
110.019 115.669 l
110.637 113.945 l
111.397 113.002 l
111.682 112.866 l
112.347 112.68 l
113.535 113.205 l
113.772 113.133 l
114.105 113.304 l
114.865 114.001 l
115.103 114.147 l
115.53 114.492 l
115.768 114.262 l
116.243 113.849 l
116.765 112.382 l
117.526 109.439 l
118.381 106.061 l
119.521 102.398 l
119.901 101.183 l
120.424 100.116 l
121.421 98.6248 l
121.611 98.7165 l
121.991 98.9786 l
122.466 98.9914 l
122.752 99.0775 l
122.942 99.3427 l
123.369 99.9962 l
123.749 100.051 l
123.939 99.703 l
125.317 95.8588 l
125.84 93.7352 l
126.837 90.927 l
127.122 90.7564 l
127.645 90.8635 l
127.93 91.3914 l
128.928 93.4882 l
129.403 94.5522 l
129.688 94.7614 l
130.068 94.8803 l
130.448 94.8567 l
130.638 94.5935 l
130.971 93.6414 l
131.541 90.894 l
132.253 87.9146 l
132.634 86.3707 l
133.014 85.1229 l
133.251 84.9539 l
133.441 85.1003 l
133.964 85.721 l
134.249 85.9244 l
134.629 86.6336 l
134.962 87.6939 l
135.484 89.2356 l
135.864 89.7051 l
136.719 90.4417 l
136.909 90.1529 l
137.289 88.9841 l
138.24 84.6941 l
138.857 81.3873 l
139.19 80.5143 l
139.38 80.4464 l
139.617 80.6683 l
139.998 81.3758 l
140.378 82.6346 l
140.805 85.3321 l
141.138 86.7903 l
141.375 87.0737 l
141.708 87.0778 l
142.373 86.5685 l
142.611 86.1362 l
142.896 85.0981 l
143.656 81.8677 l
145.176 78.2499 l
145.604 78.3853 l
145.841 78.5966 l
146.506 79.8864 l
146.981 82.1014 l
147.932 86.5509 l
148.217 87.1959 l
148.359 87.0734 l
148.597 86.3431 l
148.977 84.2032 l
150.117 75.857 l
150.83 69.0426 l
151.21 65.6363 l
151.21 65.6363 l
stroke
grestore
0.500 setlinewidth
[] 0 setdash
0.000 setgray
gsave
/o {
gsave
newpath
translate
0.5 setlinewidth
1 setlinejoin
0 setlinecap
0 0 m
0 4 l
gsave
0.000 setgray
fill
grestore
stroke
grestore
} bind def
92.2979 51.7156 o
grestore
gsave
/o {
gsave
newpath
translate
0.5 setlinewidth
1 setlinejoin
0 setlinecap
0 0 m
0 -4 l
gsave
0.000 setgray
fill
grestore
stroke
grestore
} bind def
92.2979 397.316 o
grestore
/DejaVuSans findfont
15.000 scalefont
setfont
gsave
88.516667 36.325000 translate
0.000000 rotate
0.000000 0.000000 m /zero glyphshow
grestore
gsave
/o {
gsave
newpath
translate
0.5 setlinewidth
1 setlinejoin
0 setlinecap
0 0 m
0 4 l
gsave
0.000 setgray
fill
grestore
stroke
grestore
} bind def
147.409 51.7156 o
grestore
gsave
/o {
gsave
newpath
translate
0.5 setlinewidth
1 setlinejoin
0 setlinecap
0 0 m
0 -4 l
gsave
0.000 setgray
fill
grestore
stroke
grestore
} bind def
147.409 397.316 o
grestore
gsave
134.135590 36.325000 translate
0.000000 rotate
0.000000 0.000000 m /two glyphshow
9.543457 0.000000 m /zero glyphshow
19.086914 0.000000 m /zero glyphshow
grestore
gsave
/o {
gsave
newpath
translate
0.5 setlinewidth
1 setlinejoin
0 setlinecap
0 0 m
0 4 l
gsave
0.000 setgray
fill
grestore
stroke
grestore
} bind def
202.52 51.7156 o
grestore
gsave
/o {
gsave
newpath
translate
0.5 setlinewidth
1 setlinejoin
0 setlinecap
0 0 m
0 -4 l
gsave
0.000 setgray
fill
grestore
stroke
grestore
} bind def
202.52 397.316 o
grestore
gsave
189.067014 36.325000 translate
0.000000 rotate
0.000000 0.000000 m /four glyphshow
9.543457 0.000000 m /zero glyphshow
19.086914 0.000000 m /zero glyphshow
grestore
gsave
/o {
gsave
newpath
translate
0.5 setlinewidth
1 setlinejoin
0 setlinecap
0 0 m
0 4 l
gsave
0.000 setgray
fill
grestore
stroke
grestore
} bind def
257.631 51.7156 o
grestore
gsave
/o {
gsave
newpath
translate
0.5 setlinewidth
1 setlinejoin
0 setlinecap
0 0 m
0 -4 l
gsave
0.000 setgray
fill
grestore
stroke
grestore
} bind def
257.631 397.316 o
grestore
gsave
244.334375 36.325000 translate
0.000000 rotate
0.000000 0.000000 m /six glyphshow
9.543457 0.000000 m /zero glyphshow
19.086914 0.000000 m /zero glyphshow
grestore
gsave
/o {
gsave
newpath
translate
0.5 setlinewidth
1 setlinejoin
0 setlinecap
0 0 m
0 4 l
gsave
0.000 setgray
fill
grestore
stroke
grestore
} bind def
312.742 51.7156 o
grestore
gsave
/o {
gsave
newpath
translate
0.5 setlinewidth
1 setlinejoin
0 setlinecap
0 0 m
0 -4 l
gsave
0.000 setgray
fill
grestore
stroke
grestore
} bind def
312.742 397.316 o
grestore
gsave
299.429861 36.325000 translate
0.000000 rotate
0.000000 0.000000 m /eight glyphshow
9.543457 0.000000 m /zero glyphshow
19.086914 0.000000 m /zero glyphshow
grestore
gsave
/o {
gsave
newpath
translate
0.5 setlinewidth
1 setlinejoin
0 setlinecap
0 0 m
0 4 l
gsave
0.000 setgray
fill
grestore
stroke
grestore
} bind def
367.853 51.7156 o
grestore
gsave
/o {
gsave
newpath
translate
0.5 setlinewidth
1 setlinejoin
0 setlinecap
0 0 m
0 -4 l
gsave
0.000 setgray
fill
grestore
stroke
grestore
} bind def
367.853 397.316 o
grestore
gsave
350.087847 36.325000 translate
0.000000 rotate
0.000000 0.000000 m /one glyphshow
9.543457 0.000000 m /zero glyphshow
19.086914 0.000000 m /zero glyphshow
28.630371 0.000000 m /zero glyphshow
grestore
gsave
/o {
gsave
newpath
translate
0.5 setlinewidth
1 setlinejoin
0 setlinecap
0 0 m
0 4 l
gsave
0.000 setgray
fill
grestore
stroke
grestore
} bind def
422.965 51.7156 o
grestore
gsave
/o {
gsave
newpath
translate
0.5 setlinewidth
1 setlinejoin
0 setlinecap
0 0 m
0 -4 l
gsave
0.000 setgray
fill
grestore
stroke
grestore
} bind def
422.965 397.316 o
grestore
gsave
405.198958 36.325000 translate
0.000000 rotate
0.000000 0.000000 m /one glyphshow
9.543457 0.000000 m /two glyphshow
19.086914 0.000000 m /zero glyphshow
28.630371 0.000000 m /zero glyphshow
grestore
gsave
/o {
gsave
newpath
translate
0.5 setlinewidth
1 setlinejoin
0 setlinecap
0 0 m
0 4 l
gsave
0.000 setgray
fill
grestore
stroke
grestore
} bind def
478.076 51.7156 o
grestore
gsave
/o {
gsave
newpath
translate
0.5 setlinewidth
1 setlinejoin
0 setlinecap
0 0 m
0 -4 l
gsave
0.000 setgray
fill
grestore
stroke
grestore
} bind def
478.076 397.316 o
grestore
gsave
460.310069 36.325000 translate
0.000000 rotate
0.000000 0.000000 m /one glyphshow
9.543457 0.000000 m /four glyphshow
19.086914 0.000000 m /zero glyphshow
28.630371 0.000000 m /zero glyphshow
grestore
gsave
236.931250 13.200000 translate
0.000000 rotate
/Cmr10 findfont
20.0 scalefont
setfont
0.000000 0.000000 moveto
/parenleft glyphshow

/Cmmi10 findfont
20.0 scalefont
setfont
7.763672 0.000000 moveto
/t glyphshow

/Cmsy10 findfont
20.0 scalefont
setfont
14.980469 0.000000 moveto
/minus glyphshow

/Cmmi10 findfont
20.0 scalefont
setfont
30.517578 0.000000 moveto
/t glyphshow

/Cmmi10 findfont
14.0 scalefont
setfont
37.734375 -5.101875 moveto
/c glyphshow

/Cmr10 findfont
20.0 scalefont
setfont
43.784180 0.000000 moveto
/parenright glyphshow

/Cmmi10 findfont
20.0 scalefont
setfont
51.547852 0.000000 moveto
/slash glyphshow

61.547852 0.000000 moveto
/M glyphshow

/Cmr10 findfont
14.0 scalefont
setfont
80.952148 -5.101875 moveto
/zero glyphshow


grestore
gsave
33.356250 47.268345 translate
0.000000 rotate
0.000000 0.000000 m /zero glyphshow
9.543457 0.000000 m /period glyphshow
14.311523 0.000000 m /zero glyphshow
grestore
gsave
/o {
gsave
newpath
translate
0.5 setlinewidth
1 setlinejoin
0 setlinecap
0 0 m
4 0 l
gsave
0.000 setgray
fill
grestore
stroke
grestore
} bind def
59.2313 114.295 o
grestore
gsave
/o {
gsave
newpath
translate
0.5 setlinewidth
1 setlinejoin
0 setlinecap
0 0 m
-4 0 l
gsave
0.000 setgray
fill
grestore
stroke
grestore
} bind def
505.631 114.295 o
grestore
gsave
33.856250 110.161884 translate
0.000000 rotate
0.000000 0.000000 m /zero glyphshow
9.543457 0.000000 m /period glyphshow
14.311523 0.000000 m /two glyphshow
grestore
gsave
/o {
gsave
newpath
translate
0.5 setlinewidth
1 setlinejoin
0 setlinecap
0 0 m
4 0 l
gsave
0.000 setgray
fill
grestore
stroke
grestore
} bind def
59.2313 177.188 o
grestore
gsave
/o {
gsave
newpath
translate
0.5 setlinewidth
1 setlinejoin
0 setlinecap
0 0 m
-4 0 l
gsave
0.000 setgray
fill
grestore
stroke
grestore
} bind def
505.631 177.188 o
grestore
gsave
33.200000 173.055424 translate
0.000000 rotate
0.000000 0.000000 m /zero glyphshow
9.543457 0.000000 m /period glyphshow
14.311523 0.000000 m /four glyphshow
grestore
gsave
/o {
gsave
newpath
translate
0.5 setlinewidth
1 setlinejoin
0 setlinecap
0 0 m
4 0 l
gsave
0.000 setgray
fill
grestore
stroke
grestore
} bind def
59.2313 240.082 o
grestore
gsave
/o {
gsave
newpath
translate
0.5 setlinewidth
1 setlinejoin
0 setlinecap
0 0 m
-4 0 l
gsave
0.000 setgray
fill
grestore
stroke
grestore
} bind def
505.631 240.082 o
grestore
gsave
33.309375 235.948964 translate
0.000000 rotate
0.000000 0.000000 m /zero glyphshow
9.543457 0.000000 m /period glyphshow
14.311523 0.000000 m /six glyphshow
grestore
gsave
/o {
gsave
newpath
translate
0.5 setlinewidth
1 setlinejoin
0 setlinecap
0 0 m
4 0 l
gsave
0.000 setgray
fill
grestore
stroke
grestore
} bind def
59.2313 302.975 o
grestore
gsave
/o {
gsave
newpath
translate
0.5 setlinewidth
1 setlinejoin
0 setlinecap
0 0 m
-4 0 l
gsave
0.000 setgray
fill
grestore
stroke
grestore
} bind def
505.631 302.975 o
grestore
gsave
33.387500 298.842503 translate
0.000000 rotate
0.000000 0.000000 m /zero glyphshow
9.543457 0.000000 m /period glyphshow
14.311523 0.000000 m /eight glyphshow
grestore
gsave
/o {
gsave
newpath
translate
0.5 setlinewidth
1 setlinejoin
0 setlinecap
0 0 m
4 0 l
gsave
0.000 setgray
fill
grestore
stroke
grestore
} bind def
59.2313 365.869 o
grestore
gsave
/o {
gsave
newpath
translate
0.5 setlinewidth
1 setlinejoin
0 setlinecap
0 0 m
-4 0 l
gsave
0.000 setgray
fill
grestore
stroke
grestore
} bind def
505.631 365.869 o
grestore
gsave
34.028125 361.736043 translate
0.000000 rotate
0.000000 0.000000 m /one glyphshow
9.543457 0.000000 m /period glyphshow
14.311523 0.000000 m /zero glyphshow
grestore
gsave
22.200000 175.015625 translate
90.000000 rotate
/Cmmi10 findfont
20.0 scalefont
setfont
0.000000 0.000000 moveto
/J glyphshow

/Cmmi10 findfont
14.0 scalefont
setfont
11.083984 -5.101875 moveto
/z glyphshow

/Cmmi10 findfont
20.0 scalefont
setfont
17.591797 0.000000 moveto
/slash glyphshow

27.591797 0.000000 moveto
/J glyphshow

/Cmmi10 findfont
14.0 scalefont
setfont
38.675781 -5.101875 moveto
/z glyphshow

/Cmr10 findfont
20.0 scalefont
setfont
45.183594 0.000000 moveto
/parenleft glyphshow

/Cmmi10 findfont
20.0 scalefont
setfont
52.947266 0.000000 moveto
/t glyphshow

/Cmr10 findfont
20.0 scalefont
setfont
63.675781 0.000000 moveto
/equal glyphshow

80.484375 0.000000 moveto
/zero glyphshow

90.484375 0.000000 moveto
/parenright glyphshow


grestore
1.000 setlinewidth
gsave
59.2313 397.316 m
505.631 397.316 l
stroke
grestore
gsave
505.631 51.7156 m
505.631 397.316 l
stroke
grestore
gsave
59.2313 51.7156 m
505.631 51.7156 l
stroke
grestore
gsave
59.2313 51.7156 m
59.2313 397.316 l
stroke
grestore
gsave
304.631 61.7156 m
495.631 61.7156 l
495.631 203.153 l
304.631 203.153 l
304.631 61.7156 l
cl
gsave
1.000 setgray
fill
grestore
stroke
grestore
3.000 setlinewidth
2 setlinecap
1.000 0.000 0.000 setrgbcolor
gsave
318.631 186.95 m
346.631 186.95 l
stroke
grestore
0.000 setgray
gsave
368.631250 179.950000 translate
0.000000 rotate
/Cmmi10 findfont
20.0 scalefont
setfont
0.000000 0.156250 moveto
/C glyphshow

/Cmr10 findfont
20.0 scalefont
setfont
17.789062 0.156250 moveto
/equal glyphshow

34.597656 0.156250 moveto
/zero glyphshow

/Cmmi10 findfont
20.0 scalefont
setfont
44.597656 0.156250 moveto
/period glyphshow

/Cmr10 findfont
20.0 scalefont
setfont
50.296875 0.156250 moveto
/zero glyphshow

60.296875 0.156250 moveto
/six glyphshow

/DejaVuSans findfont
20.0 scalefont
setfont
70.296875 0.156250 moveto
/space glyphshow

76.654297 0.156250 moveto
/D glyphshow

92.054688 0.156250 moveto
/B glyphshow

105.775391 0.156250 moveto
/S glyphshow


grestore
0.000 0.000 1.000 setrgbcolor
gsave
318.631 151.591 m
346.631 151.591 l
stroke
grestore
0.000 setgray
gsave
368.631250 144.590625 translate
0.000000 rotate
/Cmmi10 findfont
20.0 scalefont
setfont
0.000000 0.156250 moveto
/C glyphshow

/Cmr10 findfont
20.0 scalefont
setfont
17.789062 0.156250 moveto
/equal glyphshow

34.597656 0.156250 moveto
/zero glyphshow

/Cmmi10 findfont
20.0 scalefont
setfont
44.597656 0.156250 moveto
/period glyphshow

/Cmr10 findfont
20.0 scalefont
setfont
50.296875 0.156250 moveto
/one glyphshow

60.296875 0.156250 moveto
/two glyphshow

/DejaVuSans findfont
20.0 scalefont
setfont
70.296875 0.156250 moveto
/space glyphshow

76.654297 0.156250 moveto
/D glyphshow

92.054688 0.156250 moveto
/B glyphshow

105.775391 0.156250 moveto
/S glyphshow


grestore
1.000 setlinewidth
0 setlinecap
[6 6] 0 setdash
1.000 0.000 0.000 setrgbcolor
gsave
318.631 116.231 m
346.631 116.231 l
stroke
grestore
0.000 setgray
gsave
368.631250 109.231250 translate
0.000000 rotate
/Cmmi10 findfont
20.0 scalefont
setfont
0.000000 0.156250 moveto
/C glyphshow

/Cmr10 findfont
20.0 scalefont
setfont
17.789062 0.156250 moveto
/equal glyphshow

34.597656 0.156250 moveto
/zero glyphshow

/Cmmi10 findfont
20.0 scalefont
setfont
44.597656 0.156250 moveto
/period glyphshow

/Cmr10 findfont
20.0 scalefont
setfont
50.296875 0.156250 moveto
/zero glyphshow

60.296875 0.156250 moveto
/six glyphshow

/DejaVuSans findfont
20.0 scalefont
setfont
70.296875 0.156250 moveto
/space glyphshow

76.654297 0.156250 moveto
/B glyphshow

90.375000 0.156250 moveto
/S glyphshow


grestore
0.000 0.000 1.000 setrgbcolor
gsave
318.631 80.8719 m
346.631 80.8719 l
stroke
grestore
0.000 setgray
gsave
368.631250 73.871875 translate
0.000000 rotate
/Cmmi10 findfont
20.0 scalefont
setfont
0.000000 0.156250 moveto
/C glyphshow

/Cmr10 findfont
20.0 scalefont
setfont
17.789062 0.156250 moveto
/equal glyphshow

34.597656 0.156250 moveto
/zero glyphshow

/Cmmi10 findfont
20.0 scalefont
setfont
44.597656 0.156250 moveto
/period glyphshow

/Cmr10 findfont
20.0 scalefont
setfont
50.296875 0.156250 moveto
/one glyphshow

60.296875 0.156250 moveto
/two glyphshow

/DejaVuSans findfont
20.0 scalefont
setfont
70.296875 0.156250 moveto
/space glyphshow

76.654297 0.156250 moveto
/B glyphshow

90.375000 0.156250 moveto
/S glyphshow


grestore

end
showpage
