This is BibTeX, Version 0.99d (TeX Live 2013/Debian)
Capacity: max_strings=35307, hash_size=35307, hash_prime=30011
The top-level auxiliary file: darkstar.aux
The style file: utphys.bst
Database file #1: darkstarNotes.bib
Database file #2: biblio.bib
Warning--entry type for "samrai_webpage" isn't style-file defined
--line 420 of file biblio.bib
Warning--entry type for "simflowny_webpage" isn't style-file defined
--line 429 of file biblio.bib
Repeated entry---line 1541 of file biblio.bib
 : @article{Yunes:2016jcc
 :                       ,
I'm skipping whatever remains of this entry
Warning--string name "october" is undefined
--line 1586 of file biblio.bib
Warning--empty pages in ligoeos
Warning--empty pages in roadmap
Warning--empty pages in giov
Warning--empty pages in helfer
Warning--empty pages in sanchis
Warning--empty pages in 2018arXiv180804668C
Warning--empty pages in simf3
Warning--empty pages in 2017arXiv170101116C
You've used 56 entries,
            2328 wiz_defined-function locations,
            1003 strings with 15948 characters,
and the built_in function-call counts, 18306 in all, are:
= -- 1731
> -- 720
< -- 0
+ -- 260
- -- 204
* -- 2012
:= -- 2178
add.period$ -- 79
call.type$ -- 56
change.case$ -- 127
chr.to.int$ -- 0
cite$ -- 64
duplicate$ -- 965
empty$ -- 1712
format.name$ -- 204
if$ -- 4658
int.to.chr$ -- 0
int.to.str$ -- 56
missing$ -- 211
newline$ -- 192
num.names$ -- 54
pop$ -- 255
preamble$ -- 1
purify$ -- 0
quote$ -- 0
skip$ -- 710
stack$ -- 0
substring$ -- 705
swap$ -- 500
text.length$ -- 0
text.prefix$ -- 0
top$ -- 0
type$ -- 0
warning$ -- 8
while$ -- 116
width$ -- 58
write$ -- 470
(There was 1 error message)
