%!PS-Adobe-3.0 EPSF-3.0
%%Title: orbital_c006_12_22_tc.eps
%%Creator: matplotlib version 1.3.1, http://matplotlib.org/
%%CreationDate: Tue Oct  2 17:05:11 2018
%%Orientation: portrait
%%BoundingBox: 12 175 599 616
%%EndComments
%%BeginProlog
/mpldict 11 dict def
mpldict begin
/m { moveto } bind def
/l { lineto } bind def
/r { rlineto } bind def
/c { curveto } bind def
/cl { closepath } bind def
/box {
m
1 index 0 r
0 exch r
neg 0 r
cl
} bind def
/clipbox {
box
clip
newpath
} bind def
%!PS-Adobe-3.0 Resource-Font
%%Title: cmsy10
%%Copyright: Copyright (C) 1994, Basil K. Malyshev. All Rights Reserved.012BaKoMa Fonts Collection, Level-B.
%%Creator: Converted from TrueType to type 3 by PPR
25 dict begin
/_d{bind def}bind def
/_m{moveto}_d
/_l{lineto}_d
/_cl{closepath eofill}_d
/_c{curveto}_d
/_sc{7 -1 roll{setcachedevice}{pop pop pop pop pop pop}ifelse}_d
/_e{exec}_d
/FontName /Cmsy10 def
/PaintType 0 def
/FontMatrix[.001 0 0 .001 0 0]def
/FontBBox[-29 -960 1123 779]def
/FontType 3 def
/Encoding [ /minus ] def
/FontInfo 10 dict dup begin
/FamilyName (cmsy10) def
/FullName (cmsy10) def
/Notice (Copyright (C) 1994, Basil K. Malyshev. All Rights Reserved.012BaKoMa Fonts Collection, Level-B. ) def
/Weight (Regular) def
/Version (1.1/12-Nov-94) def
/ItalicAngle 0.0 def
/isFixedPitch false def
/UnderlinePosition -133 def
/UnderlineThickness 20 def
end readonly def
/CharStrings 1 dict dup begin
/minus{777 0 83 230 694 270 _sc
102 230 _m
96 230 92 232 88 236 _c
84 240 83 245 83 250 _c
83 254 84 259 88 263 _c
92 267 96 270 102 270 _c
676 270 _l
681 270 685 267 689 263 _c
692 259 694 254 694 250 _c
694 245 692 240 689 236 _c
685 232 681 230 676 230 _c
102 230 _l
_cl}_d
end readonly def

/BuildGlyph
 {exch begin
 CharStrings exch
 2 copy known not{pop /.notdef}if
 true 3 1 roll get exec
 end}_d

/BuildChar {
 1 index /Encoding get exch get
 1 index /BuildGlyph get exec
}_d

FontName currentdict end definefont pop
%!PS-Adobe-3.0 Resource-Font
%%Title: cmmi10
%%Copyright: Copyright (C) 1994, Basil K. Malyshev. All Rights Reserved.012BaKoMa Fonts Collection, Level-B.
%%Creator: Converted from TrueType to type 3 by PPR
25 dict begin
/_d{bind def}bind def
/_m{moveto}_d
/_l{lineto}_d
/_cl{closepath eofill}_d
/_c{curveto}_d
/_sc{7 -1 roll{setcachedevice}{pop pop pop pop pop pop}ifelse}_d
/_e{exec}_d
/FontName /Cmmi10 def
/PaintType 0 def
/FontMatrix[.001 0 0 .001 0 0]def
/FontBBox[-34 -250 1048 750]def
/FontType 3 def
/Encoding [ /kappa /M /t /period /i /W /d /f /slash /C /l /G /a /c ] def
/FontInfo 10 dict dup begin
/FamilyName (cmmi10) def
/FullName (cmmi10) def
/Notice (Copyright (C) 1994, Basil K. Malyshev. All Rights Reserved.012BaKoMa Fonts Collection, Level-B. ) def
/Weight (Regular) def
/Version (1.1/12-Nov-94) def
/ItalicAngle 0.0 def
/isFixedPitch false def
/UnderlinePosition -133 def
/UnderlineThickness 20 def
end readonly def
/CharStrings 14 dict dup begin
/kappa{{576 0 53 -10 549 442 _sc
53 17 _m
53 21 53 24 54 26 _c
150 410 _l
152 419 157 427 165 433 _c
173 439 182 442 192 442 _c
200 442 207 439 213 434 _c
219 429 222 422 222 414 _c
222 412 222 410 222 409 _c
222 408 221 407 221 406 _c
185 261 _l
211 269 247 292 291 329 _c
335 366 369 392 392 408 _c
414 423 442 431 475 431 _c
485 431 494 427 502 421 _c
}_e{509 414 513 405 513 394 _c
513 378 507 365 496 354 _c
484 343 471 338 456 338 _c
445 338 436 341 429 348 _c
421 355 418 364 418 375 _c
418 382 419 388 422 394 _c
406 387 389 378 373 366 _c
356 354 341 343 327 331 _c
313 319 297 305 278 289 _c
258 273 241 261 226 253 _c
253 253 281 250 310 244 _c
338 238 363 227 384 211 _c
405 195 416 174 416 148 _c
}_e{416 137 414 128 412 120 _c
406 93 403 73 403 60 _c
403 30 413 15 434 15 _c
458 15 476 28 489 54 _c
501 80 512 111 520 147 _c
521 151 524 153 528 153 _c
540 153 _l
542 153 544 152 546 150 _c
548 148 549 146 549 144 _c
549 143 548 142 548 141 _c
523 40 484 -10 432 -10 _c
413 -10 396 -6 382 2 _c
367 10 356 22 348 38 _c
340 53 337 70 337 89 _c
}_e{337 101 338 112 341 122 _c
343 131 344 139 344 145 _c
344 166 334 183 315 195 _c
296 207 274 216 248 221 _c
222 225 198 228 176 228 _c
125 22 _l
123 12 118 5 110 -1 _c
102 -7 93 -10 83 -10 _c
75 -10 68 -7 62 -3 _c
56 1 53 8 53 17 _c
_cl}_e}_d
/M{{970 0 41 0 1046 683 _sc
51 0 _m
44 0 41 4 41 13 _c
41 15 42 17 43 21 _c
43 25 44 28 46 31 _c
48 33 50 35 54 35 _c
117 35 154 55 165 96 _c
295 618 _l
296 624 297 629 297 632 _c
297 639 293 643 285 644 _c
272 646 248 648 213 648 _c
206 648 203 652 203 661 _c
203 663 204 666 205 670 _c
206 674 207 677 209 679 _c
211 681 213 683 216 683 _c
}_e{392 683 _l
399 683 403 679 405 672 _c
483 99 _l
847 672 _l
851 679 858 683 866 683 _c
1036 683 _l
1042 683 1046 678 1046 670 _c
1045 668 1044 665 1043 661 _c
1042 657 1041 653 1039 651 _c
1037 649 1035 648 1033 648 _c
992 648 964 645 948 641 _c
939 638 933 629 929 614 _c
792 65 _l
790 58 790 53 790 51 _c
790 48 790 46 791 44 _c
791 42 792 41 794 41 _c
}_e{796 40 798 39 802 39 _c
814 36 838 35 874 35 _c
880 35 884 30 884 22 _c
881 12 879 6 878 4 _c
876 1 873 0 867 0 _c
606 0 _l
599 0 596 4 596 13 _c
596 15 597 18 598 22 _c
599 26 600 29 602 31 _c
604 33 606 35 609 35 _c
649 35 678 37 694 42 _c
702 44 709 53 713 69 _c
857 648 _l
453 11 _l
449 3 442 0 433 0 _c
}_e{424 0 419 3 419 11 _c
334 640 _l
197 92 _l
196 90 195 87 195 85 _c
195 83 194 80 194 77 _c
194 59 201 48 216 43 _c
231 37 250 35 272 35 _c
278 35 282 30 282 22 _c
280 13 278 7 276 4 _c
274 1 271 0 265 0 _c
51 0 _l
_cl}_e}_d
/t{{361 0 22 -10 330 626 _sc
62 81 _m
62 91 63 100 65 109 _c
137 396 _l
32 396 _l
25 396 22 400 22 409 _c
24 423 29 431 35 431 _c
146 431 _l
186 594 _l
188 602 193 610 201 616 _c
209 622 218 626 228 626 _c
236 626 243 623 249 618 _c
255 613 258 606 258 598 _c
258 596 257 594 257 593 _c
257 592 257 591 257 590 _c
217 431 _l
320 431 _l
326 431 330 426 330 418 _c
}_e{330 416 329 414 328 410 _c
327 406 326 402 324 400 _c
322 397 320 396 317 396 _c
208 396 _l
136 107 _l
131 88 129 72 129 58 _c
129 29 138 15 158 15 _c
187 15 213 28 236 56 _c
258 84 276 114 288 147 _c
290 151 293 153 296 153 _c
308 153 _l
310 153 312 152 314 150 _c
316 148 317 146 317 144 _c
317 142 316 141 316 141 _c
301 101 280 65 252 35 _c
}_e{224 5 192 -10 156 -10 _c
129 -10 107 -1 89 15 _c
71 32 62 54 62 81 _c
_cl}_e}_d
/period{277 0 84 0 194 110 _sc
84 55 _m
84 70 89 83 100 94 _c
111 104 124 110 139 110 _c
148 110 157 107 166 102 _c
174 97 181 90 186 82 _c
191 73 194 64 194 55 _c
194 40 188 27 178 16 _c
167 5 154 0 139 0 _c
124 0 111 5 100 16 _c
89 27 84 40 84 55 _c
_cl}_d
/i{{344 0 27 -10 296 661 _sc
78 72 _m
78 84 80 97 86 111 _c
167 326 _l
175 350 180 370 180 386 _c
180 406 172 416 158 416 _c
132 416 110 402 93 375 _c
75 347 63 317 55 284 _c
53 280 51 278 47 278 _c
35 278 _l
29 278 27 281 27 287 _c
27 290 _l
37 330 54 365 76 396 _c
98 426 126 442 160 442 _c
184 442 204 434 220 418 _c
236 402 245 383 245 359 _c
}_e{245 346 242 333 237 320 _c
156 105 _l
146 83 142 63 142 45 _c
142 25 149 15 165 15 _c
191 15 212 29 230 57 _c
247 85 259 115 267 147 _c
268 151 271 153 275 153 _c
287 153 _l
289 153 291 152 293 150 _c
295 148 296 146 296 144 _c
296 143 295 142 295 141 _c
285 103 269 68 247 37 _c
224 5 196 -10 163 -10 _c
139 -10 119 -2 103 13 _c
86 29 78 48 78 72 _c
}_e{191 606 _m
191 620 196 632 208 644 _c
220 655 233 661 247 661 _c
258 661 267 657 275 650 _c
282 643 286 634 286 624 _c
286 609 280 596 268 585 _c
256 573 243 568 229 568 _c
218 568 209 571 202 579 _c
194 586 191 595 191 606 _c
_cl}_e}_d
/W{{944 0 54 -21 1048 683 _sc
178 -10 _m
132 626 _l
129 636 121 642 109 644 _c
97 646 82 648 64 648 _c
57 648 54 652 54 661 _c
56 669 58 675 60 678 _c
61 681 65 683 71 683 _c
309 683 _l
315 683 319 678 319 670 _c
316 655 312 648 306 648 _c
252 648 224 638 221 620 _c
257 115 _l
507 551 _l
502 626 _l
500 636 492 642 480 644 _c
467 646 452 648 434 648 _c
}_e{427 648 424 652 424 661 _c
426 669 427 675 429 678 _c
430 681 434 683 441 683 _c
679 683 _l
685 683 689 678 689 670 _c
688 668 687 665 687 661 _c
686 657 685 654 683 652 _c
681 649 679 648 676 648 _c
622 648 593 638 591 620 _c
591 613 _l
627 115 _l
899 590 _l
903 597 905 604 905 611 _c
905 624 898 633 885 639 _c
871 645 856 648 840 648 _c
833 648 830 652 830 661 _c
}_e{831 666 832 670 833 673 _c
833 676 835 678 837 680 _c
839 682 843 683 847 683 _c
1038 683 _l
1044 683 1048 678 1048 670 _c
1047 668 1046 665 1045 661 _c
1044 657 1043 653 1041 651 _c
1039 649 1037 648 1035 648 _c
987 648 951 626 927 583 _c
925 581 924 580 924 580 _c
585 -10 _l
581 -17 576 -21 568 -21 _c
560 -21 _l
552 -21 548 -17 548 -10 _c
510 504 _l
216 -10 _l
}_e{210 -17 204 -21 198 -21 _c
190 -21 _l
182 -21 178 -17 178 -10 _c
_cl}_e}_d
/d{{520 0 38 -10 519 694 _sc
174 -10 _m
132 -10 98 5 74 37 _c
50 68 38 105 38 149 _c
38 191 49 236 71 282 _c
93 328 122 366 160 396 _c
198 426 238 442 282 442 _c
302 442 319 436 335 425 _c
351 414 363 400 372 382 _c
428 605 _l
430 616 432 625 433 632 _c
433 642 411 648 368 648 _c
361 648 358 652 358 661 _c
358 663 358 666 360 670 _c
361 674 362 677 364 679 _c
}_e{366 681 368 683 372 683 _c
507 694 _l
515 694 519 689 519 681 _c
375 106 _l
370 94 368 78 368 58 _c
368 29 377 15 397 15 _c
417 15 433 28 444 55 _c
455 81 464 112 472 147 _c
473 151 476 153 480 153 _c
492 153 _l
494 153 496 151 498 149 _c
500 147 501 145 501 143 _c
489 96 476 59 462 31 _c
448 3 426 -10 395 -10 _c
372 -10 352 -3 335 9 _c
}_e{318 21 307 39 303 61 _c
260 13 217 -10 174 -10 _c
175 15 _m
199 15 222 24 245 42 _c
267 60 287 81 303 106 _c
303 106 304 108 304 110 _c
359 330 _l
355 353 346 373 333 390 _c
319 407 302 416 280 416 _c
257 416 236 406 217 388 _c
197 370 181 348 168 323 _c
154 296 142 259 130 213 _c
118 167 113 131 113 105 _c
113 81 118 60 128 42 _c
138 24 153 15 175 15 _c
}_e{_cl}_e}_d
/f{{489 0 53 -204 552 705 _sc
97 -164 _m
109 -173 124 -178 142 -178 _c
166 -178 185 -151 200 -99 _c
206 -73 223 9 251 151 _c
297 396 _l
211 396 _l
204 396 201 400 201 409 _c
203 423 208 431 214 431 _c
303 431 _l
315 496 _l
319 516 322 533 326 548 _c
329 562 332 576 336 588 _c
340 600 345 614 353 630 _c
364 652 379 670 399 684 _c
418 698 439 705 462 705 _c
476 705 490 702 504 697 _c
}_e{518 691 529 683 538 673 _c
547 662 552 649 552 635 _c
552 617 546 602 535 590 _c
523 578 510 572 494 572 _c
483 572 474 575 466 582 _c
458 588 455 597 455 608 _c
455 622 460 635 470 646 _c
480 657 492 663 507 665 _c
494 674 479 679 461 679 _c
451 679 441 674 432 665 _c
423 655 417 645 415 635 _c
411 617 401 571 387 497 _c
375 431 _l
478 431 _l
484 431 488 426 488 418 _c
}_e{487 416 486 413 485 409 _c
484 405 483 401 481 399 _c
479 397 477 396 475 396 _c
368 396 _l
322 152 _l
316 116 309 80 301 44 _c
293 8 283 -29 269 -68 _c
255 -106 238 -139 216 -165 _c
194 -191 169 -204 140 -204 _c
117 -204 97 -197 79 -185 _c
61 -172 53 -155 53 -134 _c
53 -116 58 -101 69 -89 _c
80 -77 94 -71 111 -71 _c
121 -71 130 -74 138 -81 _c
146 -87 150 -96 150 -107 _c
}_e{150 -121 144 -134 134 -146 _c
123 -158 111 -164 97 -164 _c
_cl}_e}_d
/slash{500 0 56 -249 443 750 _sc
56 -229 _m
56 -227 56 -225 57 -225 _c
405 738 _l
406 742 408 745 412 747 _c
415 749 419 750 423 750 _c
429 750 433 748 437 744 _c
441 740 443 736 443 730 _c
443 726 _l
95 -237 _l
91 -245 84 -249 76 -249 _c
70 -249 66 -247 62 -243 _c
58 -239 56 -234 56 -229 _c
_cl}_d
/C{{714 0 51 -21 760 705 _sc
146 216 _m
146 176 153 140 169 110 _c
184 79 206 55 236 38 _c
266 21 301 13 341 13 _c
383 13 423 23 462 45 _c
501 67 534 96 562 132 _c
589 168 608 206 618 246 _c
619 250 622 252 626 252 _c
638 252 _l
640 252 642 251 644 249 _c
646 247 647 245 647 243 _c
647 242 646 241 646 240 _c
634 194 612 150 580 110 _c
547 69 508 37 462 14 _c
}_e{416 -9 370 -21 322 -21 _c
270 -21 223 -9 182 13 _c
140 36 108 68 85 110 _c
62 152 51 199 51 252 _c
51 308 63 363 88 418 _c
113 472 147 521 189 564 _c
231 607 280 641 334 667 _c
388 692 443 705 499 705 _c
521 705 542 701 562 695 _c
582 688 601 678 619 664 _c
636 650 650 635 661 617 _c
740 703 _l
740 704 741 705 745 705 _c
751 705 _l
753 705 755 703 757 701 _c
}_e{759 699 760 697 760 695 _c
692 425 _l
692 420 689 418 684 418 _c
666 418 _l
660 418 658 421 658 429 _c
660 443 662 461 662 482 _c
662 514 656 545 645 574 _c
634 602 617 625 594 643 _c
570 661 542 670 509 670 _c
454 670 404 656 359 629 _c
314 601 276 565 244 521 _c
212 477 188 427 171 373 _c
154 319 146 266 146 216 _c
_cl}_e}_d
/l{{298 0 44 -10 262 694 _sc
44 81 _m
44 83 44 86 44 90 _c
44 94 45 97 46 101 _c
46 105 47 108 47 110 _c
171 605 _l
173 616 175 625 176 632 _c
176 642 154 648 111 648 _c
104 648 101 652 101 661 _c
101 663 102 666 103 670 _c
104 674 105 677 107 679 _c
109 681 111 683 115 683 _c
250 694 _l
258 694 262 689 262 681 _c
118 106 _l
113 95 111 79 111 58 _c
}_e{111 29 120 15 140 15 _c
160 15 176 27 186 53 _c
196 79 206 110 214 147 _c
215 151 218 153 222 153 _c
234 153 _l
236 153 238 151 240 149 _c
242 147 243 145 243 143 _c
235 111 227 85 221 67 _c
215 48 205 30 191 14 _c
177 -2 159 -10 138 -10 _c
111 -10 89 -1 71 15 _c
53 32 44 54 44 81 _c
_cl}_e}_d
/G{{786 0 51 -21 761 705 _sc
146 219 _m
146 177 154 141 170 110 _c
186 79 210 55 241 38 _c
272 21 308 13 349 13 _c
389 13 426 22 462 41 _c
498 59 520 86 530 122 _c
552 208 _l
552 210 552 212 552 214 _c
552 216 553 217 553 219 _c
553 225 551 229 547 231 _c
530 235 497 238 447 238 _c
440 238 437 242 437 251 _c
439 259 440 264 442 268 _c
444 271 448 273 454 273 _c
}_e{712 273 _l
718 273 722 268 722 260 _c
722 258 721 255 720 251 _c
719 247 718 244 716 242 _c
714 239 712 238 709 238 _c
687 238 670 236 660 232 _c
650 228 643 219 639 204 _c
617 118 _l
589 7 _l
587 2 584 0 580 0 _c
574 0 566 7 556 22 _c
546 37 538 50 534 60 _c
511 32 480 12 441 -1 _c
402 -14 362 -21 322 -21 _c
270 -21 223 -9 182 13 _c
}_e{140 36 108 68 85 110 _c
62 152 51 199 51 252 _c
51 308 63 363 88 418 _c
112 472 146 521 189 564 _c
231 607 280 641 334 667 _c
388 692 443 705 499 705 _c
521 705 542 701 562 695 _c
582 688 601 678 619 664 _c
637 650 651 635 662 617 _c
741 703 _l
741 704 742 705 746 705 _c
752 705 _l
754 705 756 704 758 702 _c
760 700 761 697 761 695 _c
693 425 _l
}_e{693 420 690 418 685 418 _c
667 418 _l
661 418 659 421 659 429 _c
661 443 663 461 663 481 _c
663 513 657 544 646 573 _c
635 602 618 625 595 643 _c
571 661 543 670 509 670 _c
455 670 405 656 360 629 _c
314 601 276 565 244 521 _c
212 477 188 428 171 374 _c
154 320 146 269 146 219 _c
_cl}_e}_d
/a{{528 0 38 -10 501 442 _sc
174 -10 _m
132 -10 98 5 74 37 _c
50 68 38 105 38 149 _c
38 191 49 236 71 282 _c
93 328 122 366 160 396 _c
198 426 238 442 282 442 _c
302 442 319 436 335 426 _c
351 415 363 400 372 382 _c
379 408 394 422 416 422 _c
424 422 431 419 437 414 _c
443 409 446 402 446 394 _c
446 392 445 390 445 389 _c
445 388 445 387 445 386 _c
375 107 _l
}_e{370 87 368 70 368 58 _c
368 29 377 15 397 15 _c
417 15 433 28 444 55 _c
455 81 464 112 472 147 _c
473 151 476 153 480 153 _c
492 153 _l
494 153 496 151 498 149 _c
500 147 501 145 501 143 _c
489 96 476 59 462 31 _c
448 3 426 -10 395 -10 _c
372 -10 352 -3 335 9 _c
318 21 307 39 303 61 _c
260 13 217 -10 174 -10 _c
175 15 _m
199 15 222 24 245 42 _c
}_e{267 60 287 81 303 106 _c
303 106 304 107 304 109 _c
358 326 _l
359 329 _l
355 353 346 373 333 390 _c
319 407 302 416 280 416 _c
257 416 236 406 217 388 _c
197 370 181 348 168 323 _c
154 296 142 259 130 213 _c
118 167 113 131 113 105 _c
113 81 118 60 128 42 _c
138 24 153 15 175 15 _c
_cl}_e}_d
/c{{432 0 40 -10 430 442 _sc
117 119 _m
117 90 124 65 139 45 _c
154 25 175 15 203 15 _c
243 15 281 24 318 42 _c
354 60 384 86 407 118 _c
409 120 411 121 415 121 _c
418 121 421 119 425 115 _c
428 111 430 108 430 105 _c
430 102 429 100 428 99 _c
404 65 371 38 330 19 _c
288 0 245 -10 201 -10 _c
169 -10 140 -2 116 12 _c
92 26 73 46 60 72 _c
}_e{46 97 40 126 40 158 _c
40 203 52 248 77 292 _c
102 336 135 372 177 400 _c
219 428 263 442 309 442 _c
339 442 366 434 390 420 _c
414 405 426 384 426 356 _c
426 338 420 322 410 309 _c
399 296 385 290 367 290 _c
356 290 347 293 340 300 _c
332 306 329 315 329 326 _c
329 342 334 355 346 366 _c
357 377 370 383 386 383 _c
388 383 _l
380 394 368 402 354 408 _c
}_e{339 413 324 416 308 416 _c
269 416 235 399 206 366 _c
176 332 154 292 139 246 _c
124 200 117 157 117 119 _c
_cl}_e}_d
end readonly def

/BuildGlyph
 {exch begin
 CharStrings exch
 2 copy known not{pop /.notdef}if
 true 3 1 roll get exec
 end}_d

/BuildChar {
 1 index /Encoding get exch get
 1 index /BuildGlyph get exec
}_d

FontName currentdict end definefont pop
%!PS-Adobe-3.0 Resource-Font
%%Title: DejaVu Sans
%%Copyright: Copyright (c) 2003 by Bitstream, Inc. All Rights Reserved. Copyright (c) 2006 by Tavmjong Bah. All Rights Reserved. DejaVu changes are in public domain 
%%Creator: Converted from TrueType to type 3 by PPR
25 dict begin
/_d{bind def}bind def
/_m{moveto}_d
/_l{lineto}_d
/_cl{closepath eofill}_d
/_c{curveto}_d
/_sc{7 -1 roll{setcachedevice}{pop pop pop pop pop pop}ifelse}_d
/_e{exec}_d
/FontName /DejaVuSans def
/PaintType 0 def
/FontMatrix[.001 0 0 .001 0 0]def
/FontBBox[-1021 -415 1681 1167]def
/FontType 3 def
/Encoding [ /space /period /zero /one /two /three /four /five /eight /B /D /S /T /minus ] def
/FontInfo 10 dict dup begin
/FamilyName (DejaVu Sans) def
/FullName (DejaVu Sans) def
/Notice (Copyright (c) 2003 by Bitstream, Inc. All Rights Reserved. Copyright (c) 2006 by Tavmjong Bah. All Rights Reserved. DejaVu changes are in public domain ) def
/Weight (Book) def
/Version (Version 2.34) def
/ItalicAngle 0.0 def
/isFixedPitch false def
/UnderlinePosition -130 def
/UnderlineThickness 90 def
end readonly def
/CharStrings 14 dict dup begin
/space{318 0 0 0 0 0 _sc
}_d
/period{318 0 107 0 210 124 _sc
107 124 _m
210 124 _l
210 0 _l
107 0 _l
107 124 _l
_cl}_d
/zero{636 0 66 -13 570 742 _sc
318 664 _m
267 664 229 639 203 589 _c
177 539 165 464 165 364 _c
165 264 177 189 203 139 _c
229 89 267 64 318 64 _c
369 64 407 89 433 139 _c
458 189 471 264 471 364 _c
471 464 458 539 433 589 _c
407 639 369 664 318 664 _c
318 742 _m
399 742 461 709 505 645 _c
548 580 570 486 570 364 _c
570 241 548 147 505 83 _c
461 19 399 -13 318 -13 _c
236 -13 173 19 130 83 _c
87 147 66 241 66 364 _c
66 486 87 580 130 645 _c
173 709 236 742 318 742 _c
_cl}_d
/one{636 0 110 0 544 729 _sc
124 83 _m
285 83 _l
285 639 _l
110 604 _l
110 694 _l
284 729 _l
383 729 _l
383 83 _l
544 83 _l
544 0 _l
124 0 _l
124 83 _l
_cl}_d
/two{{636 0 73 0 536 742 _sc
192 83 _m
536 83 _l
536 0 _l
73 0 _l
73 83 _l
110 121 161 173 226 239 _c
290 304 331 346 348 365 _c
380 400 402 430 414 455 _c
426 479 433 504 433 528 _c
433 566 419 598 392 622 _c
365 646 330 659 286 659 _c
255 659 222 653 188 643 _c
154 632 117 616 78 594 _c
78 694 _l
118 710 155 722 189 730 _c
223 738 255 742 284 742 _c
}_e{359 742 419 723 464 685 _c
509 647 532 597 532 534 _c
532 504 526 475 515 449 _c
504 422 484 390 454 354 _c
446 344 420 317 376 272 _c
332 227 271 164 192 83 _c
_cl}_e}_d
/three{{636 0 76 -13 556 742 _sc
406 393 _m
453 383 490 362 516 330 _c
542 298 556 258 556 212 _c
556 140 531 84 482 45 _c
432 6 362 -13 271 -13 _c
240 -13 208 -10 176 -4 _c
144 1 110 10 76 22 _c
76 117 _l
103 101 133 89 166 81 _c
198 73 232 69 268 69 _c
330 69 377 81 409 105 _c
441 129 458 165 458 212 _c
458 254 443 288 413 312 _c
383 336 341 349 287 349 _c
}_e{202 349 _l
202 430 _l
291 430 _l
339 430 376 439 402 459 _c
428 478 441 506 441 543 _c
441 580 427 609 401 629 _c
374 649 336 659 287 659 _c
260 659 231 656 200 650 _c
169 644 135 635 98 623 _c
98 711 _l
135 721 170 729 203 734 _c
235 739 266 742 296 742 _c
370 742 429 725 473 691 _c
517 657 539 611 539 553 _c
539 513 527 479 504 451 _c
481 423 448 403 406 393 _c
_cl}_e}_d
/four{636 0 49 0 580 729 _sc
378 643 _m
129 254 _l
378 254 _l
378 643 _l
352 729 _m
476 729 _l
476 254 _l
580 254 _l
580 172 _l
476 172 _l
476 0 _l
378 0 _l
378 172 _l
49 172 _l
49 267 _l
352 729 _l
_cl}_d
/five{{636 0 77 -13 549 729 _sc
108 729 _m
495 729 _l
495 646 _l
198 646 _l
198 467 _l
212 472 227 476 241 478 _c
255 480 270 482 284 482 _c
365 482 429 459 477 415 _c
525 370 549 310 549 234 _c
549 155 524 94 475 51 _c
426 8 357 -13 269 -13 _c
238 -13 207 -10 175 -6 _c
143 -1 111 6 77 17 _c
77 116 _l
106 100 136 88 168 80 _c
199 72 232 69 267 69 _c
}_e{323 69 368 83 401 113 _c
433 143 450 183 450 234 _c
450 284 433 324 401 354 _c
368 384 323 399 267 399 _c
241 399 214 396 188 390 _c
162 384 135 375 108 363 _c
108 729 _l
_cl}_e}_d
/eight{{636 0 68 -13 568 742 _sc
318 346 _m
271 346 234 333 207 308 _c
180 283 167 249 167 205 _c
167 161 180 126 207 101 _c
234 76 271 64 318 64 _c
364 64 401 76 428 102 _c
455 127 469 161 469 205 _c
469 249 455 283 429 308 _c
402 333 365 346 318 346 _c
219 388 _m
177 398 144 418 120 447 _c
96 476 85 511 85 553 _c
85 611 105 657 147 691 _c
188 725 245 742 318 742 _c
}_e{390 742 447 725 489 691 _c
530 657 551 611 551 553 _c
551 511 539 476 515 447 _c
491 418 459 398 417 388 _c
464 377 501 355 528 323 _c
554 291 568 251 568 205 _c
568 134 546 80 503 43 _c
459 5 398 -13 318 -13 _c
237 -13 175 5 132 43 _c
89 80 68 134 68 205 _c
68 251 81 291 108 323 _c
134 355 171 377 219 388 _c
183 544 _m
183 506 194 476 218 455 _c
}_e{242 434 275 424 318 424 _c
360 424 393 434 417 455 _c
441 476 453 506 453 544 _c
453 582 441 611 417 632 _c
393 653 360 664 318 664 _c
275 664 242 653 218 632 _c
194 611 183 582 183 544 _c
_cl}_e}_d
/B{{686 0 98 0 615 729 _sc
197 348 _m
197 81 _l
355 81 _l
408 81 447 92 473 114 _c
498 136 511 169 511 215 _c
511 260 498 293 473 315 _c
447 337 408 348 355 348 _c
197 348 _l
197 648 _m
197 428 _l
343 428 _l
391 428 426 437 450 455 _c
474 473 486 500 486 538 _c
486 574 474 602 450 620 _c
426 638 391 648 343 648 _c
197 648 _l
98 729 _m
350 729 _l
}_e{425 729 483 713 524 682 _c
564 650 585 606 585 549 _c
585 504 574 468 553 442 _c
532 416 502 399 462 393 _c
510 382 548 360 575 327 _c
601 294 615 253 615 204 _c
615 138 592 88 548 53 _c
504 17 441 0 360 0 _c
98 0 _l
98 729 _l
_cl}_e}_d
/D{770 0 98 0 711 729 _sc
197 648 _m
197 81 _l
316 81 _l
416 81 490 103 537 149 _c
583 195 607 267 607 365 _c
607 463 583 534 537 580 _c
490 625 416 648 316 648 _c
197 648 _l
98 729 _m
301 729 _l
442 729 546 699 612 641 _c
678 582 711 490 711 365 _c
711 239 677 147 611 88 _c
545 29 441 0 301 0 _c
98 0 _l
98 729 _l
_cl}_d
/S{{635 0 66 -13 579 742 _sc
535 705 _m
535 609 _l
497 627 462 640 429 649 _c
395 657 363 662 333 662 _c
279 662 237 651 208 631 _c
179 610 165 580 165 542 _c
165 510 174 485 194 469 _c
213 452 250 439 304 429 _c
364 417 _l
437 403 491 378 526 343 _c
561 307 579 260 579 201 _c
579 130 555 77 508 41 _c
460 5 391 -13 300 -13 _c
265 -13 228 -9 189 -2 _c
}_e{150 5 110 16 69 32 _c
69 134 _l
109 111 148 94 186 83 _c
224 71 262 66 300 66 _c
356 66 399 77 430 99 _c
460 121 476 152 476 194 _c
476 230 465 258 443 278 _c
421 298 385 313 335 323 _c
275 335 _l
201 349 148 372 115 404 _c
82 435 66 478 66 534 _c
66 598 88 649 134 686 _c
179 723 242 742 322 742 _c
356 742 390 739 426 733 _c
461 727 497 717 535 705 _c
}_e{_cl}_e}_d
/T{611 0 -2 0 614 729 _sc
-2 729 _m
614 729 _l
614 646 _l
355 646 _l
355 0 _l
256 0 _l
256 646 _l
-2 646 _l
-2 729 _l
_cl}_d
/minus{838 0 106 272 732 355 _sc
106 355 _m
732 355 _l
732 272 _l
106 272 _l
106 355 _l
_cl}_d
end readonly def

/BuildGlyph
 {exch begin
 CharStrings exch
 2 copy known not{pop /.notdef}if
 true 3 1 roll get exec
 end}_d

/BuildChar {
 1 index /Encoding get exch get
 1 index /BuildGlyph get exec
}_d

FontName currentdict end definefont pop
%!PS-Adobe-3.0 Resource-Font
%%Title: cmr10
%%Copyright: Copyright (C) 1994, Basil K. Malyshev. All Rights Reserved.012BaKoMa Fonts Collection, Level-B.
%%Creator: Converted from TrueType to type 3 by PPR
25 dict begin
/_d{bind def}bind def
/_m{moveto}_d
/_l{lineto}_d
/_cl{closepath eofill}_d
/_c{curveto}_d
/_sc{7 -1 roll{setcachedevice}{pop pop pop pop pop pop}ifelse}_d
/_e{exec}_d
/FontName /Cmr10 def
/PaintType 0 def
/FontMatrix[.001 0 0 .001 0 0]def
/FontBBox[-44 -250 1009 750]def
/FontType 3 def
/Encoding [ /zero /equal /two /four /parenright /six /eight /one /three /parenleft ] def
/FontInfo 10 dict dup begin
/FamilyName (cmr10) def
/FullName (cmr10) def
/Notice (Copyright (C) 1994, Basil K. Malyshev. All Rights Reserved.012BaKoMa Fonts Collection, Level-B. ) def
/Weight (Regular) def
/Version (1.1/12-Nov-94) def
/ItalicAngle 0.0 def
/isFixedPitch false def
/UnderlinePosition -133 def
/UnderlineThickness 20 def
end readonly def
/CharStrings 10 dict dup begin
/zero{{500 0 39 -21 460 666 _sc
250 -21 _m
168 -21 112 12 83 79 _c
53 146 39 226 39 319 _c
39 377 44 431 55 482 _c
65 533 86 576 118 612 _c
149 648 193 666 250 666 _c
294 666 330 655 358 634 _c
386 612 407 585 422 551 _c
436 517 446 480 452 441 _c
457 402 460 361 460 319 _c
460 261 454 208 444 158 _c
433 108 412 65 381 31 _c
350 -3 306 -21 250 -21 _c
250 4 _m
}_e{287 4 315 23 333 61 _c
351 99 362 141 366 187 _c
370 233 373 283 373 335 _c
373 385 370 431 366 473 _c
362 515 351 554 333 588 _c
315 622 287 640 250 640 _c
212 640 184 622 166 588 _c
148 554 136 515 132 473 _c
128 431 126 385 126 335 _c
126 297 126 262 128 230 _c
130 197 135 163 143 128 _c
151 93 163 64 181 40 _c
198 16 221 4 250 4 _c
_cl}_e}_d
/equal{{777 0 56 133 721 367 _sc
75 133 _m
69 133 65 135 61 139 _c
57 143 56 148 56 153 _c
56 158 57 163 61 167 _c
65 171 69 173 75 173 _c
703 173 _l
707 173 711 171 715 167 _c
719 163 721 158 721 153 _c
721 148 719 143 715 139 _c
711 135 707 133 703 133 _c
75 133 _l
75 327 _m
69 327 65 329 61 333 _c
57 337 56 341 56 347 _c
56 351 57 356 61 360 _c
}_e{65 364 69 367 75 367 _c
703 367 _l
707 367 711 364 715 360 _c
719 356 721 351 721 347 _c
721 341 719 337 715 333 _c
711 329 707 327 703 327 _c
75 327 _l
_cl}_e}_d
/two{{500 0 50 0 449 666 _sc
50 0 _m
50 27 _l
50 28 50 30 52 32 _c
207 204 _l
230 229 249 250 264 268 _c
278 285 293 305 307 327 _c
321 349 333 372 341 396 _c
349 419 354 444 354 470 _c
354 497 349 523 339 548 _c
329 573 314 593 294 608 _c
274 623 249 631 221 631 _c
192 631 166 622 143 605 _c
119 587 103 565 94 537 _c
96 537 100 538 105 538 _c
}_e{119 538 132 533 143 523 _c
153 513 159 500 159 484 _c
159 468 153 455 143 445 _c
132 434 119 429 105 429 _c
89 429 76 434 66 445 _c
55 456 50 469 50 484 _c
50 508 54 532 64 554 _c
73 576 86 595 104 613 _c
122 630 142 643 164 652 _c
186 661 210 666 236 666 _c
274 666 309 658 342 642 _c
375 626 401 603 420 573 _c
439 543 449 509 449 470 _c
}_e{449 441 442 414 430 388 _c
417 362 401 338 381 317 _c
361 295 336 271 305 244 _c
274 217 254 199 244 190 _c
131 81 _l
227 81 _l
274 81 313 81 345 82 _c
377 82 394 84 396 86 _c
404 94 412 125 420 178 _c
449 178 _l
421 0 _l
50 0 _l
_cl}_e}_d
/four{{500 0 28 0 471 666 _sc
28 165 _m
28 200 _l
337 661 _l
339 664 342 666 347 666 _c
362 666 _l
369 666 373 662 373 655 _c
373 200 _l
471 200 _l
471 165 _l
373 165 _l
373 67 _l
373 53 382 44 402 40 _c
422 36 444 35 470 35 _c
470 0 _l
195 0 _l
195 35 _l
220 35 242 36 262 40 _c
282 44 292 53 292 67 _c
292 165 _l
28 165 _l
61 200 _m
298 200 _l
}_e{298 554 _l
61 200 _l
_cl}_e}_d
/parenright{{388 0 56 -249 291 750 _sc
65 -249 _m
59 -249 56 -246 56 -240 _c
56 -237 56 -235 58 -234 _c
172 -122 229 38 229 250 _c
229 462 172 623 60 733 _c
57 734 56 737 56 741 _c
56 743 57 745 59 747 _c
61 749 63 750 65 750 _c
74 750 _l
76 750 77 749 79 748 _c
127 710 167 664 199 610 _c
231 556 254 498 269 437 _c
283 376 291 314 291 250 _c
291 202 287 156 279 110 _c
}_e{271 64 258 20 241 -24 _c
223 -68 201 -108 175 -146 _c
148 -184 116 -217 79 -247 _c
77 -248 76 -249 74 -249 _c
65 -249 _l
_cl}_e}_d
/six{{500 0 42 -21 457 666 _sc
250 -21 _m
208 -21 174 -10 146 11 _c
118 33 97 61 82 96 _c
67 131 57 168 51 206 _c
45 244 42 283 42 323 _c
42 375 52 428 73 482 _c
93 535 123 579 163 614 _c
203 648 250 666 305 666 _c
327 666 348 661 368 653 _c
388 644 403 631 415 615 _c
426 598 432 578 432 554 _c
432 540 427 529 418 520 _c
408 510 397 506 384 506 _c
}_e{370 506 359 510 350 520 _c
340 529 336 540 336 554 _c
336 567 340 578 350 588 _c
359 597 370 602 384 602 _c
389 602 _l
380 614 368 622 353 628 _c
337 634 321 637 305 637 _c
285 637 266 632 249 624 _c
232 615 217 603 203 588 _c
189 573 178 557 169 539 _c
159 521 152 500 147 477 _c
142 453 139 432 138 412 _c
136 392 136 366 136 336 _c
148 363 164 385 186 403 _c
}_e{207 420 231 429 259 429 _c
288 429 315 423 339 411 _c
363 399 384 382 402 361 _c
420 339 433 315 443 288 _c
452 260 457 233 457 205 _c
457 165 448 128 431 93 _c
413 58 389 30 357 10 _c
325 -10 290 -21 250 -21 _c
250 10 _m
276 10 296 15 312 27 _c
327 39 338 54 346 74 _c
353 93 358 112 360 132 _c
362 152 363 176 363 205 _c
363 243 361 275 357 302 _c
}_e{353 328 344 352 328 372 _c
312 392 287 403 255 403 _c
227 403 205 393 188 375 _c
170 357 158 334 150 306 _c
142 278 138 252 138 226 _c
138 217 138 210 139 206 _c
139 205 139 204 139 204 _c
139 203 138 202 138 201 _c
138 172 141 143 147 114 _c
153 84 164 60 181 40 _c
197 20 220 10 250 10 _c
_cl}_e}_d
/eight{{500 0 42 -21 457 666 _sc
42 152 _m
42 192 55 227 81 258 _c
107 288 141 314 183 335 _c
146 359 _l
123 373 104 393 90 418 _c
76 443 69 469 69 497 _c
69 529 77 557 94 583 _c
110 609 133 629 161 644 _c
189 658 218 666 250 666 _c
279 666 307 660 335 648 _c
363 636 385 618 403 596 _c
421 574 430 547 430 516 _c
430 493 424 472 414 453 _c
403 434 388 417 370 402 _c
}_e{352 386 332 373 312 363 _c
369 326 _l
395 308 417 286 433 258 _c
449 230 457 200 457 170 _c
457 134 447 101 428 71 _c
408 41 383 19 351 3 _c
319 -13 285 -21 250 -21 _c
215 -21 182 -14 150 0 _c
118 13 92 33 72 60 _c
52 86 42 117 42 152 _c
96 152 _m
96 125 103 101 118 79 _c
132 57 151 40 175 28 _c
199 16 224 10 250 10 _c
288 10 323 21 355 44 _c
}_e{387 66 403 96 403 134 _c
403 146 400 159 395 171 _c
390 183 383 195 374 205 _c
365 215 355 224 344 231 _c
210 318 _l
189 306 170 292 152 275 _c
134 258 121 239 111 218 _c
101 197 96 175 96 152 _c
165 457 _m
286 379 _l
314 395 337 414 355 438 _c
373 461 382 487 382 516 _c
382 538 375 559 363 578 _c
350 596 334 611 314 621 _c
294 631 272 637 249 637 _c
}_e{229 637 208 633 188 625 _c
167 617 150 606 137 590 _c
123 574 117 556 117 536 _c
117 504 133 478 165 457 _c
_cl}_e}_d
/one{500 0 87 0 421 666 _sc
93 0 _m
93 35 _l
176 35 218 45 218 67 _c
218 592 _l
183 575 139 567 87 567 _c
87 602 _l
168 602 230 623 272 666 _c
286 666 _l
288 666 291 665 293 663 _c
295 661 296 659 296 657 _c
296 67 _l
296 45 337 35 421 35 _c
421 0 _l
93 0 _l
_cl}_d
/three{{500 0 42 -21 457 666 _sc
95 77 _m
111 54 132 37 158 26 _c
184 15 213 10 243 10 _c
281 10 309 26 325 59 _c
341 92 350 130 350 172 _c
350 190 348 209 345 228 _c
341 247 335 265 327 281 _c
319 297 308 310 294 320 _c
280 330 262 335 242 335 _c
176 335 _l
170 335 167 338 167 344 _c
167 353 _l
167 358 170 361 176 361 _c
231 365 _l
254 365 273 373 289 391 _c
}_e{305 409 316 430 323 456 _c
330 481 334 505 334 528 _c
334 560 326 586 311 606 _c
296 626 273 637 243 637 _c
217 637 193 632 170 622 _c
147 612 129 598 115 579 _c
116 579 117 580 118 580 _c
119 580 120 580 122 580 _c
137 580 150 574 160 564 _c
170 554 175 541 175 527 _c
175 512 170 499 160 489 _c
150 479 137 474 122 474 _c
107 474 94 479 84 489 _c
}_e{74 499 69 512 69 527 _c
69 555 77 580 95 601 _c
112 622 134 638 161 649 _c
188 660 215 666 243 666 _c
263 666 284 663 307 657 _c
329 651 350 642 368 631 _c
386 619 401 605 413 588 _c
424 570 430 550 430 528 _c
430 500 423 474 411 450 _c
399 426 382 406 360 389 _c
338 371 314 358 288 350 _c
317 344 345 333 371 317 _c
397 301 417 280 433 255 _c
}_e{449 229 457 202 457 173 _c
457 136 446 103 426 73 _c
406 43 379 19 347 3 _c
314 -13 279 -21 243 -21 _c
211 -21 180 -15 149 -3 _c
117 8 92 25 72 49 _c
52 73 42 101 42 135 _c
42 151 47 165 58 176 _c
69 187 83 193 100 193 _c
110 193 120 190 129 185 _c
138 180 145 173 150 164 _c
155 154 158 145 158 135 _c
158 118 152 104 141 93 _c
}_e{129 82 116 77 100 77 _c
95 77 _l
_cl}_e}_d
/parenleft{{388 0 97 -249 332 750 _sc
310 -247 _m
272 -217 240 -184 214 -146 _c
187 -108 165 -67 148 -25 _c
131 17 118 62 110 109 _c
101 155 97 202 97 250 _c
97 298 101 345 110 392 _c
118 438 131 483 149 527 _c
166 570 188 611 215 649 _c
242 687 274 720 310 748 _c
310 749 311 750 315 750 _c
324 750 _l
326 750 327 749 329 747 _c
331 745 332 743 332 741 _c
332 738 331 736 330 735 _c
}_e{297 703 270 668 248 632 _c
226 596 209 557 196 516 _c
183 474 174 432 168 388 _c
162 344 159 298 159 250 _c
159 38 215 -122 329 -232 _c
331 -234 332 -236 332 -240 _c
332 -242 331 -244 329 -246 _c
327 -248 326 -249 324 -249 _c
315 -249 _l
311 -249 310 -248 310 -247 _c
_cl}_e}_d
end readonly def

/BuildGlyph
 {exch begin
 CharStrings exch
 2 copy known not{pop /.notdef}if
 true 3 1 roll get exec
 end}_d

/BuildChar {
 1 index /Encoding get exch get
 1 index /BuildGlyph get exec
}_d

FontName currentdict end definefont pop
end
%%EndProlog
mpldict begin
12.576 175.815 translate
586.848 440.37 0 0 clipbox
gsave
0 0 m
586.848 0 l
586.848 440.37 l
0 440.37 l
cl
1.000 setgray
fill
grestore
gsave
74.2156 314.735 m
563.405 314.735 l
563.405 426.397 l
74.2156 426.397 l
cl
1.000 setgray
fill
grestore
3.000 setlinewidth
1 setlinejoin
2 setlinecap
[] 0 setdash
1.000 0.000 0.000 setrgbcolor
gsave
489.2 111.7 74.22 314.7 clipbox
73.9299 343.569 m
76.2158 343.813 l
79.9305 343.861 l
82.2164 344.014 l
85.3596 344.08 l
89.9314 344.555 l
91.6459 344.66 l
96.5035 345.345 l
98.2179 345.558 l
100.79 345.978 l
106.219 346.407 l
107.933 346.469 l
111.076 346.433 l
113.648 346.572 l
116.791 346.533 l
119.077 346.629 l
122.22 346.631 l
125.649 346.884 l
129.078 346.997 l
131.935 347.144 l
135.364 347.147 l
137.365 347.161 l
142.794 346.915 l
153.08 346.617 l
173.368 347.837 l
178.511 348.63 l
183.94 350.037 l
190.798 352.281 l
197.942 355.107 l
200.799 356.172 l
205.943 357.968 l
208.8 358.849 l
211.372 359.588 l
213.943 360.356 l
219.658 362.106 l
231.088 365.611 l
238.803 368.233 l
242.518 369.184 l
244.803 369.629 l
254.804 371.195 l
257.09 371.473 l
259.948 371.789 l
262.234 372.134 l
264.52 372.423 l
269.377 372.762 l
275.949 372.707 l
279.378 373.039 l
281.95 373.47 l
285.665 374.035 l
297.951 375.937 l
301.952 375.924 l
305.381 375.718 l
309.667 375.906 l
318.239 377.136 l
320.525 377.398 l
322.811 377.635 l
325.383 377.864 l
327.383 378.023 l
337.098 378.269 l
339.955 378.533 l
346.242 379.205 l
357.957 379.983 l
361.386 380.21 l
364.529 380.315 l
366.815 380.336 l
368.815 380.411 l
371.959 380.626 l
373.673 380.788 l
376.245 381.098 l
379.102 381.339 l
381.102 381.506 l
384.245 381.66 l
386.246 381.732 l
389.96 381.765 l
395.675 381.98 l
398.532 382.21 l
401.676 382.625 l
407.39 382.993 l
411.677 382.848 l
413.677 382.79 l
417.963 383.09 l
424.249 383.98 l
425.964 384.008 l
432.821 383.847 l
438.536 384.17 l
445.966 384.87 l
451.109 384.99 l
454.824 384.786 l
457.395 384.778 l
459.395 385.034 l
464.539 385.759 l
466.539 385.773 l
474.254 385.673 l
478.54 385.912 l
480.826 386.001 l
483.969 386.097 l
487.112 386.431 l
489.684 386.762 l
491.399 386.681 l
493.399 386.622 l
495.113 386.833 l
495.685 386.922 l
495.685 386.922 l
stroke
grestore
1.000 setlinewidth
0 setlinecap
[1 3] 0 setdash
gsave
489.2 111.7 74.22 314.7 clipbox
74.1823 345.615 m
74.4868 345.743 l
74.7913 345.625 l
75.1338 345.195 l
75.5524 344.221 l
76.0852 342.323 l
77.4552 337.102 l
77.8739 336.424 l
78.1783 336.279 l
78.4447 336.373 l
78.7872 336.743 l
79.3962 337.82 l
80.1573 339.073 l
80.5379 339.336 l
80.8423 339.279 l
81.1468 338.96 l
81.5273 338.185 l
82.0601 336.508 l
83.316 332.391 l
83.7727 331.613 l
84.1533 331.348 l
84.4958 331.383 l
84.8764 331.692 l
85.4092 332.475 l
86.665 334.408 l
87.1217 334.706 l
87.4642 334.697 l
87.8448 334.44 l
88.3395 333.767 l
90.0141 331.166 l
90.3946 331.054 l
90.7371 331.213 l
91.1177 331.659 l
91.7266 332.783 l
92.8683 334.896 l
93.3631 335.399 l
93.7436 335.506 l
94.1242 335.363 l
94.6189 334.883 l
96.1412 333.196 l
96.5599 333.102 l
96.9024 333.258 l
97.2829 333.704 l
97.7777 334.691 l
98.5388 336.823 l
99.4522 339.29 l
99.8708 339.865 l
100.213 339.984 l
100.556 339.847 l
101.013 339.397 l
102.23 338.064 l
102.573 338.023 l
102.877 338.222 l
103.22 338.753 l
103.677 339.956 l
104.476 342.895 l
105.351 345.823 l
105.884 346.945 l
106.302 347.399 l
106.645 347.482 l
106.987 347.322 l
107.406 346.842 l
108.814 344.953 l
109.119 344.975 l
109.423 345.237 l
109.88 345.979 l
111.44 348.793 l
111.821 349.005 l
112.125 348.952 l
112.468 348.641 l
112.886 347.89 l
113.457 346.309 l
114.713 342.691 l
115.208 341.918 l
115.626 341.615 l
116.007 341.587 l
116.502 341.805 l
117.415 342.236 l
117.796 342.152 l
118.176 341.823 l
118.671 341.036 l
119.508 339.167 l
120.384 337.352 l
120.878 336.807 l
121.297 336.653 l
121.792 336.724 l
122.515 337.084 l
123.542 337.602 l
124.075 337.598 l
124.684 337.354 l
125.369 336.835 l
126.891 335.537 l
127.348 335.507 l
127.843 335.712 l
128.642 336.34 l
129.86 337.288 l
130.393 337.419 l
130.963 337.312 l
132.714 336.853 l
133.247 336.947 l
133.703 337.262 l
134.312 337.983 l
135.302 339.554 l
136.139 340.748 l
136.596 341.061 l
137.091 341.117 l
138.993 341.023 l
139.45 341.361 l
139.945 342.043 l
142.647 346.393 l
143.18 346.708 l
143.674 346.747 l
144.321 346.55 l
145.235 346.276 l
145.653 346.4 l
146.148 346.819 l
147.328 348.28 l
148.051 348.964 l
148.546 349.154 l
148.964 349.063 l
149.421 348.706 l
150.258 347.684 l
151.438 346.33 l
152.237 345.731 l
153.113 345.358 l
154.368 344.862 l
154.939 344.303 l
157.337 341.55 l
157.832 341.423 l
158.288 341.534 l
158.821 341.901 l
159.468 342.642 l
160.077 343.694 l
160.648 345.159 l
161.143 347.064 l
161.599 349.761 l
162.322 354.213 l
163.122 357.374 l
164.035 361.165 l
164.644 364.72 l
165.215 369.555 l
166.661 383.086 l
167.079 384.825 l
167.65 386.111 l
168.335 387.817 l
168.83 389.656 l
169.705 394.121 l
170.999 400.567 l
171.875 403.13 l
172.445 406.174 l
173.169 409.858 l
173.739 411.753 l
174.082 412.25 l
174.348 412.294 l
174.653 412.081 l
175.68 411.102 l
175.947 411.336 l
176.289 411.947 l
176.67 413.109 l
177.317 416.002 l
177.888 418.233 l
178.268 418.954 l
178.573 419.11 l
178.839 419.011 l
179.105 418.68 l
179.6 417.566 l
180.019 416.843 l
180.247 416.779 l
180.476 416.982 l
181.161 417.817 l
181.427 417.707 l
181.731 417.304 l
183.33 414.542 l
183.939 413.394 l
184.548 412.207 l
184.776 412.15 l
185.004 412.383 l
185.385 413.197 l
186.374 415.423 l
186.641 415.448 l
187.097 415.388 l
187.478 415.691 l
187.897 415.953 l
188.239 415.893 l
188.962 415.68 l
189.799 415.478 l
190.294 415.43 l
190.637 415.665 l
191.17 416.066 l
191.474 415.972 l
192.083 415.706 l
193.11 415.651 l
193.605 415.985 l
194.062 416.209 l
194.48 416.131 l
194.785 416.156 l
195.051 416.45 l
195.66 417.191 l
196.041 417.283 l
196.269 417.132 l
196.574 416.61 l
197.259 415.378 l
197.639 415.159 l
198.134 415.189 l
198.857 415.433 l
199.352 415.835 l
199.732 416.498 l
200.227 417.298 l
200.493 417.361 l
200.874 417.153 l
201.407 416.594 l
201.978 416.039 l
202.32 416.003 l
202.777 416.219 l
203.69 416.723 l
204.223 416.921 l
204.68 417.083 l
204.946 416.933 l
205.479 416.264 l
206.164 415.577 l
206.849 415.112 l
207.192 415.12 l
207.496 415.341 l
207.877 415.921 l
208.638 417.194 l
208.904 417.24 l
209.17 417.01 l
210.388 415.494 l
210.921 415.303 l
211.226 415.408 l
211.682 415.864 l
212.443 416.98 l
212.976 417.648 l
213.319 417.768 l
213.585 417.61 l
213.928 417.066 l
214.422 416.338 l
214.651 416.323 l
215.145 416.647 l
215.64 416.809 l
216.592 416.973 l
217.01 417.409 l
217.733 418.226 l
218.038 418.217 l
218.494 417.923 l
219.484 417.149 l
220.017 417.274 l
220.397 417.265 l
220.74 417.005 l
221.387 416.449 l
221.653 416.504 l
222.034 416.854 l
222.605 417.337 l
222.871 417.284 l
223.252 416.905 l
223.822 416.379 l
224.165 416.385 l
225.687 416.777 l
226.296 416.67 l
226.753 416.689 l
227.248 416.964 l
227.704 417.16 l
227.971 417.041 l
228.922 416.387 l
229.759 416.409 l
230.444 416.642 l
231.129 417.16 l
232.537 418.182 l
232.804 418.153 l
233.146 417.847 l
234.022 416.99 l
234.478 416.913 l
235.125 416.829 l
235.772 416.662 l
236.115 416.862 l
236.724 417.538 l
237.333 418.148 l
237.675 418.147 l
238.132 417.875 l
238.931 417.303 l
239.502 417.313 l
239.921 417.224 l
240.948 416.761 l
241.253 417.11 l
241.938 417.969 l
242.204 417.923 l
242.661 417.492 l
243.346 416.956 l
243.84 416.833 l
244.602 416.926 l
245.058 417.188 l
246.504 418.249 l
246.809 418.009 l
247.304 417.237 l
247.874 416.437 l
248.217 416.311 l
248.712 416.425 l
249.359 416.759 l
249.739 417.244 l
250.691 418.639 l
250.957 418.65 l
251.3 418.404 l
252.289 417.274 l
252.936 416.452 l
253.24 416.418 l
253.583 416.651 l
254.344 417.551 l
255.257 418.601 l
255.6 418.697 l
255.943 418.541 l
256.97 417.597 l
257.617 417.124 l
257.921 417.135 l
258.264 417.407 l
259.292 418.455 l
259.596 418.324 l
261.08 417.208 l
261.841 417.026 l
262.336 417.128 l
263.059 417.553 l
263.82 417.997 l
264.087 417.895 l
264.467 417.433 l
265.266 416.414 l
265.647 416.291 l
266.332 416.387 l
266.865 416.63 l
267.474 417.227 l
268.273 417.918 l
268.958 418.235 l
269.529 418.269 l
270.062 418.023 l
270.518 417.923 l
271.508 417.909 l
272.84 417.253 l
273.258 417.443 l
273.791 417.975 l
274.4 418.512 l
274.857 418.592 l
275.884 418.506 l
276.227 418.225 l
276.76 417.423 l
277.254 416.822 l
277.597 416.737 l
278.929 417.05 l
280.071 417.393 l
280.87 417.141 l
281.517 417.059 l
281.935 417.197 l
282.316 417.586 l
283.305 418.863 l
283.61 418.814 l
284.409 418.318 l
285.627 417.644 l
286.122 417.58 l
286.616 417.735 l
287.035 418.081 l
287.53 418.835 l
288.139 419.725 l
288.367 419.708 l
288.633 419.384 l
289.699 417.767 l
290.27 417.478 l
291.183 417.033 l
291.678 416.913 l
292.059 417.051 l
292.591 417.53 l
293.01 417.781 l
293.276 417.675 l
293.847 417.051 l
294.228 416.837 l
294.532 416.916 l
294.913 417.299 l
295.75 418.21 l
296.131 418.621 l
296.435 419.322 l
297.387 421.94 l
297.577 421.945 l
297.805 421.685 l
298.186 420.827 l
299.289 418.138 l
299.708 417.708 l
300.165 417.563 l
300.888 417.346 l
301.611 417.155 l
302.562 416.921 l
303.247 416.763 l
303.932 416.718 l
304.465 416.357 l
305.417 415.464 l
305.759 414.713 l
306.825 411.858 l
307.015 411.958 l
307.319 412.443 l
307.852 413.727 l
308.233 415.184 l
308.651 417.779 l
309.222 423.043 l
309.26 423.439 l
309.26 423.439 l
stroke
grestore
2 setlinecap
[] 0 setdash
0.750 0.000 0.750 setrgbcolor
gsave
489.2 111.7 74.22 314.7 clipbox
74.012 341.129 m
95.2102 342.162 l
112.332 343.211 l
126.192 344.275 l
137.403 345.352 l
146.371 346.425 l
153.709 347.514 l
159.824 348.64 l
164.716 349.754 l
168.793 350.899 l
172.258 352.103 l
175.111 353.33 l
177.353 354.518 l
179.392 355.85 l
181.022 357.174 l
182.449 358.616 l
183.672 360.172 l
184.691 361.821 l
185.507 363.499 l
186.322 365.698 l
186.933 367.921 l
187.545 371.055 l
187.952 374.118 l
188.36 378.924 l
188.564 382.812 l
188.768 389.354 l
188.972 408.012 l
188.972 408.012 l
stroke
grestore
0.000 0.750 0.750 setrgbcolor
gsave
489.2 111.7 74.22 314.7 clipbox
74.012 343.678 m
130.676 345.019 l
179.392 346.389 l
221.38 347.788 l
257.662 349.215 l
289.052 350.666 l
316.365 352.146 l
340.213 353.657 l
361.003 355.193 l
379.144 356.75 l
395.043 358.33 l
409.107 359.947 l
421.541 361.595 l
432.547 363.276 l
442.331 364.994 l
450.892 366.717 l
458.638 368.502 l
465.364 370.274 l
471.479 372.109 l
476.982 373.993 l
481.874 375.9 l
486.358 377.89 l
490.231 379.844 l
493.9 381.946 l
497.161 384.074 l
500.015 386.187 l
502.665 388.412 l
505.111 390.748 l
507.353 393.19 l
509.391 395.727 l
511.225 398.337 l
513.06 401.344 l
514.691 404.451 l
516.117 407.606 l
517.544 411.3 l
518.767 415.04 l
519.99 419.503 l
521.009 423.985 l
522.028 429.455 l
522.844 434.854 l
523.632 441.37 l
523.632 441.37 l
stroke
grestore
0.500 setlinewidth
0 setlinecap
0.000 setgray
gsave
/o {
gsave
newpath
translate
0.5 setlinewidth
1 setlinejoin
0 setlinecap
0 0 m
0 4 l
gsave
0.000 setgray
fill
grestore
stroke
grestore
} bind def
155.747 314.735 o
grestore
gsave
/o {
gsave
newpath
translate
0.5 setlinewidth
1 setlinejoin
0 setlinecap
0 0 m
0 -4 l
gsave
0.000 setgray
fill
grestore
stroke
grestore
} bind def
155.747 426.397 o
grestore
/DejaVuSans findfont
13.500 scalefont
setfont
gsave
152.348828 300.094485 translate
0.000000 rotate
0.000000 0.000000 m /zero glyphshow
grestore
gsave
/o {
gsave
newpath
translate
0.5 setlinewidth
1 setlinejoin
0 setlinecap
0 0 m
0 4 l
gsave
0.000 setgray
fill
grestore
stroke
grestore
} bind def
257.662 314.735 o
grestore
gsave
/o {
gsave
newpath
translate
0.5 setlinewidth
1 setlinejoin
0 setlinecap
0 0 m
0 -4 l
gsave
0.000 setgray
fill
grestore
stroke
grestore
} bind def
257.662 426.397 o
grestore
gsave
245.747754 300.094485 translate
0.000000 rotate
0.000000 0.000000 m /five glyphshow
8.589111 0.000000 m /zero glyphshow
17.178223 0.000000 m /zero glyphshow
grestore
gsave
/o {
gsave
newpath
translate
0.5 setlinewidth
1 setlinejoin
0 setlinecap
0 0 m
0 4 l
gsave
0.000 setgray
fill
grestore
stroke
grestore
} bind def
359.576 314.735 o
grestore
gsave
/o {
gsave
newpath
translate
0.5 setlinewidth
1 setlinejoin
0 setlinecap
0 0 m
0 -4 l
gsave
0.000 setgray
fill
grestore
stroke
grestore
} bind def
359.576 426.397 o
grestore
gsave
343.584180 300.094485 translate
0.000000 rotate
0.000000 0.000000 m /one glyphshow
8.589111 0.000000 m /zero glyphshow
17.178223 0.000000 m /zero glyphshow
25.767334 0.000000 m /zero glyphshow
grestore
gsave
/o {
gsave
newpath
translate
0.5 setlinewidth
1 setlinejoin
0 setlinecap
0 0 m
0 4 l
gsave
0.000 setgray
fill
grestore
stroke
grestore
} bind def
461.491 314.735 o
grestore
gsave
/o {
gsave
newpath
translate
0.5 setlinewidth
1 setlinejoin
0 setlinecap
0 0 m
0 -4 l
gsave
0.000 setgray
fill
grestore
stroke
grestore
} bind def
461.491 426.397 o
grestore
gsave
445.498730 300.094485 translate
0.000000 rotate
0.000000 0.000000 m /one glyphshow
8.589111 0.000000 m /five glyphshow
17.178223 0.000000 m /zero glyphshow
25.767334 0.000000 m /zero glyphshow
grestore
gsave
/o {
gsave
newpath
translate
0.5 setlinewidth
1 setlinejoin
0 setlinecap
0 0 m
0 4 l
gsave
0.000 setgray
fill
grestore
stroke
grestore
} bind def
563.405 314.735 o
grestore
gsave
/o {
gsave
newpath
translate
0.5 setlinewidth
1 setlinejoin
0 setlinecap
0 0 m
0 -4 l
gsave
0.000 setgray
fill
grestore
stroke
grestore
} bind def
563.405 426.397 o
grestore
gsave
547.163281 300.094485 translate
0.000000 rotate
0.000000 0.000000 m /two glyphshow
8.589111 0.000000 m /zero glyphshow
17.178223 0.000000 m /zero glyphshow
25.767334 0.000000 m /zero glyphshow
grestore
gsave
/o {
gsave
newpath
translate
0.5 setlinewidth
1 setlinejoin
0 setlinecap
0 0 m
4 0 l
gsave
0.000 setgray
fill
grestore
stroke
grestore
} bind def
74.2156 314.735 o
grestore
gsave
/o {
gsave
newpath
translate
0.5 setlinewidth
1 setlinejoin
0 setlinecap
0 0 m
-4 0 l
gsave
0.000 setgray
fill
grestore
stroke
grestore
} bind def
563.405 314.735 o
grestore
gsave
33.340625 310.867923 translate
0.000000 rotate
0.000000 0.000000 m /zero glyphshow
8.589111 0.000000 m /period glyphshow
12.880371 0.000000 m /zero glyphshow
21.469482 0.000000 m /zero glyphshow
30.058594 0.000000 m /zero glyphshow
grestore
gsave
/o {
gsave
newpath
translate
0.5 setlinewidth
1 setlinejoin
0 setlinecap
0 0 m
4 0 l
gsave
0.000 setgray
fill
grestore
stroke
grestore
} bind def
74.2156 333.345 o
grestore
gsave
/o {
gsave
newpath
translate
0.5 setlinewidth
1 setlinejoin
0 setlinecap
0 0 m
-4 0 l
gsave
0.000 setgray
fill
grestore
stroke
grestore
} bind def
563.405 333.345 o
grestore
gsave
/o {
gsave
newpath
translate
0.5 setlinewidth
1 setlinejoin
0 setlinecap
0 0 m
4 0 l
gsave
0.000 setgray
fill
grestore
stroke
grestore
} bind def
74.2156 351.956 o
grestore
gsave
/o {
gsave
newpath
translate
0.5 setlinewidth
1 setlinejoin
0 setlinecap
0 0 m
-4 0 l
gsave
0.000 setgray
fill
grestore
stroke
grestore
} bind def
563.405 351.956 o
grestore
gsave
33.200000 348.088511 translate
0.000000 rotate
0.000000 0.000000 m /zero glyphshow
8.589111 0.000000 m /period glyphshow
12.880371 0.000000 m /zero glyphshow
21.469482 0.000000 m /zero glyphshow
30.058594 0.000000 m /four glyphshow
grestore
gsave
/o {
gsave
newpath
translate
0.5 setlinewidth
1 setlinejoin
0 setlinecap
0 0 m
4 0 l
gsave
0.000 setgray
fill
grestore
stroke
grestore
} bind def
74.2156 370.566 o
grestore
gsave
/o {
gsave
newpath
translate
0.5 setlinewidth
1 setlinejoin
0 setlinecap
0 0 m
-4 0 l
gsave
0.000 setgray
fill
grestore
stroke
grestore
} bind def
563.405 370.566 o
grestore
gsave
/o {
gsave
newpath
translate
0.5 setlinewidth
1 setlinejoin
0 setlinecap
0 0 m
4 0 l
gsave
0.000 setgray
fill
grestore
stroke
grestore
} bind def
74.2156 389.176 o
grestore
gsave
/o {
gsave
newpath
translate
0.5 setlinewidth
1 setlinejoin
0 setlinecap
0 0 m
-4 0 l
gsave
0.000 setgray
fill
grestore
stroke
grestore
} bind def
563.405 389.176 o
grestore
gsave
33.356250 385.309099 translate
0.000000 rotate
0.000000 0.000000 m /zero glyphshow
8.589111 0.000000 m /period glyphshow
12.880371 0.000000 m /zero glyphshow
21.469482 0.000000 m /zero glyphshow
30.058594 0.000000 m /eight glyphshow
grestore
gsave
/o {
gsave
newpath
translate
0.5 setlinewidth
1 setlinejoin
0 setlinecap
0 0 m
4 0 l
gsave
0.000 setgray
fill
grestore
stroke
grestore
} bind def
74.2156 407.787 o
grestore
gsave
/o {
gsave
newpath
translate
0.5 setlinewidth
1 setlinejoin
0 setlinecap
0 0 m
-4 0 l
gsave
0.000 setgray
fill
grestore
stroke
grestore
} bind def
563.405 407.787 o
grestore
gsave
/o {
gsave
newpath
translate
0.5 setlinewidth
1 setlinejoin
0 setlinecap
0 0 m
4 0 l
gsave
0.000 setgray
fill
grestore
stroke
grestore
} bind def
74.2156 426.397 o
grestore
gsave
/o {
gsave
newpath
translate
0.5 setlinewidth
1 setlinejoin
0 setlinecap
0 0 m
-4 0 l
gsave
0.000 setgray
fill
grestore
stroke
grestore
} bind def
563.405 426.397 o
grestore
gsave
33.793750 422.529688 translate
0.000000 rotate
0.000000 0.000000 m /zero glyphshow
8.589111 0.000000 m /period glyphshow
12.880371 0.000000 m /zero glyphshow
21.469482 0.000000 m /one glyphshow
30.058594 0.000000 m /two glyphshow
grestore
gsave
22.200000 336.565993 translate
90.000000 rotate
/Cmmi10 findfont
20.0 scalefont
setfont
0.000000 0.890625 moveto
/M glyphshow

/Cmr10 findfont
14.0 scalefont
setfont
19.404297 -4.211250 moveto
/zero glyphshow

/Cmmi10 findfont
20.0 scalefont
setfont
33.427734 0.890625 moveto
/f glyphshow

/Cmmi10 findfont
14.0 scalefont
setfont
43.203125 -4.211250 moveto
/G glyphshow

54.208984 -4.211250 moveto
/W glyphshow


grestore
1.000 setlinewidth
gsave
74.2156 426.397 m
563.405 426.397 l
stroke
grestore
gsave
563.405 314.735 m
563.405 426.397 l
stroke
grestore
gsave
74.2156 314.735 m
563.405 314.735 l
stroke
grestore
gsave
74.2156 314.735 m
74.2156 426.397 l
stroke
grestore
gsave
328.955 319.985 m
558.155 319.985 l
558.155 353.435 l
328.955 353.435 l
328.955 319.985 l
cl
gsave
1.000 setgray
fill
grestore
stroke
grestore
3.000 setlinewidth
2 setlinecap
1.000 0.000 0.000 setrgbcolor
gsave
336.305 343.91 m
351.005 343.91 l
stroke
grestore
0.000 setgray
gsave
362.555469 340.235110 translate
0.000000 rotate
/Cmmi10 findfont
10.5 scalefont
setfont
0.000000 0.828125 moveto
/C glyphshow

/Cmr10 findfont
10.5 scalefont
setfont
9.339258 0.828125 moveto
/equal glyphshow

18.151660 0.828125 moveto
/zero glyphshow

/Cmmi10 findfont
10.5 scalefont
setfont
23.401660 0.828125 moveto
/period glyphshow

/Cmr10 findfont
10.5 scalefont
setfont
26.385938 0.828125 moveto
/zero glyphshow

31.635938 0.828125 moveto
/six glyphshow

/DejaVuSans findfont
10.5 scalefont
setfont
36.885937 0.828125 moveto
/space glyphshow

40.223584 0.828125 moveto
/D glyphshow

48.308789 0.828125 moveto
/B glyphshow

55.512158 0.828125 moveto
/S glyphshow


grestore
1.000 setlinewidth
0 setlinecap
[1 3] 0 setdash
1.000 0.000 0.000 setrgbcolor
gsave
336.305 332.219 m
351.005 332.219 l
stroke
grestore
0.000 setgray
gsave
362.555469 328.544485 translate
0.000000 rotate
/Cmmi10 findfont
10.5 scalefont
setfont
0.000000 0.828125 moveto
/C glyphshow

/Cmr10 findfont
10.5 scalefont
setfont
9.339258 0.828125 moveto
/equal glyphshow

18.151660 0.828125 moveto
/zero glyphshow

/Cmmi10 findfont
10.5 scalefont
setfont
23.401660 0.828125 moveto
/period glyphshow

/Cmr10 findfont
10.5 scalefont
setfont
26.385938 0.828125 moveto
/zero glyphshow

31.635938 0.828125 moveto
/six glyphshow

/DejaVuSans findfont
10.5 scalefont
setfont
36.885937 0.828125 moveto
/space glyphshow

40.223584 0.828125 moveto
/B glyphshow

47.426953 0.828125 moveto
/S glyphshow


grestore
2 setlinecap
[] 0 setdash
0.750 0.000 0.750 setrgbcolor
gsave
449.705 343.91 m
464.405 343.91 l
stroke
grestore
0.000 setgray
gsave
475.955469 340.235110 translate
0.000000 rotate
/DejaVuSans findfont
10.5 scalefont
setfont
0.000000 0.984375 moveto
/T glyphshow

6.413818 0.984375 moveto
/four glyphshow

/Cmr10 findfont
10.5 scalefont
setfont
16.781543 0.984375 moveto
/parenleft glyphshow

/Cmmi10 findfont
10.5 scalefont
setfont
20.857471 0.984375 moveto
/kappa glyphshow

/Cmmi10 findfont
7.35 scalefont
setfont
26.907275 -1.694109 moveto
/t glyphshow

29.559448 -1.694109 moveto
/i glyphshow

32.089600 -1.694109 moveto
/d glyphshow

35.911743 -1.694109 moveto
/a glyphshow

39.791309 -1.694109 moveto
/l glyphshow

/Cmr10 findfont
10.5 scalefont
setfont
43.824170 0.984375 moveto
/equal glyphshow

52.636572 0.984375 moveto
/eight glyphshow

57.886572 0.984375 moveto
/four glyphshow

63.136572 0.984375 moveto
/two glyphshow

68.386572 0.984375 moveto
/zero glyphshow

73.636572 0.984375 moveto
/parenright glyphshow


grestore
0.000 0.750 0.750 setrgbcolor
gsave
449.705 330.86 m
464.405 330.86 l
stroke
grestore
0.000 setgray
gsave
475.955469 327.185110 translate
0.000000 rotate
/DejaVuSans findfont
10.5 scalefont
setfont
0.000000 0.984375 moveto
/T glyphshow

6.413818 0.984375 moveto
/four glyphshow

/Cmr10 findfont
10.5 scalefont
setfont
16.781543 0.984375 moveto
/parenleft glyphshow

/Cmmi10 findfont
10.5 scalefont
setfont
20.857471 0.984375 moveto
/kappa glyphshow

/Cmmi10 findfont
7.35 scalefont
setfont
26.907275 -1.694109 moveto
/t glyphshow

29.559448 -1.694109 moveto
/i glyphshow

32.089600 -1.694109 moveto
/d glyphshow

35.911743 -1.694109 moveto
/a glyphshow

39.791309 -1.694109 moveto
/l glyphshow

/Cmr10 findfont
10.5 scalefont
setfont
43.824170 0.984375 moveto
/equal glyphshow

52.636572 0.984375 moveto
/zero glyphshow

57.886572 0.984375 moveto
/parenright glyphshow


grestore
gsave
74.2156 180.741 m
563.405 180.741 l
563.405 292.403 l
74.2156 292.403 l
cl
1.000 setgray
fill
grestore
3.000 setlinewidth
0.000 0.000 1.000 setrgbcolor
gsave
489.2 111.7 74.22 180.7 clipbox
72.7391 212.663 m
77.8502 212.248 l
81.2576 212.006 l
84.665 212.024 l
88.0724 212.292 l
93.1835 212.779 l
96.5909 212.896 l
99.9983 212.754 l
105.109 212.396 l
108.517 212.409 l
111.924 212.724 l
118.739 213.635 l
122.146 213.865 l
130.665 214.143 l
134.072 214.57 l
144.295 216.317 l
147.702 216.552 l
154.517 216.893 l
157.924 217.294 l
168.146 218.823 l
171.554 218.985 l
180.072 219.138 l
183.48 219.442 l
190.295 220.219 l
193.702 220.366 l
205.628 220.434 l
217.554 221.587 l
227.776 221.878 l
232.887 222.502 l
237.998 223.044 l
243.109 223.248 l
251.628 223.399 l
265.257 224.126 l
275.48 224.17 l
282.295 224.632 l
287.406 224.942 l
292.517 225.033 l
299.332 225.164 l
312.961 225.925 l
323.183 226.05 l
329.998 226.537 l
336.813 226.992 l
345.332 227.417 l
350.443 227.945 l
372.591 230.926 l
382.813 232.896 l
393.035 234.481 l
396.443 235.236 l
403.257 237.071 l
408.369 238.632 l
411.776 239.888 l
415.183 241.428 l
418.591 243.261 l
423.702 246.329 l
430.517 250.694 l
437.331 255.129 l
440.739 257.144 l
445.85 259.877 l
462.887 268.64 l
467.998 270.732 l
473.109 272.848 l
478.22 275.068 l
481.628 276.333 l
488.443 278.613 l
491.85 280.047 l
496.961 282.342 l
500.368 283.566 l
503.776 284.356 l
507.183 284.774 l
512.294 285.053 l
515.702 285.081 l
520.813 284.829 l
531.035 284.05 l
539.554 283.686 l
542.961 283.233 l
548.072 282.441 l
551.48 282.236 l
554.887 282.318 l
559.998 282.707 l
565.109 283.361 l
565.109 283.361 l
stroke
grestore
1.000 setlinewidth
0 setlinecap
[1 3] 0 setdash
gsave
489.2 111.7 74.22 180.7 clipbox
74.0494 210.422 m
82.2109 210.601 l
85.3848 210.315 l
90.3723 209.842 l
92.6394 209.858 l
94.9065 210.11 l
97.1736 210.601 l
99.894 211.441 l
106.922 213.724 l
110.549 214.556 l
115.99 215.778 l
119.164 216.753 l
129.139 220.065 l
131.633 220.508 l
134.807 220.818 l
143.195 221.482 l
152.717 222.557 l
155.211 222.517 l
158.158 222.228 l
168.36 220.914 l
172.667 220.763 l
186.95 220.631 l
189.897 220.849 l
192.39 221.232 l
194.884 221.838 l
197.151 222.603 l
199.418 223.589 l
200.779 224.367 l
201.685 225.107 l
205.086 228.278 l
207.58 230.02 l
211.661 232.893 l
213.701 234.597 l
215.288 236.204 l
217.328 238.623 l
222.316 244.771 l
223.903 246.223 l
225.49 247.349 l
227.077 248.216 l
229.57 249.25 l
231.611 250.219 l
233.651 251.459 l
235.238 252.666 l
236.825 254.132 l
238.639 256.133 l
242.493 260.549 l
247.934 266.316 l
252.468 271.609 l
253.601 272.444 l
254.962 273.183 l
256.775 273.894 l
257.909 274.117 l
259.042 274.041 l
260.403 273.938 l
261.536 274.092 l
262.67 274.463 l
264.257 275.241 l
266.524 276.358 l
271.511 278.322 l
272.645 278.55 l
273.778 278.55 l
275.365 278.285 l
276.952 278.04 l
277.859 278.076 l
278.766 278.356 l
279.673 278.949 l
280.579 279.831 l
281.94 281.529 l
285.794 286.642 l
286.701 287.331 l
287.607 287.741 l
288.514 287.908 l
289.648 287.84 l
290.781 287.544 l
292.142 286.945 l
293.955 285.864 l
296.449 284.358 l
297.583 283.917 l
298.716 283.703 l
300.53 283.657 l
305.517 283.638 l
306.651 283.216 l
309.371 281.987 l
310.732 281.701 l
312.545 281.554 l
314.359 281.628 l
315.719 281.937 l
316.853 282.435 l
317.986 283.209 l
319.573 284.653 l
321.16 286.065 l
322.294 286.756 l
323.2 287.058 l
324.107 287.116 l
325.241 286.91 l
326.374 286.46 l
327.735 285.647 l
330.228 284.119 l
332.269 283.147 l
334.762 281.948 l
336.123 281.035 l
341.337 276.974 l
342.47 276.357 l
343.604 276.018 l
344.511 275.961 l
345.644 276.143 l
347.231 276.707 l
349.045 277.584 l
350.632 278.562 l
351.992 279.654 l
353.806 281.45 l
356.98 284.685 l
357.887 285.302 l
358.793 285.668 l
359.7 285.79 l
360.834 285.68 l
365.368 284.926 l
369.902 284.24 l
371.716 283.867 l
372.849 283.438 l
373.983 282.772 l
375.116 281.831 l
376.477 280.4 l
378.744 277.945 l
379.65 277.267 l
380.557 276.864 l
381.691 276.667 l
383.051 276.677 l
384.411 276.898 l
385.545 277.308 l
386.678 277.979 l
388.039 279.069 l
390.079 281.051 l
392.119 283.341 l
393.706 285.026 l
394.613 285.721 l
395.52 286.165 l
396.653 286.427 l
398.467 286.522 l
400.281 286.464 l
401.868 286.173 l
408.896 284.336 l
410.709 283.356 l
415.47 280.649 l
417.057 280.186 l
419.778 279.629 l
421.818 279.475 l
424.765 279.24 l
427.259 279.009 l
428.846 279.128 l
432.02 279.447 l
433.833 279.387 l
433.833 279.387 l
stroke
grestore
2 setlinecap
[] 0 setdash
0.750 0.000 0.750 setrgbcolor
gsave
489.2 111.7 74.22 180.7 clipbox
72.8767 211.731 m
107.723 212.914 l
137.209 214.132 l
161.333 215.343 l
181.437 216.564 l
198.86 217.849 l
212.262 219.042 l
224.325 220.333 l
233.706 221.538 l
241.748 222.767 l
248.449 223.985 l
255.15 225.451 l
260.511 226.877 l
264.532 228.158 l
268.553 229.696 l
271.233 230.92 l
273.914 232.367 l
276.594 234.128 l
277.934 235.171 l
279.275 236.361 l
280.615 237.743 l
281.955 239.383 l
283.295 241.393 l
284.636 243.967 l
285.976 247.504 l
287.316 253.022 l
288.656 264.867 l
288.656 264.867 l
stroke
grestore
0.000 0.750 0.750 setrgbcolor
gsave
489.2 111.7 74.22 180.7 clipbox
72.8767 212.786 m
130.507 214.16 l
180.096 215.558 l
222.984 216.983 l
260.511 218.449 l
292.677 219.923 l
320.822 221.432 l
344.947 222.938 l
366.391 224.494 l
385.154 226.075 l
401.237 227.641 l
415.98 229.299 l
428.042 230.86 l
438.764 232.444 l
448.146 234.023 l
457.527 235.831 l
465.569 237.612 l
472.27 239.306 l
478.971 241.242 l
484.332 243.012 l
489.693 245.033 l
493.714 246.755 l
497.735 248.701 l
501.755 250.929 l
504.436 252.611 l
507.116 254.49 l
509.797 256.61 l
512.477 259.035 l
515.158 261.856 l
517.838 265.206 l
519.179 267.142 l
520.519 269.3 l
521.859 271.732 l
523.199 274.507 l
524.54 277.724 l
525.88 281.534 l
527.22 286.169 l
528.56 292.026 l
529.901 299.861 l
531.241 311.378 l
532.581 331.87 l
533.921 406.192 l
533.921 406.192 l
stroke
grestore
0.500 setlinewidth
0 setlinecap
0.000 setgray
gsave
/o {
gsave
newpath
translate
0.5 setlinewidth
1 setlinejoin
0 setlinecap
0 0 m
0 4 l
gsave
0.000 setgray
fill
grestore
stroke
grestore
} bind def
94.3193 180.741 o
grestore
gsave
/o {
gsave
newpath
translate
0.5 setlinewidth
1 setlinejoin
0 setlinecap
0 0 m
0 -4 l
gsave
0.000 setgray
fill
grestore
stroke
grestore
} bind def
94.3193 292.403 o
grestore
gsave
81.241192 166.100368 translate
0.000000 rotate
0.000000 0.000000 m /minus glyphshow
11.311523 0.000000 m /five glyphshow
19.900635 0.000000 m /zero glyphshow
grestore
gsave
/o {
gsave
newpath
translate
0.5 setlinewidth
1 setlinejoin
0 setlinecap
0 0 m
0 4 l
gsave
0.000 setgray
fill
grestore
stroke
grestore
} bind def
161.332 180.741 o
grestore
gsave
/o {
gsave
newpath
translate
0.5 setlinewidth
1 setlinejoin
0 setlinecap
0 0 m
0 -4 l
gsave
0.000 setgray
fill
grestore
stroke
grestore
} bind def
161.332 292.403 o
grestore
gsave
157.933187 166.100368 translate
0.000000 rotate
0.000000 0.000000 m /zero glyphshow
grestore
gsave
/o {
gsave
newpath
translate
0.5 setlinewidth
1 setlinejoin
0 setlinecap
0 0 m
0 4 l
gsave
0.000 setgray
fill
grestore
stroke
grestore
} bind def
228.344 180.741 o
grestore
gsave
/o {
gsave
newpath
translate
0.5 setlinewidth
1 setlinejoin
0 setlinecap
0 0 m
0 -4 l
gsave
0.000 setgray
fill
grestore
stroke
grestore
} bind def
228.344 292.403 o
grestore
gsave
220.726744 166.100368 translate
0.000000 rotate
0.000000 0.000000 m /five glyphshow
8.589111 0.000000 m /zero glyphshow
grestore
gsave
/o {
gsave
newpath
translate
0.5 setlinewidth
1 setlinejoin
0 setlinecap
0 0 m
0 4 l
gsave
0.000 setgray
fill
grestore
stroke
grestore
} bind def
295.356 180.741 o
grestore
gsave
/o {
gsave
newpath
translate
0.5 setlinewidth
1 setlinejoin
0 setlinecap
0 0 m
0 -4 l
gsave
0.000 setgray
fill
grestore
stroke
grestore
} bind def
295.356 292.403 o
grestore
gsave
283.660927 166.100368 translate
0.000000 rotate
0.000000 0.000000 m /one glyphshow
8.589111 0.000000 m /zero glyphshow
17.178223 0.000000 m /zero glyphshow
grestore
gsave
/o {
gsave
newpath
translate
0.5 setlinewidth
1 setlinejoin
0 setlinecap
0 0 m
0 4 l
gsave
0.000 setgray
fill
grestore
stroke
grestore
} bind def
362.369 180.741 o
grestore
gsave
/o {
gsave
newpath
translate
0.5 setlinewidth
1 setlinejoin
0 setlinecap
0 0 m
0 -4 l
gsave
0.000 setgray
fill
grestore
stroke
grestore
} bind def
362.369 292.403 o
grestore
gsave
350.673234 166.100368 translate
0.000000 rotate
0.000000 0.000000 m /one glyphshow
8.589111 0.000000 m /five glyphshow
17.178223 0.000000 m /zero glyphshow
grestore
gsave
/o {
gsave
newpath
translate
0.5 setlinewidth
1 setlinejoin
0 setlinecap
0 0 m
0 4 l
gsave
0.000 setgray
fill
grestore
stroke
grestore
} bind def
429.381 180.741 o
grestore
gsave
/o {
gsave
newpath
translate
0.5 setlinewidth
1 setlinejoin
0 setlinecap
0 0 m
0 -4 l
gsave
0.000 setgray
fill
grestore
stroke
grestore
} bind def
429.381 292.403 o
grestore
gsave
417.435542 166.100368 translate
0.000000 rotate
0.000000 0.000000 m /two glyphshow
8.589111 0.000000 m /zero glyphshow
17.178223 0.000000 m /zero glyphshow
grestore
gsave
/o {
gsave
newpath
translate
0.5 setlinewidth
1 setlinejoin
0 setlinecap
0 0 m
0 4 l
gsave
0.000 setgray
fill
grestore
stroke
grestore
} bind def
496.393 180.741 o
grestore
gsave
/o {
gsave
newpath
translate
0.5 setlinewidth
1 setlinejoin
0 setlinecap
0 0 m
0 -4 l
gsave
0.000 setgray
fill
grestore
stroke
grestore
} bind def
496.393 292.403 o
grestore
gsave
484.447849 166.100368 translate
0.000000 rotate
0.000000 0.000000 m /two glyphshow
8.589111 0.000000 m /five glyphshow
17.178223 0.000000 m /zero glyphshow
grestore
gsave
/o {
gsave
newpath
translate
0.5 setlinewidth
1 setlinejoin
0 setlinecap
0 0 m
0 4 l
gsave
0.000 setgray
fill
grestore
stroke
grestore
} bind def
563.405 180.741 o
grestore
gsave
/o {
gsave
newpath
translate
0.5 setlinewidth
1 setlinejoin
0 setlinecap
0 0 m
0 -4 l
gsave
0.000 setgray
fill
grestore
stroke
grestore
} bind def
563.405 292.403 o
grestore
gsave
551.483594 166.100368 translate
0.000000 rotate
0.000000 0.000000 m /three glyphshow
8.589111 0.000000 m /zero glyphshow
17.178223 0.000000 m /zero glyphshow
grestore
gsave
/o {
gsave
newpath
translate
0.5 setlinewidth
1 setlinejoin
0 setlinecap
0 0 m
4 0 l
gsave
0.000 setgray
fill
grestore
stroke
grestore
} bind def
74.2156 180.741 o
grestore
gsave
/o {
gsave
newpath
translate
0.5 setlinewidth
1 setlinejoin
0 setlinecap
0 0 m
-4 0 l
gsave
0.000 setgray
fill
grestore
stroke
grestore
} bind def
563.405 180.741 o
grestore
gsave
33.340625 176.873805 translate
0.000000 rotate
0.000000 0.000000 m /zero glyphshow
8.589111 0.000000 m /period glyphshow
12.880371 0.000000 m /zero glyphshow
21.469482 0.000000 m /zero glyphshow
30.058594 0.000000 m /zero glyphshow
grestore
gsave
/o {
gsave
newpath
translate
0.5 setlinewidth
1 setlinejoin
0 setlinecap
0 0 m
4 0 l
gsave
0.000 setgray
fill
grestore
stroke
grestore
} bind def
74.2156 208.656 o
grestore
gsave
/o {
gsave
newpath
translate
0.5 setlinewidth
1 setlinejoin
0 setlinecap
0 0 m
-4 0 l
gsave
0.000 setgray
fill
grestore
stroke
grestore
} bind def
563.405 208.656 o
grestore
gsave
/o {
gsave
newpath
translate
0.5 setlinewidth
1 setlinejoin
0 setlinecap
0 0 m
4 0 l
gsave
0.000 setgray
fill
grestore
stroke
grestore
} bind def
74.2156 236.572 o
grestore
gsave
/o {
gsave
newpath
translate
0.5 setlinewidth
1 setlinejoin
0 setlinecap
0 0 m
-4 0 l
gsave
0.000 setgray
fill
grestore
stroke
grestore
} bind def
563.405 236.572 o
grestore
gsave
33.340625 232.704688 translate
0.000000 rotate
0.000000 0.000000 m /zero glyphshow
8.589111 0.000000 m /period glyphshow
12.880371 0.000000 m /zero glyphshow
21.469482 0.000000 m /one glyphshow
30.058594 0.000000 m /zero glyphshow
grestore
gsave
/o {
gsave
newpath
translate
0.5 setlinewidth
1 setlinejoin
0 setlinecap
0 0 m
4 0 l
gsave
0.000 setgray
fill
grestore
stroke
grestore
} bind def
74.2156 264.487 o
grestore
gsave
/o {
gsave
newpath
translate
0.5 setlinewidth
1 setlinejoin
0 setlinecap
0 0 m
-4 0 l
gsave
0.000 setgray
fill
grestore
stroke
grestore
} bind def
563.405 264.487 o
grestore
gsave
/o {
gsave
newpath
translate
0.5 setlinewidth
1 setlinejoin
0 setlinecap
0 0 m
4 0 l
gsave
0.000 setgray
fill
grestore
stroke
grestore
} bind def
74.2156 292.403 o
grestore
gsave
/o {
gsave
newpath
translate
0.5 setlinewidth
1 setlinejoin
0 setlinecap
0 0 m
-4 0 l
gsave
0.000 setgray
fill
grestore
stroke
grestore
} bind def
563.405 292.403 o
grestore
gsave
33.340625 288.535570 translate
0.000000 rotate
0.000000 0.000000 m /zero glyphshow
8.589111 0.000000 m /period glyphshow
12.880371 0.000000 m /zero glyphshow
21.469482 0.000000 m /two glyphshow
30.058594 0.000000 m /zero glyphshow
grestore
gsave
22.340625 202.571875 translate
90.000000 rotate
/Cmmi10 findfont
20.0 scalefont
setfont
0.000000 0.890625 moveto
/M glyphshow

/Cmr10 findfont
14.0 scalefont
setfont
19.404297 -4.211250 moveto
/zero glyphshow

/Cmmi10 findfont
20.0 scalefont
setfont
33.427734 0.890625 moveto
/f glyphshow

/Cmmi10 findfont
14.0 scalefont
setfont
43.203125 -4.211250 moveto
/G glyphshow

54.208984 -4.211250 moveto
/W glyphshow


grestore
1.000 setlinewidth
gsave
74.2156 292.403 m
563.405 292.403 l
stroke
grestore
gsave
563.405 180.741 m
563.405 292.403 l
stroke
grestore
gsave
74.2156 180.741 m
563.405 180.741 l
stroke
grestore
gsave
74.2156 180.741 m
74.2156 292.403 l
stroke
grestore
gsave
333.955 185.991 m
558.155 185.991 l
558.155 219.441 l
333.955 219.441 l
333.955 185.991 l
cl
gsave
1.000 setgray
fill
grestore
stroke
grestore
3.000 setlinewidth
2 setlinecap
0.000 0.000 1.000 setrgbcolor
gsave
341.305 209.916 m
356.005 209.916 l
stroke
grestore
0.000 setgray
gsave
367.555469 206.240993 translate
0.000000 rotate
/Cmmi10 findfont
10.5 scalefont
setfont
0.000000 0.828125 moveto
/C glyphshow

/Cmr10 findfont
10.5 scalefont
setfont
9.339258 0.828125 moveto
/equal glyphshow

18.151660 0.828125 moveto
/zero glyphshow

/Cmmi10 findfont
10.5 scalefont
setfont
23.401660 0.828125 moveto
/period glyphshow

/Cmr10 findfont
10.5 scalefont
setfont
26.385938 0.828125 moveto
/one glyphshow

31.635938 0.828125 moveto
/two glyphshow

/DejaVuSans findfont
10.5 scalefont
setfont
36.885937 0.828125 moveto
/space glyphshow

40.223584 0.828125 moveto
/D glyphshow

48.308789 0.828125 moveto
/B glyphshow

55.512158 0.828125 moveto
/S glyphshow


grestore
1.000 setlinewidth
0 setlinecap
[1 3] 0 setdash
0.000 0.000 1.000 setrgbcolor
gsave
341.305 198.225 m
356.005 198.225 l
stroke
grestore
0.000 setgray
gsave
367.555469 194.550368 translate
0.000000 rotate
/Cmmi10 findfont
10.5 scalefont
setfont
0.000000 0.828125 moveto
/C glyphshow

/Cmr10 findfont
10.5 scalefont
setfont
9.339258 0.828125 moveto
/equal glyphshow

18.151660 0.828125 moveto
/zero glyphshow

/Cmmi10 findfont
10.5 scalefont
setfont
23.401660 0.828125 moveto
/period glyphshow

/Cmr10 findfont
10.5 scalefont
setfont
26.385938 0.828125 moveto
/one glyphshow

31.635938 0.828125 moveto
/two glyphshow

/DejaVuSans findfont
10.5 scalefont
setfont
36.885937 0.828125 moveto
/space glyphshow

40.223584 0.828125 moveto
/B glyphshow

47.426953 0.828125 moveto
/S glyphshow


grestore
2 setlinecap
[] 0 setdash
0.750 0.000 0.750 setrgbcolor
gsave
454.705 209.916 m
469.405 209.916 l
stroke
grestore
0.000 setgray
gsave
480.955469 206.240993 translate
0.000000 rotate
/DejaVuSans findfont
10.5 scalefont
setfont
0.000000 0.984375 moveto
/T glyphshow

6.413818 0.984375 moveto
/four glyphshow

/Cmr10 findfont
10.5 scalefont
setfont
16.781543 0.984375 moveto
/parenleft glyphshow

/Cmmi10 findfont
10.5 scalefont
setfont
20.857471 0.984375 moveto
/kappa glyphshow

/Cmmi10 findfont
7.35 scalefont
setfont
26.907275 -1.694109 moveto
/t glyphshow

29.559448 -1.694109 moveto
/i glyphshow

32.089600 -1.694109 moveto
/d glyphshow

35.911743 -1.694109 moveto
/a glyphshow

39.791309 -1.694109 moveto
/l glyphshow

/Cmr10 findfont
10.5 scalefont
setfont
43.824170 0.984375 moveto
/equal glyphshow

52.636572 0.984375 moveto
/three glyphshow

57.886572 0.984375 moveto
/three glyphshow

63.136572 0.984375 moveto
/two glyphshow

68.386572 0.984375 moveto
/parenright glyphshow


grestore
0.000 0.750 0.750 setrgbcolor
gsave
454.705 196.866 m
469.405 196.866 l
stroke
grestore
0.000 setgray
gsave
480.955469 193.190993 translate
0.000000 rotate
/DejaVuSans findfont
10.5 scalefont
setfont
0.000000 0.984375 moveto
/T glyphshow

6.413818 0.984375 moveto
/four glyphshow

/Cmr10 findfont
10.5 scalefont
setfont
16.781543 0.984375 moveto
/parenleft glyphshow

/Cmmi10 findfont
10.5 scalefont
setfont
20.857471 0.984375 moveto
/kappa glyphshow

/Cmmi10 findfont
7.35 scalefont
setfont
26.907275 -1.694109 moveto
/t glyphshow

29.559448 -1.694109 moveto
/i glyphshow

32.089600 -1.694109 moveto
/d glyphshow

35.911743 -1.694109 moveto
/a glyphshow

39.791309 -1.694109 moveto
/l glyphshow

/Cmr10 findfont
10.5 scalefont
setfont
43.824170 0.984375 moveto
/equal glyphshow

52.636572 0.984375 moveto
/zero glyphshow

57.886572 0.984375 moveto
/parenright glyphshow


grestore
gsave
74.2156 46.7469 m
563.405 46.7469 l
563.405 158.409 l
74.2156 158.409 l
cl
1.000 setgray
fill
grestore
3.000 setlinewidth
0.000 0.500 0.000 setrgbcolor
gsave
489.2 111.7 74.22 46.75 clipbox
73.7404 63.1471 m
82.2951 63.4916 l
92.2757 63.6623 l
108.672 64.4904 l
113.663 64.8512 l
123.643 65.6691 l
130.772 66.1713 l
135.762 66.7947 l
144.317 67.9125 l
151.446 68.8227 l
156.436 69.7439 l
171.407 72.9248 l
175.685 74.144 l
181.388 76.0638 l
187.804 78.4563 l
191.368 80.0095 l
194.933 81.8281 l
198.497 83.9103 l
202.775 86.6993 l
206.339 89.2631 l
209.904 92.0937 l
213.468 95.2092 l
217.746 99.2538 l
224.162 105.678 l
236.281 118.235 l
243.41 125.397 l
246.261 128.003 l
249.113 130.291 l
251.965 132.243 l
254.816 133.932 l
258.381 135.797 l
262.658 137.765 l
266.935 139.478 l
270.5 140.702 l
273.351 141.449 l
275.49 141.779 l
277.629 141.88 l
280.48 141.742 l
285.471 141.431 l
289.035 141.473 l
293.313 141.789 l
301.867 142.636 l
304.719 142.505 l
308.996 141.951 l
312.561 141.552 l
316.838 141.353 l
318.977 141.273 l
318.977 141.273 l
stroke
grestore
1.000 setlinewidth
0 setlinecap
[1 3] 0 setdash
gsave
489.2 111.7 74.22 46.75 clipbox
74.0429 63.0127 m
78.2926 62.5354 l
80.4174 62.5257 l
82.7783 62.7414 l
90.0972 63.636 l
92.6942 63.5981 l
100.013 63.2747 l
102.61 63.4997 l
110.637 64.3959 l
113.706 64.3384 l
118.428 64.2214 l
121.025 64.413 l
123.858 64.8587 l
129.288 65.7839 l
131.885 65.9386 l
135.663 65.8841 l
139.204 65.892 l
141.565 66.1128 l
144.162 66.5889 l
151.717 68.1628 l
155.022 68.4892 l
160.452 68.9828 l
163.049 69.4681 l
166.355 70.3302 l
172.021 71.8161 l
176.034 72.581 l
180.048 73.3967 l
182.645 74.1512 l
185.478 75.2179 l
190.908 77.5891 l
196.338 79.8143 l
199.644 81.2542 l
202.241 82.6399 l
204.602 84.1521 l
207.199 86.0753 l
211.212 89.3714 l
216.878 94.2998 l
219.948 97.2691 l
222.781 100.348 l
226.086 104.306 l
232.46 112.005 l
235.53 115.302 l
238.599 118.26 l
241.904 121.121 l
248.042 126.329 l
250.403 128.689 l
252.764 131.377 l
256.542 136.111 l
259.139 139.206 l
260.791 140.832 l
261.972 141.73 l
263.152 142.353 l
264.097 142.633 l
265.041 142.712 l
265.985 142.596 l
267.166 142.199 l
268.582 141.421 l
270.707 139.902 l
272.832 138.449 l
274.012 137.897 l
274.957 137.677 l
275.901 137.706 l
276.846 138.021 l
277.79 138.646 l
278.734 139.592 l
279.679 140.853 l
280.859 142.825 l
282.512 146.101 l
284.873 150.756 l
285.817 152.206 l
286.761 153.248 l
287.47 153.714 l
288.178 153.887 l
288.886 153.759 l
289.595 153.326 l
290.303 152.595 l
291.011 151.577 l
291.955 149.806 l
293.136 147.011 l
294.789 142.341 l
297.858 133.484 l
299.038 130.772 l
299.983 129.079 l
299.983 129.079 l
stroke
grestore
2 setlinecap
[] 0 setdash
0.750 0.000 0.750 setrgbcolor
gsave
489.2 111.7 74.22 46.75 clipbox
72.4826 62.626 m
131.463 63.5741 l
178.3 64.5365 l
216.464 65.5349 l
247.689 66.5743 l
271.975 67.597 l
291.057 68.6013 l
306.669 69.6203 l
320.547 70.7503 l
330.955 71.8051 l
339.629 72.8869 l
346.568 73.9469 l
351.772 74.9049 l
356.976 76.0635 l
360.445 76.9926 l
363.915 78.0993 l
367.384 79.461 l
369.119 80.2768 l
370.854 81.2169 l
372.588 82.3224 l
374.323 83.6586 l
376.058 85.3374 l
377.793 87.5742 l
379.527 90.8713 l
381.262 96.9225 l
382.997 156.44 l
382.997 156.44 l
stroke
grestore
0.000 0.750 0.750 setrgbcolor
gsave
489.2 111.7 74.22 46.75 clipbox
72.4826 61.9881 m
147.075 62.9407 l
207.79 63.9319 l
256.363 64.9399 l
296.261 65.9864 l
327.486 67.0124 l
353.507 68.0742 l
376.058 69.2193 l
393.405 70.3087 l
409.018 71.5166 l
421.161 72.6717 l
431.569 73.8785 l
440.242 75.1023 l
447.181 76.2828 l
454.12 77.7182 l
459.324 79.0316 l
464.528 80.6397 l
467.998 81.9438 l
471.467 83.5134 l
474.937 85.4664 l
476.671 86.6471 l
478.406 88.0164 l
480.141 89.6374 l
481.876 91.6097 l
483.61 94.1022 l
485.345 97.4363 l
487.08 102.337 l
488.814 111.057 l
490.549 142.683 l
490.549 142.683 l
stroke
grestore
0.500 setlinewidth
0 setlinecap
0.000 setgray
gsave
/o {
gsave
newpath
translate
0.5 setlinewidth
1 setlinejoin
0 setlinecap
0 0 m
0 4 l
gsave
0.000 setgray
fill
grestore
stroke
grestore
} bind def
74.2156 46.7469 o
grestore
gsave
/o {
gsave
newpath
translate
0.5 setlinewidth
1 setlinejoin
0 setlinecap
0 0 m
0 -4 l
gsave
0.000 setgray
fill
grestore
stroke
grestore
} bind def
74.2156 158.409 o
grestore
gsave
61.137500 32.106250 translate
0.000000 rotate
0.000000 0.000000 m /minus glyphshow
11.311523 0.000000 m /five glyphshow
19.900635 0.000000 m /zero glyphshow
grestore
gsave
/o {
gsave
newpath
translate
0.5 setlinewidth
1 setlinejoin
0 setlinecap
0 0 m
0 4 l
gsave
0.000 setgray
fill
grestore
stroke
grestore
} bind def
160.951 46.7469 o
grestore
gsave
/o {
gsave
newpath
translate
0.5 setlinewidth
1 setlinejoin
0 setlinecap
0 0 m
0 -4 l
gsave
0.000 setgray
fill
grestore
stroke
grestore
} bind def
160.951 158.409 o
grestore
gsave
157.552975 32.106250 translate
0.000000 rotate
0.000000 0.000000 m /zero glyphshow
grestore
gsave
/o {
gsave
newpath
translate
0.5 setlinewidth
1 setlinejoin
0 setlinecap
0 0 m
0 4 l
gsave
0.000 setgray
fill
grestore
stroke
grestore
} bind def
247.687 46.7469 o
grestore
gsave
/o {
gsave
newpath
translate
0.5 setlinewidth
1 setlinejoin
0 setlinecap
0 0 m
0 -4 l
gsave
0.000 setgray
fill
grestore
stroke
grestore
} bind def
247.687 158.409 o
grestore
gsave
240.070013 32.106250 translate
0.000000 rotate
0.000000 0.000000 m /five glyphshow
8.589111 0.000000 m /zero glyphshow
grestore
gsave
/o {
gsave
newpath
translate
0.5 setlinewidth
1 setlinejoin
0 setlinecap
0 0 m
0 4 l
gsave
0.000 setgray
fill
grestore
stroke
grestore
} bind def
334.423 46.7469 o
grestore
gsave
/o {
gsave
newpath
translate
0.5 setlinewidth
1 setlinejoin
0 setlinecap
0 0 m
0 -4 l
gsave
0.000 setgray
fill
grestore
stroke
grestore
} bind def
334.423 158.409 o
grestore
gsave
322.727676 32.106250 translate
0.000000 rotate
0.000000 0.000000 m /one glyphshow
8.589111 0.000000 m /zero glyphshow
17.178223 0.000000 m /zero glyphshow
grestore
gsave
/o {
gsave
newpath
translate
0.5 setlinewidth
1 setlinejoin
0 setlinecap
0 0 m
0 4 l
gsave
0.000 setgray
fill
grestore
stroke
grestore
} bind def
421.159 46.7469 o
grestore
gsave
/o {
gsave
newpath
translate
0.5 setlinewidth
1 setlinejoin
0 setlinecap
0 0 m
0 -4 l
gsave
0.000 setgray
fill
grestore
stroke
grestore
} bind def
421.159 158.409 o
grestore
gsave
409.463464 32.106250 translate
0.000000 rotate
0.000000 0.000000 m /one glyphshow
8.589111 0.000000 m /five glyphshow
17.178223 0.000000 m /zero glyphshow
grestore
gsave
/o {
gsave
newpath
translate
0.5 setlinewidth
1 setlinejoin
0 setlinecap
0 0 m
0 4 l
gsave
0.000 setgray
fill
grestore
stroke
grestore
} bind def
507.895 46.7469 o
grestore
gsave
/o {
gsave
newpath
translate
0.5 setlinewidth
1 setlinejoin
0 setlinecap
0 0 m
0 -4 l
gsave
0.000 setgray
fill
grestore
stroke
grestore
} bind def
507.895 158.409 o
grestore
gsave
495.949252 32.106250 translate
0.000000 rotate
0.000000 0.000000 m /two glyphshow
8.589111 0.000000 m /zero glyphshow
17.178223 0.000000 m /zero glyphshow
grestore
gsave
285.810547 12.200000 translate
0.000000 rotate
/Cmr10 findfont
15.0 scalefont
setfont
0.000000 0.750000 moveto
/parenleft glyphshow

/Cmmi10 findfont
15.0 scalefont
setfont
5.822754 0.750000 moveto
/t glyphshow

/Cmsy10 findfont
15.0 scalefont
setfont
11.235352 0.750000 moveto
/minus glyphshow

/Cmmi10 findfont
15.0 scalefont
setfont
22.888184 0.750000 moveto
/t glyphshow

/Cmmi10 findfont
10.5 scalefont
setfont
28.300781 -3.076406 moveto
/c glyphshow

/Cmr10 findfont
15.0 scalefont
setfont
32.838135 0.750000 moveto
/parenright glyphshow

/Cmmi10 findfont
15.0 scalefont
setfont
38.660889 0.750000 moveto
/slash glyphshow

46.160889 0.750000 moveto
/M glyphshow

/Cmr10 findfont
10.5 scalefont
setfont
60.714111 -3.076406 moveto
/zero glyphshow


grestore
gsave
/o {
gsave
newpath
translate
0.5 setlinewidth
1 setlinejoin
0 setlinecap
0 0 m
4 0 l
gsave
0.000 setgray
fill
grestore
stroke
grestore
} bind def
74.2156 46.7469 o
grestore
gsave
/o {
gsave
newpath
translate
0.5 setlinewidth
1 setlinejoin
0 setlinecap
0 0 m
-4 0 l
gsave
0.000 setgray
fill
grestore
stroke
grestore
} bind def
563.405 46.7469 o
grestore
gsave
41.934375 42.879688 translate
0.000000 rotate
0.000000 0.000000 m /zero glyphshow
8.589111 0.000000 m /period glyphshow
12.880371 0.000000 m /zero glyphshow
21.469482 0.000000 m /zero glyphshow
grestore
gsave
/o {
gsave
newpath
translate
0.5 setlinewidth
1 setlinejoin
0 setlinecap
0 0 m
4 0 l
gsave
0.000 setgray
fill
grestore
stroke
grestore
} bind def
74.2156 70.5047 o
grestore
gsave
/o {
gsave
newpath
translate
0.5 setlinewidth
1 setlinejoin
0 setlinecap
0 0 m
-4 0 l
gsave
0.000 setgray
fill
grestore
stroke
grestore
} bind def
563.405 70.5047 o
grestore
gsave
/o {
gsave
newpath
translate
0.5 setlinewidth
1 setlinejoin
0 setlinecap
0 0 m
4 0 l
gsave
0.000 setgray
fill
grestore
stroke
grestore
} bind def
74.2156 94.2625 o
grestore
gsave
/o {
gsave
newpath
translate
0.5 setlinewidth
1 setlinejoin
0 setlinecap
0 0 m
-4 0 l
gsave
0.000 setgray
fill
grestore
stroke
grestore
} bind def
563.405 94.2625 o
grestore
gsave
42.387500 90.395332 translate
0.000000 rotate
0.000000 0.000000 m /zero glyphshow
8.589111 0.000000 m /period glyphshow
12.880371 0.000000 m /zero glyphshow
21.469482 0.000000 m /two glyphshow
grestore
gsave
/o {
gsave
newpath
translate
0.5 setlinewidth
1 setlinejoin
0 setlinecap
0 0 m
4 0 l
gsave
0.000 setgray
fill
grestore
stroke
grestore
} bind def
74.2156 118.02 o
grestore
gsave
/o {
gsave
newpath
translate
0.5 setlinewidth
1 setlinejoin
0 setlinecap
0 0 m
-4 0 l
gsave
0.000 setgray
fill
grestore
stroke
grestore
} bind def
563.405 118.02 o
grestore
gsave
/o {
gsave
newpath
translate
0.5 setlinewidth
1 setlinejoin
0 setlinecap
0 0 m
4 0 l
gsave
0.000 setgray
fill
grestore
stroke
grestore
} bind def
74.2156 141.778 o
grestore
gsave
/o {
gsave
newpath
translate
0.5 setlinewidth
1 setlinejoin
0 setlinecap
0 0 m
-4 0 l
gsave
0.000 setgray
fill
grestore
stroke
grestore
} bind def
563.405 141.778 o
grestore
gsave
41.793750 137.910977 translate
0.000000 rotate
0.000000 0.000000 m /zero glyphshow
8.589111 0.000000 m /period glyphshow
12.880371 0.000000 m /zero glyphshow
21.469482 0.000000 m /four glyphshow
grestore
gsave
30.793750 68.577757 translate
90.000000 rotate
/Cmmi10 findfont
20.0 scalefont
setfont
0.000000 0.890625 moveto
/M glyphshow

/Cmr10 findfont
14.0 scalefont
setfont
19.404297 -4.211250 moveto
/zero glyphshow

/Cmmi10 findfont
20.0 scalefont
setfont
33.427734 0.890625 moveto
/f glyphshow

/Cmmi10 findfont
14.0 scalefont
setfont
43.203125 -4.211250 moveto
/G glyphshow

54.208984 -4.211250 moveto
/W glyphshow


grestore
1.000 setlinewidth
gsave
74.2156 158.409 m
563.405 158.409 l
stroke
grestore
gsave
563.405 46.7469 m
563.405 158.409 l
stroke
grestore
gsave
74.2156 46.7469 m
563.405 46.7469 l
stroke
grestore
gsave
74.2156 46.7469 m
74.2156 158.409 l
stroke
grestore
gsave
335.955 51.9969 m
558.155 51.9969 l
558.155 85.4469 l
335.955 85.4469 l
335.955 51.9969 l
cl
gsave
1.000 setgray
fill
grestore
stroke
grestore
3.000 setlinewidth
2 setlinecap
0.000 0.500 0.000 setrgbcolor
gsave
343.305 75.9219 m
358.005 75.9219 l
stroke
grestore
0.000 setgray
gsave
369.555469 72.246875 translate
0.000000 rotate
/Cmmi10 findfont
10.5 scalefont
setfont
0.000000 0.828125 moveto
/C glyphshow

/Cmr10 findfont
10.5 scalefont
setfont
9.339258 0.828125 moveto
/equal glyphshow

18.151660 0.828125 moveto
/zero glyphshow

/Cmmi10 findfont
10.5 scalefont
setfont
23.401660 0.828125 moveto
/period glyphshow

/Cmr10 findfont
10.5 scalefont
setfont
26.385938 0.828125 moveto
/two glyphshow

31.635938 0.828125 moveto
/two glyphshow

/DejaVuSans findfont
10.5 scalefont
setfont
36.885937 0.828125 moveto
/space glyphshow

40.223584 0.828125 moveto
/D glyphshow

48.308789 0.828125 moveto
/B glyphshow

55.512158 0.828125 moveto
/S glyphshow


grestore
1.000 setlinewidth
0 setlinecap
[1 3] 0 setdash
0.000 0.500 0.000 setrgbcolor
gsave
343.305 64.2313 m
358.005 64.2313 l
stroke
grestore
0.000 setgray
gsave
369.555469 60.556250 translate
0.000000 rotate
/Cmmi10 findfont
10.5 scalefont
setfont
0.000000 0.828125 moveto
/C glyphshow

/Cmr10 findfont
10.5 scalefont
setfont
9.339258 0.828125 moveto
/equal glyphshow

18.151660 0.828125 moveto
/zero glyphshow

/Cmmi10 findfont
10.5 scalefont
setfont
23.401660 0.828125 moveto
/period glyphshow

/Cmr10 findfont
10.5 scalefont
setfont
26.385938 0.828125 moveto
/two glyphshow

31.635938 0.828125 moveto
/two glyphshow

/DejaVuSans findfont
10.5 scalefont
setfont
36.885937 0.828125 moveto
/space glyphshow

40.223584 0.828125 moveto
/B glyphshow

47.426953 0.828125 moveto
/S glyphshow


grestore
2 setlinecap
[] 0 setdash
0.750 0.000 0.750 setrgbcolor
gsave
456.705 75.9219 m
471.405 75.9219 l
stroke
grestore
0.000 setgray
gsave
482.955469 72.246875 translate
0.000000 rotate
/DejaVuSans findfont
10.5 scalefont
setfont
0.000000 0.984375 moveto
/T glyphshow

6.413818 0.984375 moveto
/four glyphshow

/Cmr10 findfont
10.5 scalefont
setfont
16.781543 0.984375 moveto
/parenleft glyphshow

/Cmmi10 findfont
10.5 scalefont
setfont
20.857471 0.984375 moveto
/kappa glyphshow

/Cmmi10 findfont
7.35 scalefont
setfont
26.907275 -1.694109 moveto
/t glyphshow

29.559448 -1.694109 moveto
/i glyphshow

32.089600 -1.694109 moveto
/d glyphshow

35.911743 -1.694109 moveto
/a glyphshow

39.791309 -1.694109 moveto
/l glyphshow

/Cmr10 findfont
10.5 scalefont
setfont
43.824170 0.984375 moveto
/equal glyphshow

52.636572 0.984375 moveto
/two glyphshow

57.886572 0.984375 moveto
/zero glyphshow

63.136572 0.984375 moveto
/parenright glyphshow


grestore
0.000 0.750 0.750 setrgbcolor
gsave
456.705 62.8719 m
471.405 62.8719 l
stroke
grestore
0.000 setgray
gsave
482.955469 59.196875 translate
0.000000 rotate
/DejaVuSans findfont
10.5 scalefont
setfont
0.000000 0.984375 moveto
/T glyphshow

6.413818 0.984375 moveto
/four glyphshow

/Cmr10 findfont
10.5 scalefont
setfont
16.781543 0.984375 moveto
/parenleft glyphshow

/Cmmi10 findfont
10.5 scalefont
setfont
20.857471 0.984375 moveto
/kappa glyphshow

/Cmmi10 findfont
7.35 scalefont
setfont
26.907275 -1.694109 moveto
/t glyphshow

29.559448 -1.694109 moveto
/i glyphshow

32.089600 -1.694109 moveto
/d glyphshow

35.911743 -1.694109 moveto
/a glyphshow

39.791309 -1.694109 moveto
/l glyphshow

/Cmr10 findfont
10.5 scalefont
setfont
43.824170 0.984375 moveto
/equal glyphshow

52.636572 0.984375 moveto
/zero glyphshow

57.886572 0.984375 moveto
/parenright glyphshow


grestore

end
showpage
