0.0 -4.26774217275e-05 -3.66174438887e-08
0.6 -4.41557683294e-05 -3.94635922516e-08
1.2 -4.05878285644e-05 -3.71763588509e-08
1.8 -4.62431501462e-05 -3.80991703969e-08
2.4 -4.28015909279e-05 -4.32377982914e-08
3.0 -4.46801960336e-05 -3.86124193713e-08
3.6 -4.85890463708e-05 -4.72307828663e-08
4.2 -4.89834412738e-05 -4.06516214896e-08
4.8 -4.94726476894e-05 -4.68660311596e-08
5.4 -4.95358118011e-05 -4.61278495673e-08
6.0 -5.2333338304e-05 -4.53650692005e-08
6.6 -5.19237332659e-05 -5.18361313332e-08
7.2 -5.45060636444e-05 -4.67301332082e-08
7.8 -5.3868836759e-05 -5.29128139828e-08
8.4 -5.60507128414e-05 -5.07877085196e-08
9.0 -5.68891898208e-05 -5.39908982391e-08
9.6 -5.72627985107e-05 -5.38456262123e-08
10.2 -5.94688226963e-05 -5.54453929028e-08
10.8 -5.88812460164e-05 -5.6988509852e-08
11.4 -6.15705917092e-05 -5.69518971215e-08
12.0 -6.09924151499e-05 -5.97093317546e-08
12.6 -6.27354453053e-05 -5.87900437234e-08
13.2 -6.33357074523e-05 -6.17189289333e-08
13.8 -6.41663640264e-05 -6.12921452837e-08
14.4 -6.51261603018e-05 -6.24894068628e-08
15.0 -6.55690101369e-05 -6.42891263038e-08
15.6 -6.64777356627e-05 -6.32285935358e-08
16.2 -6.69431863978e-05 -6.60758620135e-08
16.8 -6.73975919116e-05 -6.43870968585e-08
17.4 -6.81479083177e-05 -6.69926916365e-08
18.0 -6.80426889117e-05 -6.54148310407e-08
18.6 -6.8741370643e-05 -6.67477235715e-08
19.2 -6.82439809616e-05 -6.60863347123e-08
19.8 -6.88314931889e-05 -6.56679864709e-08
20.4 -6.78701341291e-05 -6.5453064087e-08
21.0 -6.81593703232e-05 -6.38527403493e-08
21.6 -6.67814408914e-05 -6.2862980642e-08
22.2 -6.64944872808e-05 -6.08760093638e-08
22.8 -6.46611730508e-05 -5.84365671892e-08
23.4 -6.35071896278e-05 -5.43685922877e-08
24.0 -6.09993699209e-05 -5.97846417025e-08
24.6 -5.89306651128e-05 -3.74371042886e-08
25.2 -5.6965468586e-05 1.02466002875e-07
25.8 -4.71396508608e-05 -6.1248135668e-07
26.4 -5.51582785806e-05 9.59004215477e-07
27.0 -3.71355468874e-05 -8.90843805951e-07
27.6 -2.69617481e-05 4.23758868964e-07
28.2 -4.09463743934e-05 7.32644800899e-08
28.8 -1.3129253854e-05 -1.63016630804e-07
29.4 5.03563102007e-06 -1.20657088413e-07
30.0 -1.15863664811e-05 7.34851524048e-07
30.6 3.9604048656e-05 -3.65752232195e-07
31.2 5.30825446e-05 5.88109408919e-07
31.8 3.77935812044e-05 1.18486345738e-07
32.4 0.000134927442793 -3.24127432141e-07
33.0 0.000130424434382 1.21191542188e-06
33.6 0.000164774371784 6.28655407821e-07
34.2 0.000227566084886 5.85497950294e-07
34.8 0.000290152293321 3.64566654476e-07
35.4 0.000347637295349 1.47230896743e-06
36.0 0.000376477897468 1.07735600898e-06
36.6 0.000509993583068 4.72939088897e-07
37.2 0.000662988609067 1.16989027074e-06
37.8 0.000807695468101 -3.78134664018e-07
38.4 0.00103975208421 -1.40555690164e-06
39.0 0.0012964755572 -1.15912194314e-06
39.6 0.00153482647269 -2.43081845745e-06
40.2 0.00174091801103 -3.61726605815e-06
40.8 0.0018432584304 -2.4607327061e-06
41.4 0.00175956641225 -4.88653490092e-07
42.0 0.00146625168869 2.9342509635e-06
42.6 0.000953952165968 5.80209723066e-06
43.2 0.000369614083912 7.14006865177e-06
43.8 -0.000302248981727 5.57851841124e-06
44.4 -0.00090915183978 1.02992355164e-06
45.0 -0.0012671366558 -4.88462701241e-06
45.6 -0.00148265512446 -8.47704656527e-06
46.2 -0.00158812241447 -9.59304767137e-06
46.8 -0.00159569934986 -8.13047563535e-06
47.4 -0.00143575252615 -2.39290165487e-06
48.0 -0.00123290530119 3.12728890623e-06
48.6 -0.00103815754084 9.70926442699e-06
49.2 -0.000862173908664 1.24577694779e-05
49.8 -0.000734372933066 1.22576769342e-05
50.4 -0.00062885460726 8.75183768804e-06
51.0 -0.000546978237709 2.77898830718e-06
51.6 -0.000477146501455 -4.2628813081e-06
52.2 -0.000351514810878 -9.68128650799e-06
52.8 -0.000210491738122 -1.3494288631e-05
53.4 -7.46916084257e-05 -1.38436979296e-05
54.0 7.18137382021e-05 -1.29881332626e-05
54.6 0.000210381736297 -8.99452628439e-06
55.2 0.000274354548034 -4.30282747695e-06
55.8 0.000303026829428 1.55426164251e-06
56.4 0.000311597443832 4.60600505994e-06
57.0 0.00028085786779 8.32954370353e-06
57.6 0.000236471790109 9.54311611172e-06
58.2 0.000168994778146 1.06363663428e-05
58.8 0.000100374421393 1.02083878113e-05
59.4 -2.86195455013e-05 8.35255229859e-06
60.0 -0.000131405159292 6.38189751005e-06
60.6 -0.000222107788411 4.04331375763e-06
61.2 -0.000273569061538 1.4978898887e-06
61.8 -0.000298747125633 -1.91361077857e-06
62.4 -0.000282478457892 -4.16787384409e-06
63.0 -0.000207667953553 -6.57728493634e-06
63.6 -0.000148307498945 -7.74155151625e-06
64.2 -5.17574035401e-05 -7.88476577733e-06
64.8 1.20042510706e-05 -7.19097615757e-06
65.4 9.12253652243e-05 -5.86745444231e-06
66.0 0.000154855194252 -4.78450180051e-06
66.6 0.00021963049435 -2.90938744217e-06
67.2 0.00028970794341 -2.00225127865e-06
67.8 0.000327284139213 -6.32188193009e-08
68.4 0.000357374185238 1.13855606951e-06
69.0 0.000321111691445 3.71113343911e-06
69.6 0.000294287261647 3.86632333954e-06
70.2 0.000202783175021 5.36237930234e-06
70.8 0.000134443639901 5.36195332256e-06
71.4 2.59495980997e-05 5.96377347108e-06
72.0 -4.39910015856e-05 5.46601503216e-06
72.6 -0.000155976306029 5.28590914259e-06
73.2 -0.000266181102808 4.7204103647e-06
73.8 -0.000341607690554 3.01513439115e-06
74.4 -0.000434626569538 8.90656049753e-07
75.0 -0.000425076107047 -2.04365278269e-06
75.6 -0.000434012289467 -3.77970138185e-06
76.2 -0.000335787328261 -5.9125401801e-06
76.8 -0.000289864557891 -7.43708892429e-06
77.4 -0.000137259842283 -8.35635022921e-06
78.0 -5.09926511575e-05 -8.51116889127e-06
78.6 8.81039654324e-05 -7.32605900564e-06
79.2 0.000152373004491 -5.06355097471e-06
79.8 0.000236677712596 -3.22230403301e-06
80.4 0.000273558062458 -8.33623558482e-07
81.0 0.000336255606075 1.58302680632e-06
81.6 0.00033898858427 3.881995103e-06
82.2 0.000345080755974 5.84951716322e-06
82.8 0.000307718871413 6.73095764357e-06
83.4 0.000231991349428 7.47179260346e-06
84.0 0.000135535043087 7.64700328575e-06
84.6 5.18623439777e-05 7.22054521774e-06
85.2 -5.23510786978e-05 6.09266008211e-06
85.8 -0.000144718792046 4.6882753875e-06
86.4 -0.000208389874591 2.94820179604e-06
87.0 -0.000288127340619 7.54844815155e-07
87.6 -0.000293909214169 -1.3981031566e-06
88.2 -0.000342978349654 -4.6112784283e-06
88.8 -0.000294588736289 -6.52513938601e-06
89.4 -0.000293235939884 -7.79053738678e-06
90.0 -0.000189933170613 -8.64665043757e-06
90.6 -0.000153909602169 -9.08033333511e-06
91.2 -5.67266826048e-06 -7.56055423974e-06
91.8 2.53899386473e-05 -6.25302248153e-06
92.4 0.000154242428747 -3.6310157623e-06
93.0 0.000162185643286 -1.65965886109e-06
93.6 0.000224977323324 9.01134656715e-07
94.2 0.000226197957883 1.53148640261e-06
94.8 0.000205158956201 3.67401580357e-06
95.4 0.000187834188303 5.16761132115e-06
96.0 0.000146026332024 6.89532388536e-06
96.6 0.000154591886423 7.20400267969e-06
97.2 9.7369327365e-05 7.50522203876e-06
97.8 6.35435159622e-05 7.38121068881e-06
98.4 -4.6654867344e-05 5.97027120274e-06
99.0 -0.000123516291638 4.69902042955e-06
99.6 -0.00020474929078 3.75194964713e-06
100.2 -0.000257675575076 1.607613405e-06
100.8 -0.000286047075411 -7.51664619726e-07
101.4 -0.000256432883623 -3.10192240314e-06
102.0 -0.000214329051255 -4.98801082998e-06
102.6 -0.000168695040344 -6.90484820937e-06
103.2 -0.000126432435718 -8.04709140412e-06
103.8 -6.17173642381e-05 -8.55890124778e-06
104.4 1.40132609679e-06 -8.22645616292e-06
105.0 6.75382447288e-05 -7.12365142846e-06
105.6 0.000142356603091 -5.03277749571e-06
106.2 0.000212071027081 -2.95824233782e-06
106.8 0.000257666853537 -3.71344947654e-07
107.4 0.000282933151501 1.36311558827e-06
108.0 0.000253405508398 3.8681716885e-06
108.6 0.000219602424755 4.63570669018e-06
109.2 0.000162759005499 5.97317127601e-06
109.8 8.32216472245e-05 6.41287147156e-06
110.4 3.488497624e-06 7.67089947301e-06
111.0 -5.44237943717e-05 6.66456228166e-06
111.6 -0.000124047950419 7.11047941084e-06
112.2 -0.000153772758486 5.10187213372e-06
112.8 -0.000219375565226 3.84028682151e-06
113.4 -0.000275541665023 8.37798570344e-07
114.0 -0.000339286854137 -1.15331409466e-06
114.6 -0.000331351515253 -3.75094189502e-06
115.2 -0.000303389751882 -4.78228613074e-06
115.8 -0.000209993182193 -6.16147070397e-06
116.4 -0.000123937491236 -6.30767858945e-06
117.0 3.97826537126e-06 -6.56873646394e-06
117.6 6.86476189065e-05 -5.91910745455e-06
118.2 0.000137235161163 -5.19845157016e-06
118.8 0.000168209039672 -3.50551049368e-06
119.4 0.000208831037423 -2.4868437315e-06
120.0 0.000261674334016 -7.04604264988e-07
120.6 0.000301808713508 8.85152588649e-07
121.2 0.000326591591983 2.61817952526e-06
121.8 0.000326731852139 3.89709644464e-06
122.4 0.000260058747473 5.31279704327e-06
123.0 0.000175213535337 5.84280538611e-06
123.6 7.13393078166e-05 6.011465273e-06
124.2 -4.39266510089e-05 5.55768820427e-06
124.8 -0.000120392915042 4.85716366452e-06
125.4 -0.000222277375441 3.85299716934e-06
126.0 -0.000256899218254 2.9174891937e-06
126.6 -0.000290733167391 1.65345252392e-06
127.2 -0.000301942047778 -6.90654795354e-08
127.8 -0.000305256024415 -2.28288533752e-06
128.4 -0.000300596576339 -4.18139376098e-06
129.0 -0.000272382695207 -5.7639561633e-06
129.6 -0.000208409614485 -6.89525267939e-06
130.2 -0.000119251808815 -6.74212029986e-06
130.8 -1.46657791826e-05 -5.89969787612e-06
131.4 0.000107012084691 -4.74765541942e-06
132.0 0.000192350776477 -3.26720116555e-06
132.6 0.000247607620294 -2.01223967033e-06
133.2 0.0002352583124 -6.89072963891e-08
133.8 0.000274747441617 1.456729871e-06
134.4 0.000253716603485 3.01642388236e-06
135.0 0.000265624003697 4.27411694759e-06
135.6 0.000227527844858 5.18767475182e-06
136.2 0.000224850938663 5.55405552759e-06
136.8 0.000159457624316 5.91216743041e-06
137.4 9.08934186293e-05 6.04505276261e-06
138.0 -1.56782064386e-05 5.58394431618e-06
138.6 -0.000133977738401 4.21918189731e-06
139.2 -0.000201296543377 2.95873123235e-06
139.8 -0.000281878016677 6.15540006078e-07
140.4 -0.000297616169113 -1.5217057154e-06
141.0 -0.000291635488316 -3.41452813102e-06
141.6 -0.000234804617598 -4.31639646679e-06
142.2 -0.00021871619916 -5.78182260103e-06
142.8 -0.000164171045924 -6.36499495965e-06
143.4 -0.000120054504942 -6.66552615667e-06
144.0 -4.50851377685e-05 -6.08977457537e-06
144.6 1.92266971301e-05 -5.18449168033e-06
145.2 0.000102651044747 -3.71810501157e-06
145.8 0.000166881514869 -1.97858136724e-06
146.4 0.00024148219256 -2.82509211353e-07
147.0 0.000262374795809 1.48526968178e-06
147.6 0.000266360752235 2.54701487284e-06
148.2 0.000221164769669 4.03213331489e-06
148.8 0.000180814734931 4.49828956611e-06
149.4 0.000109911487754 5.34388944092e-06
150.0 8.16611362741e-05 5.44742104713e-06
150.6 8.35086984106e-06 5.60388594794e-06
151.2 -2.57261599874e-05 4.7794784713e-06
151.8 -9.20628490716e-05 4.63464125116e-06
152.4 -0.000112816608884 3.58119701475e-06
153.0 -0.000181884053502 2.39342360595e-06
153.6 -0.000213772518469 -1.32672967072e-07
154.2 -0.000263604740438 -1.54581118388e-06
154.8 -0.000245389358314 -4.10759213973e-06
155.4 -0.00023306057826 -5.61576957918e-06
156.0 -0.000126300768764 -7.29857107555e-06
156.6 -7.02014693595e-05 -6.99155020732e-06
157.2 2.70189654426e-05 -6.62829098091e-06
157.8 5.45588184934e-05 -4.97074802593e-06
158.4 8.86096093319e-05 -3.5774219059e-06
159.0 9.94327272046e-05 -2.42535976174e-06
159.6 0.000132855050368 -1.06916304056e-06
160.2 0.000197965926785 -5.12860298251e-07
160.8 0.000215165741057 1.49853943266e-06
161.4 0.000265112850841 2.91403864681e-06
162.0 0.000213392102237 4.62437147387e-06
162.6 0.000214587368182 5.51823514352e-06
163.2 0.000111791115711 6.20403694724e-06
163.8 8.41419587647e-05 5.7801646276e-06
164.4 -6.7136256327e-05 5.40926248586e-06
165.0 -8.29513429316e-05 4.18058409947e-06
165.6 -0.00019449027321 2.88539713013e-06
166.2 -0.000195895600531 9.65824778112e-07
166.8 -0.000282019425025 -5.75633196237e-07
167.4 -0.000252126496115 -2.66982766418e-06
168.0 -0.000276911343127 -3.99547603749e-06
168.6 -0.000227118139905 -5.00272616287e-06
169.2 -0.000214620080653 -6.03957522233e-06
169.8 -0.000145019927207 -6.80422985411e-06
170.4 -9.31139796566e-05 -6.4593137626e-06
171.0 -7.26877153099e-06 -5.4475029597e-06
171.6 5.88457725905e-05 -3.33866571252e-06
172.2 0.000160514173424 -1.85531995337e-06
172.8 0.000191097354539 4.81102177115e-07
173.4 0.000228938085252 2.19109147902e-06
174.0 0.000200309289375 3.39497703007e-06
174.6 0.000196505175309 3.13241152835e-06
175.2 0.000185352120139 3.7002347724e-06
175.8 0.000190303814134 3.95429848659e-06
176.4 0.00017094474526 4.49473953961e-06
177.0 0.000145533360625 4.10256437504e-06
177.6 6.88753004378e-05 4.3095587967e-06
178.2 -1.53972173796e-06 2.96257869826e-06
178.8 -9.5659548495e-05 2.7321754622e-06
179.4 -0.000155881088605 7.70642326022e-07
180.0 -0.000231411816215 3.17528449445e-08
180.6 -0.00025810159312 -1.52625171245e-06
181.2 -0.000275811809305 -2.96033997551e-06
181.8 -0.000262095171283 -4.33757794412e-06
182.4 -0.000229031675972 -4.42879630881e-06
183.0 -0.000203181989648 -5.84930841603e-06
183.6 -0.000115271481103 -5.8733473892e-06
184.2 -7.55381574823e-05 -5.33578016952e-06
184.8 1.35905823384e-05 -4.10951026101e-06
185.4 6.0447003575e-05 -3.27583645317e-06
186.0 0.000113284235487 -1.24734101533e-06
186.6 0.000141960880557 7.14080761326e-07
187.2 0.000164666598149 1.94182543312e-06
187.8 0.000178904444991 3.83070654907e-06
188.4 0.000212753726159 4.08855709818e-06
189.0 0.000180730719558 5.54936968878e-06
189.6 0.000166892109191 5.66745039652e-06
190.2 8.42760594482e-05 5.89845195587e-06
190.8 4.41447751983e-05 4.57952864102e-06
191.4 -1.98108387978e-05 5.08446574489e-06
192.0 -6.2286361558e-05 3.80172895801e-06
192.6 -0.000103041724091 2.48038754755e-06
193.2 -0.000110797448037 9.64789601909e-07
193.8 -0.000135570513244 -8.89738426453e-07
194.4 -0.00018246886355 -3.58157910282e-06
195.0 -0.000186382894248 -4.8609368207e-06
195.6 -0.000188514091678 -5.20670700096e-06
196.2 -0.000148254026123 -5.7904563619e-06
196.8 -9.43054496393e-05 -5.49403028186e-06
197.4 6.28120186748e-06 -4.89046957056e-06
198.0 4.27208701951e-05 -3.8012195387e-06
198.6 9.08729121696e-05 -2.31577392708e-06
199.2 0.000127149411512 -9.48771266831e-07
199.8 0.000133050997798 5.19115698295e-07
200.4 0.000150609024399 2.05484920309e-06
201.0 0.000132791213617 3.50443317376e-06
201.6 0.000146099533213 4.28021376246e-06
202.2 0.000111723573232 4.87758598321e-06
202.8 0.000140372963619 4.55505852484e-06
203.4 9.31102830607e-05 4.58128807581e-06
204.0 7.32091500489e-05 4.46088526271e-06
204.6 -7.55066655463e-06 4.59583657953e-06
205.2 -4.73981299715e-05 2.67772754823e-06
205.8 -0.00010386014003 2.60406118559e-06
206.4 -0.000118170267155 1.11314640388e-06
207.0 -0.00016045776771 4.00236386407e-07
207.6 -0.000195728704562 -1.74907712165e-06
208.2 -0.000164828705323 -2.3960527003e-06
208.8 -0.0001200960752 -3.96813257e-06
209.4 -7.04611878017e-05 -3.72602107232e-06
210.0 -8.47995167771e-06 -4.64480254731e-06
210.6 2.77713308117e-05 -4.89713838291e-06
211.2 8.18063953919e-05 -4.36872688633e-06
211.8 8.62779256082e-05 -3.30738165732e-06
212.4 0.000150519912934 -1.16844784751e-06
213.0 0.000169933871542 3.1528328767e-07
213.6 0.000200541753947 1.7971307875e-06
214.2 0.000195102110499 2.26775453357e-06
214.8 0.000174586520732 2.89094713738e-06
215.4 0.00014521075626 3.77027699926e-06
216.0 9.99488857223e-05 4.08901317201e-06
216.6 5.41356210788e-05 3.36550648288e-06
217.2 6.74746156976e-06 3.06342880863e-06
217.8 -1.70264545019e-05 2.77352082228e-06
218.4 -5.03169580338e-05 1.75568244884e-06
219.0 -2.57445217275e-05 1.78434931937e-07
219.6 -5.20400918462e-05 -2.24702565294e-07
220.2 -8.0690570942e-05 -1.38995174233e-07
220.8 -0.000137166668899 -8.64650951144e-07
221.4 -0.000129957286323 -2.94736434891e-06
222.0 -0.00011234169445 -3.87118449565e-06
222.6 -9.22046329415e-05 -5.16130091909e-06
223.2 -8.50162680621e-05 -4.91968940107e-06
223.8 -7.08873755849e-05 -5.2671100345e-06
224.4 2.11561215541e-05 -3.8748610599e-06
225.0 5.59917973154e-05 -2.27067717284e-06
225.6 0.000113506602079 -1.3506864217e-06
226.2 0.000120242342554 2.23214071121e-07
226.8 0.000135670397118 2.75620876308e-07
227.4 0.000136708219842 2.05690710568e-06
228.0 7.73119660663e-05 1.05885426307e-06
228.6 6.93604671553e-05 3.02603333276e-06
229.2 -2.44581623444e-05 1.42821009919e-06
229.8 1.94366789556e-05 2.53260065818e-06
230.4 -6.26694542267e-05 1.37313631184e-06
231.0 -3.77518738034e-05 9.56365210538e-07
231.6 -0.000103886430657 1.01233532471e-06
232.2 -8.94565216697e-05 -1.42623304212e-07
232.8 -0.000144656643827 -1.12691486293e-07
233.4 -0.000120130242457 -1.68364517673e-06
234.0 -0.000123908028512 -1.65566996158e-06
234.6 -0.000108334539576 -2.69882917779e-06
235.2 -9.84736154308e-05 -1.07191138118e-06
235.8 -5.80789633103e-05 -1.68221846431e-06
236.4 -4.60589969938e-05 -1.26546323516e-06
237.0 -2.51364314345e-06 -1.89233626952e-06
237.6 3.64010352931e-07 -3.18098751891e-06
238.2 6.70093549809e-05 -2.56057180665e-06
238.8 9.48644692341e-05 -1.69662192833e-06
239.4 9.46770218032e-05 -7.57433923102e-07
240.0 8.15239845684e-05 -5.67558967252e-07
240.6 8.06388469781e-05 1.20140680525e-06
241.2 7.44579082096e-05 2.67374676059e-06
241.8 1.00721289249e-05 3.39224678722e-06
242.4 -4.66437776089e-05 3.05065270505e-06
243.0 -9.23370469001e-05 3.27226009677e-06
243.6 -0.000101042744124 3.06389274533e-06
244.2 -0.000101932832684 3.52214122264e-06
244.8 -8.24233404524e-05 2.95776111843e-06
245.4 -9.1770035611e-05 2.4629671084e-06
246.0 -6.95254982224e-05 9.94017223111e-07
246.6 -7.67495615318e-05 1.12820451154e-06
247.2 -6.31477550398e-05 -4.10477552355e-07
247.8 -4.25954672799e-05 -2.31384209754e-08
248.4 1.2949673523e-05 6.46845016184e-07
249.0 6.33776252528e-05 5.98910780931e-07
249.6 0.000159576262618 4.64724687345e-08
250.2 0.000154846502535 3.64598003838e-07
250.8 0.000236325664535 4.94657664468e-08
251.4 0.000193927415948 8.04818374959e-07
252.0 0.000195001715809 1.01458572822e-06
252.6 0.000146233395179 8.18682048421e-07
253.2 0.000166663058341 9.84082615078e-08
253.8 0.000196569838618 1.69760627254e-06
254.4 0.000192076646757 3.22076500596e-06
255.0 0.000141461399822 2.70486457198e-06
255.6 6.75503161775e-05 2.02980856267e-06
256.2 3.62434431298e-05 5.6286269005e-07
256.8 -2.2874572543e-05 1.06903937755e-06
257.4 -6.03681114947e-05 1.41459381071e-06
258.0 -0.000145966744238 7.47665894572e-07
258.6 -0.000128608264697 -1.51405275987e-06
259.2 -0.00014999368105 -2.69124000605e-06
259.8 -0.000107748484662 -1.09454383258e-06
260.4 -3.01128282717e-05 -2.2432229486e-06
261.0 -3.42273511714e-06 -4.27325186395e-07
261.6 0.000117267657091 1.23703318836e-06
262.2 0.000175087631539 1.35781504085e-06
262.8 0.000262820125454 7.66976151134e-07
263.4 0.000279273518621 -1.22436911207e-06
264.0 0.000325772752601 -2.30143562016e-06
264.6 0.000319960049867 -2.83510265564e-06
265.2 0.000292534457399 -1.65404614096e-06
265.8 0.000278405501454 -1.99557957587e-06
266.4 0.000264692005565 -3.04546814021e-06
267.0 0.000238894048287 -3.09853863118e-06
267.6 0.000132246157768 -1.88462190298e-06
268.2 5.7538667375e-05 -2.20211086246e-06
268.8 -3.83012835112e-05 -4.54877159198e-06
269.4 -0.000156555235544 -5.0530555748e-06
270.0 -0.000285705806512 -4.43790525169e-06
270.6 -0.000430221086092 -4.50679259886e-06
271.2 -0.000538034456701 -3.71397899478e-06
271.8 -0.000561689791636 -2.33083687603e-06
272.4 -0.000521294811799 -1.58123661802e-06
273.0 -0.000465928316147 -3.32544487075e-07
273.6 -0.000373244164341 -7.61444605018e-07
274.2 -0.000363568548528 6.75204524423e-07
274.8 -0.000271256783574 1.46882193847e-06
275.4 -0.00017736908436 1.7461124423e-06
276.0 -9.53496320374e-05 3.10562625433e-06
276.6 5.41640594877e-05 2.26105748515e-06
277.2 0.000161052081072 1.26619823916e-06
277.8 0.000274159961272 2.21723933346e-06
278.4 0.000367350191724 3.68714306673e-06
279.0 0.000451593896314 4.0489604602e-06
279.6 0.000490695371749 6.52410250958e-06
280.2 0.000469741416267 5.48890185596e-06
280.8 0.000367262682179 4.58717325353e-06
281.4 0.00026614845389 3.28202535837e-06
282.0 0.000170573064286 1.25803869828e-06
282.6 6.52728904659e-05 2.25970072523e-06
283.2 5.37010385141e-05 1.81638159695e-06
283.8 2.59487712813e-05 2.37790314265e-06
284.4 4.31363982716e-06 3.42448505553e-06
285.0 -4.23557164391e-05 3.25166407114e-06
285.6 -9.73879555333e-05 4.61725424897e-06
286.2 -0.00016428727393 4.16686197758e-06
286.8 -0.000226100226143 5.39494358624e-06
287.4 -0.000215264623482 4.09940226568e-06
288.0 -0.000225014492151 2.21513360076e-06
288.6 -0.000143021803376 1.58462201608e-06
289.2 -5.72576535315e-05 1.05243455814e-06
289.8 6.2708172481e-06 2.1221857419e-06
290.4 0.000210745283885 3.86721225534e-06
291.0 0.000348413099615 2.82474357752e-06
291.6 0.000503818886521 2.63565008393e-06
292.2 0.000664132103415 -1.59016804971e-06
292.8 0.000702392902962 -4.67951880539e-06
293.4 0.000749881297412 -4.96695602492e-06
294.0 0.000708879347028 -9.76735075696e-06
294.6 0.000638350270092 -1.04895375694e-05
295.2 0.00059339481986 -8.9955095891e-06
295.8 0.000514972385256 -1.32425060195e-05
296.4 0.000389086051405 -1.2664820965e-05
297.0 0.000125697158601 -1.12507410313e-05
297.6 -7.76952148062e-05 -1.36922895025e-05
298.2 -0.000255747917666 -1.31649647427e-05
298.8 -0.000636441576032 -7.79738119915e-06
299.4 -0.000866371758061 -9.39166437465e-06
300.0 -0.000942838950532 -9.57834792486e-06
300.6 -0.00122663816459 -6.4149325255e-07
301.2 -0.00131747419221 2.23463052788e-06
301.8 -0.00115284726624 2.74077672924e-06
302.4 -0.00116340623617 9.64404085589e-06
303.0 -0.00107018463185 1.52011389011e-05
303.6 -0.000812828583409 1.89721297146e-05
304.2 -0.00050777254642 2.11941928959e-05
304.8 -0.000143335055196 2.43877538259e-05
305.4 0.000159214566919 2.83776558477e-05
306.0 0.000547418171116 2.72688867065e-05
306.6 0.00106568553617 2.28691461974e-05
307.2 0.00153170682334 1.62693640244e-05
307.8 0.00178164516906 1.11189218592e-05
308.4 0.00183943452037 5.33554294443e-06
309.0 0.00192064389098 -1.81960139549e-06
309.6 0.00204998509751 -9.29836593967e-06
310.2 0.00198616390455 -1.75871382712e-05
310.8 0.00172418439121 -2.2943050398e-05
311.4 0.00136915261822 -2.63516967312e-05
312.0 0.000945524458449 -2.84890912219e-05
312.6 0.000515577073193 -2.93518999391e-05
313.2 8.36381118305e-05 -2.77738079781e-05
313.8 -0.000357169992537 -2.52178984042e-05
314.4 -0.000814343076419 -2.05917997523e-05
315.0 -0.00117297336532 -1.44224581585e-05
315.6 -0.00137056417351 -8.73382868615e-06
316.2 -0.0014367309073 -7.85352307972e-07
316.8 -0.00140056144073 8.91289060452e-06
317.4 -0.00124488244406 1.69444787178e-05
318.0 -0.000985789727494 2.34764569539e-05
318.6 -0.000662537565249 2.83229793508e-05
319.2 -0.000297026450415 2.98054015332e-05
319.8 3.71438699365e-05 2.80076533355e-05
320.4 0.000324129863376 2.34896566076e-05
321.0 0.000549785453802 1.65933925236e-05
321.6 0.000689264281363 8.34158793408e-06
322.2 0.000776976633273 -2.75399096394e-07
322.8 0.000771318620259 -7.97716090073e-06
323.4 0.000704722005976 -1.46536501715e-05
324.0 0.00057483686672 -1.94819179584e-05
324.6 0.000364160943084 -2.26569587335e-05
325.2 9.36316479822e-05 -2.41273331893e-05
325.8 -0.000241125858272 -2.34324113654e-05
326.4 -0.00058314114806 -2.04531423533e-05
327.0 -0.000870232864044 -1.5453620189e-05
327.6 -0.00106477352072 -8.853944795e-06
328.2 -0.00111258411408 -1.35267091669e-06
328.8 -0.00100477992095 6.03401939059e-06
329.4 -0.000748770325649 1.25913783669e-05
330.0 -0.000371441529398 1.7279974057e-05
330.6 4.42747029492e-05 1.96430647299e-05
331.2 0.000428942508202 1.94557172493e-05
331.8 0.000720484106804 1.68264606286e-05
332.4 0.000861316229006 1.25118656309e-05
333.0 0.000887434150808 7.33630543703e-06
333.6 0.000847789544407 1.87413618469e-06
334.2 0.000720764518966 -3.24966057796e-06
334.8 0.000524963155382 -7.45927737477e-06
335.4 0.000287438200696 -1.04423046528e-05
336.0 2.57605267071e-05 -1.19511372348e-05
336.6 -0.000243556691619 -1.17745138835e-05
337.2 -0.000463731967661 -1.0087059406e-05
337.8 -0.000611250085294 -7.19027288245e-06
338.4 -0.000666851103879 -3.68943068558e-06
339.0 -0.000616673341416 -1.47039162507e-07
339.6 -0.000483910968494 2.87720614081e-06
340.2 -0.00030228464898 5.07739220005e-06
340.8 -9.06235906136e-05 6.18554657105e-06
341.4 9.05330973778e-05 6.18217310799e-06
342.0 0.000205458038768 5.35007445618e-06
342.6 0.000255755397299 3.98818431616e-06
343.2 0.000276683613734 2.35084329775e-06
343.8 0.000301837825805 5.2571907948e-07
344.4 0.000288100630958 -1.34683359674e-06
345.0 0.000238563856397 -3.00057928697e-06
345.6 0.000188523783229 -4.23182240874e-06
346.2 0.000102511023413 -4.90707626193e-06
346.8 9.13316416574e-06 -4.71274763884e-06
347.4 -7.53408067863e-05 -3.80863617586e-06
348.0 -0.000157093731639 -2.36506044929e-06
348.6 -0.000205011920324 -5.76227641401e-07
349.2 -0.000221284867176 1.1727503766e-06
349.8 -0.000211985229304 2.61692546936e-06
350.4 -0.000165523671111 3.50694065075e-06
351.0 -0.000106884659832 3.76526270742e-06
351.6 -4.82384354342e-05 3.57288524505e-06
352.2 1.63463951112e-06 3.19802898345e-06
352.8 5.49138557784e-05 2.70754831947e-06
353.4 0.000104859570765 1.78599582401e-06
354.0 0.000118278019749 6.09042256998e-07
354.6 0.000110437501688 -5.3491414024e-07
355.2 8.26273450548e-05 -1.64471910694e-06
355.8 2.61957101283e-05 -2.39226260673e-06
356.4 -3.54989822062e-05 -2.73318057636e-06
357.0 -9.85154119695e-05 -2.6685381047e-06
357.6 -0.000148920658031 -2.21895861268e-06
358.2 -0.000171867595185 -1.56486519581e-06
358.8 -0.000171347775339 -8.12548944109e-07
359.4 -0.000139529790131 -1.3338944863e-07
360.0 -7.92412121485e-05 3.39395403639e-07
360.6 -5.03043145914e-06 6.58720070407e-07
361.2 7.80347826811e-05 8.6321011043e-07
361.8 0.000173730256395 1.04010883053e-06
362.4 0.000268922481759 1.14916617475e-06
363.0 0.000338720299706 1.18992779029e-06
363.6 0.000379715797287 1.18123415332e-06
364.2 0.000383307832974 1.0177893392e-06
364.8 0.000344068544801 6.98671934693e-07
365.4 0.000270737340527 2.47724258681e-07
366.0 0.000165188918727 -2.8162814455e-07
366.6 4.40728476344e-05 -7.7748854066e-07
367.2 -7.72676327473e-05 -1.17827226455e-06
367.8 -0.000186018944568 -1.41120581145e-06
368.4 -0.000272222199141 -1.42505585258e-06
369.0 -0.000334630442425 -1.23545334279e-06
369.6 -0.00036988906905 -8.62851651337e-07
370.2 -0.000376168051613 -3.53509751159e-07
370.8 -0.000350182436958 2.06782049704e-07
371.4 -0.000293173295969 7.07345475625e-07
372.0 -0.000219720413284 1.0925973906e-06
372.6 -0.000135985337148 1.27862411179e-06
373.2 -4.99439281794e-05 1.23126009972e-06
373.8 3.00553277571e-05 9.74987382558e-07
374.4 0.000103795872871 5.89423562002e-07
375.0 0.000161174710187 1.52752146865e-07
375.6 0.000199280851688 -2.73955289194e-07
376.2 0.000214962957354 -5.82792167793e-07
376.8 0.000208538760446 -7.34922266978e-07
377.4 0.00018906538844 -7.34399716889e-07
378.0 0.000157801782512 -6.0614877603e-07
378.6 0.000119248076773 -4.23206622472e-07
379.2 7.72642370307e-05 -1.98139785385e-07
379.8 3.56067180849e-05 2.82711706694e-08
380.4 -1.06468774545e-06 2.16420797616e-07
381.0 -3.43325420101e-05 3.30773644274e-07
381.6 -6.32928720038e-05 3.73112402889e-07
382.2 -8.45695656335e-05 3.42439616582e-07
382.8 -9.78915822138e-05 2.51974519087e-07
383.4 -0.000100674261716 1.25084248062e-07
384.0 -9.54590301821e-05 -8.7292940642e-09
384.6 -8.41301571142e-05 -1.14415793002e-07
385.2 -6.63976343409e-05 -1.8454115482e-07
385.8 -4.56940395113e-05 -2.05642837432e-07
386.4 -2.50982576321e-05 -1.89507793638e-07
387.0 -6.53683558405e-06 -1.36265348784e-07
387.6 6.66081467192e-06 -7.41494382821e-08
388.2 1.83919334247e-05 -1.70689342866e-08
388.8 2.88401673751e-05 3.50362539357e-08
389.4 3.72720091649e-05 7.1978567202e-08
390.0 4.3716327688e-05 9.7868291363e-08
390.6 4.41136518857e-05 1.05256845153e-07
391.2 4.23231331019e-05 9.57017746746e-08
391.8 3.57500299779e-05 6.89336769785e-08
392.4 2.72589728171e-05 4.48145254678e-08
393.0 1.85052214895e-05 3.56628870947e-09
393.6 8.98193399778e-06 -3.33036284878e-08
394.2 3.02591937884e-06 -7.21607080595e-08
394.8 -3.55801017677e-06 -1.0039884997e-07
395.4 -8.55051182526e-06 -8.31026225753e-08
396.0 -1.24153263871e-05 -4.58605642327e-08
396.6 -1.63592715032e-05 -5.40689017308e-10
397.2 -1.90742530858e-05 1.9100324605e-08
397.8 -2.00377577291e-05 2.65462965893e-08
398.4 -1.95440293441e-05 2.08265888002e-08
399.0 -1.67605087365e-05 1.45823140982e-08
399.6 -1.43745729632e-05 1.34465611369e-08
