0.000000    5.3279575E+00
0.8000000    1.8654351E-01-1.8654351E-01
1.600000    1.8880882E-01-1.8880882E-01
2.400000    1.9196651E-01-1.9196651E-01
3.200000    1.9490974E-01-1.9490974E-01
4.000000    1.9696839E-01-1.9696839E-01
4.800000    1.9785621E-01-1.9785621E-01
5.600000    1.9759609E-01-1.9759609E-01
6.400000    1.9655501E-01-1.9655501E-01
7.200000    1.9570283E-01-1.9570283E-01
8.000000    1.9536514E-01-1.9536514E-01
8.800000    1.9532928E-01-1.9532928E-01
9.600000    1.9538784E-01-1.9538784E-01
10.40000    1.9564034E-01-1.9564034E-01
11.20000    1.9581560E-01-1.9581560E-01
12.00000    1.9577578E-01-1.9577578E-01
12.80000    1.9562334E-01-1.9562334E-01
13.60000    1.9532811E-01-1.9532811E-01
14.40000    1.9486888E-01-1.9486888E-01
15.20000    1.9423074E-01-1.9423074E-01
16.00000    1.9361635E-01-1.9361635E-01
16.80000    1.9315789E-01-1.9315789E-01
17.60000    1.9284820E-01-1.9284820E-01
18.40000    1.9273425E-01-1.9273425E-01
19.20000    1.9281992E-01-1.9281992E-01
20.00000    1.9304730E-01-1.9304730E-01
20.80000    1.9334998E-01-1.9334998E-01
21.60000    1.9367533E-01-1.9367533E-01
22.40000    1.9400212E-01-1.9400212E-01
23.20000    1.9437254E-01-1.9437254E-01
24.00000    1.9470647E-01-1.9470647E-01
24.80000    1.9495276E-01-1.9495276E-01
25.60000    1.9515652E-01-1.9515652E-01
26.40000    1.9538174E-01-1.9538174E-01
27.20000    1.9558923E-01-1.9558923E-01
28.00000    1.9572303E-01-1.9572303E-01
28.80000    1.9581139E-01-1.9581139E-01
29.60000    1.9582327E-01-1.9582327E-01
30.40000    1.9578476E-01-1.9578476E-01
31.20000    1.9567336E-01-1.9567336E-01
32.00000    1.9540355E-01-1.9540355E-01
32.80000    1.9500161E-01-1.9500161E-01
33.60000    1.9453475E-01-1.9453475E-01
34.40000    1.9402757E-01-1.9402757E-01
35.20000    1.9347786E-01-1.9347786E-01
36.00000    1.9293435E-01-1.9293435E-01
36.80000    1.9247024E-01-1.9247024E-01
37.60000    1.9212590E-01-1.9212590E-01
38.40000    1.9185880E-01-1.9185880E-01
39.20000    1.9162782E-01-1.9162782E-01
40.00000    1.9145763E-01-1.9145763E-01
40.80000    1.9133533E-01-1.9133533E-01
41.60000    1.9123017E-01-1.9123017E-01
42.40000    1.9106287E-01-1.9106287E-01
43.20000    1.9082988E-01-1.9082988E-01
44.00000    1.9054728E-01-1.9054728E-01
44.80000    1.9019670E-01-1.9019670E-01
45.60000    1.8987642E-01-1.8987642E-01
46.40000    1.8956906E-01-1.8956906E-01
47.20000    1.8923153E-01-1.8923153E-01
48.00000    1.8889063E-01-1.8889063E-01
48.80000    1.8857477E-01-1.8857477E-01
49.60000    1.8834158E-01-1.8834158E-01
50.40000    1.8814456E-01-1.8814456E-01
51.20000    1.8793899E-01-1.8793899E-01
52.00000    1.8769614E-01-1.8769614E-01
52.80000    1.8750388E-01-1.8750388E-01
53.60000    1.8730724E-01-1.8730724E-01
54.40000    1.8705647E-01-1.8705647E-01
55.20000    1.8675891E-01-1.8675891E-01
56.00000    1.8644032E-01-1.8644032E-01
56.80000    1.8615885E-01-1.8615885E-01
57.60000    1.8581136E-01-1.8581136E-01
58.40000    1.8540838E-01-1.8540838E-01
59.20000    1.8494650E-01-1.8494650E-01
60.00000    1.8445294E-01-1.8445294E-01
60.80000    1.8396481E-01-1.8396481E-01
61.60000    1.8338976E-01-1.8338976E-01
62.40000    1.8284412E-01-1.8284412E-01
63.20000    1.8235638E-01-1.8235638E-01
64.00000    1.8193494E-01-1.8193494E-01
64.80000    1.8160114E-01-1.8160114E-01
65.60000    1.8129831E-01-1.8129831E-01
66.40000    1.8110286E-01-1.8110286E-01
67.20000    1.8097670E-01-1.8097670E-01
68.00000    1.8093952E-01-1.8093952E-01
68.80000    1.8099428E-01-1.8099428E-01
69.60000    1.8108206E-01-1.8108206E-01
70.40000    1.8119584E-01-1.8119584E-01
71.20000    1.8124911E-01-1.8124911E-01
72.00000    1.8130188E-01-1.8130188E-01
72.80000    1.8130661E-01-1.8130661E-01
73.60000    1.8124373E-01-1.8124373E-01
74.40000    1.8114752E-01-1.8114752E-01
75.20000    1.8094140E-01-1.8094140E-01
76.00000    1.8070206E-01-1.8070206E-01
76.80000    1.8042621E-01-1.8042621E-01
77.60000    1.8013882E-01-1.8013882E-01
78.40000    1.7984000E-01-1.7984000E-01
79.20000    1.7950329E-01-1.7950329E-01
80.00000    1.7913561E-01-1.7913561E-01
80.00000    1.7913560E-01-1.7913560E-01
80.80000    1.7872222E-01-1.7872222E-01
81.60000    1.7830523E-01-1.7830523E-01
82.40000    1.7793403E-01-1.7793403E-01
83.20000    1.7759741E-01-1.7759741E-01
84.00000    1.7731279E-01-1.7731279E-01
84.80000    1.7707994E-01-1.7707994E-01
85.60000    1.7694204E-01-1.7694204E-01
86.40000    1.7690204E-01-1.7690204E-01
87.20000    1.7691294E-01-1.7691294E-01
88.00000    1.7700092E-01-1.7700092E-01
88.80000    1.7717671E-01-1.7717671E-01
89.60000    1.7746010E-01-1.7746010E-01
90.40000    1.7779042E-01-1.7779042E-01
91.20000    1.7811421E-01-1.7811421E-01
92.00000    1.7842992E-01-1.7842992E-01
92.80000    1.7871897E-01-1.7871897E-01
93.60000    1.7898346E-01-1.7898346E-01
94.40000    1.7924999E-01-1.7924999E-01
95.20000    1.7954088E-01-1.7954088E-01
96.00000    1.7990389E-01-1.7990389E-01
96.80000    1.8030838E-01-1.8030838E-01
97.60000    1.8078321E-01-1.8078321E-01
98.40000    1.8130389E-01-1.8130389E-01
99.20000    1.8173830E-01-1.8173830E-01
100.0000    1.8207642E-01-1.8207642E-01
100.8000    1.8224871E-01-1.8224871E-01
101.6000    1.8227408E-01-1.8227408E-01
102.4000    1.8208581E-01-1.8208581E-01
103.2000    1.8172469E-01-1.8172469E-01
104.0000    1.8133955E-01-1.8133955E-01
104.8000    1.8099703E-01-1.8099703E-01
105.6000    1.8077823E-01-1.8077823E-01
106.4000    1.8066356E-01-1.8066356E-01
107.2000    1.8069963E-01-1.8069963E-01
108.0000    1.8085848E-01-1.8085848E-01
108.8000    1.8117423E-01-1.8117423E-01
109.6000    1.8161493E-01-1.8161493E-01
110.4000    1.8212024E-01-1.8212024E-01
111.2000    1.8267163E-01-1.8267163E-01
112.0000    1.8325943E-01-1.8325943E-01
112.8000    1.8391566E-01-1.8391566E-01
113.6000    1.8457808E-01-1.8457808E-01
114.4000    1.8522668E-01-1.8522668E-01
115.2000    1.8585945E-01-1.8585945E-01
116.0000    1.8648299E-01-1.8648299E-01
116.8000    1.8710894E-01-1.8710894E-01
117.6000    1.8769276E-01-1.8769276E-01
118.4000    1.8818566E-01-1.8818566E-01
119.2000    1.8856511E-01-1.8856511E-01
120.0000    1.8880001E-01-1.8880001E-01
120.8000    1.8883392E-01-1.8883392E-01
121.6000    1.8862189E-01-1.8862189E-01
122.4000    1.8821760E-01-1.8821760E-01
123.2000    1.8771222E-01-1.8771222E-01
124.0000    1.8718365E-01-1.8718365E-01
124.8000    1.8674103E-01-1.8674103E-01
125.6000    1.8645684E-01-1.8645684E-01
126.4000    1.8644052E-01-1.8644052E-01
127.2000    1.8669014E-01-1.8669014E-01
128.0000    1.8716553E-01-1.8716553E-01
128.8000    1.8779909E-01-1.8779909E-01
129.6000    1.8850989E-01-1.8850989E-01
130.4000    1.8924681E-01-1.8924681E-01
131.2000    1.8992670E-01-1.8992670E-01
132.0000    1.9053586E-01-1.9053586E-01
132.8000    1.9105441E-01-1.9105441E-01
133.6000    1.9149139E-01-1.9149139E-01
134.4000    1.9183129E-01-1.9183129E-01
135.2000    1.9206937E-01-1.9206937E-01
136.0000    1.9223897E-01-1.9223897E-01
136.8000    1.9236106E-01-1.9236106E-01
137.6000    1.9243504E-01-1.9243504E-01
138.4000    1.9240839E-01-1.9240839E-01
139.2000    1.9228247E-01-1.9228247E-01
140.0000    1.9211282E-01-1.9211282E-01
140.8000    1.9191108E-01-1.9191108E-01
141.6000    1.9162715E-01-1.9162715E-01
142.4000    1.9125297E-01-1.9125297E-01
143.2000    1.9085156E-01-1.9085156E-01
144.0000    1.9049365E-01-1.9049365E-01
144.8000    1.9018513E-01-1.9018513E-01
145.6000    1.8995184E-01-1.8995184E-01
146.4000    1.8984903E-01-1.8984903E-01
147.2000    1.8989470E-01-1.8989470E-01
148.0000    1.9005168E-01-1.9005168E-01
148.8000    1.9027205E-01-1.9027205E-01
149.6000    1.9051663E-01-1.9051663E-01
150.4000    1.9072894E-01-1.9072894E-01
151.2000    1.9084664E-01-1.9084664E-01
152.0000    1.9085309E-01-1.9085309E-01
152.8000    1.9073641E-01-1.9073641E-01
153.6000    1.9051521E-01-1.9051521E-01
154.4000    1.9020842E-01-1.9020842E-01
155.2000    1.8987516E-01-1.8987516E-01
156.0000    1.8951762E-01-1.8951762E-01
156.8000    1.8920165E-01-1.8920165E-01
157.6000    1.8894774E-01-1.8894774E-01
158.4000    1.8875979E-01-1.8875979E-01
159.2000    1.8860921E-01-1.8860921E-01
160.0000    1.8848005E-01-1.8848005E-01
160.0000    1.8847999E-01-1.8847999E-01
160.8000    1.8841419E-01-1.8841419E-01
161.6000    1.8835215E-01-1.8835215E-01
162.4000    1.8828453E-01-1.8828453E-01
163.2000    1.8818196E-01-1.8818196E-01
164.0000    1.8804720E-01-1.8804720E-01
164.8000    1.8788774E-01-1.8788774E-01
165.6000    1.8769123E-01-1.8769123E-01
166.4000    1.8748911E-01-1.8748911E-01
167.2000    1.8724597E-01-1.8724597E-01
168.0000    1.8695272E-01-1.8695272E-01
168.8000    1.8669268E-01-1.8669268E-01
169.6000    1.8645606E-01-1.8645606E-01
170.4000    1.8618787E-01-1.8618787E-01
171.2000    1.8583802E-01-1.8583802E-01
172.0000    1.8546521E-01-1.8546521E-01
172.8000    1.8517721E-01-1.8517721E-01
173.6000    1.8491146E-01-1.8491146E-01
174.4000    1.8465578E-01-1.8465578E-01
175.2000    1.8439470E-01-1.8439470E-01
176.0000    1.8421054E-01-1.8421054E-01
176.8000    1.8418470E-01-1.8418470E-01
177.6000    1.8424278E-01-1.8424278E-01
178.4000    1.8432996E-01-1.8432996E-01
179.2000    1.8443705E-01-1.8443705E-01
180.0000    1.8464706E-01-1.8464706E-01
180.8000    1.8492375E-01-1.8492375E-01
181.6000    1.8510187E-01-1.8510187E-01
182.4000    1.8516100E-01-1.8516100E-01
183.2000    1.8519793E-01-1.8519793E-01
184.0000    1.8528013E-01-1.8528013E-01
184.8000    1.8531827E-01-1.8531827E-01
185.6000    1.8521140E-01-1.8521140E-01
186.4000    1.8506019E-01-1.8506019E-01
187.2000    1.8494826E-01-1.8494826E-01
188.0000    1.8484159E-01-1.8484159E-01
188.8000    1.8468961E-01-1.8468961E-01
189.6000    1.8450419E-01-1.8450419E-01
190.4000    1.8440084E-01-1.8440084E-01
191.2000    1.8438722E-01-1.8438722E-01
192.0000    1.8444666E-01-1.8444666E-01
192.8000    1.8456901E-01-1.8456901E-01
193.6000    1.8479887E-01-1.8479887E-01
194.4000    1.8513195E-01-1.8513195E-01
195.2000    1.8551334E-01-1.8551334E-01
196.0000    1.8594291E-01-1.8594291E-01
196.8000    1.8641780E-01-1.8641780E-01
197.6000    1.8694805E-01-1.8694805E-01
198.4000    1.8749063E-01-1.8749063E-01
199.2000    1.8803478E-01-1.8803478E-01
200.0000    1.8858217E-01-1.8858217E-01
200.8000    1.8913770E-01-1.8913770E-01
201.6000    1.8970684E-01-1.8970684E-01
202.4000    1.9021428E-01-1.9021428E-01
203.2000    1.9065327E-01-1.9065327E-01
204.0000    1.9107463E-01-1.9107463E-01
204.8000    1.9153516E-01-1.9153516E-01
205.6000    1.9205108E-01-1.9205108E-01
206.4000    1.9263162E-01-1.9263162E-01
207.2000    1.9331316E-01-1.9331316E-01
208.0000    1.9408736E-01-1.9408736E-01
208.8000    1.9489311E-01-1.9489311E-01
209.6000    1.9563957E-01-1.9563957E-01
210.4000    1.9625832E-01-1.9625832E-01
211.2000    1.9675060E-01-1.9675060E-01
212.0000    1.9711519E-01-1.9711519E-01
212.8000    1.9737116E-01-1.9737116E-01
213.6000    1.9753340E-01-1.9753340E-01
214.4000    1.9767718E-01-1.9767718E-01
215.2000    1.9791143E-01-1.9791143E-01
216.0000    1.9827793E-01-1.9827793E-01
216.8000    1.9877958E-01-1.9877958E-01
217.6000    1.9938784E-01-1.9938784E-01
218.4000    2.0011500E-01-2.0011500E-01
219.2000    2.0095160E-01-2.0095160E-01
220.0000    2.0186129E-01-2.0186129E-01
220.8000    2.0281567E-01-2.0281567E-01
221.6000    2.0379667E-01-2.0379667E-01
222.4000    2.0482076E-01-2.0482076E-01
223.2000    2.0585306E-01-2.0585306E-01
224.0000    2.0683609E-01-2.0683609E-01
224.8000    2.0776502E-01-2.0776502E-01
225.6000    2.0866534E-01-2.0866534E-01
226.4000    2.0956646E-01-2.0956646E-01
227.2000    2.1039949E-01-2.1039949E-01
228.0000    2.1113626E-01-2.1113626E-01
228.8000    2.1178235E-01-2.1178235E-01
229.6000    2.1234743E-01-2.1234743E-01
230.4000    2.1278043E-01-2.1278043E-01
231.2000    2.1301593E-01-2.1301593E-01
232.0000    2.1306413E-01-2.1306413E-01
232.8000    2.1300341E-01-2.1300341E-01
233.6000    2.1296751E-01-2.1296751E-01
234.4000    2.1298585E-01-2.1298585E-01
235.2000    2.1309949E-01-2.1309949E-01
236.0000    2.1337311E-01-2.1337311E-01
236.8000    2.1390678E-01-2.1390678E-01
237.6000    2.1469096E-01-2.1469096E-01
238.4000    2.1561436E-01-2.1561436E-01
239.2000    2.1661160E-01-2.1661160E-01
240.0000    2.1761237E-01-2.1761237E-01
240.0000    2.1761237E-01-2.1761237E-01
240.8000    2.1856044E-01-2.1856044E-01
241.6000    2.1937744E-01-2.1937744E-01
242.4000    2.2004635E-01-2.2004635E-01
243.2000    2.2056237E-01-2.2056237E-01
244.0000    2.2091659E-01-2.2091659E-01
244.8000    2.2113306E-01-2.2113306E-01
245.6000    2.2123521E-01-2.2123521E-01
246.4000    2.2126471E-01-2.2126471E-01
247.2000    2.2122865E-01-2.2122865E-01
248.0000    2.2115769E-01-2.2115769E-01
248.8000    2.2109367E-01-2.2109367E-01
249.6000    2.2103474E-01-2.2103474E-01
250.4000    2.2093832E-01-2.2093832E-01
251.2000    2.2077088E-01-2.2077088E-01
252.0000    2.2056109E-01-2.2056109E-01
252.8000    2.2034436E-01-2.2034436E-01
253.6000    2.2015949E-01-2.2015949E-01
254.4000    2.2002061E-01-2.2002061E-01
255.2000    2.1995493E-01-2.1995493E-01
256.0000    2.1997133E-01-2.1997133E-01
256.8000    2.2008678E-01-2.2008678E-01
257.6000    2.2034244E-01-2.2034244E-01
258.4000    2.2066724E-01-2.2066724E-01
259.2000    2.2095789E-01-2.2095789E-01
260.0000    2.2116455E-01-2.2116455E-01
260.8000    2.2131956E-01-2.2131956E-01
261.6000    2.2141945E-01-2.2141945E-01
262.4000    2.2135720E-01-2.2135720E-01
263.2000    2.2114526E-01-2.2114526E-01
264.0000    2.2082916E-01-2.2082916E-01
264.8000    2.2044817E-01-2.2044817E-01
265.6000    2.2000803E-01-2.2000803E-01
266.4000    2.1954292E-01-2.1954292E-01
267.2000    2.1912957E-01-2.1912957E-01
268.0000    2.1874330E-01-2.1874330E-01
268.8000    2.1838862E-01-2.1838862E-01
269.6000    2.1814029E-01-2.1814029E-01
270.4000    2.1798848E-01-2.1798848E-01
271.2000    2.1788326E-01-2.1788326E-01
272.0000    2.1775428E-01-2.1775428E-01
272.8000    2.1760713E-01-2.1760713E-01
273.6000    2.1749543E-01-2.1749543E-01
274.4000    2.1740030E-01-2.1740030E-01
275.2000    2.1731110E-01-2.1731110E-01
276.0000    2.1719050E-01-2.1719050E-01
276.8000    2.1709099E-01-2.1709099E-01
277.6000    2.1707859E-01-2.1707859E-01
278.4000    2.1710593E-01-2.1710593E-01
279.2000    2.1711403E-01-2.1711403E-01
280.0000    2.1706515E-01-2.1706515E-01
280.8000    2.1713524E-01-2.1713524E-01
281.6000    2.1740066E-01-2.1740066E-01
282.4000    2.1776364E-01-2.1776364E-01
283.2000    2.1816399E-01-2.1816399E-01
284.0000    2.1861038E-01-2.1861038E-01
284.8000    2.1916970E-01-2.1916970E-01
285.6000    2.1975015E-01-2.1975015E-01
286.4000    2.2029062E-01-2.2029062E-01
287.2000    2.2081212E-01-2.2081212E-01
288.0000    2.2132450E-01-2.2132450E-01
288.8000    2.2181187E-01-2.2181187E-01
289.6000    2.2221866E-01-2.2221866E-01
290.4000    2.2256398E-01-2.2256398E-01
291.2000    2.2291359E-01-2.2291359E-01
292.0000    2.2326292E-01-2.2326292E-01
292.8000    2.2360432E-01-2.2360432E-01
293.6000    2.2391666E-01-2.2391666E-01
294.4000    2.2428238E-01-2.2428238E-01
295.2000    2.2477572E-01-2.2477572E-01
296.0000    2.2544009E-01-2.2544009E-01
296.8000    2.2631919E-01-2.2631919E-01
297.6000    2.2742255E-01-2.2742255E-01
298.4000    2.2877138E-01-2.2877138E-01
299.2000    2.3030036E-01-2.3030036E-01
300.0000    2.3191801E-01-2.3191801E-01
300.8000    2.3354274E-01-2.3354274E-01
301.6000    2.3513383E-01-2.3513383E-01
302.4000    2.3655957E-01-2.3655957E-01
303.2000    2.3765765E-01-2.3765765E-01
304.0000    2.3842360E-01-2.3842360E-01
304.8000    2.3902191E-01-2.3902191E-01
305.6000    2.3961410E-01-2.3961410E-01
306.4000    2.4011121E-01-2.4011121E-01
307.2000    2.4044299E-01-2.4044299E-01
308.0000    2.4069343E-01-2.4069343E-01
308.8000    2.4089521E-01-2.4089521E-01
309.6000    2.4096288E-01-2.4096288E-01
310.4000    2.4081074E-01-2.4081074E-01
311.2000    2.4043682E-01-2.4043682E-01
312.0000    2.3981687E-01-2.3981687E-01
312.8000    2.3888136E-01-2.3888136E-01
313.6000    2.3758904E-01-2.3758904E-01
314.4000    2.3599307E-01-2.3599307E-01
315.2000    2.3420618E-01-2.3420618E-01
316.0000    2.3229836E-01-2.3229836E-01
316.8000    2.3029570E-01-2.3029570E-01
317.6000    2.2840468E-01-2.2840468E-01
318.4000    2.2691239E-01-2.2691239E-01
319.2000    2.2589412E-01-2.2589412E-01
320.0000    2.2534273E-01-2.2534273E-01
320.0000    2.2534277E-01-2.2534277E-01
320.8000    2.2540500E-01-2.2540500E-01
321.6000    2.2611338E-01-2.2611338E-01
322.4000    2.2726514E-01-2.2726514E-01
323.2000    2.2842606E-01-2.2842606E-01
324.0000    2.2964194E-01-2.2964194E-01
324.8000    2.3112324E-01-2.3112324E-01
325.6000    2.3271591E-01-2.3271591E-01
326.4000    2.3404139E-01-2.3404139E-01
327.2000    2.3466050E-01-2.3466050E-01
328.0000    2.3429333E-01-2.3429333E-01
328.8000    2.3293892E-01-2.3293892E-01
329.6000    2.3098011E-01-2.3098011E-01
330.4000    2.2869561E-01-2.2869561E-01
331.2000    2.2628427E-01-2.2628427E-01
332.0000    2.2399722E-01-2.2399722E-01
332.8000    2.2158708E-01-2.2158708E-01
333.6000    2.1883585E-01-2.1883585E-01
334.4000    2.1567674E-01-2.1567674E-01
335.2000    2.1176703E-01-2.1176703E-01
336.0000    2.0712800E-01-2.0712800E-01
336.8000    2.0212917E-01-2.0212917E-01
337.6000    1.9687978E-01-1.9687978E-01
338.4000    1.9147570E-01-1.9147570E-01
339.2000    1.8599088E-01-1.8599088E-01
340.0000    1.8058963E-01-1.8058963E-01
340.8000    1.7538298E-01-1.7538298E-01
341.6000    1.7037513E-01-1.7037513E-01
342.4000    1.6577726E-01-1.6577726E-01
343.2000    1.6159861E-01-1.6159861E-01
344.0000    1.5803811E-01-1.5803811E-01
344.8000    1.5503896E-01-1.5503896E-01
345.6000    1.5211469E-01-1.5211469E-01
346.4000    1.4902166E-01-1.4902166E-01
347.2000    1.4580582E-01-1.4580582E-01
348.0000    1.4246021E-01-1.4246021E-01
348.8000    1.3880158E-01-1.3880158E-01
349.6000    1.3536660E-01-1.3536660E-01
350.4000    1.3272183E-01-1.3272183E-01
351.2000    1.3132548E-01-1.3132548E-01
352.0000    1.3056999E-01-1.3056999E-01
352.8000    1.2964328E-01-1.2964328E-01
353.6000    1.2835765E-01-1.2835765E-01
354.4000    1.2667437E-01-1.2667437E-01
355.2000    1.2455593E-01-1.2455593E-01
356.0000    1.2236477E-01-1.2236477E-01
356.8000    1.2020238E-01-1.2020238E-01
357.6000    1.1814442E-01-1.1814442E-01
358.4000    1.1647842E-01-1.1647842E-01
359.2000    1.1503761E-01-1.1503761E-01
360.0000    1.1347396E-01-1.1347396E-01
360.8000    1.1194702E-01-1.1194702E-01
361.6000    1.0958784E-01-1.0958784E-01
362.4000    1.0653486E-01-1.0653486E-01
363.2000    1.0310691E-01-1.0310691E-01
364.0000    9.9753330E-02-9.9753330E-02
364.8000    9.7219973E-02-9.7219973E-02
365.6000    9.5058247E-02-9.5058247E-02
366.4000    9.2701991E-02-9.2701991E-02
367.2000    9.0734971E-02-9.0734971E-02
368.0000    8.9328867E-02-8.9328867E-02
368.8000    8.8001102E-02-8.8001102E-02
369.6000    8.6855490E-02-8.6855490E-02
370.4000    8.5793443E-02-8.5793443E-02
371.2000    8.3108143E-02-8.3108143E-02
372.0000    7.8810538E-02-7.8810538E-02
372.8000    7.6419704E-02-7.6419704E-02
373.6000    7.4386641E-02-7.4386641E-02
374.4000    7.2634401E-02-7.2634401E-02
375.2000    7.0962443E-02-7.0962443E-02
376.0000    6.9798824E-02-6.9798824E-02
376.8000    6.9364010E-02-6.9364010E-02
377.6000    6.9223467E-02-6.9223467E-02
378.4000    6.9245292E-02-6.9245292E-02
379.2000    6.9394634E-02-6.9394634E-02
380.0000    6.9276217E-02-6.9276217E-02
380.8000    6.7223763E-02-6.7223763E-02
381.6000    6.4714998E-02-6.4714998E-02
382.4000    6.3283598E-02-6.3283598E-02
383.2000    6.1969221E-02-6.1969221E-02
384.0000    6.0812987E-02-6.0812987E-02
384.8000    5.9660995E-02-5.9660995E-02
385.6000    5.8411402E-02-5.8411402E-02
386.4000    5.7309598E-02-5.7309598E-02
387.2000    5.6161959E-02-5.6161959E-02
388.0000    5.4828624E-02-5.4828624E-02
388.8000    5.3693459E-02-5.3693459E-02
389.6000    5.2599159E-02-5.2599159E-02
390.4000    5.1070681E-02-5.1070681E-02
391.2000    4.9174010E-02-4.9174010E-02
392.0000    4.7218809E-02-4.7218809E-02
392.8000    4.5239056E-02-4.5239056E-02
393.6000    4.3460756E-02-4.3460756E-02
394.4000    4.1884435E-02-4.1884435E-02
395.2000    4.0854043E-02-4.0854043E-02
396.0000    4.0554333E-02-4.0554333E-02
396.8000    4.0859855E-02-4.0859855E-02
397.6000    4.1829779E-02-4.1829779E-02
398.4000    4.3271179E-02-4.3271179E-02
399.2000    4.4940922E-02-4.4940922E-02
400.0000    4.6414043E-02-4.6414043E-02
400.0000    4.6414064E-02-4.6414064E-02
400.8000    4.7472233E-02-4.7472233E-02
401.6000    4.8107581E-02-4.8107581E-02
402.4000    4.8559555E-02-4.8559555E-02
403.2000    4.8935045E-02-4.8935045E-02
404.0000    4.9069952E-02-4.9069952E-02
404.8000    4.8940775E-02-4.8940775E-02
405.6000    4.8751360E-02-4.8751360E-02
406.4000    4.8739220E-02-4.8739220E-02
407.2000    4.8950648E-02-4.8950648E-02
408.0000    4.9439788E-02-4.9439788E-02
408.8000    5.0026873E-02-5.0026873E-02
409.6000    5.0542617E-02-5.0542617E-02
410.4000    5.0966389E-02-5.0966389E-02
411.2000    5.0991290E-02-5.0991290E-02
412.0000    5.0505929E-02-5.0505929E-02
412.8000    4.9339938E-02-4.9339938E-02
413.6000    4.7843852E-02-4.7843852E-02
414.4000    4.6461646E-02-4.6461646E-02
415.2000    4.5061158E-02-4.5061158E-02
416.0000    4.3522822E-02-4.3522822E-02
416.8000    4.2108396E-02-4.2108396E-02
417.6000    4.1147088E-02-4.1147088E-02
418.4000    4.0609379E-02-4.0609379E-02
419.2000    4.0433855E-02-4.0433855E-02
420.0000    4.0275584E-02-4.0275584E-02
420.8000    3.9934942E-02-3.9934942E-02
421.6000    3.9248740E-02-3.9248740E-02
422.4000    3.8093612E-02-3.8093612E-02
423.2000    3.6473802E-02-3.6473802E-02
424.0000    3.4704323E-02-3.4704323E-02
424.8000    3.3072892E-02-3.3072892E-02
425.6000    3.1799387E-02-3.1799387E-02
426.4000    3.1150799E-02-3.1150799E-02
427.2000    3.1378181E-02-3.1378181E-02
428.0000    3.2420505E-02-3.2420505E-02
428.8000    3.3930016E-02-3.3930016E-02
429.6000    3.5516676E-02-3.5516676E-02
430.4000    3.6581068E-02-3.6581068E-02
431.2000    3.7077448E-02-3.7077448E-02
432.0000    3.7086111E-02-3.7086111E-02
432.8000    3.6697225E-02-3.6697225E-02
433.6000    3.6357174E-02-3.6357174E-02
434.4000    3.6215457E-02-3.6215457E-02
435.2000    3.6006572E-02-3.6006572E-02
436.0000    3.5669363E-02-3.5669363E-02
436.8000    3.5402346E-02-3.5402346E-02
437.6000    3.5208557E-02-3.5208557E-02
438.4000    3.5127095E-02-3.5127095E-02
439.2000    3.5202404E-02-3.5202404E-02
440.0000    3.5595976E-02-3.5595976E-02
440.8000    3.6414799E-02-3.6414799E-02
441.6000    3.7224187E-02-3.7224187E-02
442.4000    3.7651248E-02-3.7651248E-02
443.2000    3.7747553E-02-3.7747553E-02
444.0000    3.7709344E-02-3.7709344E-02
444.8000    3.7514663E-02-3.7514663E-02
445.6000    3.6969191E-02-3.6969191E-02
446.4000    3.6054864E-02-3.6054864E-02
447.2000    3.5178981E-02-3.5178981E-02
448.0000    3.4661065E-02-3.4661065E-02
448.8000    3.4455940E-02-3.4455940E-02
449.6000    3.4612854E-02-3.4612854E-02
450.4000    3.5034695E-02-3.5034695E-02
451.2000    3.5224293E-02-3.5224293E-02
452.0000    3.5207098E-02-3.5207098E-02
452.8000    3.4987078E-02-3.4987078E-02
453.6000    3.4294730E-02-3.4294730E-02
454.4000    3.2695872E-02-3.2695872E-02
455.2000    3.0480275E-02-3.0480275E-02
456.0000    2.8647142E-02-2.8647142E-02
456.8000    2.7741327E-02-2.7741327E-02
457.6000    2.7556506E-02-2.7556506E-02
458.4000    2.7759268E-02-2.7759268E-02
459.2000    2.8137391E-02-2.8137391E-02
460.0000    2.8771838E-02-2.8771838E-02
460.8000    2.9627142E-02-2.9627142E-02
461.6000    3.0206346E-02-3.0206346E-02
462.4000    3.0124410E-02-3.0124410E-02
463.2000    2.9486321E-02-2.9486321E-02
464.0000    2.8682012E-02-2.8682012E-02
464.8000    2.8049997E-02-2.8049997E-02
465.6000    2.7610911E-02-2.7610911E-02
466.4000    2.7447672E-02-2.7447672E-02
467.2000    2.7623317E-02-2.7623317E-02
468.0000    2.8147015E-02-2.8147015E-02
468.8000    2.8974264E-02-2.8974264E-02
469.6000    3.0034717E-02-3.0034717E-02
470.4000    3.1121101E-02-3.1121101E-02
471.2000    3.2159596E-02-3.2159596E-02
472.0000    3.3257022E-02-3.3257022E-02
472.8000    3.4430087E-02-3.4430087E-02
473.6000    3.5360440E-02-3.5360440E-02
474.4000    3.5919643E-02-3.5919643E-02
475.2000    3.6111302E-02-3.6111302E-02
476.0000    3.6039500E-02-3.6039500E-02
476.8000    3.5775843E-02-3.5775843E-02
477.6000    3.5328822E-02-3.5328822E-02
478.4000    3.4634655E-02-3.4634655E-02
479.2000    3.4066587E-02-3.4066587E-02
480.0000    3.3791062E-02-3.3791062E-02
480.0000    3.3791063E-02-3.3791063E-02
480.8000    3.3635375E-02-3.3635375E-02
481.6000    3.3435393E-02-3.3435393E-02
482.4000    3.3229525E-02-3.3229525E-02
483.2000    3.2984281E-02-3.2984281E-02
484.0000    3.2315918E-02-3.2315918E-02
484.8000    3.1047598E-02-3.1047598E-02
485.6000    2.9258186E-02-2.9258186E-02
486.4000    2.7415429E-02-2.7415429E-02
487.2000    2.5818784E-02-2.5818784E-02
488.0000    2.4846938E-02-2.4846938E-02
488.8000    2.4790688E-02-2.4790688E-02
489.6000    2.5339618E-02-2.5339618E-02
490.4000    2.6060649E-02-2.6060649E-02
491.2000    2.6603475E-02-2.6603475E-02
492.0000    2.6950489E-02-2.6950489E-02
492.8000    2.6938907E-02-2.6938907E-02
493.6000    2.6545523E-02-2.6545523E-02
494.4000    2.6044178E-02-2.6044178E-02
495.2000    2.5722073E-02-2.5722073E-02
496.0000    2.5451468E-02-2.5451468E-02
496.8000    2.5327723E-02-2.5327723E-02
497.6000    2.5560385E-02-2.5560385E-02
498.4000    2.6320042E-02-2.6320042E-02
499.2000    2.7475514E-02-2.7475514E-02
500.0000    2.8623933E-02-2.8623933E-02
500.8000    2.9743964E-02-2.9743964E-02
501.6000    3.0780472E-02-3.0780472E-02
502.4000    3.1717640E-02-3.1717640E-02
503.2000    3.2500177E-02-3.2500177E-02
504.0000    3.3024968E-02-3.3024968E-02
504.8000    3.3252936E-02-3.3252936E-02
505.6000    3.3203790E-02-3.3203790E-02
506.4000    3.2982400E-02-3.2982400E-02
507.2000    3.2611777E-02-3.2611777E-02
508.0000    3.2099974E-02-3.2099974E-02
508.8000    3.1421099E-02-3.1421099E-02
509.6000    3.0643348E-02-3.0643348E-02
510.4000    2.9904421E-02-2.9904421E-02
511.2000    2.9165153E-02-2.9165153E-02
512.0000    2.8558380E-02-2.8558380E-02
512.8000    2.8067153E-02-2.8067153E-02
513.6000    2.7565469E-02-2.7565469E-02
514.4000    2.6816928E-02-2.6816928E-02
515.2000    2.5912377E-02-2.5912377E-02
516.0000    2.4918430E-02-2.4918430E-02
516.8000    2.4053566E-02-2.4053566E-02
517.6000    2.3287380E-02-2.3287380E-02
518.4000    2.2596705E-02-2.2596705E-02
519.2000    2.2228139E-02-2.2228139E-02
520.0000    2.2112950E-02-2.2112950E-02
520.8000    2.2181267E-02-2.2181267E-02
521.6000    2.2189807E-02-2.2189807E-02
522.4000    2.1968370E-02-2.1968370E-02
523.2000    2.1669805E-02-2.1669805E-02
524.0000    2.1438596E-02-2.1438596E-02
524.8000    2.1255120E-02-2.1255120E-02
525.6000    2.0934895E-02-2.0934895E-02
526.4000    2.0623143E-02-2.0623143E-02
527.2000    2.0696339E-02-2.0696339E-02
528.0000    2.1198508E-02-2.1198508E-02
528.8000    2.1991863E-02-2.1991863E-02
529.6000    2.2972582E-02-2.2972582E-02
530.4000    2.4141281E-02-2.4141281E-02
531.2000    2.5086527E-02-2.5086527E-02
532.0000    2.5709697E-02-2.5709697E-02
532.8000    2.6171076E-02-2.6171076E-02
533.6000    2.6408316E-02-2.6408316E-02
534.4000    2.6492321E-02-2.6492321E-02
535.2000    2.6524051E-02-2.6524051E-02
536.0000    2.6599101E-02-2.6599101E-02
536.8000    2.6650772E-02-2.6650772E-02
537.6000    2.6641457E-02-2.6641457E-02
538.4000    2.6664461E-02-2.6664461E-02
539.2000    2.6739677E-02-2.6739677E-02
540.0000    2.6726908E-02-2.6726908E-02
540.8000    2.6552883E-02-2.6552883E-02
541.6000    2.6200947E-02-2.6200947E-02
542.4000    2.5650669E-02-2.5650669E-02
543.2000    2.5091832E-02-2.5091832E-02
544.0000    2.4702245E-02-2.4702245E-02
544.8000    2.4377750E-02-2.4377750E-02
545.6000    2.4043072E-02-2.4043072E-02
546.4000    2.3685274E-02-2.3685274E-02
547.2000    2.3178010E-02-2.3178010E-02
548.0000    2.2513701E-02-2.2513701E-02
548.8000    2.1850023E-02-2.1850023E-02
549.6000    2.1245459E-02-2.1245459E-02
550.4000    2.0675749E-02-2.0675749E-02
551.2000    2.0223103E-02-2.0223103E-02
552.0000    1.9921648E-02-1.9921648E-02
552.8000    1.9604581E-02-1.9604581E-02
553.6000    1.9107050E-02-1.9107050E-02
554.4000    1.8455872E-02-1.8455872E-02
555.2000    1.7716336E-02-1.7716336E-02
556.0000    1.7230465E-02-1.7230465E-02
556.8000    1.7179987E-02-1.7179987E-02
557.6000    1.7410516E-02-1.7410516E-02
558.4000    1.7788279E-02-1.7788279E-02
559.2000    1.8428098E-02-1.8428098E-02
560.0000    1.9222623E-02-1.9222623E-02
560.8000    1.9953230E-02-1.9953230E-02
561.6000    2.0575029E-02-2.0575029E-02
562.4000    2.1204771E-02-2.1204771E-02
563.2000    2.1798819E-02-2.1798819E-02
564.0000    2.2210631E-02-2.2210631E-02
564.8000    2.2619935E-02-2.2619935E-02
565.6000    2.3114291E-02-2.3114291E-02
566.4000    2.3541240E-02-2.3541240E-02
567.2000    2.3833270E-02-2.3833270E-02
568.0000    2.4158108E-02-2.4158108E-02
568.8000    2.4664061E-02-2.4664061E-02
569.6000    2.5367892E-02-2.5367892E-02
570.4000    2.6145493E-02-2.6145493E-02
571.2000    2.6672603E-02-2.6672603E-02
572.0000    2.6769360E-02-2.6769360E-02
572.8000    2.6523543E-02-2.6523543E-02
573.6000    2.6124730E-02-2.6124730E-02
574.4000    2.5709443E-02-2.5709443E-02
575.2000    2.5353882E-02-2.5353882E-02
576.0000    2.5051050E-02-2.5051050E-02
576.8000    2.4674714E-02-2.4674714E-02
577.6000    2.4143423E-02-2.4143423E-02
578.4000    2.3491893E-02-2.3491893E-02
579.2000    2.2687024E-02-2.2687024E-02
580.0000    2.1754223E-02-2.1754223E-02
580.8000    2.0838481E-02-2.0838481E-02
581.6000    2.0139925E-02-2.0139925E-02
582.4000    1.9523002E-02-1.9523002E-02
583.2000    1.8676866E-02-1.8676866E-02
584.0000    1.7527884E-02-1.7527884E-02
584.8000    1.6471384E-02-1.6471384E-02
585.6000    1.5852952E-02-1.5852952E-02
586.4000    1.5417904E-02-1.5417904E-02
587.2000    1.5031706E-02-1.5031706E-02
588.0000    1.4971062E-02-1.4971062E-02
588.8000    1.5199061E-02-1.5199061E-02
589.6000    1.5500438E-02-1.5500438E-02
590.4000    1.5916046E-02-1.5916046E-02
591.2000    1.6459886E-02-1.6459886E-02
592.0000    1.7040462E-02-1.7040462E-02
592.8000    1.7564174E-02-1.7564174E-02
593.6000    1.8086040E-02-1.8086040E-02
594.4000    1.8718244E-02-1.8718244E-02
595.2000    1.9268095E-02-1.9268095E-02
596.0000    1.9707381E-02-1.9707381E-02
596.8000    2.0152323E-02-2.0152323E-02
597.6000    2.0721297E-02-2.0721297E-02
598.4000    2.1282625E-02-2.1282625E-02
599.2000    2.1868247E-02-2.1868247E-02
600.0000    2.2622231E-02-2.2622231E-02
