\relax 
\providecommand\hyper@newdestlabel[2]{}
\providecommand\HyperFirstAtBeginDocument{\AtBeginDocument}
\HyperFirstAtBeginDocument{\ifx\hyper@anchor\@undefined
\global\let\oldcontentsline\contentsline
\gdef\contentsline#1#2#3#4{\oldcontentsline{#1}{#2}{#3}}
\global\let\oldnewlabel\newlabel
\gdef\newlabel#1#2{\newlabelxx{#1}#2}
\gdef\newlabelxx#1#2#3#4#5#6{\oldnewlabel{#1}{{#2}{#3}}}
\AtEndDocument{\ifx\hyper@anchor\@undefined
\let\contentsline\oldcontentsline
\let\newlabel\oldnewlabel
\fi}
\fi}
\global\let\hyper@last\relax 
\gdef\HyperFirstAtBeginDocument#1{#1}
\providecommand\HyField@AuxAddToFields[1]{}
\providecommand\HyField@AuxAddToCoFields[2]{}
\citation{GW150914,GW151226,GW170104,GW170608,GW170814}
\citation{PhysRevLett.119.161101,2017ApJ...848L..12A}
\citation{GWGR}
\citation{Kila}
\citation{Yunes:2016jcc,2016ApJ...818L..22A}
\citation{roadmap}
\citation{Cardoso:2017cqb}
\citation{schumie,liebpa}
\citation{Chatrchyan:2012xdj,Aad:2012tfa}
\citation{seidel}
\citation{guzman}
\citation{giov}
\citation{pale1,pale2}
\citation{brito,helfer}
\citation{sanchis}
\citation{bezpalen,palenpani}
\citation{Cardoso:2017njb}
\citation{Maselli2017}
\citation{2018arXiv180804668C}
\citation{bernal}
\citation{bezpalen,palenpani}
\citation{bezpalen,palenpani}
\citation{frie,1992PhR...221..251L}
\newlabel{FirstPage}{{}{1}{}{section*.1}{}}
\@writefile{toc}{\contentsline {title}{Gravitational Waves from Dark Boson Star binary mergers}{1}{section*.2}}
\@writefile{toc}{\contentsline {abstract}{Abstract}{1}{section*.1}}
\@writefile{toc}{\contentsline {section}{\numberline {I}Introduction}{1}{section*.3}}
\newlabel{intro}{{I}{1}{}{section*.3}{}}
\citation{bernal}
\citation{frie,1992PhR...221..251L}
\citation{palenpani}
\citation{Maselli2017}
\citation{alic,bezpalen}
\citation{bezpalen,palenpani}
\@writefile{toc}{\contentsline {section}{\numberline {II}Model for Dark Boson Stars binaries }{2}{section*.4}}
\newlabel{model}{{II}{2}{}{section*.4}{}}
\@writefile{toc}{\contentsline {subsection}{\numberline {A}Equations of Motion}{2}{section*.5}}
\newlabel{actionMSBS}{{1}{2}{}{equation.2.1}{}}
\newlabel{EKG1}{{2}{2}{}{equation.2.2}{}}
\newlabel{EKG2}{{3}{2}{}{equation.2.2}{}}
\newlabel{EKG3}{{3}{2}{}{equation.2.2}{}}
\citation{simflowny_webpage,Arbona:2013,simf2,simf3}
\citation{Hornung:2002,Gunney:2016,samrai_webpage}
\citation{McCorquodale:2011,Mongwane:2015}
\citation{simf3}
\citation{liebpa}
\citation{rezbish,brugman}
\citation{2011CQGra..28s5015R}
\@writefile{toc}{\contentsline {subsection}{\numberline {B}Numerical implementation}{3}{section*.6}}
\@writefile{toc}{\contentsline {subsection}{\numberline {C}Analysis quantities}{3}{section*.7}}
\newlabel{noech}{{8}{3}{}{equation.2.8}{}}
\newlabel{eq:psi4}{{9}{3}{}{equation.2.9}{}}
\@writefile{toc}{\contentsline {subsection}{\numberline {D}Initial data}{3}{section*.8}}
\newlabel{idbs_metric}{{13}{3}{}{equation.2.13}{}}
\newlabel{idbs_sf}{{14}{3}{}{equation.2.13}{}}
\citation{2004PhDT.......230L}
\citation{palenpani}
\citation{2017arXiv170101116C,Sennett:2017etc}
\citation{palenpani}
\citation{palenpani}
\@writefile{lot}{\contentsline {table}{\numberline {I}{\ignorespaces {\em  Characteristics of isolated BSs models with $\sigma _0=0.05$.} The table shows, in units such that $M_{ADM}=0.5$, the following quantities: compactness, central value of the scalar field, bare mass, Noether charge, radius of the star (i.e, containing $99\%$ of either the mass, $R_M$, or the Noether charge, $R_N$), angular frequency of the phase of $\phi $ in the complex plane and dimensionless tidal Love number ($k_{\rm  tidal}$). }}{4}{table.1}}
\newlabel{isolateddbs}{{I}{4}{{\em Characteristics of isolated BSs models with $\sigma _0=0.05$.} The table shows, in units such that $M_{ADM}=0.5$, the following quantities: compactness, central value of the scalar field, bare mass, Noether charge, radius of the star (i.e, containing $99\%$ of either the mass, $R_M$, or the Noether charge, $R_N$), angular frequency of the phase of $\phi $ in the complex plane and dimensionless tidal Love number ($k_{\rm tidal}$)}{table.1}{}}
\@writefile{lof}{\contentsline {figure}{\numberline {1}{\ignorespaces {\em  Initial data of DBS}. Radial profile of the scalar field $\phi (r)$ for each compactness. Notice that it is nearly constant in the interior and then falls off exponentially at the surface of the star. This fall off is steeper as the compactness increases.}}{4}{figure.1}}
\newlabel{profiles}{{1}{4}{{\em Initial data of DBS}. Radial profile of the scalar field $\phi (r)$ for each compactness. Notice that it is nearly constant in the interior and then falls off exponentially at the surface of the star. This fall off is steeper as the compactness increases}{figure.1}{}}
\@writefile{lof}{\contentsline {figure}{\numberline {2}{\ignorespaces  {\em  Initial data of DBS}. Compactness as a function of the central value of the scalar field $\phi _{c}$ with $\sigma _0=0.05$. Circular markers refer to the \emph  {initial} equilibrium configurations considered both here and in previous work\nobreakspace  {}\cite  {palenpani} to construct initial data for binaries.}}{4}{figure.2}}
\newlabel{compvsphi}{{2}{4}{{\em Initial data of DBS}. Compactness as a function of the central value of the scalar field $\phi _{c}$ with $\sigma _0=0.05$. Circular markers refer to the \emph {initial} equilibrium configurations considered both here and in previous work~\cite {palenpani} to construct initial data for binaries}{figure.2}{}}
\citation{bezpalen}
\citation{bernal}
\citation{palenpani}
\citation{palenpani}
\@writefile{toc}{\contentsline {section}{\numberline {III}Coalescence of Dark Boson Stars }{5}{section*.9}}
\newlabel{coales}{{III}{5}{}{section*.9}{}}
\@writefile{toc}{\contentsline {subsection}{\numberline {A}Dynamics}{5}{section*.10}}
\@writefile{lof}{\contentsline {figure}{\numberline {3}{\ignorespaces {\em  Dynamics of DBS coalescence}. Noether charge densities, corresponding to the individual stars, in the equatorial plane at several illustrative times. Each row corresponds to a different star's compactness (from top to bottom, $0.06$, $0.12$, $0.18$, and $0.22$). First column illustrates a time in the early inspiral, the second one is roughly at contact time, the third one is during the merger stage and the fourth one at the end of our simulation. Notice that the final remnant for $C \lesssim 0.12$ is composed by two rotating co-existing DBS, while that for $C \gtrsim 0.18$ is a rotating BH (i.e., the black sphere at late times represents the apparent horizon).}}{6}{figure.3}}
\newlabel{noethers}{{3}{6}{{\em Dynamics of DBS coalescence}. Noether charge densities, corresponding to the individual stars, in the equatorial plane at several illustrative times. Each row corresponds to a different star's compactness (from top to bottom, $0.06$, $0.12$, $0.18$, and $0.22$). First column illustrates a time in the early inspiral, the second one is roughly at contact time, the third one is during the merger stage and the fourth one at the end of our simulation. Notice that the final remnant for $C \lesssim 0.12$ is composed by two rotating co-existing DBS, while that for $C \gtrsim 0.18$ is a rotating BH (i.e., the black sphere at late times represents the apparent horizon)}{figure.3}{}}
\@writefile{lot}{\contentsline {table}{\numberline {II}{\ignorespaces  {\em  Characteristics of binary of DBS models.} The entries of the table are, respectively: the compactness $C$ of the individual DBSs in the binary, the initial positions $y_c^{(i)}$, the initial velocities of the boost $v_x^{(i)}$, the initial total ADM mass $M_0$, the initial total orbital angular momentum $J_0$ of the system, the time of contact of the two stars $t_c$, the final remnant, the total radiated energy in gravitational waves for each simulation $E_\mathrm  {rad}$ (i.e., integrated from the beginning and extrapolated to large times after the contact time) and the one estimated analytically ${\cal  E}_\mathrm  {rad}$ as described in Appendix\nobreakspace  {}\ref  {appA}. We also included previous results corresponding to binary BSs for comparison purposes. }}{6}{table.2}}
\newlabel{table2}{{II}{6}{{\em Characteristics of binary of DBS models.} The entries of the table are, respectively: the compactness $C$ of the individual DBSs in the binary, the initial positions $y_c^{(i)}$, the initial velocities of the boost $v_x^{(i)}$, the initial total ADM mass $M_0$, the initial total orbital angular momentum $J_0$ of the system, the time of contact of the two stars $t_c$, the final remnant, the total radiated energy in gravitational waves for each simulation $E_\mathrm {rad}$ (i.e., integrated from the beginning and extrapolated to large times after the contact time) and the one estimated analytically ${\cal E}_\mathrm {rad}$ as described in Appendix~\ref {appA}. We also included previous results corresponding to binary BSs for comparison purposes}{table.2}{}}
\@writefile{lof}{\contentsline {figure}{\numberline {4}{\ignorespaces {\em  Dynamics of DBS coalescence}. Conformal factor, which gives a rough description of the gravitational potential, in the equatorial plane at the same time snapshots as in Fig.\nobreakspace  {}\ref  {noethers}. Each row corresponds to a different compactness (from top to bottom, $0.06$, $0.12$, $0.18$, and $0.22$). }}{7}{figure.4}}
\newlabel{chi}{{4}{7}{{\em Dynamics of DBS coalescence}. Conformal factor, which gives a rough description of the gravitational potential, in the equatorial plane at the same time snapshots as in Fig.~\ref {noethers}. Each row corresponds to a different compactness (from top to bottom, $0.06$, $0.12$, $0.18$, and $0.22$)}{figure.4}{}}
\citation{2017PhRvD..95d4028B}
\citation{2017PhRvD..95d4028B}
\citation{2017PhRvD..95d4028B}
\citation{T4}
\citation{T4tidal1,T4tidal2}
\citation{2017arXiv170101116C,Sennett:2017etc}
\@writefile{lof}{\contentsline {figure}{\numberline {5}{\ignorespaces  {\em  Dynamics of DBS coalescence}. Angular momentum $J_{z}$ as a function of time for DBS with initial compactness $C=0.06$ and $C=0.12$. This quantity, for the remnants of DBS mergers, decays to zero in a much longer timescale than those of BS mergers, especially for the lowest compactness $C=0.06$. Notice that the sudden decay of the binary BS case with $C=012$ was enhanced by the ejection of two blobs of scalar field during the merger\nobreakspace  {}\cite  {palenpani}.}}{8}{figure.5}}
\newlabel{analysis}{{5}{8}{{\em Dynamics of DBS coalescence}. Angular momentum $J_{z}$ as a function of time for DBS with initial compactness $C=0.06$ and $C=0.12$. This quantity, for the remnants of DBS mergers, decays to zero in a much longer timescale than those of BS mergers, especially for the lowest compactness $C=0.06$. Notice that the sudden decay of the binary BS case with $C=012$ was enhanced by the ejection of two blobs of scalar field during the merger~\cite {palenpani}}{figure.5}{}}
\@writefile{toc}{\contentsline {subsection}{\numberline {B}Gravitational Radiation}{8}{section*.11}}
\@writefile{lof}{\contentsline {figure}{\numberline {6}{\ignorespaces  {\em  Gravitational waves}. The real part of the main $l=m=2$ mode of $\Psi _4$ describing the gravitational emission produced by DBS and BSs binaries as a function of time.}}{8}{figure.6}}
\newlabel{psi4}{{6}{8}{{\em Gravitational waves}. The real part of the main $l=m=2$ mode of $\Psi _4$ describing the gravitational emission produced by DBS and BSs binaries as a function of time}{figure.6}{}}
\citation{Hanna:2016uhs}
\citation{palenpani,Hanna:2016uhs}
\citation{palenpani}
\@writefile{lof}{\contentsline {figure}{\numberline {7}{\ignorespaces  {\em  Gravitational waves}. Main mode of the strain for DBS binaries with different compactness near the contact time. All cases are compared to the EOB approximation of a quasi-circular binary BH coalescence\nobreakspace  {}\cite  {2017PhRvD..95d4028B} by matching the waveforms at early inspiral.}}{9}{figure.7}}
\newlabel{gwstrain}{{7}{9}{{\em Gravitational waves}. Main mode of the strain for DBS binaries with different compactness near the contact time. All cases are compared to the EOB approximation of a quasi-circular binary BH coalescence~\cite {2017PhRvD..95d4028B} by matching the waveforms at early inspiral}{figure.7}{}}
\@writefile{toc}{\contentsline {subsection}{\numberline {C}DBS versus BSs}{9}{section*.12}}
\newlabel{comp}{{III\tmspace  +\thinmuskip {.1667em}C}{9}{}{section*.12}{}}
\@writefile{lof}{\contentsline {figure}{\numberline {8}{\ignorespaces  {\em  Gravitational waves}. GW wave frequency $f_{GW}=\omega _{GW}/2\pi $ as a function of time, where $\omega _{GW}$ is the instantaneous GW angular frequency from the main $l=m=2$ mode. The frequencies calculated numerically for DBS and BS are displayed in thick solid and dashed lines, respectively, while that frequencies calculated by Taylor T4 approximation with and without tidal effects are plotted in thin solid lines. Notice that significant differences arise just after contact time.}}{10}{figure.8}}
\newlabel{PPcomp}{{8}{10}{{\em Gravitational waves}. GW wave frequency $f_{GW}=\omega _{GW}/2\pi $ as a function of time, where $\omega _{GW}$ is the instantaneous GW angular frequency from the main $l=m=2$ mode. The frequencies calculated numerically for DBS and BS are displayed in thick solid and dashed lines, respectively, while that frequencies calculated by Taylor T4 approximation with and without tidal effects are plotted in thin solid lines. Notice that significant differences arise just after contact time}{figure.8}{}}
\@writefile{toc}{\contentsline {section}{\numberline {IV}Conclusions}{10}{section*.13}}
\newlabel{conclu}{{IV}{10}{}{section*.13}{}}
\citation{palenpani}
\@writefile{lof}{\contentsline {figure}{\numberline {9}{\ignorespaces  {\em  Gravitational waves}. Luminosity of gravitational waves radiated during the coalescence of DBS and BS binaries.}}{11}{figure.9}}
\newlabel{lum2}{{9}{11}{{\em Gravitational waves}. Luminosity of gravitational waves radiated during the coalescence of DBS and BS binaries}{figure.9}{}}
\@writefile{lof}{\contentsline {figure}{\numberline {10}{\ignorespaces  {\em  Gravitational waves}. Total GW energy radiated during the coalescence, calculated by integrating in time the quantities displayed in Fig.\nobreakspace  {}\ref  {lum2}}}{11}{figure.10}}
\newlabel{lum5}{{10}{11}{{\em Gravitational waves}. Total GW energy radiated during the coalescence, calculated by integrating in time the quantities displayed in Fig.~\ref {lum2}}{figure.10}{}}
\@writefile{lof}{\contentsline {figure}{\numberline {11}{\ignorespaces  {\em  Comparison of DBS vs BSs}. Noether charge densities of DBS and BS binaries, roughly at time $t=t_c + 60$, for the stars with compactness $C=0.12$. Notice that there are two scalar blobs in the BS merger which do not form in DBS collisions.}}{11}{figure.11}}
\newlabel{comp_blobs}{{11}{11}{{\em Comparison of DBS vs BSs}. Noether charge densities of DBS and BS binaries, roughly at time $t=t_c + 60$, for the stars with compactness $C=0.12$. Notice that there are two scalar blobs in the BS merger which do not form in DBS collisions}{figure.11}{}}
\citation{palenpani,Hanna:2016uhs}
\citation{palenpani}
\citation{palenpani}
\bibdata{darkstarNotes,biblio}
\bibcite{GW150914}{{1}{}{{}}{{}}}
\bibcite{GW151226}{{2}{}{{}}{{}}}
\bibcite{GW170104}{{3}{}{{}}{{}}}
\bibcite{GW170608}{{4}{}{{}}{{}}}
\bibcite{GW170814}{{5}{}{{}}{{}}}
\bibcite{PhysRevLett.119.161101}{{6}{}{{}}{{}}}
\bibcite{2017ApJ...848L..12A}{{7}{}{{}}{{}}}
\bibcite{GWGR}{{8}{}{{}}{{}}}
\bibcite{Kila}{{9}{}{{}}{{}}}
\@writefile{toc}{\contentsline {subsection}{\numberline {}Acknowledgments}{12}{section*.14}}
\@writefile{toc}{\appendix }
\@writefile{toc}{\contentsline {section}{\numberline {A}ESTIMATE OF THE TOTAL GRAVITATIONAL RADIATION IN THE POST-MERGER STAGE }{12}{section*.15}}
\newlabel{appA}{{A}{12}{}{section*.15}{}}
\@writefile{toc}{\contentsline {section}{\numberline {}References}{12}{section*.16}}
\bibcite{Yunes:2016jcc}{{10}{}{{}}{{}}}
\bibcite{2016ApJ...818L..22A}{{11}{}{{}}{{}}}
\bibcite{roadmap}{{12}{}{{}}{{}}}
\bibcite{Cardoso:2017cqb}{{13}{}{{}}{{}}}
\bibcite{schumie}{{14}{}{{}}{{}}}
\bibcite{liebpa}{{15}{}{{}}{{}}}
\bibcite{Chatrchyan:2012xdj}{{16}{}{{}}{{}}}
\bibcite{Aad:2012tfa}{{17}{}{{}}{{}}}
\bibcite{seidel}{{18}{}{{}}{{}}}
\bibcite{guzman}{{19}{}{{}}{{}}}
\bibcite{giov}{{20}{}{{}}{{}}}
\bibcite{pale1}{{21}{}{{}}{{}}}
\bibcite{pale2}{{22}{}{{}}{{}}}
\bibcite{brito}{{23}{}{{}}{{}}}
\bibcite{helfer}{{24}{}{{}}{{}}}
\bibcite{sanchis}{{25}{}{{}}{{}}}
\bibcite{bezpalen}{{26}{}{{}}{{}}}
\bibcite{palenpani}{{27}{}{{}}{{}}}
\bibcite{Cardoso:2017njb}{{28}{}{{}}{{}}}
\bibcite{Maselli2017}{{29}{}{{}}{{}}}
\bibcite{2018arXiv180804668C}{{30}{}{{}}{{}}}
\bibcite{bernal}{{31}{}{{}}{{}}}
\bibcite{frie}{{32}{}{{}}{{}}}
\bibcite{1992PhR...221..251L}{{33}{}{{}}{{}}}
\bibcite{alic}{{34}{}{{}}{{}}}
\bibcite{simflowny_webpage}{{35}{}{{}}{{}}}
\bibcite{Arbona:2013}{{36}{}{{}}{{}}}
\bibcite{simf2}{{37}{}{{}}{{}}}
\bibcite{simf3}{{38}{}{{}}{{}}}
\bibcite{Hornung:2002}{{39}{}{{}}{{}}}
\bibcite{Gunney:2016}{{40}{}{{}}{{}}}
\bibcite{samrai_webpage}{{41}{}{{}}{{}}}
\bibcite{McCorquodale:2011}{{42}{}{{}}{{}}}
\bibcite{Mongwane:2015}{{43}{}{{}}{{}}}
\bibcite{rezbish}{{44}{}{{}}{{}}}
\bibcite{brugman}{{45}{}{{}}{{}}}
\bibcite{2011CQGra..28s5015R}{{46}{}{{}}{{}}}
\bibcite{2004PhDT.......230L}{{47}{}{{}}{{}}}
\bibcite{2017arXiv170101116C}{{48}{}{{}}{{}}}
\bibcite{Sennett:2017etc}{{49}{}{{}}{{}}}
\bibcite{2017PhRvD..95d4028B}{{50}{}{{}}{{}}}
\bibcite{T4}{{51}{}{{}}{{}}}
\bibcite{T4tidal1}{{52}{}{{}}{{}}}
\bibcite{T4tidal2}{{53}{}{{}}{{}}}
\bibcite{Hanna:2016uhs}{{54}{}{{}}{{}}}
\bibstyle{utphys}
\providecommand\NAT@force@numbers{}\NAT@force@numbers
\newlabel{LastBibItem}{{54}{14}{}{section*.16}{}}
\newlabel{LastPage}{{}{14}{}{}{}}
