0.00000    Infinity
0.800000    3.314443E-02
1.60000    3.696976E-02
2.40000    4.034328E-02
3.20000    4.411489E-02
4.00000    4.601015E-02
4.80000    4.866287E-02
5.60000    4.977043E-02
6.40000    5.055236E-02
7.20000    5.169878E-02
8.00000    5.298902E-02
8.80000    5.418470E-02
9.60000    5.542623E-02
10.4000    5.687603E-02
11.2000    5.785546E-02
12.0000    5.808852E-02
12.8000    5.765414E-02
13.6000    5.686404E-02
14.4000    5.568263E-02
15.2000    5.523773E-02
16.0000    5.609693E-02
16.8000    5.733280E-02
17.6000    5.846566E-02
18.4000    5.857600E-02
19.2000    5.884251E-02
20.0000    5.873805E-02
20.8000    5.836776E-02
21.6000    5.753380E-02
22.4000    5.665820E-02
23.2000    5.614185E-02
24.0000    5.662861E-02
24.8000    5.705011E-02
25.6000    5.792188E-02
26.4000    5.881491E-02
27.2000    5.938547E-02
28.0000    5.898873E-02
28.8000    5.802395E-02
29.6000    5.759431E-02
30.4000    5.707314E-02
31.2000    5.673485E-02
32.0000    5.665201E-02
32.8000    5.677496E-02
33.6000    5.745415E-02
34.4000    5.854314E-02
35.2000    5.907330E-02
36.0000    5.954922E-02
36.8000    5.870826E-02
37.6000    5.758352E-02
38.4000    5.653864E-02
39.2000    5.623430E-02
40.0000    5.676256E-02
40.8000    5.678564E-02
41.6000    5.717245E-02
42.4000    5.779642E-02
43.2000    5.848370E-02
44.0000    5.922814E-02
44.8000    5.942231E-02
45.6000    5.919178E-02
46.4000    5.781489E-02
47.2000    5.679347E-02
48.0000    5.555995E-02
48.8000    5.570354E-02
49.6000    5.651885E-02
50.4000    5.752148E-02
51.2000    5.818535E-02
52.0000    5.838729E-02
52.8000    5.897193E-02
53.6000    5.931564E-02
54.4000    5.929767E-02
55.2000    5.842548E-02
56.0000    5.701308E-02
56.0000    5.701300E-02
56.8000    5.597297E-02
57.6000    5.564073E-02
58.4000    5.633625E-02
59.2000    5.679041E-02
60.0000    5.767253E-02
60.8000    5.868697E-02
61.6000    5.924955E-02
62.4000    5.944473E-02
63.2000    5.897337E-02
64.0000    5.879964E-02
64.8000    5.796496E-02
65.6000    5.694992E-02
66.4000    5.626036E-02
67.2000    5.612539E-02
68.0000    5.666324E-02
68.8000    5.775757E-02
69.6000    5.897409E-02
70.4000    5.958660E-02
71.2000    6.001581E-02
72.0000    5.971016E-02
72.8000    5.896887E-02
73.6000    5.839014E-02
74.4000    5.754943E-02
75.2000    5.728076E-02
76.0000    5.685002E-02
76.8000    5.692502E-02
77.6000    5.758299E-02
78.4000    5.881153E-02
79.2000    5.986954E-02
80.0000    6.074887E-02
80.8000    6.090348E-02
81.6000    6.059802E-02
82.4000    5.974645E-02
83.2000    5.881325E-02
84.0000    5.772869E-02
84.8000    5.760260E-02
85.6000    5.793987E-02
86.4000    5.857693E-02
87.2000    5.951831E-02
88.0000    6.030033E-02
88.8000    6.126710E-02
89.6000    6.227777E-02
90.4000    6.255834E-02
91.2000    6.229476E-02
92.0000    6.153346E-02
92.8000    6.036653E-02
93.6000    5.970612E-02
94.4000    5.966060E-02
95.2000    6.011723E-02
96.0000    6.070213E-02
96.8000    6.202449E-02
97.6000    6.333333E-02
98.4000    6.446010E-02
99.2000    6.524031E-02
100.000    6.550696E-02
100.800    6.543461E-02
101.600    6.514656E-02
102.400    6.421879E-02
103.200    6.371463E-02
104.000    6.380146E-02
104.800    6.440297E-02
105.600    6.571364E-02
106.400    6.678576E-02
107.200    6.830250E-02
108.000    6.971002E-02
108.800    7.082857E-02
109.600    7.146793E-02
110.400    7.161216E-02
111.200    7.102846E-02
112.000    7.072134E-02
112.000    7.072137E-02
112.800    7.068894E-02
113.600    7.119478E-02
114.400    7.186561E-02
115.200    7.262717E-02
116.000    7.445710E-02
116.800    7.632563E-02
117.600    7.838926E-02
118.400    8.011253E-02
119.200    8.120816E-02
120.000    8.285843E-02
120.800    8.333936E-02
121.600    8.286275E-02
122.400    8.266627E-02
123.200    8.285719E-02
124.000    8.364227E-02
124.800    8.502690E-02
125.600    8.697312E-02
126.400    8.926785E-02
127.200    9.110051E-02
128.000    9.396118E-02
128.800    9.690400E-02
129.600    9.933883E-02
130.400    1.016844E-01
131.200    1.023977E-01
132.000    1.030335E-01
132.800    1.022942E-01
133.600    1.011796E-01
134.400    1.016750E-01
135.200    1.043314E-01
136.000    1.075312E-01
136.800    1.107681E-01
137.600    1.144267E-01
138.400    1.181980E-01
139.200    1.220693E-01
140.000    1.250205E-01
140.800    1.278620E-01
141.600    1.278542E-01
142.400    1.273456E-01
143.200    1.268144E-01
144.000    1.269240E-01
144.800    1.287322E-01
145.600    1.306514E-01
146.400    1.342253E-01
147.200    1.390262E-01
148.000    1.441253E-01
148.800    1.488825E-01
149.600    1.522238E-01
150.400    1.542657E-01
151.200    1.550619E-01
152.000    1.559244E-01
152.800    1.560375E-01
153.600    1.564401E-01
154.400    1.567149E-01
155.200    1.572739E-01
156.000    1.601894E-01
156.800    1.640308E-01
157.600    1.682753E-01
158.400    1.724592E-01
159.200    1.753080E-01
160.000    1.777640E-01
160.800    1.798606E-01
161.600    1.810829E-01
162.400    1.818670E-01
163.200    1.831363E-01
164.000    1.833127E-01
164.800    1.843610E-01
165.600    1.868505E-01
166.400    1.913387E-01
167.200    1.967945E-01
168.000    2.028164E-01
168.000    2.028165E-01
168.800    2.089649E-01
169.600    2.140680E-01
170.400    2.167186E-01
171.200    2.168672E-01
172.000    2.156777E-01
172.800    2.136216E-01
173.600    2.114119E-01
174.400    2.090399E-01
175.200    2.041061E-01
176.000    1.981187E-01
176.800    1.921162E-01
177.600    1.828570E-01
178.400    1.713896E-01
179.200    1.603737E-01
180.000    1.509549E-01
180.800    1.416228E-01
181.600    1.324512E-01
182.400    1.236477E-01
183.200    1.155958E-01
184.000    1.075386E-01
184.800    1.005226E-01
185.600    9.564695E-02
186.400    9.126655E-02
187.200    8.660195E-02
188.000    8.190495E-02
188.800    7.801268E-02
189.600    7.296798E-02
190.400    6.659896E-02
191.200    6.019106E-02
192.000    5.546048E-02
192.800    5.304209E-02
193.600    5.240024E-02
194.400    5.095154E-02
195.200    4.878837E-02
196.000    4.665170E-02
196.800    4.523536E-02
197.600    4.481448E-02
198.400    4.534696E-02
199.200    4.635710E-02
200.000    4.694970E-02
200.800    4.660367E-02
201.600    4.617075E-02
202.400    4.610174E-02
203.200    4.593436E-02
204.000    4.581471E-02
204.800    4.536520E-02
205.600    4.333838E-02
206.400    4.161002E-02
207.200    4.182114E-02
208.000    4.215011E-02
208.800    4.259984E-02
209.600    4.291954E-02
210.400    4.312239E-02
211.200    4.470159E-02
212.000    4.749514E-02
212.800    4.994270E-02
213.600    5.077216E-02
214.400    5.042740E-02
215.200    4.821692E-02
216.000    4.560771E-02
216.800    4.361029E-02
217.600    4.181396E-02
218.400    3.973709E-02
219.200    3.775010E-02
220.000    3.720933E-02
220.800    3.753382E-02
221.600    3.807442E-02
222.400    3.909505E-02
223.200    3.995012E-02
224.000    4.009494E-02
224.800    3.980871E-02
225.600    3.954917E-02
226.400    3.962076E-02
227.200    3.885491E-02
228.000    3.732931E-02
228.800    3.577011E-02
229.600    3.459676E-02
230.400    3.360872E-02
231.200    3.228070E-02
232.000    3.122457E-02
232.800    3.035043E-02
233.600    2.980286E-02
234.400    2.954391E-02
235.200    2.996809E-02
236.000    3.070039E-02
236.800    3.060461E-02
237.600    3.023562E-02
238.400    3.046004E-02
239.200    3.088750E-02
240.000    3.127925E-02
240.800    3.198179E-02
241.600    3.252890E-02
242.400    3.220026E-02
243.200    3.200827E-02
244.000    3.134371E-02
244.800    2.992675E-02
245.600    2.831666E-02
246.400    2.689114E-02
247.200    2.670566E-02
248.000    2.695110E-02
248.000    2.695107E-02
248.800    2.736795E-02
249.600    2.842513E-02
250.400    2.955792E-02
251.200    3.002929E-02
252.000    3.033796E-02
252.800    3.159253E-02
253.600    3.366191E-02
254.400    3.438515E-02
255.200    3.320842E-02
256.000    3.094272E-02
256.800    2.773344E-02
257.600    2.486702E-02
258.400    2.401258E-02
259.200    2.406900E-02
260.000    2.409921E-02
260.800    2.388207E-02
261.600    2.448190E-02
262.400    2.599881E-02
263.200    2.735151E-02
264.000    2.897506E-02
264.800    3.019959E-02
265.600    3.045473E-02
266.400    3.021869E-02
267.200    2.979821E-02
268.000    2.869699E-02
268.800    2.686002E-02
269.600    2.474630E-02
270.400    2.298764E-02
271.200    2.195447E-02
272.000    2.159118E-02
272.800    2.139001E-02
273.600    2.092994E-02
274.400    2.056413E-02
275.200    2.107108E-02
276.000    2.285325E-02
276.800    2.404476E-02
277.600    2.487981E-02
278.400    2.542236E-02
279.200    2.568778E-02
280.000    2.614541E-02
280.800    2.607003E-02
281.600    2.560869E-02
282.400    2.453852E-02
283.200    2.378130E-02
284.000    2.266434E-02
284.800    2.142385E-02
285.600    2.010349E-02
286.400    1.876463E-02
287.200    1.773073E-02
288.000    1.775332E-02
288.800    1.930798E-02
289.600    2.126511E-02
290.400    2.186573E-02
291.200    2.242714E-02
292.000    2.359448E-02
292.800    2.549017E-02
293.600    2.676502E-02
294.400    2.730189E-02
295.200    2.658245E-02
296.000    2.438817E-02
296.800    2.123723E-02
297.600    1.896704E-02
298.400    1.734609E-02
299.200    1.587540E-02
300.000    1.550287E-02
300.800    1.579880E-02
301.600    1.648348E-02
302.400    1.728860E-02
303.200    1.971828E-02
304.000    2.169041E-02
304.800    2.406347E-02
305.600    2.621428E-02
306.400    2.671170E-02
307.200    2.553228E-02
308.000    2.364240E-02
308.800    2.193243E-02
309.600    1.988385E-02
310.400    1.762217E-02
311.200    1.615970E-02
312.000    1.617035E-02
312.800    1.568822E-02
313.600    1.487300E-02
314.400    1.468897E-02
315.200    1.574205E-02
316.000    1.719320E-02
316.800    1.842804E-02
317.600    1.939658E-02
318.400    2.047096E-02
319.200    2.090017E-02
320.000    2.057943E-02
320.800    1.918259E-02
321.600    1.851481E-02
322.400    1.810336E-02
323.200    1.793529E-02
324.000    1.725927E-02
324.800    1.619597E-02
325.600    1.534565E-02
326.400    1.440546E-02
327.200    1.323914E-02
328.000    1.392827E-02
328.000    1.392828E-02
328.800    1.546596E-02
329.600    1.696870E-02
330.400    1.770516E-02
331.200    1.756518E-02
332.000    1.669284E-02
332.800    1.679921E-02
333.600    1.828268E-02
334.400    2.021174E-02
335.200    2.010835E-02
336.000    1.818381E-02
336.800    1.554096E-02
337.600    1.314932E-02
338.400    1.203402E-02
339.200    1.179495E-02
340.000    1.189669E-02
340.800    1.259377E-02
341.600    1.372668E-02
342.400    1.468930E-02
343.200    1.532417E-02
344.000    1.608415E-02
344.800    1.843413E-02
345.600    2.010067E-02
346.400    1.963249E-02
347.200    1.842711E-02
348.000    1.777001E-02
348.800    1.606542E-02
349.600    1.322388E-02
350.400    1.114711E-02
351.200    1.072504E-02
352.000    1.064608E-02
352.800    1.086520E-02
353.600    1.089329E-02
354.400    1.083269E-02
355.200    1.176819E-02
356.000    1.333401E-02
356.800    1.457370E-02
357.600    1.541430E-02
358.400    1.714539E-02
359.200    1.877675E-02
360.000    1.748521E-02
360.800    1.522032E-02
361.600    1.384799E-02
362.400    1.315996E-02
363.200    1.334869E-02
364.000    1.362663E-02
364.800    1.242161E-02
365.600    1.055222E-02
366.400    9.362799E-03
367.200    9.632165E-03
368.000    1.053049E-02
368.800    1.228745E-02
369.600    1.435281E-02
370.400    1.543024E-02
371.200    1.483258E-02
372.000    1.410684E-02
372.800    1.435521E-02
373.600    1.593496E-02
374.400    1.640832E-02
375.200    1.484696E-02
376.000    1.213599E-02
376.800    1.042389E-02
377.600    9.265037E-03
378.400    8.209965E-03
379.200    7.791042E-03
380.000    8.487070E-03
380.800    1.010321E-02
381.600    1.197549E-02
382.400    1.244444E-02
383.200    1.235345E-02
384.000    1.332215E-02
384.800    1.526881E-02
385.600    1.636447E-02
386.400    1.678339E-02
387.200    1.686622E-02
388.000    1.610864E-02
388.800    1.382638E-02
389.600    1.018476E-02
390.400    7.230486E-03
391.200    6.566088E-03
392.000    7.638367E-03
392.800    8.336824E-03
393.600    7.930906E-03
394.400    7.402016E-03
395.200    8.419494E-03
396.000    9.569114E-03
396.800    1.145551E-02
397.600    1.493158E-02
398.400    1.881380E-02
399.200    1.964110E-02
400.000    1.807052E-02
400.800    1.513267E-02
401.600    1.240237E-02
402.400    1.138594E-02
403.200    1.184989E-02
404.000    1.091160E-02
404.800    8.533594E-03
405.600    6.902342E-03
406.400    5.882605E-03
407.200    5.131634E-03
408.000    5.923059E-03
