%!PS-Adobe-3.0 EPSF-3.0
%%Title: gwstrain5_ds.eps
%%Creator: matplotlib version 1.3.1, http://matplotlib.org/
%%CreationDate: Tue Oct  2 17:01:41 2018
%%Orientation: portrait
%%BoundingBox: -60 175 672 616
%%EndComments
%%BeginProlog
/mpldict 11 dict def
mpldict begin
/m { moveto } bind def
/l { lineto } bind def
/r { rlineto } bind def
/c { curveto } bind def
/cl { closepath } bind def
/box {
m
1 index 0 r
0 exch r
neg 0 r
cl
} bind def
/clipbox {
box
clip
newpath
} bind def
%!PS-Adobe-3.0 Resource-Font
%%Title: cmsy10
%%Copyright: Copyright (C) 1994, Basil K. Malyshev. All Rights Reserved.012BaKoMa Fonts Collection, Level-B.
%%Creator: Converted from TrueType to type 3 by PPR
25 dict begin
/_d{bind def}bind def
/_m{moveto}_d
/_l{lineto}_d
/_cl{closepath eofill}_d
/_c{curveto}_d
/_sc{7 -1 roll{setcachedevice}{pop pop pop pop pop pop}ifelse}_d
/_e{exec}_d
/FontName /Cmsy10 def
/PaintType 0 def
/FontMatrix[.001 0 0 .001 0 0]def
/FontBBox[-29 -960 1123 779]def
/FontType 3 def
/Encoding [ /minus /Rfractur ] def
/FontInfo 10 dict dup begin
/FamilyName (cmsy10) def
/FullName (cmsy10) def
/Notice (Copyright (C) 1994, Basil K. Malyshev. All Rights Reserved.012BaKoMa Fonts Collection, Level-B. ) def
/Weight (Regular) def
/Version (1.1/12-Nov-94) def
/ItalicAngle 0.0 def
/isFixedPitch false def
/UnderlinePosition -133 def
/UnderlineThickness 20 def
end readonly def
/CharStrings 2 dict dup begin
/minus{777 0 83 230 694 270 _sc
102 230 _m
96 230 92 232 88 236 _c
84 240 83 245 83 250 _c
83 254 84 259 88 263 _c
92 267 96 270 102 270 _c
676 270 _l
681 270 685 267 689 263 _c
692 259 694 254 694 250 _c
694 245 692 240 689 236 _c
685 232 681 230 676 230 _c
102 230 _l
_cl}_d
/Rfractur{{722 0 44 -21 715 716 _sc
58 77 _m
54 77 51 78 48 81 _c
45 84 44 87 44 91 _c
44 95 45 98 49 100 _c
52 102 57 104 65 106 _c
62 110 61 113 61 117 _c
61 118 61 120 63 123 _c
72 131 _l
72 132 74 133 78 133 _c
80 133 82 132 84 130 _c
85 128 86 126 88 123 _c
89 120 90 118 91 117 _c
93 118 95 119 99 121 _c
103 122 106 123 109 123 _c
}_e{112 123 115 121 118 118 _c
121 115 123 112 123 109 _c
123 105 120 101 115 99 _c
109 96 104 94 100 93 _c
123 33 154 4 194 4 _c
220 4 236 31 244 86 _c
252 141 256 197 256 254 _c
256 445 _l
256 601 226 679 167 679 _c
143 679 125 669 111 649 _c
97 629 90 608 90 585 _c
90 573 92 564 98 557 _c
104 549 116 535 136 515 _c
156 494 170 475 180 459 _c
}_e{189 443 194 424 194 403 _c
194 296 167 243 113 243 _c
93 243 79 251 70 269 _c
60 286 56 305 56 325 _c
56 332 59 336 65 336 _c
77 336 _l
79 336 80 335 82 333 _c
84 331 85 329 85 327 _c
85 313 87 300 91 288 _c
95 275 102 269 113 269 _c
143 269 158 312 158 399 _c
158 417 152 433 142 448 _c
131 462 116 479 98 499 _c
84 515 73 529 66 541 _c
}_e{59 553 56 567 56 582 _c
56 603 60 623 70 642 _c
80 660 93 675 110 687 _c
126 699 145 705 167 705 _c
186 705 205 700 223 691 _c
241 682 257 670 271 655 _c
285 639 296 623 306 605 _c
329 642 364 670 412 688 _c
460 706 509 716 560 716 _c
563 716 566 715 568 713 _c
713 451 _l
714 447 715 445 715 445 _c
715 440 714 437 712 437 _c
652 404 _l
644 399 634 394 624 388 _c
}_e{613 382 603 378 595 374 _c
587 370 578 366 570 362 _c
561 358 552 354 543 352 _c
556 124 _l
556 119 555 114 554 108 _c
552 102 552 97 552 94 _c
552 78 556 62 564 48 _c
572 33 583 21 597 13 _c
674 78 _l
675 79 677 80 680 80 _c
682 80 686 78 691 75 _c
696 71 699 70 700 70 _c
702 68 703 66 703 63 _c
703 59 702 57 700 55 _c
604 -19 _l
}_e{602 -20 601 -21 599 -21 _c
581 -21 _l
561 -21 542 -15 524 -5 _c
506 5 491 18 481 36 _c
470 54 465 73 465 94 _c
465 98 465 103 467 109 _c
468 115 469 120 469 124 _c
457 343 _l
343 343 _l
343 252 _l
343 217 338 178 328 136 _c
318 93 301 56 279 25 _c
257 -5 228 -21 194 -21 _c
141 -21 101 13 74 83 _c
71 81 68 80 65 79 _c
61 77 59 77 58 77 _c
}_e{343 378 _m
498 378 _l
510 378 523 380 538 386 _c
553 391 567 397 579 404 _c
591 410 607 419 625 429 _c
490 675 _l
451 668 416 655 386 637 _c
356 619 335 594 324 563 _c
330 543 335 523 338 504 _c
341 484 343 465 343 445 _c
343 378 _l
_cl}_e}_d
end readonly def

/BuildGlyph
 {exch begin
 CharStrings exch
 2 copy known not{pop /.notdef}if
 true 3 1 roll get exec
 end}_d

/BuildChar {
 1 index /Encoding get exch get
 1 index /BuildGlyph get exec
}_d

FontName currentdict end definefont pop
%!PS-Adobe-3.0 Resource-Font
%%Title: cmmi10
%%Copyright: Copyright (C) 1994, Basil K. Malyshev. All Rights Reserved.012BaKoMa Fonts Collection, Level-B.
%%Creator: Converted from TrueType to type 3 by PPR
25 dict begin
/_d{bind def}bind def
/_m{moveto}_d
/_l{lineto}_d
/_cl{closepath eofill}_d
/_c{curveto}_d
/_sc{7 -1 roll{setcachedevice}{pop pop pop pop pop pop}ifelse}_d
/_e{exec}_d
/FontName /Cmmi10 def
/PaintType 0 def
/FontMatrix[.001 0 0 .001 0 0]def
/FontBBox[-34 -250 1048 750]def
/FontType 3 def
/Encoding [ /comma /M /t /period /B /O /h /slash /C /E /c ] def
/FontInfo 10 dict dup begin
/FamilyName (cmmi10) def
/FullName (cmmi10) def
/Notice (Copyright (C) 1994, Basil K. Malyshev. All Rights Reserved.012BaKoMa Fonts Collection, Level-B. ) def
/Weight (Regular) def
/Version (1.1/12-Nov-94) def
/ItalicAngle 0.0 def
/isFixedPitch false def
/UnderlinePosition -133 def
/UnderlineThickness 20 def
end readonly def
/CharStrings 11 dict dup begin
/comma{277 0 84 -193 205 110 _sc
99 -179 _m
99 -176 100 -173 103 -171 _c
127 -147 145 -120 159 -90 _c
172 -60 179 -28 179 4 _c
179 16 _l
168 5 155 0 139 0 _c
123 0 110 5 100 16 _c
89 26 84 39 84 55 _c
84 71 89 84 100 94 _c
110 104 123 110 139 110 _c
163 110 180 99 190 77 _c
200 55 205 30 205 4 _c
205 -32 197 -67 183 -101 _c
168 -134 147 -164 120 -191 _c
117 -192 115 -193 114 -193 _c
110 -193 107 -191 104 -188 _c
100 -185 99 -182 99 -179 _c
_cl}_d
/M{{970 0 41 0 1046 683 _sc
51 0 _m
44 0 41 4 41 13 _c
41 15 42 17 43 21 _c
43 25 44 28 46 31 _c
48 33 50 35 54 35 _c
117 35 154 55 165 96 _c
295 618 _l
296 624 297 629 297 632 _c
297 639 293 643 285 644 _c
272 646 248 648 213 648 _c
206 648 203 652 203 661 _c
203 663 204 666 205 670 _c
206 674 207 677 209 679 _c
211 681 213 683 216 683 _c
}_e{392 683 _l
399 683 403 679 405 672 _c
483 99 _l
847 672 _l
851 679 858 683 866 683 _c
1036 683 _l
1042 683 1046 678 1046 670 _c
1045 668 1044 665 1043 661 _c
1042 657 1041 653 1039 651 _c
1037 649 1035 648 1033 648 _c
992 648 964 645 948 641 _c
939 638 933 629 929 614 _c
792 65 _l
790 58 790 53 790 51 _c
790 48 790 46 791 44 _c
791 42 792 41 794 41 _c
}_e{796 40 798 39 802 39 _c
814 36 838 35 874 35 _c
880 35 884 30 884 22 _c
881 12 879 6 878 4 _c
876 1 873 0 867 0 _c
606 0 _l
599 0 596 4 596 13 _c
596 15 597 18 598 22 _c
599 26 600 29 602 31 _c
604 33 606 35 609 35 _c
649 35 678 37 694 42 _c
702 44 709 53 713 69 _c
857 648 _l
453 11 _l
449 3 442 0 433 0 _c
}_e{424 0 419 3 419 11 _c
334 640 _l
197 92 _l
196 90 195 87 195 85 _c
195 83 194 80 194 77 _c
194 59 201 48 216 43 _c
231 37 250 35 272 35 _c
278 35 282 30 282 22 _c
280 13 278 7 276 4 _c
274 1 271 0 265 0 _c
51 0 _l
_cl}_e}_d
/t{{361 0 22 -10 330 626 _sc
62 81 _m
62 91 63 100 65 109 _c
137 396 _l
32 396 _l
25 396 22 400 22 409 _c
24 423 29 431 35 431 _c
146 431 _l
186 594 _l
188 602 193 610 201 616 _c
209 622 218 626 228 626 _c
236 626 243 623 249 618 _c
255 613 258 606 258 598 _c
258 596 257 594 257 593 _c
257 592 257 591 257 590 _c
217 431 _l
320 431 _l
326 431 330 426 330 418 _c
}_e{330 416 329 414 328 410 _c
327 406 326 402 324 400 _c
322 397 320 396 317 396 _c
208 396 _l
136 107 _l
131 88 129 72 129 58 _c
129 29 138 15 158 15 _c
187 15 213 28 236 56 _c
258 84 276 114 288 147 _c
290 151 293 153 296 153 _c
308 153 _l
310 153 312 152 314 150 _c
316 148 317 146 317 144 _c
317 142 316 141 316 141 _c
301 101 280 65 252 35 _c
}_e{224 5 192 -10 156 -10 _c
129 -10 107 -1 89 15 _c
71 32 62 54 62 81 _c
_cl}_e}_d
/period{277 0 84 0 194 110 _sc
84 55 _m
84 70 89 83 100 94 _c
111 104 124 110 139 110 _c
148 110 157 107 166 102 _c
174 97 181 90 186 82 _c
191 73 194 64 194 55 _c
194 40 188 27 178 16 _c
167 5 154 0 139 0 _c
124 0 111 5 100 16 _c
89 27 84 40 84 55 _c
_cl}_d
/B{{758 0 40 0 756 683 _sc
50 0 _m
43 0 40 4 40 13 _c
40 15 41 17 42 21 _c
42 25 43 28 45 31 _c
47 33 49 35 53 35 _c
72 35 89 35 103 36 _c
117 37 128 39 138 42 _c
146 44 152 53 157 69 _c
294 618 _l
295 624 296 629 296 632 _c
296 639 292 643 284 644 _c
271 646 247 648 212 648 _c
205 648 202 652 202 661 _c
202 663 203 666 204 670 _c
}_e{205 674 206 677 208 679 _c
210 681 212 683 215 683 _c
573 683 _l
595 683 616 680 638 675 _c
659 669 679 661 697 649 _c
715 637 729 623 740 606 _c
750 588 756 568 756 545 _c
756 519 749 496 736 475 _c
723 453 706 435 686 419 _c
666 403 644 389 620 379 _c
596 369 572 361 547 357 _c
565 357 583 353 602 346 _c
620 338 637 328 652 316 _c
666 304 678 289 687 272 _c
}_e{696 255 701 237 701 217 _c
701 177 687 140 659 107 _c
631 73 595 47 553 28 _c
511 9 470 0 430 0 _c
50 0 _l
234 43 _m
234 37 245 35 268 35 _c
411 35 _l
443 35 475 44 505 62 _c
535 80 559 104 577 134 _c
595 164 604 195 604 228 _c
604 248 599 266 591 284 _c
583 302 571 316 555 326 _c
539 336 522 342 502 342 _c
307 342 _l
238 65 _l
}_e{235 55 234 48 234 43 _c
314 368 _m
466 368 _l
498 368 529 376 559 392 _c
589 408 613 431 632 459 _c
651 487 661 516 661 548 _c
661 576 652 600 634 619 _c
616 638 592 648 564 648 _c
427 648 _l
409 648 396 646 390 643 _c
384 639 379 630 375 614 _c
314 368 _l
_cl}_e}_d
/O{{762 0 50 -21 739 705 _sc
304 -21 _m
254 -21 209 -9 171 13 _c
132 35 102 67 81 108 _c
60 148 50 194 50 244 _c
50 316 70 389 111 461 _c
152 533 206 591 274 637 _c
341 682 412 705 486 705 _c
524 705 558 698 590 684 _c
622 670 648 651 670 627 _c
692 603 709 574 721 542 _c
733 510 739 474 739 436 _c
739 381 727 326 703 272 _c
679 217 647 167 606 123 _c
}_e{564 78 518 43 466 17 _c
414 -8 360 -21 304 -21 _c
312 8 _m
360 8 406 23 448 54 _c
490 84 525 124 555 173 _c
585 221 607 272 623 326 _c
639 380 647 430 647 476 _c
647 512 640 545 628 575 _c
616 605 597 630 571 648 _c
545 666 515 676 479 676 _c
443 676 409 667 376 650 _c
343 633 313 611 286 583 _c
258 555 234 520 212 478 _c
190 436 174 392 163 346 _c
}_e{152 300 147 256 147 216 _c
147 159 160 110 188 69 _c
216 28 257 8 312 8 _c
_cl}_e}_d
/h{{576 0 53 -10 549 694 _sc
53 18 _m
53 22 53 25 54 27 _c
199 605 _l
201 616 203 625 204 632 _c
204 642 182 648 139 648 _c
132 648 129 652 129 661 _c
129 663 129 666 131 670 _c
132 674 133 677 135 679 _c
137 681 139 683 143 683 _c
278 694 _l
281 694 _l
281 693 282 692 284 691 _c
286 689 288 689 288 689 _c
289 685 290 683 290 681 _c
212 369 _l
252 417 301 442 358 442 _c
}_e{381 442 401 437 418 429 _c
435 421 448 408 458 392 _c
468 376 473 356 473 334 _c
473 306 467 273 455 235 _c
443 196 427 153 409 105 _c
399 83 395 63 395 45 _c
395 25 402 15 418 15 _c
444 15 465 29 483 57 _c
500 85 512 115 520 147 _c
521 151 524 153 528 153 _c
540 153 _l
542 153 544 152 546 150 _c
548 148 549 146 549 144 _c
549 143 548 142 548 141 _c
}_e{542 117 533 93 521 70 _c
509 46 495 27 478 12 _c
460 -2 440 -10 416 -10 _c
392 -10 372 -2 356 13 _c
339 29 331 48 331 72 _c
331 84 333 97 339 111 _c
357 161 373 205 386 245 _c
398 284 405 319 405 349 _c
405 368 401 384 393 397 _c
385 409 373 416 356 416 _c
320 416 288 405 262 383 _c
235 361 212 332 193 296 _c
125 23 _l
122 13 117 5 110 -1 _c
}_e{102 -7 94 -10 84 -10 _c
75 -10 68 -7 62 -2 _c
56 3 53 10 53 18 _c
_cl}_e}_d
/slash{500 0 56 -249 443 750 _sc
56 -229 _m
56 -227 56 -225 57 -225 _c
405 738 _l
406 742 408 745 412 747 _c
415 749 419 750 423 750 _c
429 750 433 748 437 744 _c
441 740 443 736 443 730 _c
443 726 _l
95 -237 _l
91 -245 84 -249 76 -249 _c
70 -249 66 -247 62 -243 _c
58 -239 56 -234 56 -229 _c
_cl}_d
/C{{714 0 51 -21 760 705 _sc
146 216 _m
146 176 153 140 169 110 _c
184 79 206 55 236 38 _c
266 21 301 13 341 13 _c
383 13 423 23 462 45 _c
501 67 534 96 562 132 _c
589 168 608 206 618 246 _c
619 250 622 252 626 252 _c
638 252 _l
640 252 642 251 644 249 _c
646 247 647 245 647 243 _c
647 242 646 241 646 240 _c
634 194 612 150 580 110 _c
547 69 508 37 462 14 _c
}_e{416 -9 370 -21 322 -21 _c
270 -21 223 -9 182 13 _c
140 36 108 68 85 110 _c
62 152 51 199 51 252 _c
51 308 63 363 88 418 _c
113 472 147 521 189 564 _c
231 607 280 641 334 667 _c
388 692 443 705 499 705 _c
521 705 542 701 562 695 _c
582 688 601 678 619 664 _c
636 650 650 635 661 617 _c
740 703 _l
740 704 741 705 745 705 _c
751 705 _l
753 705 755 703 757 701 _c
}_e{759 699 760 697 760 695 _c
692 425 _l
692 420 689 418 684 418 _c
666 418 _l
660 418 658 421 658 429 _c
660 443 662 461 662 482 _c
662 514 656 545 645 574 _c
634 602 617 625 594 643 _c
570 661 542 670 509 670 _c
454 670 404 656 359 629 _c
314 601 276 565 244 521 _c
212 477 188 427 171 373 _c
154 319 146 266 146 216 _c
_cl}_e}_d
/E{{738 0 37 0 764 683 _sc
47 0 _m
40 0 37 4 37 13 _c
37 15 38 18 39 22 _c
40 26 41 29 43 31 _c
45 33 47 35 50 35 _c
90 35 119 37 135 42 _c
143 44 150 53 154 69 _c
291 618 _l
292 624 293 629 293 632 _c
293 639 289 643 281 644 _c
268 646 244 648 209 648 _c
202 648 199 652 199 661 _c
199 663 200 666 201 670 _c
202 674 203 677 205 679 _c
}_e{207 681 209 683 212 683 _c
754 683 _l
760 683 764 678 764 670 _c
740 463 _l
740 461 738 459 736 457 _c
734 455 732 454 730 454 _c
721 454 _l
714 454 711 458 711 467 _c
715 499 717 523 717 539 _c
717 565 712 586 703 601 _c
693 616 681 627 666 633 _c
651 639 634 643 616 645 _c
598 647 574 648 544 648 _c
430 648 _l
412 648 400 646 394 643 _c
388 640 382 630 378 614 _c
}_e{318 372 _l
396 372 _l
430 372 455 374 473 379 _c
490 383 504 393 514 408 _c
524 423 533 447 541 480 _c
541 482 542 484 544 486 _c
546 488 548 489 551 489 _c
560 489 _l
566 489 570 484 570 476 _c
508 229 _l
506 223 503 220 498 220 _c
489 220 _l
482 220 479 224 479 233 _c
485 259 489 279 489 292 _c
489 311 480 323 462 329 _c
444 334 421 337 392 337 _c
309 337 _l
}_e{241 65 _l
238 57 237 49 237 43 _c
237 37 248 35 271 35 _c
392 35 _l
440 35 479 38 509 46 _c
539 54 563 66 583 82 _c
603 98 620 119 634 145 _c
648 170 666 207 687 256 _c
688 260 691 262 696 262 _c
705 262 _l
707 262 710 260 712 258 _c
714 256 715 253 715 251 _c
715 249 714 248 714 247 _c
611 6 _l
609 2 607 0 603 0 _c
47 0 _l
_cl}_e}_d
/c{{432 0 40 -10 430 442 _sc
117 119 _m
117 90 124 65 139 45 _c
154 25 175 15 203 15 _c
243 15 281 24 318 42 _c
354 60 384 86 407 118 _c
409 120 411 121 415 121 _c
418 121 421 119 425 115 _c
428 111 430 108 430 105 _c
430 102 429 100 428 99 _c
404 65 371 38 330 19 _c
288 0 245 -10 201 -10 _c
169 -10 140 -2 116 12 _c
92 26 73 46 60 72 _c
}_e{46 97 40 126 40 158 _c
40 203 52 248 77 292 _c
102 336 135 372 177 400 _c
219 428 263 442 309 442 _c
339 442 366 434 390 420 _c
414 405 426 384 426 356 _c
426 338 420 322 410 309 _c
399 296 385 290 367 290 _c
356 290 347 293 340 300 _c
332 306 329 315 329 326 _c
329 342 334 355 346 366 _c
357 377 370 383 386 383 _c
388 383 _l
380 394 368 402 354 408 _c
}_e{339 413 324 416 308 416 _c
269 416 235 399 206 366 _c
176 332 154 292 139 246 _c
124 200 117 157 117 119 _c
_cl}_e}_d
end readonly def

/BuildGlyph
 {exch begin
 CharStrings exch
 2 copy known not{pop /.notdef}if
 true 3 1 roll get exec
 end}_d

/BuildChar {
 1 index /Encoding get exch get
 1 index /BuildGlyph get exec
}_d

FontName currentdict end definefont pop
%!PS-Adobe-3.0 Resource-Font
%%Title: DejaVu Sans
%%Copyright: Copyright (c) 2003 by Bitstream, Inc. All Rights Reserved. Copyright (c) 2006 by Tavmjong Bah. All Rights Reserved. DejaVu changes are in public domain 
%%Creator: Converted from TrueType to type 3 by PPR
25 dict begin
/_d{bind def}bind def
/_m{moveto}_d
/_l{lineto}_d
/_cl{closepath eofill}_d
/_c{curveto}_d
/_sc{7 -1 roll{setcachedevice}{pop pop pop pop pop pop}ifelse}_d
/_e{exec}_d
/FontName /DejaVuSans def
/PaintType 0 def
/FontMatrix[.001 0 0 .001 0 0]def
/FontBBox[-1021 -415 1681 1167]def
/FontType 3 def
/Encoding [ /space /period /zero /one /two /four /five /B /D /S /minus ] def
/FontInfo 10 dict dup begin
/FamilyName (DejaVu Sans) def
/FullName (DejaVu Sans) def
/Notice (Copyright (c) 2003 by Bitstream, Inc. All Rights Reserved. Copyright (c) 2006 by Tavmjong Bah. All Rights Reserved. DejaVu changes are in public domain ) def
/Weight (Book) def
/Version (Version 2.34) def
/ItalicAngle 0.0 def
/isFixedPitch false def
/UnderlinePosition -130 def
/UnderlineThickness 90 def
end readonly def
/CharStrings 11 dict dup begin
/space{318 0 0 0 0 0 _sc
}_d
/period{318 0 107 0 210 124 _sc
107 124 _m
210 124 _l
210 0 _l
107 0 _l
107 124 _l
_cl}_d
/zero{636 0 66 -13 570 742 _sc
318 664 _m
267 664 229 639 203 589 _c
177 539 165 464 165 364 _c
165 264 177 189 203 139 _c
229 89 267 64 318 64 _c
369 64 407 89 433 139 _c
458 189 471 264 471 364 _c
471 464 458 539 433 589 _c
407 639 369 664 318 664 _c
318 742 _m
399 742 461 709 505 645 _c
548 580 570 486 570 364 _c
570 241 548 147 505 83 _c
461 19 399 -13 318 -13 _c
236 -13 173 19 130 83 _c
87 147 66 241 66 364 _c
66 486 87 580 130 645 _c
173 709 236 742 318 742 _c
_cl}_d
/one{636 0 110 0 544 729 _sc
124 83 _m
285 83 _l
285 639 _l
110 604 _l
110 694 _l
284 729 _l
383 729 _l
383 83 _l
544 83 _l
544 0 _l
124 0 _l
124 83 _l
_cl}_d
/two{{636 0 73 0 536 742 _sc
192 83 _m
536 83 _l
536 0 _l
73 0 _l
73 83 _l
110 121 161 173 226 239 _c
290 304 331 346 348 365 _c
380 400 402 430 414 455 _c
426 479 433 504 433 528 _c
433 566 419 598 392 622 _c
365 646 330 659 286 659 _c
255 659 222 653 188 643 _c
154 632 117 616 78 594 _c
78 694 _l
118 710 155 722 189 730 _c
223 738 255 742 284 742 _c
}_e{359 742 419 723 464 685 _c
509 647 532 597 532 534 _c
532 504 526 475 515 449 _c
504 422 484 390 454 354 _c
446 344 420 317 376 272 _c
332 227 271 164 192 83 _c
_cl}_e}_d
/four{636 0 49 0 580 729 _sc
378 643 _m
129 254 _l
378 254 _l
378 643 _l
352 729 _m
476 729 _l
476 254 _l
580 254 _l
580 172 _l
476 172 _l
476 0 _l
378 0 _l
378 172 _l
49 172 _l
49 267 _l
352 729 _l
_cl}_d
/five{{636 0 77 -13 549 729 _sc
108 729 _m
495 729 _l
495 646 _l
198 646 _l
198 467 _l
212 472 227 476 241 478 _c
255 480 270 482 284 482 _c
365 482 429 459 477 415 _c
525 370 549 310 549 234 _c
549 155 524 94 475 51 _c
426 8 357 -13 269 -13 _c
238 -13 207 -10 175 -6 _c
143 -1 111 6 77 17 _c
77 116 _l
106 100 136 88 168 80 _c
199 72 232 69 267 69 _c
}_e{323 69 368 83 401 113 _c
433 143 450 183 450 234 _c
450 284 433 324 401 354 _c
368 384 323 399 267 399 _c
241 399 214 396 188 390 _c
162 384 135 375 108 363 _c
108 729 _l
_cl}_e}_d
/B{{686 0 98 0 615 729 _sc
197 348 _m
197 81 _l
355 81 _l
408 81 447 92 473 114 _c
498 136 511 169 511 215 _c
511 260 498 293 473 315 _c
447 337 408 348 355 348 _c
197 348 _l
197 648 _m
197 428 _l
343 428 _l
391 428 426 437 450 455 _c
474 473 486 500 486 538 _c
486 574 474 602 450 620 _c
426 638 391 648 343 648 _c
197 648 _l
98 729 _m
350 729 _l
}_e{425 729 483 713 524 682 _c
564 650 585 606 585 549 _c
585 504 574 468 553 442 _c
532 416 502 399 462 393 _c
510 382 548 360 575 327 _c
601 294 615 253 615 204 _c
615 138 592 88 548 53 _c
504 17 441 0 360 0 _c
98 0 _l
98 729 _l
_cl}_e}_d
/D{770 0 98 0 711 729 _sc
197 648 _m
197 81 _l
316 81 _l
416 81 490 103 537 149 _c
583 195 607 267 607 365 _c
607 463 583 534 537 580 _c
490 625 416 648 316 648 _c
197 648 _l
98 729 _m
301 729 _l
442 729 546 699 612 641 _c
678 582 711 490 711 365 _c
711 239 677 147 611 88 _c
545 29 441 0 301 0 _c
98 0 _l
98 729 _l
_cl}_d
/S{{635 0 66 -13 579 742 _sc
535 705 _m
535 609 _l
497 627 462 640 429 649 _c
395 657 363 662 333 662 _c
279 662 237 651 208 631 _c
179 610 165 580 165 542 _c
165 510 174 485 194 469 _c
213 452 250 439 304 429 _c
364 417 _l
437 403 491 378 526 343 _c
561 307 579 260 579 201 _c
579 130 555 77 508 41 _c
460 5 391 -13 300 -13 _c
265 -13 228 -9 189 -2 _c
}_e{150 5 110 16 69 32 _c
69 134 _l
109 111 148 94 186 83 _c
224 71 262 66 300 66 _c
356 66 399 77 430 99 _c
460 121 476 152 476 194 _c
476 230 465 258 443 278 _c
421 298 385 313 335 323 _c
275 335 _l
201 349 148 372 115 404 _c
82 435 66 478 66 534 _c
66 598 88 649 134 686 _c
179 723 242 742 322 742 _c
356 742 390 739 426 733 _c
461 727 497 717 535 705 _c
}_e{_cl}_e}_d
/minus{838 0 106 272 732 355 _sc
106 355 _m
732 355 _l
732 272 _l
106 272 _l
106 355 _l
_cl}_d
end readonly def

/BuildGlyph
 {exch begin
 CharStrings exch
 2 copy known not{pop /.notdef}if
 true 3 1 roll get exec
 end}_d

/BuildChar {
 1 index /Encoding get exch get
 1 index /BuildGlyph get exec
}_d

FontName currentdict end definefont pop
%!PS-Adobe-3.0 Resource-Font
%%Title: cmr10
%%Copyright: Copyright (C) 1994, Basil K. Malyshev. All Rights Reserved.012BaKoMa Fonts Collection, Level-B.
%%Creator: Converted from TrueType to type 3 by PPR
25 dict begin
/_d{bind def}bind def
/_m{moveto}_d
/_l{lineto}_d
/_cl{closepath eofill}_d
/_c{curveto}_d
/_sc{7 -1 roll{setcachedevice}{pop pop pop pop pop pop}ifelse}_d
/_e{exec}_d
/FontName /Cmr10 def
/PaintType 0 def
/FontMatrix[.001 0 0 .001 0 0]def
/FontBBox[-44 -250 1009 750]def
/FontType 3 def
/Encoding [ /zero /equal /two /parenright /six /eight /one /parenleft ] def
/FontInfo 10 dict dup begin
/FamilyName (cmr10) def
/FullName (cmr10) def
/Notice (Copyright (C) 1994, Basil K. Malyshev. All Rights Reserved.012BaKoMa Fonts Collection, Level-B. ) def
/Weight (Regular) def
/Version (1.1/12-Nov-94) def
/ItalicAngle 0.0 def
/isFixedPitch false def
/UnderlinePosition -133 def
/UnderlineThickness 20 def
end readonly def
/CharStrings 8 dict dup begin
/zero{{500 0 39 -21 460 666 _sc
250 -21 _m
168 -21 112 12 83 79 _c
53 146 39 226 39 319 _c
39 377 44 431 55 482 _c
65 533 86 576 118 612 _c
149 648 193 666 250 666 _c
294 666 330 655 358 634 _c
386 612 407 585 422 551 _c
436 517 446 480 452 441 _c
457 402 460 361 460 319 _c
460 261 454 208 444 158 _c
433 108 412 65 381 31 _c
350 -3 306 -21 250 -21 _c
250 4 _m
}_e{287 4 315 23 333 61 _c
351 99 362 141 366 187 _c
370 233 373 283 373 335 _c
373 385 370 431 366 473 _c
362 515 351 554 333 588 _c
315 622 287 640 250 640 _c
212 640 184 622 166 588 _c
148 554 136 515 132 473 _c
128 431 126 385 126 335 _c
126 297 126 262 128 230 _c
130 197 135 163 143 128 _c
151 93 163 64 181 40 _c
198 16 221 4 250 4 _c
_cl}_e}_d
/equal{{777 0 56 133 721 367 _sc
75 133 _m
69 133 65 135 61 139 _c
57 143 56 148 56 153 _c
56 158 57 163 61 167 _c
65 171 69 173 75 173 _c
703 173 _l
707 173 711 171 715 167 _c
719 163 721 158 721 153 _c
721 148 719 143 715 139 _c
711 135 707 133 703 133 _c
75 133 _l
75 327 _m
69 327 65 329 61 333 _c
57 337 56 341 56 347 _c
56 351 57 356 61 360 _c
}_e{65 364 69 367 75 367 _c
703 367 _l
707 367 711 364 715 360 _c
719 356 721 351 721 347 _c
721 341 719 337 715 333 _c
711 329 707 327 703 327 _c
75 327 _l
_cl}_e}_d
/two{{500 0 50 0 449 666 _sc
50 0 _m
50 27 _l
50 28 50 30 52 32 _c
207 204 _l
230 229 249 250 264 268 _c
278 285 293 305 307 327 _c
321 349 333 372 341 396 _c
349 419 354 444 354 470 _c
354 497 349 523 339 548 _c
329 573 314 593 294 608 _c
274 623 249 631 221 631 _c
192 631 166 622 143 605 _c
119 587 103 565 94 537 _c
96 537 100 538 105 538 _c
}_e{119 538 132 533 143 523 _c
153 513 159 500 159 484 _c
159 468 153 455 143 445 _c
132 434 119 429 105 429 _c
89 429 76 434 66 445 _c
55 456 50 469 50 484 _c
50 508 54 532 64 554 _c
73 576 86 595 104 613 _c
122 630 142 643 164 652 _c
186 661 210 666 236 666 _c
274 666 309 658 342 642 _c
375 626 401 603 420 573 _c
439 543 449 509 449 470 _c
}_e{449 441 442 414 430 388 _c
417 362 401 338 381 317 _c
361 295 336 271 305 244 _c
274 217 254 199 244 190 _c
131 81 _l
227 81 _l
274 81 313 81 345 82 _c
377 82 394 84 396 86 _c
404 94 412 125 420 178 _c
449 178 _l
421 0 _l
50 0 _l
_cl}_e}_d
/parenright{{388 0 56 -249 291 750 _sc
65 -249 _m
59 -249 56 -246 56 -240 _c
56 -237 56 -235 58 -234 _c
172 -122 229 38 229 250 _c
229 462 172 623 60 733 _c
57 734 56 737 56 741 _c
56 743 57 745 59 747 _c
61 749 63 750 65 750 _c
74 750 _l
76 750 77 749 79 748 _c
127 710 167 664 199 610 _c
231 556 254 498 269 437 _c
283 376 291 314 291 250 _c
291 202 287 156 279 110 _c
}_e{271 64 258 20 241 -24 _c
223 -68 201 -108 175 -146 _c
148 -184 116 -217 79 -247 _c
77 -248 76 -249 74 -249 _c
65 -249 _l
_cl}_e}_d
/six{{500 0 42 -21 457 666 _sc
250 -21 _m
208 -21 174 -10 146 11 _c
118 33 97 61 82 96 _c
67 131 57 168 51 206 _c
45 244 42 283 42 323 _c
42 375 52 428 73 482 _c
93 535 123 579 163 614 _c
203 648 250 666 305 666 _c
327 666 348 661 368 653 _c
388 644 403 631 415 615 _c
426 598 432 578 432 554 _c
432 540 427 529 418 520 _c
408 510 397 506 384 506 _c
}_e{370 506 359 510 350 520 _c
340 529 336 540 336 554 _c
336 567 340 578 350 588 _c
359 597 370 602 384 602 _c
389 602 _l
380 614 368 622 353 628 _c
337 634 321 637 305 637 _c
285 637 266 632 249 624 _c
232 615 217 603 203 588 _c
189 573 178 557 169 539 _c
159 521 152 500 147 477 _c
142 453 139 432 138 412 _c
136 392 136 366 136 336 _c
148 363 164 385 186 403 _c
}_e{207 420 231 429 259 429 _c
288 429 315 423 339 411 _c
363 399 384 382 402 361 _c
420 339 433 315 443 288 _c
452 260 457 233 457 205 _c
457 165 448 128 431 93 _c
413 58 389 30 357 10 _c
325 -10 290 -21 250 -21 _c
250 10 _m
276 10 296 15 312 27 _c
327 39 338 54 346 74 _c
353 93 358 112 360 132 _c
362 152 363 176 363 205 _c
363 243 361 275 357 302 _c
}_e{353 328 344 352 328 372 _c
312 392 287 403 255 403 _c
227 403 205 393 188 375 _c
170 357 158 334 150 306 _c
142 278 138 252 138 226 _c
138 217 138 210 139 206 _c
139 205 139 204 139 204 _c
139 203 138 202 138 201 _c
138 172 141 143 147 114 _c
153 84 164 60 181 40 _c
197 20 220 10 250 10 _c
_cl}_e}_d
/eight{{500 0 42 -21 457 666 _sc
42 152 _m
42 192 55 227 81 258 _c
107 288 141 314 183 335 _c
146 359 _l
123 373 104 393 90 418 _c
76 443 69 469 69 497 _c
69 529 77 557 94 583 _c
110 609 133 629 161 644 _c
189 658 218 666 250 666 _c
279 666 307 660 335 648 _c
363 636 385 618 403 596 _c
421 574 430 547 430 516 _c
430 493 424 472 414 453 _c
403 434 388 417 370 402 _c
}_e{352 386 332 373 312 363 _c
369 326 _l
395 308 417 286 433 258 _c
449 230 457 200 457 170 _c
457 134 447 101 428 71 _c
408 41 383 19 351 3 _c
319 -13 285 -21 250 -21 _c
215 -21 182 -14 150 0 _c
118 13 92 33 72 60 _c
52 86 42 117 42 152 _c
96 152 _m
96 125 103 101 118 79 _c
132 57 151 40 175 28 _c
199 16 224 10 250 10 _c
288 10 323 21 355 44 _c
}_e{387 66 403 96 403 134 _c
403 146 400 159 395 171 _c
390 183 383 195 374 205 _c
365 215 355 224 344 231 _c
210 318 _l
189 306 170 292 152 275 _c
134 258 121 239 111 218 _c
101 197 96 175 96 152 _c
165 457 _m
286 379 _l
314 395 337 414 355 438 _c
373 461 382 487 382 516 _c
382 538 375 559 363 578 _c
350 596 334 611 314 621 _c
294 631 272 637 249 637 _c
}_e{229 637 208 633 188 625 _c
167 617 150 606 137 590 _c
123 574 117 556 117 536 _c
117 504 133 478 165 457 _c
_cl}_e}_d
/one{500 0 87 0 421 666 _sc
93 0 _m
93 35 _l
176 35 218 45 218 67 _c
218 592 _l
183 575 139 567 87 567 _c
87 602 _l
168 602 230 623 272 666 _c
286 666 _l
288 666 291 665 293 663 _c
295 661 296 659 296 657 _c
296 67 _l
296 45 337 35 421 35 _c
421 0 _l
93 0 _l
_cl}_d
/parenleft{{388 0 97 -249 332 750 _sc
310 -247 _m
272 -217 240 -184 214 -146 _c
187 -108 165 -67 148 -25 _c
131 17 118 62 110 109 _c
101 155 97 202 97 250 _c
97 298 101 345 110 392 _c
118 438 131 483 149 527 _c
166 570 188 611 215 649 _c
242 687 274 720 310 748 _c
310 749 311 750 315 750 _c
324 750 _l
326 750 327 749 329 747 _c
331 745 332 743 332 741 _c
332 738 331 736 330 735 _c
}_e{297 703 270 668 248 632 _c
226 596 209 557 196 516 _c
183 474 174 432 168 388 _c
162 344 159 298 159 250 _c
159 38 215 -122 329 -232 _c
331 -234 332 -236 332 -240 _c
332 -242 331 -244 329 -246 _c
327 -248 326 -249 324 -249 _c
315 -249 _l
311 -249 310 -248 310 -247 _c
_cl}_e}_d
end readonly def

/BuildGlyph
 {exch begin
 CharStrings exch
 2 copy known not{pop /.notdef}if
 true 3 1 roll get exec
 end}_d

/BuildChar {
 1 index /Encoding get exch get
 1 index /BuildGlyph get exec
}_d

FontName currentdict end definefont pop
end
%%EndProlog
mpldict begin
-60.979 175.761 translate
733.958 440.479 0 0 clipbox
gsave
0 0 m
733.958 0 l
733.958 440.479 l
0 440.479 l
cl
1.000 setgray
fill
grestore
gsave
70.7938 353.859 m
576.258 353.859 l
576.258 426.505 l
70.7938 426.505 l
cl
1.000 setgray
fill
grestore
3.000 setlinewidth
1 setlinejoin
2 setlinecap
[] 0 setdash
1.000 0.000 0.000 setrgbcolor
gsave
505.5 72.65 70.79 353.9 clipbox
70.4208 394.029 m
85.3386 395.396 l
96.5269 396.252 l
107.715 396.905 l
118.904 397.358 l
130.092 397.555 l
141.28 397.51 l
152.469 397.249 l
167.386 396.609 l
182.304 395.751 l
200.951 394.413 l
215.869 393.133 l
234.516 391.264 l
260.623 388.618 l
279.27 387.053 l
294.188 386.021 l
309.105 385.17 l
324.023 384.56 l
335.212 384.264 l
346.4 384.162 l
357.588 384.25 l
368.777 384.54 l
379.965 385.033 l
391.153 385.708 l
406.071 386.845 l
424.718 388.528 l
465.742 392.546 l
495.578 395.515 l
506.766 396.405 l
517.954 397.074 l
529.143 397.499 l
540.331 397.692 l
551.519 397.659 l
562.708 397.429 l
573.896 396.982 l
577.626 396.777 l
577.626 396.777 l
stroke
grestore
2.000 setlinewidth
0 setlinecap
[1 3] 0 setdash
gsave
505.5 72.65 70.79 353.9 clipbox
70.7116 393.222 m
92.0702 393.093 l
109.952 392.778 l
124.853 392.304 l
138.264 391.659 l
154.159 390.64 l
174.028 389.158 l
212.275 385.996 l
267.906 381.458 l
278.834 380.918 l
288.768 380.647 l
298.206 380.606 l
306.65 380.774 l
314.101 381.127 l
321.055 381.675 l
327.015 382.355 l
332.479 383.203 l
336.949 384.115 l
340.923 385.163 l
343.903 386.164 l
346.387 387.211 l
348.374 388.257 l
350.361 389.584 l
351.851 390.826 l
353.838 392.822 l
356.818 396.27 l
361.785 402.445 l
366.752 408.481 l
369.733 411.804 l
372.713 414.793 l
375.196 416.976 l
377.68 418.842 l
379.667 420.092 l
381.654 421.11 l
383.64 421.89 l
385.627 422.418 l
387.614 422.68 l
389.601 422.656 l
391.091 422.441 l
392.581 422.049 l
394.071 421.474 l
395.562 420.713 l
397.548 419.417 l
399.535 417.813 l
401.522 415.929 l
404.006 413.234 l
406.986 409.602 l
410.463 404.982 l
420.894 390.822 l
423.874 387.308 l
431.325 378.753 l
438.776 369.943 l
442.253 366.289 l
445.233 363.489 l
447.716 361.461 l
449.703 360.089 l
451.69 358.988 l
453.677 358.195 l
455.167 357.809 l
456.657 357.601 l
458.147 357.57 l
459.637 357.718 l
461.128 358.046 l
462.618 358.552 l
464.605 359.502 l
466.591 360.76 l
468.578 362.313 l
470.565 364.14 l
473.049 366.765 l
475.532 369.73 l
478.513 373.687 l
482.486 379.445 l
491.924 393.27 l
495.898 398.863 l
498.878 402.689 l
501.858 406.141 l
504.342 408.713 l
506.825 410.947 l
508.812 412.442 l
510.799 413.646 l
512.786 414.544 l
514.773 415.133 l
516.263 415.367 l
517.753 415.422 l
519.243 415.297 l
520.733 414.995 l
522.72 414.331 l
524.707 413.39 l
526.694 412.206 l
529.177 410.433 l
531.661 408.38 l
534.144 406.071 l
537.125 402.998 l
541.595 398.02 l
562.457 374.409 l
564.941 372.069 l
567.424 370.037 l
569.908 368.339 l
571.895 367.229 l
573.881 366.35 l
575.868 365.718 l
576.365 365.6 l
576.365 365.6 l
stroke
grestore
1.000 setlinewidth
[6 6] 0 setdash
0.750 0.000 0.750 setrgbcolor
gsave
505.5 72.65 70.79 353.9 clipbox
69.418 393.668 m
84.5615 393.994 l
99.7049 394.066 l
114.848 393.876 l
129.992 393.436 l
145.135 392.775 l
162.803 391.784 l
190.566 389.962 l
218.329 388.181 l
235.996 387.258 l
251.139 386.679 l
266.283 386.34 l
278.902 386.258 l
291.522 386.365 l
306.665 386.736 l
321.809 387.347 l
339.476 388.307 l
362.191 389.792 l
400.05 392.295 l
417.717 393.216 l
432.861 393.778 l
448.004 394.088 l
460.624 394.136 l
473.243 393.988 l
488.387 393.563 l
503.53 392.895 l
521.198 391.872 l
546.437 390.148 l
576.724 388.109 l
576.724 388.109 l
stroke
grestore
0.500 setlinewidth
[] 0 setdash
0.000 setgray
gsave
/o {
gsave
newpath
translate
0.5 setlinewidth
1 setlinejoin
0 setlinecap
0 0 m
0 4 l
gsave
0.000 setgray
fill
grestore
stroke
grestore
} bind def
84.0954 353.859 o
grestore
gsave
/o {
gsave
newpath
translate
0.5 setlinewidth
1 setlinejoin
0 setlinecap
0 0 m
0 -4 l
gsave
0.000 setgray
fill
grestore
stroke
grestore
} bind def
84.0954 426.505 o
grestore
/DejaVuSans findfont
13.500 scalefont
setfont
gsave
66.720444 339.218733 translate
0.000000 rotate
0.000000 0.000000 m /minus glyphshow
11.311523 0.000000 m /one glyphshow
19.900635 0.000000 m /zero glyphshow
28.489746 0.000000 m /zero glyphshow
grestore
gsave
/o {
gsave
newpath
translate
0.5 setlinewidth
1 setlinejoin
0 setlinecap
0 0 m
0 4 l
gsave
0.000 setgray
fill
grestore
stroke
grestore
} bind def
217.112 353.859 o
grestore
gsave
/o {
gsave
newpath
translate
0.5 setlinewidth
1 setlinejoin
0 setlinecap
0 0 m
0 -4 l
gsave
0.000 setgray
fill
grestore
stroke
grestore
} bind def
217.112 426.505 o
grestore
gsave
204.034260 339.218733 translate
0.000000 rotate
0.000000 0.000000 m /minus glyphshow
11.311523 0.000000 m /five glyphshow
19.900635 0.000000 m /zero glyphshow
grestore
gsave
/o {
gsave
newpath
translate
0.5 setlinewidth
1 setlinejoin
0 setlinecap
0 0 m
0 4 l
gsave
0.000 setgray
fill
grestore
stroke
grestore
} bind def
350.129 353.859 o
grestore
gsave
/o {
gsave
newpath
translate
0.5 setlinewidth
1 setlinejoin
0 setlinecap
0 0 m
0 -4 l
gsave
0.000 setgray
fill
grestore
stroke
grestore
} bind def
350.129 426.505 o
grestore
gsave
346.730888 339.218733 translate
0.000000 rotate
0.000000 0.000000 m /zero glyphshow
grestore
gsave
/o {
gsave
newpath
translate
0.5 setlinewidth
1 setlinejoin
0 setlinecap
0 0 m
0 4 l
gsave
0.000 setgray
fill
grestore
stroke
grestore
} bind def
483.146 353.859 o
grestore
gsave
/o {
gsave
newpath
translate
0.5 setlinewidth
1 setlinejoin
0 setlinecap
0 0 m
0 -4 l
gsave
0.000 setgray
fill
grestore
stroke
grestore
} bind def
483.146 426.505 o
grestore
gsave
475.529079 339.218733 translate
0.000000 rotate
0.000000 0.000000 m /five glyphshow
8.589111 0.000000 m /zero glyphshow
grestore
gsave
/o {
gsave
newpath
translate
0.5 setlinewidth
1 setlinejoin
0 setlinecap
0 0 m
4 0 l
gsave
0.000 setgray
fill
grestore
stroke
grestore
} bind def
70.7938 353.859 o
grestore
gsave
/o {
gsave
newpath
translate
0.5 setlinewidth
1 setlinejoin
0 setlinecap
0 0 m
-4 0 l
gsave
0.000 setgray
fill
grestore
stroke
grestore
} bind def
576.258 353.859 o
grestore
gsave
36.200000 349.992171 translate
0.000000 rotate
0.000000 0.000000 m /minus glyphshow
11.311523 0.000000 m /zero glyphshow
19.900635 0.000000 m /period glyphshow
24.191895 0.000000 m /four glyphshow
grestore
gsave
/o {
gsave
newpath
translate
0.5 setlinewidth
1 setlinejoin
0 setlinecap
0 0 m
4 0 l
gsave
0.000 setgray
fill
grestore
stroke
grestore
} bind def
70.7938 362.94 o
grestore
gsave
/o {
gsave
newpath
translate
0.5 setlinewidth
1 setlinejoin
0 setlinecap
0 0 m
-4 0 l
gsave
0.000 setgray
fill
grestore
stroke
grestore
} bind def
576.258 362.94 o
grestore
gsave
/o {
gsave
newpath
translate
0.5 setlinewidth
1 setlinejoin
0 setlinecap
0 0 m
4 0 l
gsave
0.000 setgray
fill
grestore
stroke
grestore
} bind def
70.7938 372.021 o
grestore
gsave
/o {
gsave
newpath
translate
0.5 setlinewidth
1 setlinejoin
0 setlinecap
0 0 m
-4 0 l
gsave
0.000 setgray
fill
grestore
stroke
grestore
} bind def
576.258 372.021 o
grestore
gsave
36.793750 368.153628 translate
0.000000 rotate
0.000000 0.000000 m /minus glyphshow
11.311523 0.000000 m /zero glyphshow
19.900635 0.000000 m /period glyphshow
24.191895 0.000000 m /two glyphshow
grestore
gsave
/o {
gsave
newpath
translate
0.5 setlinewidth
1 setlinejoin
0 setlinecap
0 0 m
4 0 l
gsave
0.000 setgray
fill
grestore
stroke
grestore
} bind def
70.7938 381.102 o
grestore
gsave
/o {
gsave
newpath
translate
0.5 setlinewidth
1 setlinejoin
0 setlinecap
0 0 m
-4 0 l
gsave
0.000 setgray
fill
grestore
stroke
grestore
} bind def
576.258 381.102 o
grestore
gsave
/o {
gsave
newpath
translate
0.5 setlinewidth
1 setlinejoin
0 setlinecap
0 0 m
4 0 l
gsave
0.000 setgray
fill
grestore
stroke
grestore
} bind def
70.7938 390.182 o
grestore
gsave
/o {
gsave
newpath
translate
0.5 setlinewidth
1 setlinejoin
0 setlinecap
0 0 m
-4 0 l
gsave
0.000 setgray
fill
grestore
stroke
grestore
} bind def
576.258 390.182 o
grestore
gsave
47.106250 386.315085 translate
0.000000 rotate
0.000000 0.000000 m /zero glyphshow
8.589111 0.000000 m /period glyphshow
12.880371 0.000000 m /zero glyphshow
grestore
gsave
/o {
gsave
newpath
translate
0.5 setlinewidth
1 setlinejoin
0 setlinecap
0 0 m
4 0 l
gsave
0.000 setgray
fill
grestore
stroke
grestore
} bind def
70.7938 399.263 o
grestore
gsave
/o {
gsave
newpath
translate
0.5 setlinewidth
1 setlinejoin
0 setlinecap
0 0 m
-4 0 l
gsave
0.000 setgray
fill
grestore
stroke
grestore
} bind def
576.258 399.263 o
grestore
gsave
/o {
gsave
newpath
translate
0.5 setlinewidth
1 setlinejoin
0 setlinecap
0 0 m
4 0 l
gsave
0.000 setgray
fill
grestore
stroke
grestore
} bind def
70.7938 408.344 o
grestore
gsave
/o {
gsave
newpath
translate
0.5 setlinewidth
1 setlinejoin
0 setlinecap
0 0 m
-4 0 l
gsave
0.000 setgray
fill
grestore
stroke
grestore
} bind def
576.258 408.344 o
grestore
gsave
47.559375 404.476543 translate
0.000000 rotate
0.000000 0.000000 m /zero glyphshow
8.589111 0.000000 m /period glyphshow
12.880371 0.000000 m /two glyphshow
grestore
gsave
/o {
gsave
newpath
translate
0.5 setlinewidth
1 setlinejoin
0 setlinecap
0 0 m
4 0 l
gsave
0.000 setgray
fill
grestore
stroke
grestore
} bind def
70.7938 417.424 o
grestore
gsave
/o {
gsave
newpath
translate
0.5 setlinewidth
1 setlinejoin
0 setlinecap
0 0 m
-4 0 l
gsave
0.000 setgray
fill
grestore
stroke
grestore
} bind def
576.258 417.424 o
grestore
gsave
/o {
gsave
newpath
translate
0.5 setlinewidth
1 setlinejoin
0 setlinecap
0 0 m
4 0 l
gsave
0.000 setgray
fill
grestore
stroke
grestore
} bind def
70.7938 426.505 o
grestore
gsave
/o {
gsave
newpath
translate
0.5 setlinewidth
1 setlinejoin
0 setlinecap
0 0 m
-4 0 l
gsave
0.000 setgray
fill
grestore
stroke
grestore
} bind def
576.258 426.505 o
grestore
gsave
46.965625 422.638000 translate
0.000000 rotate
0.000000 0.000000 m /zero glyphshow
8.589111 0.000000 m /period glyphshow
12.880371 0.000000 m /four glyphshow
grestore
gsave
26.200000 358.182273 translate
90.000000 rotate
/Cmsy10 findfont
20.0 scalefont
setfont
0.000000 0.897188 moveto
/Rfractur glyphshow

/Cmr10 findfont
20.0 scalefont
setfont
14.443359 0.897188 moveto
/parenleft glyphshow

/Cmmi10 findfont
20.0 scalefont
setfont
22.207031 0.897188 moveto
/h glyphshow

/Cmr10 findfont
14.0 scalefont
setfont
33.730469 9.670313 moveto
/two glyphshow

/Cmmi10 findfont
14.0 scalefont
setfont
40.730469 9.670313 moveto
/comma glyphshow

/Cmr10 findfont
14.0 scalefont
setfont
44.883984 9.670313 moveto
/two glyphshow

/Cmr10 findfont
20.0 scalefont
setfont
55.285234 0.897188 moveto
/parenright glyphshow


grestore
1.000 setlinewidth
gsave
70.7937 426.505 m
576.258 426.505 l
stroke
grestore
gsave
576.258 353.859 m
576.258 426.505 l
stroke
grestore
gsave
70.7937 353.859 m
576.258 353.859 l
stroke
grestore
gsave
70.7938 353.859 m
70.7938 426.505 l
stroke
grestore
gsave
583.758 356.409 m
726.758 356.409 l
726.758 423.956 l
583.758 423.956 l
583.758 356.409 l
cl
gsave
1.000 setgray
fill
grestore
stroke
grestore
3.000 setlinewidth
2 setlinecap
1.000 0.000 0.000 setrgbcolor
gsave
594.258 411.815 m
615.258 411.815 l
stroke
grestore
0.000 setgray
gsave
631.758125 406.565085 translate
0.000000 rotate
/Cmmi10 findfont
15.0 scalefont
setfont
0.000000 0.859375 moveto
/C glyphshow

/Cmr10 findfont
15.0 scalefont
setfont
13.341797 0.859375 moveto
/equal glyphshow

25.944336 0.859375 moveto
/zero glyphshow

/Cmmi10 findfont
15.0 scalefont
setfont
33.444336 0.859375 moveto
/period glyphshow

/Cmr10 findfont
15.0 scalefont
setfont
37.718750 0.859375 moveto
/zero glyphshow

45.218750 0.859375 moveto
/six glyphshow

/DejaVuSans findfont
15.0 scalefont
setfont
52.718750 0.859375 moveto
/space glyphshow

57.486816 0.859375 moveto
/D glyphshow

69.037109 0.859375 moveto
/B glyphshow

79.327637 0.859375 moveto
/S glyphshow


grestore
2.000 setlinewidth
0 setlinecap
[1 3] 0 setdash
1.000 0.000 0.000 setrgbcolor
gsave
594.258 391.299 m
615.258 391.299 l
stroke
grestore
0.000 setgray
gsave
631.758125 386.049460 translate
0.000000 rotate
/Cmmi10 findfont
15.0 scalefont
setfont
0.000000 0.859375 moveto
/C glyphshow

/Cmr10 findfont
15.0 scalefont
setfont
13.341797 0.859375 moveto
/equal glyphshow

25.944336 0.859375 moveto
/zero glyphshow

/Cmmi10 findfont
15.0 scalefont
setfont
33.444336 0.859375 moveto
/period glyphshow

/Cmr10 findfont
15.0 scalefont
setfont
37.718750 0.859375 moveto
/zero glyphshow

45.218750 0.859375 moveto
/six glyphshow

/DejaVuSans findfont
15.0 scalefont
setfont
52.718750 0.859375 moveto
/space glyphshow

57.486816 0.859375 moveto
/B glyphshow

67.777344 0.859375 moveto
/S glyphshow


grestore
1.000 setlinewidth
[6 6] 0 setdash
0.750 0.000 0.750 setrgbcolor
gsave
594.258 370.784 m
615.258 370.784 l
stroke
grestore
0.000 setgray
gsave
631.758125 365.533835 translate
0.000000 rotate
/Cmmi10 findfont
15.0 scalefont
setfont
0.000000 0.421875 moveto
/E glyphshow

11.066895 0.421875 moveto
/O glyphshow

22.500000 0.421875 moveto
/B glyphshow


grestore
gsave
70.7938 252.155 m
576.258 252.155 l
576.258 324.801 l
70.7938 324.801 l
cl
1.000 setgray
fill
grestore
3.000 setlinewidth
2 setlinecap
[] 0 setdash
0.000 0.000 1.000 setrgbcolor
gsave
505.5 72.65 70.79 252.2 clipbox
68.0417 280.905 m
74.9219 281.981 l
81.802 283.411 l
88.6822 285.2 l
95.5624 287.286 l
112.763 292.769 l
119.643 294.658 l
126.523 296.273 l
133.403 297.662 l
140.284 298.874 l
147.164 299.89 l
154.044 300.59 l
157.484 300.78 l
160.924 300.854 l
164.364 300.808 l
167.804 300.628 l
171.244 300.31 l
174.685 299.861 l
178.125 299.286 l
181.565 298.587 l
188.445 296.846 l
195.325 294.723 l
202.205 292.331 l
229.726 282.367 l
236.606 280.3 l
243.486 278.622 l
250.367 277.375 l
253.807 276.918 l
257.247 276.573 l
260.687 276.361 l
264.127 276.297 l
267.567 276.392 l
271.007 276.661 l
274.447 277.116 l
277.887 277.761 l
281.327 278.59 l
284.768 279.591 l
288.208 280.748 l
295.088 283.45 l
301.968 286.497 l
319.168 294.393 l
326.049 297.187 l
329.489 298.411 l
332.929 299.516 l
336.369 300.486 l
339.809 301.32 l
343.249 302.012 l
346.689 302.566 l
350.129 302.974 l
353.569 303.216 l
357.01 303.269 l
360.45 303.116 l
363.89 302.75 l
367.33 302.159 l
370.77 301.343 l
374.21 300.309 l
377.65 299.076 l
381.09 297.666 l
384.53 296.104 l
391.41 292.641 l
408.611 283.585 l
412.051 281.98 l
415.491 280.514 l
418.931 279.201 l
422.371 278.045 l
425.811 277.055 l
429.251 276.232 l
432.692 275.574 l
436.132 275.088 l
439.572 274.779 l
443.012 274.656 l
446.452 274.741 l
449.892 275.057 l
453.332 275.607 l
456.772 276.389 l
460.212 277.399 l
463.652 278.624 l
467.092 280.04 l
470.533 281.624 l
477.413 285.173 l
498.053 296.507 l
501.493 298.105 l
504.934 299.532 l
508.374 300.78 l
511.814 301.834 l
515.254 302.692 l
518.694 303.344 l
522.134 303.78 l
525.574 303.997 l
529.014 303.986 l
532.454 303.734 l
535.894 303.232 l
539.334 302.486 l
542.775 301.509 l
546.215 300.317 l
549.655 298.928 l
553.095 297.368 l
559.975 293.831 l
566.855 289.931 l
577.175 283.937 l
577.175 283.937 l
stroke
grestore
2.000 setlinewidth
0 setlinecap
[1 3] 0 setdash
gsave
505.5 72.65 70.79 252.2 clipbox
70.6189 279.35 m
76.112 280.467 l
81.6052 281.815 l
87.0984 283.39 l
93.5071 285.468 l
114.106 292.381 l
119.6 293.854 l
125.093 295.078 l
130.586 296.074 l
136.537 296.932 l
142.488 297.578 l
147.523 297.924 l
152.101 298.044 l
156.678 297.94 l
160.798 297.641 l
164.918 297.135 l
169.038 296.42 l
173.616 295.387 l
178.193 294.115 l
183.229 292.466 l
188.722 290.42 l
195.588 287.604 l
215.73 279.177 l
221.223 277.183 l
226.259 275.586 l
230.836 274.379 l
234.956 273.532 l
238.618 272.991 l
242.28 272.668 l
245.942 272.561 l
249.604 272.664 l
253.267 272.97 l
257.386 273.551 l
261.506 274.383 l
265.168 275.338 l
268.831 276.504 l
272.95 278.064 l
277.07 279.875 l
281.648 282.137 l
287.141 285.131 l
294.465 289.391 l
308.198 297.364 l
312.776 299.71 l
316.438 301.356 l
319.642 302.581 l
322.847 303.571 l
325.593 304.212 l
328.34 304.646 l
331.086 304.863 l
333.833 304.874 l
336.58 304.689 l
339.784 304.234 l
342.988 303.543 l
346.193 302.622 l
350.312 301.181 l
351.686 300.559 l
353.059 299.685 l
354.432 298.444 l
355.806 296.827 l
357.637 294.215 l
359.925 290.461 l
364.045 283.086 l
367.707 276.709 l
369.996 273.119 l
371.827 270.571 l
373.658 268.373 l
375.489 266.571 l
376.863 265.503 l
378.236 264.692 l
379.609 264.148 l
380.983 263.876 l
382.356 263.883 l
383.729 264.175 l
385.102 264.757 l
386.476 265.627 l
387.849 266.771 l
389.222 268.165 l
391.053 270.361 l
393.342 273.552 l
396.089 277.849 l
400.209 284.787 l
413.942 308.345 l
416.23 311.553 l
418.061 313.727 l
419.435 315.06 l
420.808 316.085 l
422.181 316.771 l
423.555 317.111 l
424.47 317.143 l
425.386 317.014 l
426.301 316.72 l
427.217 316.259 l
428.59 315.265 l
429.963 313.937 l
431.337 312.311 l
432.71 310.406 l
434.541 307.437 l
436.372 304.007 l
438.661 299.208 l
447.816 279.246 l
450.105 274.861 l
451.936 271.81 l
453.309 269.856 l
454.683 268.221 l
456.056 266.931 l
457.429 266.005 l
458.345 265.595 l
459.26 265.353 l
460.176 265.279 l
461.091 265.371 l
462.007 265.625 l
463.38 266.29 l
464.753 267.265 l
466.127 268.509 l
467.958 270.509 l
470.246 273.413 l
472.993 277.287 l
481.233 289.222 l
483.522 292.014 l
485.81 294.467 l
488.099 296.547 l
490.388 298.296 l
492.219 299.411 l
493.592 300.031 l
494.966 300.457 l
496.339 300.699 l
497.712 300.758 l
499.086 300.624 l
500.459 300.287 l
501.832 299.751 l
503.205 299.019 l
505.037 297.751 l
506.868 296.144 l
508.699 294.222 l
510.987 291.464 l
513.734 287.765 l
517.396 282.389 l
521.058 277.067 l
522.889 274.753 l
524.72 272.788 l
526.551 271.21 l
527.925 270.308 l
529.298 269.666 l
530.671 269.291 l
532.045 269.18 l
533.418 269.319 l
534.791 269.691 l
536.164 270.283 l
537.538 271.08 l
539.369 272.432 l
541.2 274.063 l
543.489 276.402 l
548.524 282.036 l
558.137 292.556 l
560.426 294.836 l
562.257 296.399 l
564.088 297.699 l
565.919 298.727 l
567.75 299.516 l
569.581 300.072 l
571.412 300.364 l
573.243 300.379 l
575.074 300.115 l
576.448 299.719 l
576.448 299.719 l
stroke
grestore
1.000 setlinewidth
[6 6] 0 setdash
0.750 0.000 0.750 setrgbcolor
gsave
505.5 72.65 70.79 252.2 clipbox
70.2743 281.488 m
77.2585 283.12 l
86.5709 285.608 l
102.868 290.349 l
112.18 292.968 l
119.164 294.752 l
126.148 296.301 l
133.133 297.557 l
137.789 298.204 l
142.445 298.686 l
147.101 298.993 l
151.757 299.118 l
156.414 299.06 l
161.07 298.817 l
165.726 298.392 l
170.382 297.794 l
175.038 297.03 l
182.022 295.603 l
189.007 293.888 l
195.991 291.949 l
207.631 288.432 l
221.6 284.219 l
228.584 282.315 l
235.569 280.654 l
242.553 279.304 l
247.209 278.606 l
251.865 278.087 l
256.521 277.757 l
261.177 277.623 l
265.834 277.688 l
270.49 277.954 l
275.146 278.415 l
279.802 279.064 l
284.458 279.891 l
289.115 280.882 l
296.099 282.633 l
303.083 284.641 l
312.395 287.57 l
328.692 292.77 l
335.676 294.779 l
342.661 296.524 l
347.317 297.503 l
351.973 298.31 l
356.629 298.928 l
361.285 299.344 l
365.941 299.549 l
370.598 299.537 l
375.254 299.307 l
379.91 298.863 l
384.566 298.211 l
389.222 297.364 l
393.878 296.337 l
400.863 294.501 l
407.847 292.384 l
417.159 289.286 l
433.456 283.809 l
440.44 281.72 l
447.424 279.933 l
452.081 278.953 l
456.737 278.167 l
461.393 277.593 l
466.049 277.244 l
470.705 277.13 l
475.362 277.255 l
480.018 277.617 l
484.674 278.21 l
489.33 279.024 l
493.986 280.044 l
498.642 281.247 l
505.627 283.344 l
512.611 285.702 l
538.22 294.698 l
545.204 296.71 l
549.86 297.836 l
554.517 298.757 l
559.173 299.452 l
563.829 299.904 l
568.485 300.099 l
573.141 300.033 l
577.797 299.703 l
577.797 299.703 l
stroke
grestore
0.500 setlinewidth
[] 0 setdash
0.000 setgray
gsave
/o {
gsave
newpath
translate
0.5 setlinewidth
1 setlinejoin
0 setlinecap
0 0 m
0 4 l
gsave
0.000 setgray
fill
grestore
stroke
grestore
} bind def
84.0954 252.155 o
grestore
gsave
/o {
gsave
newpath
translate
0.5 setlinewidth
1 setlinejoin
0 setlinecap
0 0 m
0 -4 l
gsave
0.000 setgray
fill
grestore
stroke
grestore
} bind def
84.0954 324.801 o
grestore
gsave
66.720444 237.514572 translate
0.000000 rotate
0.000000 0.000000 m /minus glyphshow
11.311523 0.000000 m /one glyphshow
19.900635 0.000000 m /zero glyphshow
28.489746 0.000000 m /zero glyphshow
grestore
gsave
/o {
gsave
newpath
translate
0.5 setlinewidth
1 setlinejoin
0 setlinecap
0 0 m
0 4 l
gsave
0.000 setgray
fill
grestore
stroke
grestore
} bind def
217.112 252.155 o
grestore
gsave
/o {
gsave
newpath
translate
0.5 setlinewidth
1 setlinejoin
0 setlinecap
0 0 m
0 -4 l
gsave
0.000 setgray
fill
grestore
stroke
grestore
} bind def
217.112 324.801 o
grestore
gsave
204.034260 237.514572 translate
0.000000 rotate
0.000000 0.000000 m /minus glyphshow
11.311523 0.000000 m /five glyphshow
19.900635 0.000000 m /zero glyphshow
grestore
gsave
/o {
gsave
newpath
translate
0.5 setlinewidth
1 setlinejoin
0 setlinecap
0 0 m
0 4 l
gsave
0.000 setgray
fill
grestore
stroke
grestore
} bind def
350.129 252.155 o
grestore
gsave
/o {
gsave
newpath
translate
0.5 setlinewidth
1 setlinejoin
0 setlinecap
0 0 m
0 -4 l
gsave
0.000 setgray
fill
grestore
stroke
grestore
} bind def
350.129 324.801 o
grestore
gsave
346.730888 237.514572 translate
0.000000 rotate
0.000000 0.000000 m /zero glyphshow
grestore
gsave
/o {
gsave
newpath
translate
0.5 setlinewidth
1 setlinejoin
0 setlinecap
0 0 m
0 4 l
gsave
0.000 setgray
fill
grestore
stroke
grestore
} bind def
483.146 252.155 o
grestore
gsave
/o {
gsave
newpath
translate
0.5 setlinewidth
1 setlinejoin
0 setlinecap
0 0 m
0 -4 l
gsave
0.000 setgray
fill
grestore
stroke
grestore
} bind def
483.146 324.801 o
grestore
gsave
475.529079 237.514572 translate
0.000000 rotate
0.000000 0.000000 m /five glyphshow
8.589111 0.000000 m /zero glyphshow
grestore
gsave
/o {
gsave
newpath
translate
0.5 setlinewidth
1 setlinejoin
0 setlinecap
0 0 m
4 0 l
gsave
0.000 setgray
fill
grestore
stroke
grestore
} bind def
70.7938 252.155 o
grestore
gsave
/o {
gsave
newpath
translate
0.5 setlinewidth
1 setlinejoin
0 setlinecap
0 0 m
-4 0 l
gsave
0.000 setgray
fill
grestore
stroke
grestore
} bind def
576.258 252.155 o
grestore
gsave
36.200000 248.288010 translate
0.000000 rotate
0.000000 0.000000 m /minus glyphshow
11.311523 0.000000 m /zero glyphshow
19.900635 0.000000 m /period glyphshow
24.191895 0.000000 m /four glyphshow
grestore
gsave
/o {
gsave
newpath
translate
0.5 setlinewidth
1 setlinejoin
0 setlinecap
0 0 m
4 0 l
gsave
0.000 setgray
fill
grestore
stroke
grestore
} bind def
70.7938 261.236 o
grestore
gsave
/o {
gsave
newpath
translate
0.5 setlinewidth
1 setlinejoin
0 setlinecap
0 0 m
-4 0 l
gsave
0.000 setgray
fill
grestore
stroke
grestore
} bind def
576.258 261.236 o
grestore
gsave
/o {
gsave
newpath
translate
0.5 setlinewidth
1 setlinejoin
0 setlinecap
0 0 m
4 0 l
gsave
0.000 setgray
fill
grestore
stroke
grestore
} bind def
70.7938 270.317 o
grestore
gsave
/o {
gsave
newpath
translate
0.5 setlinewidth
1 setlinejoin
0 setlinecap
0 0 m
-4 0 l
gsave
0.000 setgray
fill
grestore
stroke
grestore
} bind def
576.258 270.317 o
grestore
gsave
36.793750 266.449467 translate
0.000000 rotate
0.000000 0.000000 m /minus glyphshow
11.311523 0.000000 m /zero glyphshow
19.900635 0.000000 m /period glyphshow
24.191895 0.000000 m /two glyphshow
grestore
gsave
/o {
gsave
newpath
translate
0.5 setlinewidth
1 setlinejoin
0 setlinecap
0 0 m
4 0 l
gsave
0.000 setgray
fill
grestore
stroke
grestore
} bind def
70.7938 279.397 o
grestore
gsave
/o {
gsave
newpath
translate
0.5 setlinewidth
1 setlinejoin
0 setlinecap
0 0 m
-4 0 l
gsave
0.000 setgray
fill
grestore
stroke
grestore
} bind def
576.258 279.397 o
grestore
gsave
/o {
gsave
newpath
translate
0.5 setlinewidth
1 setlinejoin
0 setlinecap
0 0 m
4 0 l
gsave
0.000 setgray
fill
grestore
stroke
grestore
} bind def
70.7938 288.478 o
grestore
gsave
/o {
gsave
newpath
translate
0.5 setlinewidth
1 setlinejoin
0 setlinecap
0 0 m
-4 0 l
gsave
0.000 setgray
fill
grestore
stroke
grestore
} bind def
576.258 288.478 o
grestore
gsave
47.106250 284.610924 translate
0.000000 rotate
0.000000 0.000000 m /zero glyphshow
8.589111 0.000000 m /period glyphshow
12.880371 0.000000 m /zero glyphshow
grestore
gsave
/o {
gsave
newpath
translate
0.5 setlinewidth
1 setlinejoin
0 setlinecap
0 0 m
4 0 l
gsave
0.000 setgray
fill
grestore
stroke
grestore
} bind def
70.7938 297.559 o
grestore
gsave
/o {
gsave
newpath
translate
0.5 setlinewidth
1 setlinejoin
0 setlinecap
0 0 m
-4 0 l
gsave
0.000 setgray
fill
grestore
stroke
grestore
} bind def
576.258 297.559 o
grestore
gsave
/o {
gsave
newpath
translate
0.5 setlinewidth
1 setlinejoin
0 setlinecap
0 0 m
4 0 l
gsave
0.000 setgray
fill
grestore
stroke
grestore
} bind def
70.7938 306.64 o
grestore
gsave
/o {
gsave
newpath
translate
0.5 setlinewidth
1 setlinejoin
0 setlinecap
0 0 m
-4 0 l
gsave
0.000 setgray
fill
grestore
stroke
grestore
} bind def
576.258 306.64 o
grestore
gsave
47.559375 302.772382 translate
0.000000 rotate
0.000000 0.000000 m /zero glyphshow
8.589111 0.000000 m /period glyphshow
12.880371 0.000000 m /two glyphshow
grestore
gsave
/o {
gsave
newpath
translate
0.5 setlinewidth
1 setlinejoin
0 setlinecap
0 0 m
4 0 l
gsave
0.000 setgray
fill
grestore
stroke
grestore
} bind def
70.7938 315.72 o
grestore
gsave
/o {
gsave
newpath
translate
0.5 setlinewidth
1 setlinejoin
0 setlinecap
0 0 m
-4 0 l
gsave
0.000 setgray
fill
grestore
stroke
grestore
} bind def
576.258 315.72 o
grestore
gsave
/o {
gsave
newpath
translate
0.5 setlinewidth
1 setlinejoin
0 setlinecap
0 0 m
4 0 l
gsave
0.000 setgray
fill
grestore
stroke
grestore
} bind def
70.7938 324.801 o
grestore
gsave
/o {
gsave
newpath
translate
0.5 setlinewidth
1 setlinejoin
0 setlinecap
0 0 m
-4 0 l
gsave
0.000 setgray
fill
grestore
stroke
grestore
} bind def
576.258 324.801 o
grestore
gsave
46.965625 320.933839 translate
0.000000 rotate
0.000000 0.000000 m /zero glyphshow
8.589111 0.000000 m /period glyphshow
12.880371 0.000000 m /four glyphshow
grestore
gsave
26.200000 256.478112 translate
90.000000 rotate
/Cmsy10 findfont
20.0 scalefont
setfont
0.000000 0.897188 moveto
/Rfractur glyphshow

/Cmr10 findfont
20.0 scalefont
setfont
14.443359 0.897188 moveto
/parenleft glyphshow

/Cmmi10 findfont
20.0 scalefont
setfont
22.207031 0.897188 moveto
/h glyphshow

/Cmr10 findfont
14.0 scalefont
setfont
33.730469 9.670313 moveto
/two glyphshow

/Cmmi10 findfont
14.0 scalefont
setfont
40.730469 9.670313 moveto
/comma glyphshow

/Cmr10 findfont
14.0 scalefont
setfont
44.883984 9.670313 moveto
/two glyphshow

/Cmr10 findfont
20.0 scalefont
setfont
55.285234 0.897188 moveto
/parenright glyphshow


grestore
1.000 setlinewidth
gsave
70.7937 324.801 m
576.258 324.801 l
stroke
grestore
gsave
576.258 252.155 m
576.258 324.801 l
stroke
grestore
gsave
70.7937 252.155 m
576.258 252.155 l
stroke
grestore
gsave
70.7938 252.155 m
70.7938 324.801 l
stroke
grestore
gsave
583.758 254.705 m
726.758 254.705 l
726.758 322.252 l
583.758 322.252 l
583.758 254.705 l
cl
gsave
1.000 setgray
fill
grestore
stroke
grestore
3.000 setlinewidth
2 setlinecap
0.000 0.000 1.000 setrgbcolor
gsave
594.258 310.111 m
615.258 310.111 l
stroke
grestore
0.000 setgray
gsave
631.758125 304.860924 translate
0.000000 rotate
/Cmmi10 findfont
15.0 scalefont
setfont
0.000000 0.859375 moveto
/C glyphshow

/Cmr10 findfont
15.0 scalefont
setfont
13.341797 0.859375 moveto
/equal glyphshow

25.944336 0.859375 moveto
/zero glyphshow

/Cmmi10 findfont
15.0 scalefont
setfont
33.444336 0.859375 moveto
/period glyphshow

/Cmr10 findfont
15.0 scalefont
setfont
37.718750 0.859375 moveto
/one glyphshow

45.218750 0.859375 moveto
/two glyphshow

/DejaVuSans findfont
15.0 scalefont
setfont
52.718750 0.859375 moveto
/space glyphshow

57.486816 0.859375 moveto
/D glyphshow

69.037109 0.859375 moveto
/B glyphshow

79.327637 0.859375 moveto
/S glyphshow


grestore
2.000 setlinewidth
0 setlinecap
[1 3] 0 setdash
0.000 0.000 1.000 setrgbcolor
gsave
594.258 289.595 m
615.258 289.595 l
stroke
grestore
0.000 setgray
gsave
631.758125 284.345299 translate
0.000000 rotate
/Cmmi10 findfont
15.0 scalefont
setfont
0.000000 0.859375 moveto
/C glyphshow

/Cmr10 findfont
15.0 scalefont
setfont
13.341797 0.859375 moveto
/equal glyphshow

25.944336 0.859375 moveto
/zero glyphshow

/Cmmi10 findfont
15.0 scalefont
setfont
33.444336 0.859375 moveto
/period glyphshow

/Cmr10 findfont
15.0 scalefont
setfont
37.718750 0.859375 moveto
/one glyphshow

45.218750 0.859375 moveto
/two glyphshow

/DejaVuSans findfont
15.0 scalefont
setfont
52.718750 0.859375 moveto
/space glyphshow

57.486816 0.859375 moveto
/B glyphshow

67.777344 0.859375 moveto
/S glyphshow


grestore
1.000 setlinewidth
[6 6] 0 setdash
0.750 0.000 0.750 setrgbcolor
gsave
594.258 269.08 m
615.258 269.08 l
stroke
grestore
0.000 setgray
gsave
631.758125 263.829674 translate
0.000000 rotate
/Cmmi10 findfont
15.0 scalefont
setfont
0.000000 0.421875 moveto
/E glyphshow

11.066895 0.421875 moveto
/O glyphshow

22.500000 0.421875 moveto
/B glyphshow


grestore
gsave
70.7938 150.451 m
576.258 150.451 l
576.258 223.097 l
70.7938 223.097 l
cl
1.000 setgray
fill
grestore
3.000 setlinewidth
2 setlinecap
[] 0 setdash
gsave
505.5 72.65 70.79 150.5 clipbox
70.4795 190.028 m
78.0207 189.323 l
84.3049 188.513 l
91.846 187.301 l
105.671 185.028 l
116.983 183.417 l
124.524 182.503 l
129.552 182.065 l
134.579 181.837 l
139.606 181.847 l
144.634 182.074 l
150.918 182.614 l
157.202 183.413 l
162.23 184.267 l
167.257 185.323 l
173.541 186.873 l
187.367 190.401 l
193.651 191.721 l
198.679 192.548 l
203.706 193.111 l
207.477 193.322 l
211.247 193.315 l
215.018 193.064 l
218.788 192.554 l
222.559 191.782 l
226.329 190.766 l
230.1 189.537 l
235.127 187.648 l
251.466 181.203 l
255.237 180.04 l
259.007 179.149 l
261.521 178.742 l
264.035 178.511 l
266.549 178.471 l
269.062 178.634 l
271.576 179.007 l
274.09 179.591 l
276.603 180.38 l
279.117 181.363 l
282.888 183.161 l
286.658 185.262 l
299.227 192.66 l
301.74 193.849 l
304.254 194.834 l
306.768 195.574 l
309.282 196.033 l
311.795 196.186 l
314.309 196.015 l
316.823 195.508 l
319.336 194.664 l
321.85 193.498 l
324.364 192.037 l
326.878 190.33 l
330.648 187.44 l
338.189 181.42 l
340.703 179.66 l
343.217 178.174 l
345.73 177.053 l
346.987 176.654 l
348.244 176.376 l
349.501 176.224 l
350.758 176.206 l
352.015 176.326 l
353.271 176.586 l
354.528 176.988 l
355.785 177.53 l
357.042 178.206 l
359.556 179.938 l
362.069 182.106 l
364.583 184.607 l
374.638 195.145 l
377.152 197.079 l
378.409 197.818 l
379.665 198.378 l
380.922 198.739 l
382.179 198.887 l
383.436 198.808 l
384.693 198.495 l
385.95 197.942 l
387.206 197.151 l
388.463 196.128 l
389.72 194.886 l
390.977 193.441 l
393.491 190.04 l
397.261 184.174 l
399.775 180.275 l
402.289 176.875 l
403.546 175.502 l
404.802 174.418 l
406.059 173.673 l
407.316 173.31 l
408.573 173.365 l
409.83 173.864 l
411.087 174.817 l
412.344 176.216 l
413.6 178.034 l
414.857 180.22 l
417.371 185.378 l
421.142 193.419 l
422.398 195.665 l
423.655 197.482 l
424.912 198.765 l
426.169 199.437 l
427.426 199.449 l
428.683 198.793 l
429.939 197.501 l
431.196 195.646 l
432.453 193.334 l
434.967 187.922 l
437.481 182.588 l
438.737 180.379 l
439.994 178.672 l
441.251 177.578 l
442.508 177.161 l
443.765 177.44 l
445.022 178.376 l
446.279 179.88 l
447.535 181.815 l
451.306 188.415 l
452.563 190.261 l
453.82 191.672 l
455.077 192.554 l
456.333 192.866 l
457.59 192.617 l
458.847 191.865 l
460.104 190.706 l
462.618 187.715 l
463.875 186.19 l
465.131 184.845 l
466.388 183.805 l
467.645 183.159 l
468.902 182.947 l
470.159 183.161 l
471.416 183.743 l
472.672 184.596 l
476.443 187.566 l
477.7 188.32 l
478.957 188.828 l
480.214 189.06 l
481.47 189.016 l
482.727 188.727 l
485.241 187.647 l
487.755 186.422 l
489.012 185.944 l
490.268 185.629 l
491.525 185.499 l
492.782 185.55 l
495.296 186.069 l
499.066 187.145 l
501.58 187.553 l
504.094 187.535 l
506.608 187.183 l
510.378 186.562 l
512.892 186.399 l
515.405 186.491 l
522.947 187.049 l
526.717 186.915 l
531.745 186.649 l
535.515 186.662 l
544.313 186.805 l
556.882 186.677 l
569.45 186.678 l
576.991 186.666 l
576.991 186.666 l
stroke
grestore
2.000 setlinewidth
0 setlinecap
[1 3] 0 setdash
gsave
505.5 72.65 70.79 150.5 clipbox
70.7761 189.94 m
82.7726 189.573 l
93.9952 189.057 l
100.961 188.522 l
107.54 187.801 l
115.666 186.672 l
159.009 180.34 l
165.974 179.511 l
171.779 179.04 l
177.197 178.819 l
183.002 178.808 l
189.193 179.021 l
195.772 179.466 l
201.964 180.106 l
207.382 180.887 l
212.412 181.825 l
217.83 183.065 l
224.022 184.724 l
234.857 187.921 l
244.532 190.677 l
251.498 192.431 l
257.303 193.671 l
262.333 194.531 l
266.977 195.1 l
271.234 195.39 l
275.104 195.427 l
278.587 195.256 l
282.069 194.876 l
285.552 194.284 l
289.035 193.477 l
292.905 192.34 l
296.775 190.968 l
301.032 189.222 l
306.063 186.904 l
313.028 183.42 l
324.251 177.8 l
328.895 175.718 l
332.764 174.201 l
336.247 173.056 l
339.343 172.251 l
342.439 171.682 l
345.148 171.399 l
347.857 171.335 l
350.566 171.5 l
353.275 171.904 l
355.983 172.55 l
358.692 173.438 l
361.401 174.562 l
364.11 175.912 l
367.206 177.709 l
370.689 180.021 l
374.559 182.877 l
379.976 187.193 l
387.716 193.367 l
391.586 196.154 l
394.682 198.117 l
397.391 199.587 l
400.1 200.785 l
402.422 201.567 l
404.743 202.102 l
407.065 202.375 l
409 202.394 l
410.935 202.216 l
412.87 201.837 l
414.805 201.252 l
416.74 200.464 l
419.062 199.253 l
421.384 197.765 l
423.706 196.018 l
426.415 193.685 l
429.51 190.695 l
433.38 186.606 l
444.603 174.491 l
447.312 171.984 l
449.634 170.103 l
451.956 168.528 l
453.89 167.486 l
455.825 166.719 l
457.373 166.317 l
458.921 166.116 l
460.469 166.123 l
462.017 166.345 l
463.565 166.787 l
465.113 167.45 l
466.661 168.33 l
468.596 169.728 l
470.531 171.441 l
472.466 173.445 l
474.788 176.192 l
477.497 179.789 l
480.979 184.852 l
489.88 198.059 l
492.202 201.048 l
494.137 203.237 l
496.072 205.083 l
497.62 206.271 l
499.168 207.171 l
500.716 207.758 l
501.877 207.977 l
503.037 207.998 l
504.198 207.815 l
505.359 207.424 l
506.52 206.82 l
507.681 206.004 l
509.229 204.592 l
510.777 202.816 l
512.325 200.695 l
514.26 197.595 l
516.195 194.053 l
518.517 189.331 l
521.613 182.485 l
523.935 176.911 l
526.257 170.639 l
528.578 164.486 l
529.739 161.928 l
530.9 159.848 l
532.061 158.31 l
532.835 157.614 l
533.609 157.193 l
534.383 157.05 l
535.157 157.185 l
535.931 157.591 l
536.705 158.259 l
537.479 159.175 l
538.64 160.975 l
539.801 163.22 l
541.349 166.764 l
543.284 171.813 l
547.154 182.767 l
549.863 190.183 l
551.797 194.835 l
553.345 197.937 l
554.506 199.828 l
555.667 201.306 l
556.828 202.345 l
557.602 202.783 l
558.376 203.013 l
559.15 203.031 l
559.924 202.836 l
560.698 202.431 l
561.472 201.819 l
562.633 200.525 l
563.794 198.811 l
564.955 196.71 l
566.503 193.386 l
568.438 188.572 l
571.534 180.066 l
574.63 171.672 l
576.564 167.09 l
576.564 167.09 l
stroke
grestore
1.000 setlinewidth
[6 6] 0 setdash
0.750 0.000 0.750 setrgbcolor
gsave
505.5 72.65 70.79 150.5 clipbox
70.0387 192.429 m
76.418 191.933 l
82.7973 191.219 l
89.1767 190.315 l
97.6824 188.877 l
110.441 186.443 l
123.2 184.042 l
131.705 182.665 l
138.085 181.828 l
144.464 181.203 l
150.843 180.819 l
157.223 180.695 l
163.602 180.839 l
169.981 181.247 l
176.361 181.904 l
182.74 182.783 l
191.246 184.233 l
201.878 186.331 l
218.89 189.73 l
227.395 191.152 l
233.775 191.994 l
240.154 192.597 l
246.533 192.93 l
252.913 192.975 l
259.292 192.726 l
265.671 192.193 l
272.051 191.396 l
278.43 190.373 l
286.936 188.738 l
301.821 185.531 l
312.453 183.365 l
318.832 182.263 l
325.212 181.378 l
331.591 180.76 l
337.97 180.441 l
344.35 180.442 l
350.729 180.766 l
357.108 181.4 l
363.488 182.316 l
369.867 183.47 l
378.373 185.276 l
401.764 190.499 l
408.143 191.632 l
414.522 192.51 l
420.902 193.083 l
425.155 193.276 l
429.407 193.312 l
433.66 193.187 l
437.913 192.903 l
444.293 192.194 l
450.672 191.175 l
457.051 189.901 l
465.557 187.926 l
484.695 183.307 l
491.074 182.031 l
497.454 181.024 l
501.706 180.534 l
505.959 180.206 l
510.212 180.051 l
514.465 180.074 l
518.718 180.278 l
522.971 180.657 l
527.224 181.204 l
533.603 182.309 l
539.982 183.698 l
548.488 185.849 l
565.5 190.281 l
571.879 191.665 l
576.132 192.424 l
578.258 192.746 l
578.258 192.746 l
stroke
grestore
0.500 setlinewidth
[] 0 setdash
0.000 setgray
gsave
/o {
gsave
newpath
translate
0.5 setlinewidth
1 setlinejoin
0 setlinecap
0 0 m
0 4 l
gsave
0.000 setgray
fill
grestore
stroke
grestore
} bind def
84.0954 150.451 o
grestore
gsave
/o {
gsave
newpath
translate
0.5 setlinewidth
1 setlinejoin
0 setlinecap
0 0 m
0 -4 l
gsave
0.000 setgray
fill
grestore
stroke
grestore
} bind def
84.0954 223.097 o
grestore
gsave
66.720444 135.810411 translate
0.000000 rotate
0.000000 0.000000 m /minus glyphshow
11.311523 0.000000 m /one glyphshow
19.900635 0.000000 m /zero glyphshow
28.489746 0.000000 m /zero glyphshow
grestore
gsave
/o {
gsave
newpath
translate
0.5 setlinewidth
1 setlinejoin
0 setlinecap
0 0 m
0 4 l
gsave
0.000 setgray
fill
grestore
stroke
grestore
} bind def
217.112 150.451 o
grestore
gsave
/o {
gsave
newpath
translate
0.5 setlinewidth
1 setlinejoin
0 setlinecap
0 0 m
0 -4 l
gsave
0.000 setgray
fill
grestore
stroke
grestore
} bind def
217.112 223.097 o
grestore
gsave
204.034260 135.810411 translate
0.000000 rotate
0.000000 0.000000 m /minus glyphshow
11.311523 0.000000 m /five glyphshow
19.900635 0.000000 m /zero glyphshow
grestore
gsave
/o {
gsave
newpath
translate
0.5 setlinewidth
1 setlinejoin
0 setlinecap
0 0 m
0 4 l
gsave
0.000 setgray
fill
grestore
stroke
grestore
} bind def
350.129 150.451 o
grestore
gsave
/o {
gsave
newpath
translate
0.5 setlinewidth
1 setlinejoin
0 setlinecap
0 0 m
0 -4 l
gsave
0.000 setgray
fill
grestore
stroke
grestore
} bind def
350.129 223.097 o
grestore
gsave
346.730888 135.810411 translate
0.000000 rotate
0.000000 0.000000 m /zero glyphshow
grestore
gsave
/o {
gsave
newpath
translate
0.5 setlinewidth
1 setlinejoin
0 setlinecap
0 0 m
0 4 l
gsave
0.000 setgray
fill
grestore
stroke
grestore
} bind def
483.146 150.451 o
grestore
gsave
/o {
gsave
newpath
translate
0.5 setlinewidth
1 setlinejoin
0 setlinecap
0 0 m
0 -4 l
gsave
0.000 setgray
fill
grestore
stroke
grestore
} bind def
483.146 223.097 o
grestore
gsave
475.529079 135.810411 translate
0.000000 rotate
0.000000 0.000000 m /five glyphshow
8.589111 0.000000 m /zero glyphshow
grestore
gsave
/o {
gsave
newpath
translate
0.5 setlinewidth
1 setlinejoin
0 setlinecap
0 0 m
4 0 l
gsave
0.000 setgray
fill
grestore
stroke
grestore
} bind def
70.7938 150.451 o
grestore
gsave
/o {
gsave
newpath
translate
0.5 setlinewidth
1 setlinejoin
0 setlinecap
0 0 m
-4 0 l
gsave
0.000 setgray
fill
grestore
stroke
grestore
} bind def
576.258 150.451 o
grestore
gsave
36.200000 146.583849 translate
0.000000 rotate
0.000000 0.000000 m /minus glyphshow
11.311523 0.000000 m /zero glyphshow
19.900635 0.000000 m /period glyphshow
24.191895 0.000000 m /four glyphshow
grestore
gsave
/o {
gsave
newpath
translate
0.5 setlinewidth
1 setlinejoin
0 setlinecap
0 0 m
4 0 l
gsave
0.000 setgray
fill
grestore
stroke
grestore
} bind def
70.7938 159.532 o
grestore
gsave
/o {
gsave
newpath
translate
0.5 setlinewidth
1 setlinejoin
0 setlinecap
0 0 m
-4 0 l
gsave
0.000 setgray
fill
grestore
stroke
grestore
} bind def
576.258 159.532 o
grestore
gsave
/o {
gsave
newpath
translate
0.5 setlinewidth
1 setlinejoin
0 setlinecap
0 0 m
4 0 l
gsave
0.000 setgray
fill
grestore
stroke
grestore
} bind def
70.7938 168.612 o
grestore
gsave
/o {
gsave
newpath
translate
0.5 setlinewidth
1 setlinejoin
0 setlinecap
0 0 m
-4 0 l
gsave
0.000 setgray
fill
grestore
stroke
grestore
} bind def
576.258 168.612 o
grestore
gsave
36.793750 164.745306 translate
0.000000 rotate
0.000000 0.000000 m /minus glyphshow
11.311523 0.000000 m /zero glyphshow
19.900635 0.000000 m /period glyphshow
24.191895 0.000000 m /two glyphshow
grestore
gsave
/o {
gsave
newpath
translate
0.5 setlinewidth
1 setlinejoin
0 setlinecap
0 0 m
4 0 l
gsave
0.000 setgray
fill
grestore
stroke
grestore
} bind def
70.7938 177.693 o
grestore
gsave
/o {
gsave
newpath
translate
0.5 setlinewidth
1 setlinejoin
0 setlinecap
0 0 m
-4 0 l
gsave
0.000 setgray
fill
grestore
stroke
grestore
} bind def
576.258 177.693 o
grestore
gsave
/o {
gsave
newpath
translate
0.5 setlinewidth
1 setlinejoin
0 setlinecap
0 0 m
4 0 l
gsave
0.000 setgray
fill
grestore
stroke
grestore
} bind def
70.7938 186.774 o
grestore
gsave
/o {
gsave
newpath
translate
0.5 setlinewidth
1 setlinejoin
0 setlinecap
0 0 m
-4 0 l
gsave
0.000 setgray
fill
grestore
stroke
grestore
} bind def
576.258 186.774 o
grestore
gsave
47.106250 182.906763 translate
0.000000 rotate
0.000000 0.000000 m /zero glyphshow
8.589111 0.000000 m /period glyphshow
12.880371 0.000000 m /zero glyphshow
grestore
gsave
/o {
gsave
newpath
translate
0.5 setlinewidth
1 setlinejoin
0 setlinecap
0 0 m
4 0 l
gsave
0.000 setgray
fill
grestore
stroke
grestore
} bind def
70.7938 195.855 o
grestore
gsave
/o {
gsave
newpath
translate
0.5 setlinewidth
1 setlinejoin
0 setlinecap
0 0 m
-4 0 l
gsave
0.000 setgray
fill
grestore
stroke
grestore
} bind def
576.258 195.855 o
grestore
gsave
/o {
gsave
newpath
translate
0.5 setlinewidth
1 setlinejoin
0 setlinecap
0 0 m
4 0 l
gsave
0.000 setgray
fill
grestore
stroke
grestore
} bind def
70.7938 204.935 o
grestore
gsave
/o {
gsave
newpath
translate
0.5 setlinewidth
1 setlinejoin
0 setlinecap
0 0 m
-4 0 l
gsave
0.000 setgray
fill
grestore
stroke
grestore
} bind def
576.258 204.935 o
grestore
gsave
47.559375 201.068221 translate
0.000000 rotate
0.000000 0.000000 m /zero glyphshow
8.589111 0.000000 m /period glyphshow
12.880371 0.000000 m /two glyphshow
grestore
gsave
/o {
gsave
newpath
translate
0.5 setlinewidth
1 setlinejoin
0 setlinecap
0 0 m
4 0 l
gsave
0.000 setgray
fill
grestore
stroke
grestore
} bind def
70.7938 214.016 o
grestore
gsave
/o {
gsave
newpath
translate
0.5 setlinewidth
1 setlinejoin
0 setlinecap
0 0 m
-4 0 l
gsave
0.000 setgray
fill
grestore
stroke
grestore
} bind def
576.258 214.016 o
grestore
gsave
/o {
gsave
newpath
translate
0.5 setlinewidth
1 setlinejoin
0 setlinecap
0 0 m
4 0 l
gsave
0.000 setgray
fill
grestore
stroke
grestore
} bind def
70.7938 223.097 o
grestore
gsave
/o {
gsave
newpath
translate
0.5 setlinewidth
1 setlinejoin
0 setlinecap
0 0 m
-4 0 l
gsave
0.000 setgray
fill
grestore
stroke
grestore
} bind def
576.258 223.097 o
grestore
gsave
46.965625 219.229678 translate
0.000000 rotate
0.000000 0.000000 m /zero glyphshow
8.589111 0.000000 m /period glyphshow
12.880371 0.000000 m /four glyphshow
grestore
gsave
26.200000 154.773951 translate
90.000000 rotate
/Cmsy10 findfont
20.0 scalefont
setfont
0.000000 0.897188 moveto
/Rfractur glyphshow

/Cmr10 findfont
20.0 scalefont
setfont
14.443359 0.897188 moveto
/parenleft glyphshow

/Cmmi10 findfont
20.0 scalefont
setfont
22.207031 0.897188 moveto
/h glyphshow

/Cmr10 findfont
14.0 scalefont
setfont
33.730469 9.670313 moveto
/two glyphshow

/Cmmi10 findfont
14.0 scalefont
setfont
40.730469 9.670313 moveto
/comma glyphshow

/Cmr10 findfont
14.0 scalefont
setfont
44.883984 9.670313 moveto
/two glyphshow

/Cmr10 findfont
20.0 scalefont
setfont
55.285234 0.897188 moveto
/parenright glyphshow


grestore
1.000 setlinewidth
gsave
70.7937 223.097 m
576.258 223.097 l
stroke
grestore
gsave
576.258 150.451 m
576.258 223.097 l
stroke
grestore
gsave
70.7937 150.451 m
576.258 150.451 l
stroke
grestore
gsave
70.7938 150.451 m
70.7938 223.097 l
stroke
grestore
gsave
583.758 153.001 m
726.758 153.001 l
726.758 220.547 l
583.758 220.547 l
583.758 153.001 l
cl
gsave
1.000 setgray
fill
grestore
stroke
grestore
3.000 setlinewidth
2 setlinecap
gsave
594.258 208.407 m
615.258 208.407 l
stroke
grestore
gsave
631.758125 203.156763 translate
0.000000 rotate
/Cmmi10 findfont
15.0 scalefont
setfont
0.000000 0.859375 moveto
/C glyphshow

/Cmr10 findfont
15.0 scalefont
setfont
13.341797 0.859375 moveto
/equal glyphshow

25.944336 0.859375 moveto
/zero glyphshow

/Cmmi10 findfont
15.0 scalefont
setfont
33.444336 0.859375 moveto
/period glyphshow

/Cmr10 findfont
15.0 scalefont
setfont
37.718750 0.859375 moveto
/one glyphshow

45.218750 0.859375 moveto
/eight glyphshow

/DejaVuSans findfont
15.0 scalefont
setfont
52.718750 0.859375 moveto
/space glyphshow

57.486816 0.859375 moveto
/D glyphshow

69.037109 0.859375 moveto
/B glyphshow

79.327637 0.859375 moveto
/S glyphshow


grestore
2.000 setlinewidth
0 setlinecap
[1 3] 0 setdash
gsave
594.258 187.891 m
615.258 187.891 l
stroke
grestore
gsave
631.758125 182.641138 translate
0.000000 rotate
/Cmmi10 findfont
15.0 scalefont
setfont
0.000000 0.859375 moveto
/C glyphshow

/Cmr10 findfont
15.0 scalefont
setfont
13.341797 0.859375 moveto
/equal glyphshow

25.944336 0.859375 moveto
/zero glyphshow

/Cmmi10 findfont
15.0 scalefont
setfont
33.444336 0.859375 moveto
/period glyphshow

/Cmr10 findfont
15.0 scalefont
setfont
37.718750 0.859375 moveto
/one glyphshow

45.218750 0.859375 moveto
/eight glyphshow

/DejaVuSans findfont
15.0 scalefont
setfont
52.718750 0.859375 moveto
/space glyphshow

57.486816 0.859375 moveto
/B glyphshow

67.777344 0.859375 moveto
/S glyphshow


grestore
1.000 setlinewidth
[6 6] 0 setdash
0.750 0.000 0.750 setrgbcolor
gsave
594.258 167.376 m
615.258 167.376 l
stroke
grestore
0.000 setgray
gsave
631.758125 162.125513 translate
0.000000 rotate
/Cmmi10 findfont
15.0 scalefont
setfont
0.000000 0.421875 moveto
/E glyphshow

11.066895 0.421875 moveto
/O glyphshow

22.500000 0.421875 moveto
/B glyphshow


grestore
gsave
70.7938 48.7469 m
576.258 48.7469 l
576.258 121.393 l
70.7938 121.393 l
cl
1.000 setgray
fill
grestore
3.000 setlinewidth
2 setlinecap
[] 0 setdash
0.000 0.500 0.000 setrgbcolor
gsave
505.5 72.65 70.79 48.75 clipbox
70.2701 91.4542 m
74.7586 91.0626 l
80.3693 90.2892 l
87.1021 89.0979 l
96.0791 87.2699 l
109.545 84.2553 l
119.644 82.068 l
125.255 81.0531 l
131.987 80.0871 l
140.964 79.0792 l
148.819 78.4274 l
154.43 78.1778 l
160.041 78.1805 l
165.651 78.4403 l
172.384 79.0104 l
180.239 79.8991 l
188.094 80.9979 l
194.827 82.1646 l
202.682 83.7671 l
222.88 88.0242 l
234.101 90.0581 l
241.956 91.2748 l
247.567 91.9378 l
253.178 92.3591 l
258.788 92.5048 l
264.399 92.3887 l
270.01 92.0365 l
275.62 91.4505 l
281.231 90.6165 l
286.842 89.5161 l
292.452 88.1339 l
298.063 86.5072 l
305.918 83.9669 l
318.261 79.9648 l
324.994 78.0455 l
330.605 76.7008 l
335.093 75.8619 l
338.46 75.4115 l
341.826 75.1529 l
345.192 75.121 l
348.559 75.3428 l
351.925 75.8366 l
355.292 76.6128 l
358.658 77.6726 l
362.024 79.0047 l
365.391 80.5876 l
368.757 82.3906 l
373.246 85.0722 l
379.979 89.442 l
385.589 93.0383 l
388.956 94.9848 l
392.322 96.639 l
394.566 97.5189 l
396.811 98.1804 l
399.055 98.5881 l
401.299 98.7063 l
403.543 98.5061 l
405.788 97.9605 l
408.032 97.0512 l
410.276 95.7681 l
412.52 94.1116 l
414.765 92.0959 l
417.009 89.7497 l
419.253 87.1181 l
422.62 82.7842 l
428.23 75.3582 l
430.474 72.6869 l
432.719 70.4081 l
433.841 69.4652 l
434.963 68.6789 l
436.085 68.0679 l
437.207 67.6497 l
438.329 67.4406 l
439.452 67.455 l
440.574 67.7048 l
441.696 68.1993 l
442.818 68.9445 l
443.94 69.9421 l
445.062 71.1895 l
446.184 72.6789 l
447.306 74.3977 l
449.551 78.4441 l
451.795 83.1102 l
457.406 95.2524 l
458.528 97.3454 l
459.65 99.1974 l
460.772 100.756 l
461.894 101.975 l
463.016 102.812 l
464.138 103.235 l
465.261 103.222 l
466.383 102.763 l
467.505 101.859 l
468.627 100.527 l
469.749 98.7965 l
470.871 96.7106 l
473.115 91.709 l
478.726 78.0339 l
479.848 75.7916 l
480.97 73.9011 l
482.093 72.4236 l
483.215 71.4057 l
484.337 70.8771 l
485.459 70.8492 l
486.581 71.3141 l
487.703 72.2452 l
488.825 73.5975 l
489.947 75.3098 l
492.192 79.5051 l
495.558 86.3823 l
496.68 88.4699 l
497.802 90.3224 l
498.925 91.8774 l
500.047 93.0871 l
501.169 93.9201 l
502.291 94.3616 l
503.413 94.4132 l
504.535 94.0922 l
505.657 93.4302 l
506.779 92.4709 l
507.902 91.2681 l
510.146 88.3812 l
513.512 83.8428 l
514.634 82.5254 l
515.757 81.3925 l
516.879 80.4821 l
518.001 79.821 l
519.123 79.4237 l
520.245 79.2926 l
521.367 79.4181 l
522.489 79.7799 l
523.611 80.348 l
525.856 81.9488 l
531.466 86.5896 l
532.588 87.3034 l
533.711 87.8776 l
534.833 88.2971 l
535.955 88.5544 l
537.077 88.6491 l
538.199 88.5878 l
539.321 88.3831 l
541.566 87.6193 l
543.81 86.5444 l
548.298 84.3154 l
550.543 83.5321 l
552.787 83.1219 l
555.031 83.1062 l
557.275 83.4362 l
559.52 84.0107 l
566.252 85.9434 l
568.497 86.3104 l
570.741 86.4492 l
572.985 86.366 l
576.352 85.9222 l
576.352 85.9222 l
stroke
grestore
2.000 setlinewidth
0 setlinecap
[1 3] 0 setdash
gsave
505.5 72.65 70.79 48.75 clipbox
70.5482 91.6568 m
75.0077 91.2897 l
79.8387 90.6613 l
86.1562 89.5959 l
94.3318 87.9781 l
104.366 85.7589 l
120.717 82.1256 l
127.034 80.9955 l
133.723 80.039 l
142.642 79.0047 l
149.703 78.3845 l
155.277 78.1122 l
160.48 78.0889 l
166.054 78.3042 l
172.743 78.8104 l
180.919 79.6588 l
188.351 80.6363 l
195.041 81.7389 l
202.473 83.1985 l
227 88.202 l
238.892 90.3161 l
245.581 91.303 l
251.155 91.911 l
256.358 92.2604 l
261.932 92.4026 l
267.506 92.3276 l
273.452 92.0218 l
279.026 91.5065 l
284.229 90.7966 l
289.06 89.9185 l
294.263 88.7391 l
300.209 87.1418 l
307.641 84.8947 l
327.708 78.7227 l
333.654 77.1504 l
338.485 76.0971 l
342.573 75.4411 l
346.289 75.0861 l
349.634 74.9967 l
352.979 75.1486 l
355.951 75.4985 l
358.924 76.0556 l
361.897 76.8197 l
365.242 77.9201 l
368.587 79.2644 l
371.931 80.8382 l
375.647 82.8301 l
379.735 85.2684 l
385.681 89.1082 l
392.742 93.6267 l
396.086 95.5127 l
399.059 96.926 l
401.661 97.8894 l
403.89 98.4657 l
405.748 98.7425 l
407.606 98.8134 l
409.465 98.661 l
411.323 98.2705 l
413.181 97.6296 l
415.039 96.7298 l
416.897 95.567 l
418.755 94.1427 l
420.613 92.4657 l
422.843 90.1444 l
425.444 87.0702 l
428.789 82.7058 l
435.106 74.3204 l
437.336 71.7548 l
439.194 69.951 l
440.681 68.7922 l
442.167 67.9355 l
443.282 67.517 l
444.397 67.3089 l
445.512 67.3259 l
446.626 67.58 l
447.741 68.0804 l
448.856 68.8329 l
449.971 69.8392 l
451.086 71.0965 l
452.572 73.1491 l
454.059 75.6004 l
455.917 79.1458 l
458.147 83.9157 l
463.349 95.3389 l
464.836 98.1149 l
466.322 100.432 l
467.437 101.797 l
468.552 102.791 l
469.295 103.23 l
470.038 103.48 l
470.782 103.534 l
471.525 103.389 l
472.268 103.043 l
473.011 102.497 l
474.126 101.313 l
475.241 99.7143 l
476.356 97.7401 l
477.842 94.6158 l
479.701 90.1471 l
484.16 79.0743 l
485.646 76.0018 l
486.761 74.0959 l
487.876 72.5999 l
488.991 71.5594 l
489.734 71.134 l
490.477 70.9285 l
491.221 70.9433 l
491.964 71.1754 l
492.707 71.6178 l
493.45 72.2602 l
494.565 73.5683 l
495.68 75.2363 l
497.167 77.8956 l
499.768 83.1898 l
502.369 88.344 l
503.856 90.8239 l
504.971 92.3386 l
506.085 93.5029 l
507.2 94.2851 l
507.944 94.5865 l
508.687 94.7113 l
509.43 94.6628 l
510.173 94.4476 l
511.288 93.8334 l
512.403 92.9083 l
513.889 91.2849 l
515.748 88.8402 l
519.835 83.3079 l
521.322 81.7017 l
522.437 80.7496 l
523.552 80.0461 l
524.666 79.6065 l
525.781 79.4341 l
526.896 79.5203 l
528.011 79.846 l
529.126 80.3825 l
530.612 81.3629 l
532.47 82.8726 l
536.93 86.6031 l
538.416 87.5534 l
539.903 88.2462 l
541.389 88.6495 l
542.876 88.7559 l
544.362 88.5816 l
545.849 88.163 l
547.707 87.3773 l
551.051 85.6134 l
553.653 84.3325 l
555.511 83.6423 l
557.369 83.2114 l
558.855 83.0698 l
560.713 83.1375 l
562.572 83.4394 l
565.173 84.1336 l
571.119 85.8624 l
573.348 86.235 l
575.578 86.3678 l
576.321 86.3585 l
576.321 86.3585 l
stroke
grestore
1.000 setlinewidth
[6 6] 0 setdash
0.750 0.000 0.750 setrgbcolor
gsave
505.5 72.65 70.79 48.75 clipbox
70.462 91.5303 m
76.1575 90.8828 l
83.7516 89.7682 l
91.3456 88.4163 l
100.838 86.4939 l
125.519 81.3331 l
133.113 80.0104 l
140.707 78.9394 l
146.402 78.3356 l
152.098 77.9234 l
157.793 77.7158 l
163.489 77.7196 l
169.185 77.9359 l
174.88 78.3595 l
180.576 78.9792 l
188.17 80.0801 l
195.764 81.4438 l
205.256 83.4116 l
231.835 89.1409 l
239.429 90.4643 l
245.125 91.276 l
250.821 91.9043 l
256.516 92.3294 l
262.212 92.5373 l
267.907 92.5207 l
273.603 92.2789 l
279.298 91.8178 l
284.994 91.1504 l
290.689 90.2957 l
298.283 88.9092 l
307.776 86.8844 l
334.355 80.9329 l
341.949 79.5614 l
347.645 78.726 l
353.34 78.0869 l
359.036 77.6653 l
364.731 77.4757 l
370.427 77.5255 l
376.122 77.8144 l
381.818 78.3348 l
387.513 79.0714 l
393.209 80.0019 l
400.803 81.4939 l
410.295 83.6439 l
433.078 88.982 l
440.672 90.4566 l
446.367 91.3654 l
452.063 92.0701 l
457.758 92.5464 l
463.454 92.777 l
469.149 92.7528 l
474.845 92.4729 l
480.54 91.9452 l
486.236 91.1857 l
491.931 90.2184 l
499.525 88.6602 l
509.018 86.4119 l
529.902 81.2914 l
537.496 79.7239 l
543.191 78.7533 l
548.887 77.9977 l
554.582 77.4847 l
560.278 77.2337 l
565.973 77.2553 l
571.669 77.5506 l
577.364 78.1109 l
577.364 78.1109 l
stroke
grestore
0.500 setlinewidth
[] 0 setdash
0.000 setgray
gsave
/o {
gsave
newpath
translate
0.5 setlinewidth
1 setlinejoin
0 setlinecap
0 0 m
0 4 l
gsave
0.000 setgray
fill
grestore
stroke
grestore
} bind def
81.4914 48.7469 o
grestore
gsave
/o {
gsave
newpath
translate
0.5 setlinewidth
1 setlinejoin
0 setlinecap
0 0 m
0 -4 l
gsave
0.000 setgray
fill
grestore
stroke
grestore
} bind def
81.4914 121.393 o
grestore
gsave
64.116409 34.106250 translate
0.000000 rotate
0.000000 0.000000 m /minus glyphshow
11.311523 0.000000 m /one glyphshow
19.900635 0.000000 m /zero glyphshow
28.489746 0.000000 m /zero glyphshow
grestore
gsave
/o {
gsave
newpath
translate
0.5 setlinewidth
1 setlinejoin
0 setlinecap
0 0 m
0 4 l
gsave
0.000 setgray
fill
grestore
stroke
grestore
} bind def
215.212 48.7469 o
grestore
gsave
/o {
gsave
newpath
translate
0.5 setlinewidth
1 setlinejoin
0 setlinecap
0 0 m
0 -4 l
gsave
0.000 setgray
fill
grestore
stroke
grestore
} bind def
215.212 121.393 o
grestore
gsave
202.134018 34.106250 translate
0.000000 rotate
0.000000 0.000000 m /minus glyphshow
11.311523 0.000000 m /five glyphshow
19.900635 0.000000 m /zero glyphshow
grestore
gsave
/o {
gsave
newpath
translate
0.5 setlinewidth
1 setlinejoin
0 setlinecap
0 0 m
0 4 l
gsave
0.000 setgray
fill
grestore
stroke
grestore
} bind def
348.933 48.7469 o
grestore
gsave
/o {
gsave
newpath
translate
0.5 setlinewidth
1 setlinejoin
0 setlinecap
0 0 m
0 -4 l
gsave
0.000 setgray
fill
grestore
stroke
grestore
} bind def
348.933 121.393 o
grestore
gsave
345.534439 34.106250 translate
0.000000 rotate
0.000000 0.000000 m /zero glyphshow
grestore
gsave
/o {
gsave
newpath
translate
0.5 setlinewidth
1 setlinejoin
0 setlinecap
0 0 m
0 4 l
gsave
0.000 setgray
fill
grestore
stroke
grestore
} bind def
482.654 48.7469 o
grestore
gsave
/o {
gsave
newpath
translate
0.5 setlinewidth
1 setlinejoin
0 setlinecap
0 0 m
0 -4 l
gsave
0.000 setgray
fill
grestore
stroke
grestore
} bind def
482.654 121.393 o
grestore
gsave
475.036424 34.106250 translate
0.000000 rotate
0.000000 0.000000 m /five glyphshow
8.589111 0.000000 m /zero glyphshow
grestore
gsave
282.525937 12.200000 translate
0.000000 rotate
/Cmr10 findfont
18.0 scalefont
setfont
0.000000 0.500000 moveto
/parenleft glyphshow

/Cmmi10 findfont
18.0 scalefont
setfont
6.987305 0.500000 moveto
/t glyphshow

/Cmsy10 findfont
18.0 scalefont
setfont
13.482422 0.500000 moveto
/minus glyphshow

/Cmmi10 findfont
18.0 scalefont
setfont
27.465820 0.500000 moveto
/t glyphshow

/Cmmi10 findfont
12.6 scalefont
setfont
33.960938 -4.091687 moveto
/c glyphshow

/Cmr10 findfont
18.0 scalefont
setfont
39.405762 0.500000 moveto
/parenright glyphshow

/Cmmi10 findfont
18.0 scalefont
setfont
46.393066 0.500000 moveto
/slash glyphshow

55.393066 0.500000 moveto
/M glyphshow

/Cmr10 findfont
12.6 scalefont
setfont
72.856934 -4.091687 moveto
/zero glyphshow


grestore
gsave
/o {
gsave
newpath
translate
0.5 setlinewidth
1 setlinejoin
0 setlinecap
0 0 m
4 0 l
gsave
0.000 setgray
fill
grestore
stroke
grestore
} bind def
70.7938 48.7469 o
grestore
gsave
/o {
gsave
newpath
translate
0.5 setlinewidth
1 setlinejoin
0 setlinecap
0 0 m
-4 0 l
gsave
0.000 setgray
fill
grestore
stroke
grestore
} bind def
576.258 48.7469 o
grestore
gsave
36.200000 44.879688 translate
0.000000 rotate
0.000000 0.000000 m /minus glyphshow
11.311523 0.000000 m /zero glyphshow
19.900635 0.000000 m /period glyphshow
24.191895 0.000000 m /four glyphshow
grestore
gsave
/o {
gsave
newpath
translate
0.5 setlinewidth
1 setlinejoin
0 setlinecap
0 0 m
4 0 l
gsave
0.000 setgray
fill
grestore
stroke
grestore
} bind def
70.7938 57.8276 o
grestore
gsave
/o {
gsave
newpath
translate
0.5 setlinewidth
1 setlinejoin
0 setlinecap
0 0 m
-4 0 l
gsave
0.000 setgray
fill
grestore
stroke
grestore
} bind def
576.258 57.8276 o
grestore
gsave
/o {
gsave
newpath
translate
0.5 setlinewidth
1 setlinejoin
0 setlinecap
0 0 m
4 0 l
gsave
0.000 setgray
fill
grestore
stroke
grestore
} bind def
70.7938 66.9083 o
grestore
gsave
/o {
gsave
newpath
translate
0.5 setlinewidth
1 setlinejoin
0 setlinecap
0 0 m
-4 0 l
gsave
0.000 setgray
fill
grestore
stroke
grestore
} bind def
576.258 66.9083 o
grestore
gsave
36.793750 63.041145 translate
0.000000 rotate
0.000000 0.000000 m /minus glyphshow
11.311523 0.000000 m /zero glyphshow
19.900635 0.000000 m /period glyphshow
24.191895 0.000000 m /two glyphshow
grestore
gsave
/o {
gsave
newpath
translate
0.5 setlinewidth
1 setlinejoin
0 setlinecap
0 0 m
4 0 l
gsave
0.000 setgray
fill
grestore
stroke
grestore
} bind def
70.7938 75.9891 o
grestore
gsave
/o {
gsave
newpath
translate
0.5 setlinewidth
1 setlinejoin
0 setlinecap
0 0 m
-4 0 l
gsave
0.000 setgray
fill
grestore
stroke
grestore
} bind def
576.258 75.9891 o
grestore
gsave
/o {
gsave
newpath
translate
0.5 setlinewidth
1 setlinejoin
0 setlinecap
0 0 m
4 0 l
gsave
0.000 setgray
fill
grestore
stroke
grestore
} bind def
70.7938 85.0698 o
grestore
gsave
/o {
gsave
newpath
translate
0.5 setlinewidth
1 setlinejoin
0 setlinecap
0 0 m
-4 0 l
gsave
0.000 setgray
fill
grestore
stroke
grestore
} bind def
576.258 85.0698 o
grestore
gsave
47.106250 81.202602 translate
0.000000 rotate
0.000000 0.000000 m /zero glyphshow
8.589111 0.000000 m /period glyphshow
12.880371 0.000000 m /zero glyphshow
grestore
gsave
/o {
gsave
newpath
translate
0.5 setlinewidth
1 setlinejoin
0 setlinecap
0 0 m
4 0 l
gsave
0.000 setgray
fill
grestore
stroke
grestore
} bind def
70.7938 94.1505 o
grestore
gsave
/o {
gsave
newpath
translate
0.5 setlinewidth
1 setlinejoin
0 setlinecap
0 0 m
-4 0 l
gsave
0.000 setgray
fill
grestore
stroke
grestore
} bind def
576.258 94.1505 o
grestore
gsave
/o {
gsave
newpath
translate
0.5 setlinewidth
1 setlinejoin
0 setlinecap
0 0 m
4 0 l
gsave
0.000 setgray
fill
grestore
stroke
grestore
} bind def
70.7938 103.231 o
grestore
gsave
/o {
gsave
newpath
translate
0.5 setlinewidth
1 setlinejoin
0 setlinecap
0 0 m
-4 0 l
gsave
0.000 setgray
fill
grestore
stroke
grestore
} bind def
576.258 103.231 o
grestore
gsave
47.559375 99.364059 translate
0.000000 rotate
0.000000 0.000000 m /zero glyphshow
8.589111 0.000000 m /period glyphshow
12.880371 0.000000 m /two glyphshow
grestore
gsave
/o {
gsave
newpath
translate
0.5 setlinewidth
1 setlinejoin
0 setlinecap
0 0 m
4 0 l
gsave
0.000 setgray
fill
grestore
stroke
grestore
} bind def
70.7938 112.312 o
grestore
gsave
/o {
gsave
newpath
translate
0.5 setlinewidth
1 setlinejoin
0 setlinecap
0 0 m
-4 0 l
gsave
0.000 setgray
fill
grestore
stroke
grestore
} bind def
576.258 112.312 o
grestore
gsave
/o {
gsave
newpath
translate
0.5 setlinewidth
1 setlinejoin
0 setlinecap
0 0 m
4 0 l
gsave
0.000 setgray
fill
grestore
stroke
grestore
} bind def
70.7938 121.393 o
grestore
gsave
/o {
gsave
newpath
translate
0.5 setlinewidth
1 setlinejoin
0 setlinecap
0 0 m
-4 0 l
gsave
0.000 setgray
fill
grestore
stroke
grestore
} bind def
576.258 121.393 o
grestore
gsave
46.965625 117.525517 translate
0.000000 rotate
0.000000 0.000000 m /zero glyphshow
8.589111 0.000000 m /period glyphshow
12.880371 0.000000 m /four glyphshow
grestore
gsave
26.200000 53.069790 translate
90.000000 rotate
/Cmsy10 findfont
20.0 scalefont
setfont
0.000000 0.897188 moveto
/Rfractur glyphshow

/Cmr10 findfont
20.0 scalefont
setfont
14.443359 0.897188 moveto
/parenleft glyphshow

/Cmmi10 findfont
20.0 scalefont
setfont
22.207031 0.897188 moveto
/h glyphshow

/Cmr10 findfont
14.0 scalefont
setfont
33.730469 9.670313 moveto
/two glyphshow

/Cmmi10 findfont
14.0 scalefont
setfont
40.730469 9.670313 moveto
/comma glyphshow

/Cmr10 findfont
14.0 scalefont
setfont
44.883984 9.670313 moveto
/two glyphshow

/Cmr10 findfont
20.0 scalefont
setfont
55.285234 0.897188 moveto
/parenright glyphshow


grestore
1.000 setlinewidth
gsave
70.7937 121.393 m
576.258 121.393 l
stroke
grestore
gsave
576.258 48.7469 m
576.258 121.393 l
stroke
grestore
gsave
70.7937 48.7469 m
576.258 48.7469 l
stroke
grestore
gsave
70.7938 48.7469 m
70.7938 121.393 l
stroke
grestore
gsave
583.758 51.2964 m
726.758 51.2964 l
726.758 118.843 l
583.758 118.843 l
583.758 51.2964 l
cl
gsave
1.000 setgray
fill
grestore
stroke
grestore
3.000 setlinewidth
2 setlinecap
0.000 0.500 0.000 setrgbcolor
gsave
594.258 106.703 m
615.258 106.703 l
stroke
grestore
0.000 setgray
gsave
631.758125 101.452602 translate
0.000000 rotate
/Cmmi10 findfont
15.0 scalefont
setfont
0.000000 0.859375 moveto
/C glyphshow

/Cmr10 findfont
15.0 scalefont
setfont
13.341797 0.859375 moveto
/equal glyphshow

25.944336 0.859375 moveto
/zero glyphshow

/Cmmi10 findfont
15.0 scalefont
setfont
33.444336 0.859375 moveto
/period glyphshow

/Cmr10 findfont
15.0 scalefont
setfont
37.718750 0.859375 moveto
/two glyphshow

45.218750 0.859375 moveto
/two glyphshow

/DejaVuSans findfont
15.0 scalefont
setfont
52.718750 0.859375 moveto
/space glyphshow

57.486816 0.859375 moveto
/D glyphshow

69.037109 0.859375 moveto
/B glyphshow

79.327637 0.859375 moveto
/S glyphshow


grestore
2.000 setlinewidth
0 setlinecap
[1 3] 0 setdash
0.000 0.500 0.000 setrgbcolor
gsave
594.258 86.187 m
615.258 86.187 l
stroke
grestore
0.000 setgray
gsave
631.758125 80.936977 translate
0.000000 rotate
/Cmmi10 findfont
15.0 scalefont
setfont
0.000000 0.859375 moveto
/C glyphshow

/Cmr10 findfont
15.0 scalefont
setfont
13.341797 0.859375 moveto
/equal glyphshow

25.944336 0.859375 moveto
/zero glyphshow

/Cmmi10 findfont
15.0 scalefont
setfont
33.444336 0.859375 moveto
/period glyphshow

/Cmr10 findfont
15.0 scalefont
setfont
37.718750 0.859375 moveto
/two glyphshow

45.218750 0.859375 moveto
/two glyphshow

/DejaVuSans findfont
15.0 scalefont
setfont
52.718750 0.859375 moveto
/space glyphshow

57.486816 0.859375 moveto
/B glyphshow

67.777344 0.859375 moveto
/S glyphshow


grestore
1.000 setlinewidth
[6 6] 0 setdash
0.750 0.000 0.750 setrgbcolor
gsave
594.258 65.6714 m
615.258 65.6714 l
stroke
grestore
0.000 setgray
gsave
631.758125 60.421352 translate
0.000000 rotate
/Cmmi10 findfont
15.0 scalefont
setfont
0.000000 0.421875 moveto
/E glyphshow

11.066895 0.421875 moveto
/O glyphshow

22.500000 0.421875 moveto
/B glyphshow


grestore

end
showpage
