%!PS-Adobe-3.0 EPSF-3.0
%%Title: lum_gw2.eps
%%Creator: matplotlib version 1.3.1, http://matplotlib.org/
%%CreationDate: Tue Oct  2 17:08:38 2018
%%Orientation: portrait
%%BoundingBox: 13 176 598 615
%%EndComments
%%BeginProlog
/mpldict 11 dict def
mpldict begin
/m { moveto } bind def
/l { lineto } bind def
/r { rlineto } bind def
/c { curveto } bind def
/cl { closepath } bind def
/box {
m
1 index 0 r
0 exch r
neg 0 r
cl
} bind def
/clipbox {
box
clip
newpath
} bind def
%!PS-Adobe-3.0 Resource-Font
%%Title: cmsy10
%%Copyright: Copyright (C) 1994, Basil K. Malyshev. All Rights Reserved.012BaKoMa Fonts Collection, Level-B.
%%Creator: Converted from TrueType to type 3 by PPR
25 dict begin
/_d{bind def}bind def
/_m{moveto}_d
/_l{lineto}_d
/_cl{closepath eofill}_d
/_c{curveto}_d
/_sc{7 -1 roll{setcachedevice}{pop pop pop pop pop pop}ifelse}_d
/_e{exec}_d
/FontName /Cmsy10 def
/PaintType 0 def
/FontMatrix[.001 0 0 .001 0 0]def
/FontBBox[-29 -960 1123 779]def
/FontType 3 def
/Encoding [ /minus ] def
/FontInfo 10 dict dup begin
/FamilyName (cmsy10) def
/FullName (cmsy10) def
/Notice (Copyright (C) 1994, Basil K. Malyshev. All Rights Reserved.012BaKoMa Fonts Collection, Level-B. ) def
/Weight (Regular) def
/Version (1.1/12-Nov-94) def
/ItalicAngle 0.0 def
/isFixedPitch false def
/UnderlinePosition -133 def
/UnderlineThickness 20 def
end readonly def
/CharStrings 1 dict dup begin
/minus{777 0 83 230 694 270 _sc
102 230 _m
96 230 92 232 88 236 _c
84 240 83 245 83 250 _c
83 254 84 259 88 263 _c
92 267 96 270 102 270 _c
676 270 _l
681 270 685 267 689 263 _c
692 259 694 254 694 250 _c
694 245 692 240 689 236 _c
685 232 681 230 676 230 _c
102 230 _l
_cl}_d
end readonly def

/BuildGlyph
 {exch begin
 CharStrings exch
 2 copy known not{pop /.notdef}if
 true 3 1 roll get exec
 end}_d

/BuildChar {
 1 index /Encoding get exch get
 1 index /BuildGlyph get exec
}_d

FontName currentdict end definefont pop
%!PS-Adobe-3.0 Resource-Font
%%Title: cmmi10
%%Copyright: Copyright (C) 1994, Basil K. Malyshev. All Rights Reserved.012BaKoMa Fonts Collection, Level-B.
%%Creator: Converted from TrueType to type 3 by PPR
25 dict begin
/_d{bind def}bind def
/_m{moveto}_d
/_l{lineto}_d
/_cl{closepath eofill}_d
/_c{curveto}_d
/_sc{7 -1 roll{setcachedevice}{pop pop pop pop pop pop}ifelse}_d
/_e{exec}_d
/FontName /Cmmi10 def
/PaintType 0 def
/FontMatrix[.001 0 0 .001 0 0]def
/FontBBox[-34 -250 1048 750]def
/FontType 3 def
/Encoding [ /M /t /period /W /d /slash /C /E /G /c ] def
/FontInfo 10 dict dup begin
/FamilyName (cmmi10) def
/FullName (cmmi10) def
/Notice (Copyright (C) 1994, Basil K. Malyshev. All Rights Reserved.012BaKoMa Fonts Collection, Level-B. ) def
/Weight (Regular) def
/Version (1.1/12-Nov-94) def
/ItalicAngle 0.0 def
/isFixedPitch false def
/UnderlinePosition -133 def
/UnderlineThickness 20 def
end readonly def
/CharStrings 10 dict dup begin
/M{{970 0 41 0 1046 683 _sc
51 0 _m
44 0 41 4 41 13 _c
41 15 42 17 43 21 _c
43 25 44 28 46 31 _c
48 33 50 35 54 35 _c
117 35 154 55 165 96 _c
295 618 _l
296 624 297 629 297 632 _c
297 639 293 643 285 644 _c
272 646 248 648 213 648 _c
206 648 203 652 203 661 _c
203 663 204 666 205 670 _c
206 674 207 677 209 679 _c
211 681 213 683 216 683 _c
}_e{392 683 _l
399 683 403 679 405 672 _c
483 99 _l
847 672 _l
851 679 858 683 866 683 _c
1036 683 _l
1042 683 1046 678 1046 670 _c
1045 668 1044 665 1043 661 _c
1042 657 1041 653 1039 651 _c
1037 649 1035 648 1033 648 _c
992 648 964 645 948 641 _c
939 638 933 629 929 614 _c
792 65 _l
790 58 790 53 790 51 _c
790 48 790 46 791 44 _c
791 42 792 41 794 41 _c
}_e{796 40 798 39 802 39 _c
814 36 838 35 874 35 _c
880 35 884 30 884 22 _c
881 12 879 6 878 4 _c
876 1 873 0 867 0 _c
606 0 _l
599 0 596 4 596 13 _c
596 15 597 18 598 22 _c
599 26 600 29 602 31 _c
604 33 606 35 609 35 _c
649 35 678 37 694 42 _c
702 44 709 53 713 69 _c
857 648 _l
453 11 _l
449 3 442 0 433 0 _c
}_e{424 0 419 3 419 11 _c
334 640 _l
197 92 _l
196 90 195 87 195 85 _c
195 83 194 80 194 77 _c
194 59 201 48 216 43 _c
231 37 250 35 272 35 _c
278 35 282 30 282 22 _c
280 13 278 7 276 4 _c
274 1 271 0 265 0 _c
51 0 _l
_cl}_e}_d
/t{{361 0 22 -10 330 626 _sc
62 81 _m
62 91 63 100 65 109 _c
137 396 _l
32 396 _l
25 396 22 400 22 409 _c
24 423 29 431 35 431 _c
146 431 _l
186 594 _l
188 602 193 610 201 616 _c
209 622 218 626 228 626 _c
236 626 243 623 249 618 _c
255 613 258 606 258 598 _c
258 596 257 594 257 593 _c
257 592 257 591 257 590 _c
217 431 _l
320 431 _l
326 431 330 426 330 418 _c
}_e{330 416 329 414 328 410 _c
327 406 326 402 324 400 _c
322 397 320 396 317 396 _c
208 396 _l
136 107 _l
131 88 129 72 129 58 _c
129 29 138 15 158 15 _c
187 15 213 28 236 56 _c
258 84 276 114 288 147 _c
290 151 293 153 296 153 _c
308 153 _l
310 153 312 152 314 150 _c
316 148 317 146 317 144 _c
317 142 316 141 316 141 _c
301 101 280 65 252 35 _c
}_e{224 5 192 -10 156 -10 _c
129 -10 107 -1 89 15 _c
71 32 62 54 62 81 _c
_cl}_e}_d
/period{277 0 84 0 194 110 _sc
84 55 _m
84 70 89 83 100 94 _c
111 104 124 110 139 110 _c
148 110 157 107 166 102 _c
174 97 181 90 186 82 _c
191 73 194 64 194 55 _c
194 40 188 27 178 16 _c
167 5 154 0 139 0 _c
124 0 111 5 100 16 _c
89 27 84 40 84 55 _c
_cl}_d
/W{{944 0 54 -21 1048 683 _sc
178 -10 _m
132 626 _l
129 636 121 642 109 644 _c
97 646 82 648 64 648 _c
57 648 54 652 54 661 _c
56 669 58 675 60 678 _c
61 681 65 683 71 683 _c
309 683 _l
315 683 319 678 319 670 _c
316 655 312 648 306 648 _c
252 648 224 638 221 620 _c
257 115 _l
507 551 _l
502 626 _l
500 636 492 642 480 644 _c
467 646 452 648 434 648 _c
}_e{427 648 424 652 424 661 _c
426 669 427 675 429 678 _c
430 681 434 683 441 683 _c
679 683 _l
685 683 689 678 689 670 _c
688 668 687 665 687 661 _c
686 657 685 654 683 652 _c
681 649 679 648 676 648 _c
622 648 593 638 591 620 _c
591 613 _l
627 115 _l
899 590 _l
903 597 905 604 905 611 _c
905 624 898 633 885 639 _c
871 645 856 648 840 648 _c
833 648 830 652 830 661 _c
}_e{831 666 832 670 833 673 _c
833 676 835 678 837 680 _c
839 682 843 683 847 683 _c
1038 683 _l
1044 683 1048 678 1048 670 _c
1047 668 1046 665 1045 661 _c
1044 657 1043 653 1041 651 _c
1039 649 1037 648 1035 648 _c
987 648 951 626 927 583 _c
925 581 924 580 924 580 _c
585 -10 _l
581 -17 576 -21 568 -21 _c
560 -21 _l
552 -21 548 -17 548 -10 _c
510 504 _l
216 -10 _l
}_e{210 -17 204 -21 198 -21 _c
190 -21 _l
182 -21 178 -17 178 -10 _c
_cl}_e}_d
/d{{520 0 38 -10 519 694 _sc
174 -10 _m
132 -10 98 5 74 37 _c
50 68 38 105 38 149 _c
38 191 49 236 71 282 _c
93 328 122 366 160 396 _c
198 426 238 442 282 442 _c
302 442 319 436 335 425 _c
351 414 363 400 372 382 _c
428 605 _l
430 616 432 625 433 632 _c
433 642 411 648 368 648 _c
361 648 358 652 358 661 _c
358 663 358 666 360 670 _c
361 674 362 677 364 679 _c
}_e{366 681 368 683 372 683 _c
507 694 _l
515 694 519 689 519 681 _c
375 106 _l
370 94 368 78 368 58 _c
368 29 377 15 397 15 _c
417 15 433 28 444 55 _c
455 81 464 112 472 147 _c
473 151 476 153 480 153 _c
492 153 _l
494 153 496 151 498 149 _c
500 147 501 145 501 143 _c
489 96 476 59 462 31 _c
448 3 426 -10 395 -10 _c
372 -10 352 -3 335 9 _c
}_e{318 21 307 39 303 61 _c
260 13 217 -10 174 -10 _c
175 15 _m
199 15 222 24 245 42 _c
267 60 287 81 303 106 _c
303 106 304 108 304 110 _c
359 330 _l
355 353 346 373 333 390 _c
319 407 302 416 280 416 _c
257 416 236 406 217 388 _c
197 370 181 348 168 323 _c
154 296 142 259 130 213 _c
118 167 113 131 113 105 _c
113 81 118 60 128 42 _c
138 24 153 15 175 15 _c
}_e{_cl}_e}_d
/slash{500 0 56 -249 443 750 _sc
56 -229 _m
56 -227 56 -225 57 -225 _c
405 738 _l
406 742 408 745 412 747 _c
415 749 419 750 423 750 _c
429 750 433 748 437 744 _c
441 740 443 736 443 730 _c
443 726 _l
95 -237 _l
91 -245 84 -249 76 -249 _c
70 -249 66 -247 62 -243 _c
58 -239 56 -234 56 -229 _c
_cl}_d
/C{{714 0 51 -21 760 705 _sc
146 216 _m
146 176 153 140 169 110 _c
184 79 206 55 236 38 _c
266 21 301 13 341 13 _c
383 13 423 23 462 45 _c
501 67 534 96 562 132 _c
589 168 608 206 618 246 _c
619 250 622 252 626 252 _c
638 252 _l
640 252 642 251 644 249 _c
646 247 647 245 647 243 _c
647 242 646 241 646 240 _c
634 194 612 150 580 110 _c
547 69 508 37 462 14 _c
}_e{416 -9 370 -21 322 -21 _c
270 -21 223 -9 182 13 _c
140 36 108 68 85 110 _c
62 152 51 199 51 252 _c
51 308 63 363 88 418 _c
113 472 147 521 189 564 _c
231 607 280 641 334 667 _c
388 692 443 705 499 705 _c
521 705 542 701 562 695 _c
582 688 601 678 619 664 _c
636 650 650 635 661 617 _c
740 703 _l
740 704 741 705 745 705 _c
751 705 _l
753 705 755 703 757 701 _c
}_e{759 699 760 697 760 695 _c
692 425 _l
692 420 689 418 684 418 _c
666 418 _l
660 418 658 421 658 429 _c
660 443 662 461 662 482 _c
662 514 656 545 645 574 _c
634 602 617 625 594 643 _c
570 661 542 670 509 670 _c
454 670 404 656 359 629 _c
314 601 276 565 244 521 _c
212 477 188 427 171 373 _c
154 319 146 266 146 216 _c
_cl}_e}_d
/E{{738 0 37 0 764 683 _sc
47 0 _m
40 0 37 4 37 13 _c
37 15 38 18 39 22 _c
40 26 41 29 43 31 _c
45 33 47 35 50 35 _c
90 35 119 37 135 42 _c
143 44 150 53 154 69 _c
291 618 _l
292 624 293 629 293 632 _c
293 639 289 643 281 644 _c
268 646 244 648 209 648 _c
202 648 199 652 199 661 _c
199 663 200 666 201 670 _c
202 674 203 677 205 679 _c
}_e{207 681 209 683 212 683 _c
754 683 _l
760 683 764 678 764 670 _c
740 463 _l
740 461 738 459 736 457 _c
734 455 732 454 730 454 _c
721 454 _l
714 454 711 458 711 467 _c
715 499 717 523 717 539 _c
717 565 712 586 703 601 _c
693 616 681 627 666 633 _c
651 639 634 643 616 645 _c
598 647 574 648 544 648 _c
430 648 _l
412 648 400 646 394 643 _c
388 640 382 630 378 614 _c
}_e{318 372 _l
396 372 _l
430 372 455 374 473 379 _c
490 383 504 393 514 408 _c
524 423 533 447 541 480 _c
541 482 542 484 544 486 _c
546 488 548 489 551 489 _c
560 489 _l
566 489 570 484 570 476 _c
508 229 _l
506 223 503 220 498 220 _c
489 220 _l
482 220 479 224 479 233 _c
485 259 489 279 489 292 _c
489 311 480 323 462 329 _c
444 334 421 337 392 337 _c
309 337 _l
}_e{241 65 _l
238 57 237 49 237 43 _c
237 37 248 35 271 35 _c
392 35 _l
440 35 479 38 509 46 _c
539 54 563 66 583 82 _c
603 98 620 119 634 145 _c
648 170 666 207 687 256 _c
688 260 691 262 696 262 _c
705 262 _l
707 262 710 260 712 258 _c
714 256 715 253 715 251 _c
715 249 714 248 714 247 _c
611 6 _l
609 2 607 0 603 0 _c
47 0 _l
_cl}_e}_d
/G{{786 0 51 -21 761 705 _sc
146 219 _m
146 177 154 141 170 110 _c
186 79 210 55 241 38 _c
272 21 308 13 349 13 _c
389 13 426 22 462 41 _c
498 59 520 86 530 122 _c
552 208 _l
552 210 552 212 552 214 _c
552 216 553 217 553 219 _c
553 225 551 229 547 231 _c
530 235 497 238 447 238 _c
440 238 437 242 437 251 _c
439 259 440 264 442 268 _c
444 271 448 273 454 273 _c
}_e{712 273 _l
718 273 722 268 722 260 _c
722 258 721 255 720 251 _c
719 247 718 244 716 242 _c
714 239 712 238 709 238 _c
687 238 670 236 660 232 _c
650 228 643 219 639 204 _c
617 118 _l
589 7 _l
587 2 584 0 580 0 _c
574 0 566 7 556 22 _c
546 37 538 50 534 60 _c
511 32 480 12 441 -1 _c
402 -14 362 -21 322 -21 _c
270 -21 223 -9 182 13 _c
}_e{140 36 108 68 85 110 _c
62 152 51 199 51 252 _c
51 308 63 363 88 418 _c
112 472 146 521 189 564 _c
231 607 280 641 334 667 _c
388 692 443 705 499 705 _c
521 705 542 701 562 695 _c
582 688 601 678 619 664 _c
637 650 651 635 662 617 _c
741 703 _l
741 704 742 705 746 705 _c
752 705 _l
754 705 756 704 758 702 _c
760 700 761 697 761 695 _c
693 425 _l
}_e{693 420 690 418 685 418 _c
667 418 _l
661 418 659 421 659 429 _c
661 443 663 461 663 481 _c
663 513 657 544 646 573 _c
635 602 618 625 595 643 _c
571 661 543 670 509 670 _c
455 670 405 656 360 629 _c
314 601 276 565 244 521 _c
212 477 188 428 171 374 _c
154 320 146 269 146 219 _c
_cl}_e}_d
/c{{432 0 40 -10 430 442 _sc
117 119 _m
117 90 124 65 139 45 _c
154 25 175 15 203 15 _c
243 15 281 24 318 42 _c
354 60 384 86 407 118 _c
409 120 411 121 415 121 _c
418 121 421 119 425 115 _c
428 111 430 108 430 105 _c
430 102 429 100 428 99 _c
404 65 371 38 330 19 _c
288 0 245 -10 201 -10 _c
169 -10 140 -2 116 12 _c
92 26 73 46 60 72 _c
}_e{46 97 40 126 40 158 _c
40 203 52 248 77 292 _c
102 336 135 372 177 400 _c
219 428 263 442 309 442 _c
339 442 366 434 390 420 _c
414 405 426 384 426 356 _c
426 338 420 322 410 309 _c
399 296 385 290 367 290 _c
356 290 347 293 340 300 _c
332 306 329 315 329 326 _c
329 342 334 355 346 366 _c
357 377 370 383 386 383 _c
388 383 _l
380 394 368 402 354 408 _c
}_e{339 413 324 416 308 416 _c
269 416 235 399 206 366 _c
176 332 154 292 139 246 _c
124 200 117 157 117 119 _c
_cl}_e}_d
end readonly def

/BuildGlyph
 {exch begin
 CharStrings exch
 2 copy known not{pop /.notdef}if
 true 3 1 roll get exec
 end}_d

/BuildChar {
 1 index /Encoding get exch get
 1 index /BuildGlyph get exec
}_d

FontName currentdict end definefont pop
%!PS-Adobe-3.0 Resource-Font
%%Title: DejaVu Sans
%%Copyright: Copyright (c) 2003 by Bitstream, Inc. All Rights Reserved. Copyright (c) 2006 by Tavmjong Bah. All Rights Reserved. DejaVu changes are in public domain 
%%Creator: Converted from TrueType to type 3 by PPR
25 dict begin
/_d{bind def}bind def
/_m{moveto}_d
/_l{lineto}_d
/_cl{closepath eofill}_d
/_c{curveto}_d
/_sc{7 -1 roll{setcachedevice}{pop pop pop pop pop pop}ifelse}_d
/_e{exec}_d
/FontName /DejaVuSans def
/PaintType 0 def
/FontMatrix[.001 0 0 .001 0 0]def
/FontBBox[-1021 -415 1681 1167]def
/FontType 3 def
/Encoding [ /space /period /zero /one /two /three /four /five /six /eight /B /D /S /minus ] def
/FontInfo 10 dict dup begin
/FamilyName (DejaVu Sans) def
/FullName (DejaVu Sans) def
/Notice (Copyright (c) 2003 by Bitstream, Inc. All Rights Reserved. Copyright (c) 2006 by Tavmjong Bah. All Rights Reserved. DejaVu changes are in public domain ) def
/Weight (Book) def
/Version (Version 2.34) def
/ItalicAngle 0.0 def
/isFixedPitch false def
/UnderlinePosition -130 def
/UnderlineThickness 90 def
end readonly def
/CharStrings 14 dict dup begin
/space{318 0 0 0 0 0 _sc
}_d
/period{318 0 107 0 210 124 _sc
107 124 _m
210 124 _l
210 0 _l
107 0 _l
107 124 _l
_cl}_d
/zero{636 0 66 -13 570 742 _sc
318 664 _m
267 664 229 639 203 589 _c
177 539 165 464 165 364 _c
165 264 177 189 203 139 _c
229 89 267 64 318 64 _c
369 64 407 89 433 139 _c
458 189 471 264 471 364 _c
471 464 458 539 433 589 _c
407 639 369 664 318 664 _c
318 742 _m
399 742 461 709 505 645 _c
548 580 570 486 570 364 _c
570 241 548 147 505 83 _c
461 19 399 -13 318 -13 _c
236 -13 173 19 130 83 _c
87 147 66 241 66 364 _c
66 486 87 580 130 645 _c
173 709 236 742 318 742 _c
_cl}_d
/one{636 0 110 0 544 729 _sc
124 83 _m
285 83 _l
285 639 _l
110 604 _l
110 694 _l
284 729 _l
383 729 _l
383 83 _l
544 83 _l
544 0 _l
124 0 _l
124 83 _l
_cl}_d
/two{{636 0 73 0 536 742 _sc
192 83 _m
536 83 _l
536 0 _l
73 0 _l
73 83 _l
110 121 161 173 226 239 _c
290 304 331 346 348 365 _c
380 400 402 430 414 455 _c
426 479 433 504 433 528 _c
433 566 419 598 392 622 _c
365 646 330 659 286 659 _c
255 659 222 653 188 643 _c
154 632 117 616 78 594 _c
78 694 _l
118 710 155 722 189 730 _c
223 738 255 742 284 742 _c
}_e{359 742 419 723 464 685 _c
509 647 532 597 532 534 _c
532 504 526 475 515 449 _c
504 422 484 390 454 354 _c
446 344 420 317 376 272 _c
332 227 271 164 192 83 _c
_cl}_e}_d
/three{{636 0 76 -13 556 742 _sc
406 393 _m
453 383 490 362 516 330 _c
542 298 556 258 556 212 _c
556 140 531 84 482 45 _c
432 6 362 -13 271 -13 _c
240 -13 208 -10 176 -4 _c
144 1 110 10 76 22 _c
76 117 _l
103 101 133 89 166 81 _c
198 73 232 69 268 69 _c
330 69 377 81 409 105 _c
441 129 458 165 458 212 _c
458 254 443 288 413 312 _c
383 336 341 349 287 349 _c
}_e{202 349 _l
202 430 _l
291 430 _l
339 430 376 439 402 459 _c
428 478 441 506 441 543 _c
441 580 427 609 401 629 _c
374 649 336 659 287 659 _c
260 659 231 656 200 650 _c
169 644 135 635 98 623 _c
98 711 _l
135 721 170 729 203 734 _c
235 739 266 742 296 742 _c
370 742 429 725 473 691 _c
517 657 539 611 539 553 _c
539 513 527 479 504 451 _c
481 423 448 403 406 393 _c
_cl}_e}_d
/four{636 0 49 0 580 729 _sc
378 643 _m
129 254 _l
378 254 _l
378 643 _l
352 729 _m
476 729 _l
476 254 _l
580 254 _l
580 172 _l
476 172 _l
476 0 _l
378 0 _l
378 172 _l
49 172 _l
49 267 _l
352 729 _l
_cl}_d
/five{{636 0 77 -13 549 729 _sc
108 729 _m
495 729 _l
495 646 _l
198 646 _l
198 467 _l
212 472 227 476 241 478 _c
255 480 270 482 284 482 _c
365 482 429 459 477 415 _c
525 370 549 310 549 234 _c
549 155 524 94 475 51 _c
426 8 357 -13 269 -13 _c
238 -13 207 -10 175 -6 _c
143 -1 111 6 77 17 _c
77 116 _l
106 100 136 88 168 80 _c
199 72 232 69 267 69 _c
}_e{323 69 368 83 401 113 _c
433 143 450 183 450 234 _c
450 284 433 324 401 354 _c
368 384 323 399 267 399 _c
241 399 214 396 188 390 _c
162 384 135 375 108 363 _c
108 729 _l
_cl}_e}_d
/six{{636 0 70 -13 573 742 _sc
330 404 _m
286 404 251 388 225 358 _c
199 328 186 286 186 234 _c
186 181 199 139 225 109 _c
251 79 286 64 330 64 _c
374 64 409 79 435 109 _c
461 139 474 181 474 234 _c
474 286 461 328 435 358 _c
409 388 374 404 330 404 _c
526 713 _m
526 623 _l
501 635 476 644 451 650 _c
425 656 400 659 376 659 _c
310 659 260 637 226 593 _c
}_e{192 549 172 482 168 394 _c
187 422 211 444 240 459 _c
269 474 301 482 336 482 _c
409 482 467 459 509 415 _c
551 371 573 310 573 234 _c
573 159 550 99 506 54 _c
462 9 403 -13 330 -13 _c
246 -13 181 19 137 83 _c
92 147 70 241 70 364 _c
70 479 97 571 152 639 _c
206 707 280 742 372 742 _c
396 742 421 739 447 735 _c
472 730 498 723 526 713 _c
_cl}_e}_d
/eight{{636 0 68 -13 568 742 _sc
318 346 _m
271 346 234 333 207 308 _c
180 283 167 249 167 205 _c
167 161 180 126 207 101 _c
234 76 271 64 318 64 _c
364 64 401 76 428 102 _c
455 127 469 161 469 205 _c
469 249 455 283 429 308 _c
402 333 365 346 318 346 _c
219 388 _m
177 398 144 418 120 447 _c
96 476 85 511 85 553 _c
85 611 105 657 147 691 _c
188 725 245 742 318 742 _c
}_e{390 742 447 725 489 691 _c
530 657 551 611 551 553 _c
551 511 539 476 515 447 _c
491 418 459 398 417 388 _c
464 377 501 355 528 323 _c
554 291 568 251 568 205 _c
568 134 546 80 503 43 _c
459 5 398 -13 318 -13 _c
237 -13 175 5 132 43 _c
89 80 68 134 68 205 _c
68 251 81 291 108 323 _c
134 355 171 377 219 388 _c
183 544 _m
183 506 194 476 218 455 _c
}_e{242 434 275 424 318 424 _c
360 424 393 434 417 455 _c
441 476 453 506 453 544 _c
453 582 441 611 417 632 _c
393 653 360 664 318 664 _c
275 664 242 653 218 632 _c
194 611 183 582 183 544 _c
_cl}_e}_d
/B{{686 0 98 0 615 729 _sc
197 348 _m
197 81 _l
355 81 _l
408 81 447 92 473 114 _c
498 136 511 169 511 215 _c
511 260 498 293 473 315 _c
447 337 408 348 355 348 _c
197 348 _l
197 648 _m
197 428 _l
343 428 _l
391 428 426 437 450 455 _c
474 473 486 500 486 538 _c
486 574 474 602 450 620 _c
426 638 391 648 343 648 _c
197 648 _l
98 729 _m
350 729 _l
}_e{425 729 483 713 524 682 _c
564 650 585 606 585 549 _c
585 504 574 468 553 442 _c
532 416 502 399 462 393 _c
510 382 548 360 575 327 _c
601 294 615 253 615 204 _c
615 138 592 88 548 53 _c
504 17 441 0 360 0 _c
98 0 _l
98 729 _l
_cl}_e}_d
/D{770 0 98 0 711 729 _sc
197 648 _m
197 81 _l
316 81 _l
416 81 490 103 537 149 _c
583 195 607 267 607 365 _c
607 463 583 534 537 580 _c
490 625 416 648 316 648 _c
197 648 _l
98 729 _m
301 729 _l
442 729 546 699 612 641 _c
678 582 711 490 711 365 _c
711 239 677 147 611 88 _c
545 29 441 0 301 0 _c
98 0 _l
98 729 _l
_cl}_d
/S{{635 0 66 -13 579 742 _sc
535 705 _m
535 609 _l
497 627 462 640 429 649 _c
395 657 363 662 333 662 _c
279 662 237 651 208 631 _c
179 610 165 580 165 542 _c
165 510 174 485 194 469 _c
213 452 250 439 304 429 _c
364 417 _l
437 403 491 378 526 343 _c
561 307 579 260 579 201 _c
579 130 555 77 508 41 _c
460 5 391 -13 300 -13 _c
265 -13 228 -9 189 -2 _c
}_e{150 5 110 16 69 32 _c
69 134 _l
109 111 148 94 186 83 _c
224 71 262 66 300 66 _c
356 66 399 77 430 99 _c
460 121 476 152 476 194 _c
476 230 465 258 443 278 _c
421 298 385 313 335 323 _c
275 335 _l
201 349 148 372 115 404 _c
82 435 66 478 66 534 _c
66 598 88 649 134 686 _c
179 723 242 742 322 742 _c
356 742 390 739 426 733 _c
461 727 497 717 535 705 _c
}_e{_cl}_e}_d
/minus{838 0 106 272 732 355 _sc
106 355 _m
732 355 _l
732 272 _l
106 272 _l
106 355 _l
_cl}_d
end readonly def

/BuildGlyph
 {exch begin
 CharStrings exch
 2 copy known not{pop /.notdef}if
 true 3 1 roll get exec
 end}_d

/BuildChar {
 1 index /Encoding get exch get
 1 index /BuildGlyph get exec
}_d

FontName currentdict end definefont pop
%!PS-Adobe-3.0 Resource-Font
%%Title: cmr10
%%Copyright: Copyright (C) 1994, Basil K. Malyshev. All Rights Reserved.012BaKoMa Fonts Collection, Level-B.
%%Creator: Converted from TrueType to type 3 by PPR
25 dict begin
/_d{bind def}bind def
/_m{moveto}_d
/_l{lineto}_d
/_cl{closepath eofill}_d
/_c{curveto}_d
/_sc{7 -1 roll{setcachedevice}{pop pop pop pop pop pop}ifelse}_d
/_e{exec}_d
/FontName /Cmr10 def
/PaintType 0 def
/FontMatrix[.001 0 0 .001 0 0]def
/FontBBox[-44 -250 1009 750]def
/FontType 3 def
/Encoding [ /zero /equal /two /parenright /six /eight /one /parenleft ] def
/FontInfo 10 dict dup begin
/FamilyName (cmr10) def
/FullName (cmr10) def
/Notice (Copyright (C) 1994, Basil K. Malyshev. All Rights Reserved.012BaKoMa Fonts Collection, Level-B. ) def
/Weight (Regular) def
/Version (1.1/12-Nov-94) def
/ItalicAngle 0.0 def
/isFixedPitch false def
/UnderlinePosition -133 def
/UnderlineThickness 20 def
end readonly def
/CharStrings 8 dict dup begin
/zero{{500 0 39 -21 460 666 _sc
250 -21 _m
168 -21 112 12 83 79 _c
53 146 39 226 39 319 _c
39 377 44 431 55 482 _c
65 533 86 576 118 612 _c
149 648 193 666 250 666 _c
294 666 330 655 358 634 _c
386 612 407 585 422 551 _c
436 517 446 480 452 441 _c
457 402 460 361 460 319 _c
460 261 454 208 444 158 _c
433 108 412 65 381 31 _c
350 -3 306 -21 250 -21 _c
250 4 _m
}_e{287 4 315 23 333 61 _c
351 99 362 141 366 187 _c
370 233 373 283 373 335 _c
373 385 370 431 366 473 _c
362 515 351 554 333 588 _c
315 622 287 640 250 640 _c
212 640 184 622 166 588 _c
148 554 136 515 132 473 _c
128 431 126 385 126 335 _c
126 297 126 262 128 230 _c
130 197 135 163 143 128 _c
151 93 163 64 181 40 _c
198 16 221 4 250 4 _c
_cl}_e}_d
/equal{{777 0 56 133 721 367 _sc
75 133 _m
69 133 65 135 61 139 _c
57 143 56 148 56 153 _c
56 158 57 163 61 167 _c
65 171 69 173 75 173 _c
703 173 _l
707 173 711 171 715 167 _c
719 163 721 158 721 153 _c
721 148 719 143 715 139 _c
711 135 707 133 703 133 _c
75 133 _l
75 327 _m
69 327 65 329 61 333 _c
57 337 56 341 56 347 _c
56 351 57 356 61 360 _c
}_e{65 364 69 367 75 367 _c
703 367 _l
707 367 711 364 715 360 _c
719 356 721 351 721 347 _c
721 341 719 337 715 333 _c
711 329 707 327 703 327 _c
75 327 _l
_cl}_e}_d
/two{{500 0 50 0 449 666 _sc
50 0 _m
50 27 _l
50 28 50 30 52 32 _c
207 204 _l
230 229 249 250 264 268 _c
278 285 293 305 307 327 _c
321 349 333 372 341 396 _c
349 419 354 444 354 470 _c
354 497 349 523 339 548 _c
329 573 314 593 294 608 _c
274 623 249 631 221 631 _c
192 631 166 622 143 605 _c
119 587 103 565 94 537 _c
96 537 100 538 105 538 _c
}_e{119 538 132 533 143 523 _c
153 513 159 500 159 484 _c
159 468 153 455 143 445 _c
132 434 119 429 105 429 _c
89 429 76 434 66 445 _c
55 456 50 469 50 484 _c
50 508 54 532 64 554 _c
73 576 86 595 104 613 _c
122 630 142 643 164 652 _c
186 661 210 666 236 666 _c
274 666 309 658 342 642 _c
375 626 401 603 420 573 _c
439 543 449 509 449 470 _c
}_e{449 441 442 414 430 388 _c
417 362 401 338 381 317 _c
361 295 336 271 305 244 _c
274 217 254 199 244 190 _c
131 81 _l
227 81 _l
274 81 313 81 345 82 _c
377 82 394 84 396 86 _c
404 94 412 125 420 178 _c
449 178 _l
421 0 _l
50 0 _l
_cl}_e}_d
/parenright{{388 0 56 -249 291 750 _sc
65 -249 _m
59 -249 56 -246 56 -240 _c
56 -237 56 -235 58 -234 _c
172 -122 229 38 229 250 _c
229 462 172 623 60 733 _c
57 734 56 737 56 741 _c
56 743 57 745 59 747 _c
61 749 63 750 65 750 _c
74 750 _l
76 750 77 749 79 748 _c
127 710 167 664 199 610 _c
231 556 254 498 269 437 _c
283 376 291 314 291 250 _c
291 202 287 156 279 110 _c
}_e{271 64 258 20 241 -24 _c
223 -68 201 -108 175 -146 _c
148 -184 116 -217 79 -247 _c
77 -248 76 -249 74 -249 _c
65 -249 _l
_cl}_e}_d
/six{{500 0 42 -21 457 666 _sc
250 -21 _m
208 -21 174 -10 146 11 _c
118 33 97 61 82 96 _c
67 131 57 168 51 206 _c
45 244 42 283 42 323 _c
42 375 52 428 73 482 _c
93 535 123 579 163 614 _c
203 648 250 666 305 666 _c
327 666 348 661 368 653 _c
388 644 403 631 415 615 _c
426 598 432 578 432 554 _c
432 540 427 529 418 520 _c
408 510 397 506 384 506 _c
}_e{370 506 359 510 350 520 _c
340 529 336 540 336 554 _c
336 567 340 578 350 588 _c
359 597 370 602 384 602 _c
389 602 _l
380 614 368 622 353 628 _c
337 634 321 637 305 637 _c
285 637 266 632 249 624 _c
232 615 217 603 203 588 _c
189 573 178 557 169 539 _c
159 521 152 500 147 477 _c
142 453 139 432 138 412 _c
136 392 136 366 136 336 _c
148 363 164 385 186 403 _c
}_e{207 420 231 429 259 429 _c
288 429 315 423 339 411 _c
363 399 384 382 402 361 _c
420 339 433 315 443 288 _c
452 260 457 233 457 205 _c
457 165 448 128 431 93 _c
413 58 389 30 357 10 _c
325 -10 290 -21 250 -21 _c
250 10 _m
276 10 296 15 312 27 _c
327 39 338 54 346 74 _c
353 93 358 112 360 132 _c
362 152 363 176 363 205 _c
363 243 361 275 357 302 _c
}_e{353 328 344 352 328 372 _c
312 392 287 403 255 403 _c
227 403 205 393 188 375 _c
170 357 158 334 150 306 _c
142 278 138 252 138 226 _c
138 217 138 210 139 206 _c
139 205 139 204 139 204 _c
139 203 138 202 138 201 _c
138 172 141 143 147 114 _c
153 84 164 60 181 40 _c
197 20 220 10 250 10 _c
_cl}_e}_d
/eight{{500 0 42 -21 457 666 _sc
42 152 _m
42 192 55 227 81 258 _c
107 288 141 314 183 335 _c
146 359 _l
123 373 104 393 90 418 _c
76 443 69 469 69 497 _c
69 529 77 557 94 583 _c
110 609 133 629 161 644 _c
189 658 218 666 250 666 _c
279 666 307 660 335 648 _c
363 636 385 618 403 596 _c
421 574 430 547 430 516 _c
430 493 424 472 414 453 _c
403 434 388 417 370 402 _c
}_e{352 386 332 373 312 363 _c
369 326 _l
395 308 417 286 433 258 _c
449 230 457 200 457 170 _c
457 134 447 101 428 71 _c
408 41 383 19 351 3 _c
319 -13 285 -21 250 -21 _c
215 -21 182 -14 150 0 _c
118 13 92 33 72 60 _c
52 86 42 117 42 152 _c
96 152 _m
96 125 103 101 118 79 _c
132 57 151 40 175 28 _c
199 16 224 10 250 10 _c
288 10 323 21 355 44 _c
}_e{387 66 403 96 403 134 _c
403 146 400 159 395 171 _c
390 183 383 195 374 205 _c
365 215 355 224 344 231 _c
210 318 _l
189 306 170 292 152 275 _c
134 258 121 239 111 218 _c
101 197 96 175 96 152 _c
165 457 _m
286 379 _l
314 395 337 414 355 438 _c
373 461 382 487 382 516 _c
382 538 375 559 363 578 _c
350 596 334 611 314 621 _c
294 631 272 637 249 637 _c
}_e{229 637 208 633 188 625 _c
167 617 150 606 137 590 _c
123 574 117 556 117 536 _c
117 504 133 478 165 457 _c
_cl}_e}_d
/one{500 0 87 0 421 666 _sc
93 0 _m
93 35 _l
176 35 218 45 218 67 _c
218 592 _l
183 575 139 567 87 567 _c
87 602 _l
168 602 230 623 272 666 _c
286 666 _l
288 666 291 665 293 663 _c
295 661 296 659 296 657 _c
296 67 _l
296 45 337 35 421 35 _c
421 0 _l
93 0 _l
_cl}_d
/parenleft{{388 0 97 -249 332 750 _sc
310 -247 _m
272 -217 240 -184 214 -146 _c
187 -108 165 -67 148 -25 _c
131 17 118 62 110 109 _c
101 155 97 202 97 250 _c
97 298 101 345 110 392 _c
118 438 131 483 149 527 _c
166 570 188 611 215 649 _c
242 687 274 720 310 748 _c
310 749 311 750 315 750 _c
324 750 _l
326 750 327 749 329 747 _c
331 745 332 743 332 741 _c
332 738 331 736 330 735 _c
}_e{297 703 270 668 248 632 _c
226 596 209 557 196 516 _c
183 474 174 432 168 388 _c
162 344 159 298 159 250 _c
159 38 215 -122 329 -232 _c
331 -234 332 -236 332 -240 _c
332 -242 331 -244 329 -246 _c
327 -248 326 -249 324 -249 _c
315 -249 _l
311 -249 310 -248 310 -247 _c
_cl}_e}_d
end readonly def

/BuildGlyph
 {exch begin
 CharStrings exch
 2 copy known not{pop /.notdef}if
 true 3 1 roll get exec
 end}_d

/BuildChar {
 1 index /Encoding get exch get
 1 index /BuildGlyph get exec
}_d

FontName currentdict end definefont pop
end
%%EndProlog
mpldict begin
13.807 176.192 translate
584.386 439.616 0 0 clipbox
gsave
0 0 m
584.386 0 l
584.386 439.616 l
0 439.616 l
cl
1.000 setgray
fill
grestore
gsave
95.2625 351.927 m
559.421 351.927 l
559.421 428.905 l
95.2625 428.905 l
cl
1.000 setgray
fill
grestore
3.000 setlinewidth
1 setlinejoin
2 setlinecap
[] 0 setdash
1.000 0.000 0.000 setrgbcolor
gsave
464.2 76.98 95.26 351.9 clipbox
95.0308 352.931 m
99.9191 352.947 l
117.3 353.237 l
120.015 353.291 l
134.68 353.335 l
140.112 353.204 l
148.259 353.171 l
158.036 353.174 l
164.553 353.208 l
169.442 353.291 l
178.675 353.503 l
205.833 353.609 l
212.893 353.585 l
229.731 354.034 l
244.396 354.519 l
249.827 354.432 l
256.345 354.351 l
262.863 354.359 l
266.665 354.539 l
269.381 354.886 l
274.812 355.662 l
278.614 356.184 l
282.959 356.799 l
285.132 356.812 l
288.391 356.776 l
291.65 356.744 l
296.538 356.61 l
298.711 356.959 l
301.426 357.401 l
304.142 357.605 l
306.858 357.833 l
309.574 358.01 l
311.203 357.908 l
313.919 357.381 l
322.066 355.829 l
325.325 355.391 l
327.497 355.324 l
332.929 355.42 l
336.731 355.746 l
344.878 356.723 l
350.31 357.056 l
355.198 357.079 l
359.543 356.947 l
361.716 357.119 l
367.147 357.985 l
370.406 358.744 l
372.035 359.094 l
373.665 359.202 l
375.294 359.069 l
378.553 358.413 l
382.355 357.584 l
388.873 355.955 l
391.045 355.879 l
394.847 355.952 l
397.563 356.229 l
400.822 356.905 l
404.081 357.469 l
407.34 357.833 l
411.142 358.035 l
413.858 357.947 l
421.462 357.631 l
423.634 357.871 l
425.807 358.342 l
429.066 359.043 l
431.238 359.22 l
434.497 359.204 l
436.67 358.99 l
438.299 358.566 l
442.644 357.139 l
444.817 356.723 l
450.792 356.08 l
452.421 356.191 l
454.05 356.528 l
458.396 357.569 l
461.111 358.052 l
463.284 358.708 l
464.913 359.174 l
466 359.359 l
467.086 359.386 l
468.715 359.186 l
471.431 358.845 l
475.776 358.522 l
480.121 357.838 l
481.208 357.904 l
483.38 358.34 l
485.01 358.636 l
486.639 358.705 l
492.614 358.402 l
494.243 358.353 l
495.873 358.046 l
499.132 357.232 l
500.761 357.065 l
508.365 357.055 l
509.995 357.328 l
511.624 357.876 l
514.34 358.856 l
515.969 359.229 l
522.487 360.306 l
523.573 360.218 l
524.659 359.974 l
530.634 358.133 l
536.609 357.085 l
538.238 357.137 l
541.497 357.653 l
543.67 357.884 l
548.015 358.258 l
551.274 358.695 l
552.903 358.72 l
558.878 358.423 l
559.964 358.41 l
559.964 358.41 l
stroke
grestore
1.000 setlinewidth
0 setlinecap
[6 6] 0 setdash
gsave
464.2 76.98 95.26 351.9 clipbox
95.2118 354.274 m
133.16 354.825 l
136.636 354.897 l
152.206 355.114 l
157.42 355.144 l
160.824 355.144 l
167.993 355.312 l
171.18 355.698 l
171.904 356.044 l
172.339 356.495 l
172.701 357.207 l
172.99 358.23 l
173.28 360.096 l
173.57 363.765 l
173.932 372.24 l
174.294 379.374 l
174.439 380.061 l
174.511 380.06 l
174.873 379.218 l
175.091 378.506 l
175.453 376.069 l
175.96 373.115 l
176.466 371.461 l
176.684 371.266 l
176.901 371.402 l
177.191 372.019 l
177.553 373.534 l
178.132 377.191 l
178.711 382.172 l
179.291 389.173 l
179.943 400.284 l
181.174 421.973 l
181.536 424.853 l
181.753 425.361 l
181.898 425.203 l
182.115 424.25 l
182.405 421.676 l
182.839 415.155 l
183.419 402.583 l
184.36 382.081 l
184.65 379.179 l
184.795 378.772 l
184.94 378.912 l
185.302 379.619 l
185.591 379.748 l
185.809 380.366 l
186.388 383.453 l
186.822 386.822 l
188.126 399.385 l
188.343 399.694 l
189.067 400.105 l
189.647 400.947 l
190.588 401.811 l
190.806 401.681 l
191.023 401.137 l
191.312 399.618 l
191.819 395.365 l
192.544 389.733 l
193.485 384.568 l
193.702 384.124 l
193.847 384.182 l
194.064 384.726 l
194.499 385.837 l
194.644 385.702 l
194.861 384.968 l
195.368 383.093 l
195.513 383.067 l
195.658 383.365 l
195.947 384.831 l
196.816 390.053 l
197.106 390.538 l
197.541 390.968 l
197.758 391.674 l
198.047 393.553 l
198.482 398.355 l
199.568 411.376 l
199.93 413.303 l
200.148 413.631 l
200.293 413.514 l
200.51 412.735 l
200.727 410.953 l
201.017 406.609 l
202.175 385.751 l
202.682 381.429 l
203.117 379.283 l
203.551 378.172 l
204.131 376.951 l
205.507 373.333 l
205.796 373.293 l
206.231 373.317 l
206.448 373.055 l
206.738 372.268 l
207.462 369.933 l
207.679 369.784 l
207.824 369.895 l
208.041 370.441 l
208.331 372.014 l
208.766 375.987 l
209.49 382.701 l
209.852 384.357 l
210.069 384.538 l
210.214 384.279 l
210.504 382.954 l
211.518 377.182 l
211.662 377.07 l
211.807 377.192 l
212.024 377.737 l
212.531 379.908 l
213.038 381.708 l
213.907 383.882 l
214.776 387.169 l
214.994 387.317 l
215.139 387.173 l
215.428 386.383 l
216.152 383.923 l
216.297 383.842 l
216.442 384.005 l
216.659 384.76 l
216.949 386.75 l
217.528 393.03 l
217.963 396.98 l
218.18 397.623 l
218.253 397.578 l
218.397 397.093 l
218.687 394.7 l
219.339 385.912 l
219.991 378.632 l
220.932 370.784 l
221.294 368.922 l
221.511 368.49 l
221.656 368.516 l
221.874 368.964 l
222.38 370.964 l
222.815 372.272 l
223.032 372.457 l
223.249 372.346 l
223.684 371.701 l
224.263 370.478 l
224.988 369.006 l
225.35 368.72 l
225.567 368.732 l
225.784 368.961 l
226.001 369.523 l
226.291 370.975 l
226.726 374.656 l
227.45 381.091 l
227.812 382.519 l
228.029 382.742 l
228.246 382.61 l
228.536 382.04 l
228.971 380.596 l
230.057 376.665 l
230.274 376.53 l
230.491 376.748 l
230.781 377.547 l
231.433 380.424 l
232.085 382.803 l
232.447 383.459 l
232.736 383.608 l
233.243 383.494 l
233.678 383.519 l
234.04 383.796 l
234.33 384.357 l
234.619 385.449 l
235.199 388.941 l
235.561 390.512 l
235.778 390.74 l
235.923 390.576 l
236.213 389.652 l
236.864 386.322 l
237.661 381.198 l
238.602 373.03 l
239.327 367.798 l
239.834 365.585 l
240.123 365.011 l
240.34 364.968 l
240.558 365.228 l
240.992 366.312 l
241.716 368.129 l
242.079 368.488 l
242.368 368.446 l
242.73 368.08 l
243.527 367.121 l
243.744 367.141 l
243.961 367.441 l
244.251 368.405 l
244.613 370.539 l
246.062 380.155 l
246.424 381.361 l
246.641 381.575 l
246.786 381.482 l
247.003 381.008 l
247.438 379.221 l
248.017 377.031 l
248.307 376.69 l
248.524 376.784 l
248.814 377.258 l
249.321 378.629 l
249.972 381.012 l
250.696 383.713 l
250.986 384.088 l
251.203 384.009 l
251.566 383.46 l
252.217 381.958 l
253.086 379.425 l
253.883 376.919 l
254.173 376.636 l
254.462 376.685 l
254.897 376.815 l
255.114 376.686 l
255.331 376.299 l
255.621 375.224 l
255.983 372.875 l
257.214 363.691 l
257.576 362.734 l
257.938 362.345 l
258.301 362.256 l
258.59 362.39 l
258.88 362.817 l
259.242 363.808 l
260.618 368.068 l
261.197 368.918 l
261.921 369.885 l
262.428 370.977 l
262.935 372.603 l
263.442 375.025 l
264.239 378.924 l
264.529 379.511 l
264.673 379.553 l
264.891 379.3 l
265.18 378.485 l
266.267 374.965 l
266.629 374.526 l
266.846 374.531 l
267.063 374.766 l
267.353 375.499 l
267.715 377.177 l
268.729 382.533 l
269.019 382.923 l
269.236 382.862 l
269.526 382.451 l
270.032 381.195 l
270.612 379.1 l
271.553 374.582 l
272.205 371.981 l
272.64 371.047 l
273.653 369.363 l
274.378 367.223 l
276.043 362.06 l
276.405 361.587 l
276.695 361.548 l
276.985 361.835 l
277.347 362.658 l
277.854 364.514 l
279.013 368.928 l
279.519 369.948 l
279.882 370.203 l
280.171 370.15 l
280.751 369.976 l
280.968 370.212 l
281.258 371.02 l
281.692 373.173 l
282.416 376.708 l
282.851 377.795 l
283.213 378.153 l
283.503 378.139 l
283.792 377.893 l
284.227 377.181 l
285.023 375.834 l
285.313 375.694 l
285.603 375.828 l
285.965 376.339 l
286.906 377.867 l
287.268 377.983 l
287.558 377.824 l
287.92 377.301 l
288.282 376.365 l
288.717 374.52 l
289.368 370.506 l
290.165 365.86 l
290.6 364.434 l
290.889 364.017 l
291.179 363.942 l
291.541 364.145 l
292.627 364.945 l
292.917 364.825 l
293.207 364.41 l
293.714 363.134 l
294.293 361.809 l
294.583 361.565 l
294.8 361.605 l
295.09 361.917 l
295.524 362.774 l
296.248 364.755 l
297.045 367.689 l
297.769 370.101 l
298.204 370.826 l
298.566 371.045 l
299.145 371.342 l
299.507 371.902 l
300.087 373.398 l
301.535 377.325 l
301.752 377.267 l
301.969 376.895 l
302.404 375.54 l
302.983 373.917 l
303.345 373.554 l
303.708 373.548 l
304.432 373.621 l
305.373 373.348 l
306.097 373.058 l
306.387 372.71 l
306.749 371.881 l
307.256 370.034 l
308.922 363.43 l
309.429 362.431 l
309.791 362.152 l
310.08 362.177 l
310.587 362.542 l
310.95 362.714 l
311.239 362.635 l
311.601 362.281 l
312.47 361.338 l
312.905 361.228 l
313.339 361.35 l
313.701 361.672 l
313.991 362.199 l
314.353 363.394 l
314.86 366.079 l
315.584 369.867 l
316.019 371.112 l
316.453 371.767 l
316.96 372.15 l
317.757 372.67 l
318.119 373.258 l
318.554 374.474 l
319.423 377.068 l
319.64 377.255 l
319.857 377.167 l
320.147 376.669 l
320.654 375.158 l
321.812 371.638 l
322.537 370.136 l
323.84 368.087 l
324.782 366.459 l
325.723 364.266 l
327.171 360.869 l
327.606 360.367 l
327.896 360.373 l
328.185 360.653 l
329.272 362.023 l
329.634 362.072 l
330.141 361.882 l
330.72 361.686 l
331.082 361.812 l
331.444 362.248 l
331.879 363.232 l
332.386 365.019 l
333.327 369.504 l
333.979 371.959 l
334.413 372.906 l
334.776 373.231 l
334.993 373.2 l
335.282 372.907 l
335.862 371.829 l
336.296 371.215 l
336.514 371.153 l
336.731 371.296 l
337.093 371.934 l
337.962 373.733 l
338.252 373.891 l
338.469 373.807 l
338.759 373.436 l
339.193 372.422 l
341.004 367.438 l
342.452 365.354 l
345.711 359.293 l
346.145 358.988 l
346.507 358.971 l
346.87 359.176 l
347.304 359.693 l
348.897 361.916 l
349.549 362.757 l
350.056 363.83 l
350.635 365.66 l
351.432 369.112 l
352.301 372.717 l
352.736 373.702 l
353.025 373.898 l
353.242 373.817 l
353.605 373.371 l
354.763 371.656 l
355.198 371.463 l
356.429 371.255 l
356.791 370.707 l
357.226 369.565 l
357.877 367.095 l
358.891 363.266 l
359.398 362.221 l
359.905 361.7 l
362.078 360.092 l
363.961 359.011 l
364.323 359.164 l
364.757 359.632 l
365.337 360.658 l
366.495 362.772 l
368.523 365.854 l
369.102 367.338 l
370.551 371.535 l
370.913 371.918 l
371.203 371.979 l
371.492 371.838 l
371.854 371.377 l
372.361 370.293 l
373.085 368.761 l
373.375 368.512 l
373.665 368.559 l
374.027 368.953 l
374.606 369.594 l
374.824 369.555 l
375.041 369.272 l
375.403 368.265 l
376.055 365.426 l
376.924 361.805 l
377.431 360.428 l
377.865 359.815 l
378.227 359.666 l
378.662 359.751 l
379.531 359.97 l
380.11 359.858 l
380.979 359.419 l
382.138 358.835 l
382.572 358.845 l
383.007 359.095 l
383.514 359.721 l
384.383 361.316 l
386.121 364.819 l
386.918 367.204 l
388.656 372.745 l
389.018 373.194 l
389.307 373.219 l
389.597 372.95 l
389.959 372.256 l
390.466 370.774 l
391.408 367.127 l
392.132 364.745 l
392.566 363.95 l
393.146 363.407 l
393.653 362.866 l
394.16 361.964 l
395.97 358.307 l
396.26 358.211 l
396.622 358.366 l
398.215 359.539 l
398.65 359.463 l
399.301 359.077 l
400.025 358.685 l
400.388 358.698 l
400.75 358.962 l
401.112 359.527 l
401.619 360.772 l
403.284 365.277 l
403.864 366.158 l
405.457 368.107 l
406.543 369.917 l
406.978 370.201 l
407.34 370.15 l
407.774 369.789 l
408.281 369.019 l
408.933 367.539 l
410.744 363.106 l
411.685 361.697 l
414.437 357.998 l
414.871 357.913 l
415.306 358.076 l
416.827 358.935 l
417.406 358.799 l
418.203 358.609 l
418.637 358.722 l
419.072 359.052 l
419.506 359.67 l
419.941 360.714 l
420.593 363.022 l
421.534 366.203 l
422.113 367.43 l
422.693 368.15 l
423.417 368.632 l
424.938 369.451 l
425.227 369.309 l
425.59 368.861 l
426.097 367.762 l
426.821 365.535 l
428.269 360.954 l
428.921 359.712 l
429.428 359.191 l
429.862 359.038 l
431.021 358.836 l
431.673 358.381 l
432.904 357.436 l
433.338 357.421 l
433.773 357.641 l
435.656 358.869 l
436.38 359.501 l
437.177 360.52 l
437.756 361.607 l
438.263 363.051 l
439.711 367.759 l
440.073 368.175 l
440.363 368.234 l
440.725 368.029 l
441.305 367.333 l
441.884 366.767 l
442.246 366.733 l
442.681 366.986 l
443.26 367.285 l
443.55 367.178 l
443.839 366.822 l
444.274 365.84 l
446.446 359.988 l
447.46 358.428 l
448.04 357.843 l
448.547 357.644 l
449.198 357.682 l
450.14 357.739 l
452.023 357.61 l
452.53 357.854 l
453.037 358.351 l
453.906 359.606 l
454.992 361.068 l
455.933 362.289 l
456.44 363.458 l
457.164 365.913 l
457.961 368.386 l
458.323 368.977 l
458.613 369.111 l
458.83 369.004 l
459.12 368.602 l
459.554 367.563 l
460.713 364.577 l
461.22 363.956 l
461.944 363.143 l
462.451 362.155 l
464.406 357.797 l
464.841 357.445 l
465.348 357.31 l
466.362 357.309 l
467.376 357.596 l
467.52 357.613 l
467.52 357.613 l
stroke
grestore
0.500 setlinewidth
[] 0 setdash
0.000 setgray
gsave
/o {
gsave
newpath
translate
0.5 setlinewidth
1 setlinejoin
0 setlinecap
0 0 m
0 4 l
gsave
0.000 setgray
fill
grestore
stroke
grestore
} bind def
171.976 351.927 o
grestore
gsave
/o {
gsave
newpath
translate
0.5 setlinewidth
1 setlinejoin
0 setlinecap
0 0 m
0 -4 l
gsave
0.000 setgray
fill
grestore
stroke
grestore
} bind def
171.976 428.905 o
grestore
/DejaVuSans findfont
15.000 scalefont
setfont
gsave
168.195228 336.536612 translate
0.000000 rotate
0.000000 0.000000 m /zero glyphshow
grestore
gsave
/o {
gsave
newpath
translate
0.5 setlinewidth
1 setlinejoin
0 setlinecap
0 0 m
0 4 l
gsave
0.000 setgray
fill
grestore
stroke
grestore
} bind def
249.465 351.927 o
grestore
gsave
/o {
gsave
newpath
translate
0.5 setlinewidth
1 setlinejoin
0 setlinecap
0 0 m
0 -4 l
gsave
0.000 setgray
fill
grestore
stroke
grestore
} bind def
249.465 428.905 o
grestore
gsave
236.191908 336.536612 translate
0.000000 rotate
0.000000 0.000000 m /two glyphshow
9.543457 0.000000 m /zero glyphshow
19.086914 0.000000 m /zero glyphshow
grestore
gsave
/o {
gsave
newpath
translate
0.5 setlinewidth
1 setlinejoin
0 setlinecap
0 0 m
0 4 l
gsave
0.000 setgray
fill
grestore
stroke
grestore
} bind def
326.954 351.927 o
grestore
gsave
/o {
gsave
newpath
translate
0.5 setlinewidth
1 setlinejoin
0 setlinecap
0 0 m
0 -4 l
gsave
0.000 setgray
fill
grestore
stroke
grestore
} bind def
326.954 428.905 o
grestore
gsave
313.501087 336.536612 translate
0.000000 rotate
0.000000 0.000000 m /four glyphshow
9.543457 0.000000 m /zero glyphshow
19.086914 0.000000 m /zero glyphshow
grestore
gsave
/o {
gsave
newpath
translate
0.5 setlinewidth
1 setlinejoin
0 setlinecap
0 0 m
0 4 l
gsave
0.000 setgray
fill
grestore
stroke
grestore
} bind def
404.443 351.927 o
grestore
gsave
/o {
gsave
newpath
translate
0.5 setlinewidth
1 setlinejoin
0 setlinecap
0 0 m
0 -4 l
gsave
0.000 setgray
fill
grestore
stroke
grestore
} bind def
404.443 428.905 o
grestore
gsave
391.146204 336.536612 translate
0.000000 rotate
0.000000 0.000000 m /six glyphshow
9.543457 0.000000 m /zero glyphshow
19.086914 0.000000 m /zero glyphshow
grestore
gsave
/o {
gsave
newpath
translate
0.5 setlinewidth
1 setlinejoin
0 setlinecap
0 0 m
0 4 l
gsave
0.000 setgray
fill
grestore
stroke
grestore
} bind def
481.932 351.927 o
grestore
gsave
/o {
gsave
newpath
translate
0.5 setlinewidth
1 setlinejoin
0 setlinecap
0 0 m
0 -4 l
gsave
0.000 setgray
fill
grestore
stroke
grestore
} bind def
481.932 428.905 o
grestore
gsave
468.619446 336.536612 translate
0.000000 rotate
0.000000 0.000000 m /eight glyphshow
9.543457 0.000000 m /zero glyphshow
19.086914 0.000000 m /zero glyphshow
grestore
gsave
/o {
gsave
newpath
translate
0.5 setlinewidth
1 setlinejoin
0 setlinecap
0 0 m
0 4 l
gsave
0.000 setgray
fill
grestore
stroke
grestore
} bind def
559.421 351.927 o
grestore
gsave
/o {
gsave
newpath
translate
0.5 setlinewidth
1 setlinejoin
0 setlinecap
0 0 m
0 -4 l
gsave
0.000 setgray
fill
grestore
stroke
grestore
} bind def
559.421 428.905 o
grestore
gsave
541.655188 336.536612 translate
0.000000 rotate
0.000000 0.000000 m /one glyphshow
9.543457 0.000000 m /zero glyphshow
19.086914 0.000000 m /zero glyphshow
28.630371 0.000000 m /zero glyphshow
grestore
gsave
/o {
gsave
newpath
translate
0.5 setlinewidth
1 setlinejoin
0 setlinecap
0 0 m
4 0 l
gsave
0.000 setgray
fill
grestore
stroke
grestore
} bind def
95.2625 351.927 o
grestore
gsave
/o {
gsave
newpath
translate
0.5 setlinewidth
1 setlinejoin
0 setlinecap
0 0 m
-4 0 l
gsave
0.000 setgray
fill
grestore
stroke
grestore
} bind def
559.421 351.927 o
grestore
gsave
31.200000 347.794424 translate
0.000000 rotate
0.000000 0.000000 m /zero glyphshow
9.543457 0.000000 m /period glyphshow
14.311523 0.000000 m /zero glyphshow
23.854980 0.000000 m /zero glyphshow
33.398438 0.000000 m /zero glyphshow
42.941895 0.000000 m /zero glyphshow
52.485352 0.000000 m /zero glyphshow
grestore
gsave
/o {
gsave
newpath
translate
0.5 setlinewidth
1 setlinejoin
0 setlinecap
0 0 m
4 0 l
gsave
0.000 setgray
fill
grestore
stroke
grestore
} bind def
95.2625 367.323 o
grestore
gsave
/o {
gsave
newpath
translate
0.5 setlinewidth
1 setlinejoin
0 setlinecap
0 0 m
-4 0 l
gsave
0.000 setgray
fill
grestore
stroke
grestore
} bind def
559.421 367.323 o
grestore
gsave
/o {
gsave
newpath
translate
0.5 setlinewidth
1 setlinejoin
0 setlinecap
0 0 m
4 0 l
gsave
0.000 setgray
fill
grestore
stroke
grestore
} bind def
95.2625 382.718 o
grestore
gsave
/o {
gsave
newpath
translate
0.5 setlinewidth
1 setlinejoin
0 setlinecap
0 0 m
-4 0 l
gsave
0.000 setgray
fill
grestore
stroke
grestore
} bind def
559.421 382.718 o
grestore
gsave
31.200000 378.585359 translate
0.000000 rotate
0.000000 0.000000 m /zero glyphshow
9.543457 0.000000 m /period glyphshow
14.311523 0.000000 m /zero glyphshow
23.854980 0.000000 m /zero glyphshow
33.398438 0.000000 m /zero glyphshow
42.941895 0.000000 m /one glyphshow
52.485352 0.000000 m /zero glyphshow
grestore
gsave
/o {
gsave
newpath
translate
0.5 setlinewidth
1 setlinejoin
0 setlinecap
0 0 m
4 0 l
gsave
0.000 setgray
fill
grestore
stroke
grestore
} bind def
95.2625 398.114 o
grestore
gsave
/o {
gsave
newpath
translate
0.5 setlinewidth
1 setlinejoin
0 setlinecap
0 0 m
-4 0 l
gsave
0.000 setgray
fill
grestore
stroke
grestore
} bind def
559.421 398.114 o
grestore
gsave
/o {
gsave
newpath
translate
0.5 setlinewidth
1 setlinejoin
0 setlinecap
0 0 m
4 0 l
gsave
0.000 setgray
fill
grestore
stroke
grestore
} bind def
95.2625 413.509 o
grestore
gsave
/o {
gsave
newpath
translate
0.5 setlinewidth
1 setlinejoin
0 setlinecap
0 0 m
-4 0 l
gsave
0.000 setgray
fill
grestore
stroke
grestore
} bind def
559.421 413.509 o
grestore
gsave
31.200000 409.376293 translate
0.000000 rotate
0.000000 0.000000 m /zero glyphshow
9.543457 0.000000 m /period glyphshow
14.311523 0.000000 m /zero glyphshow
23.854980 0.000000 m /zero glyphshow
33.398438 0.000000 m /zero glyphshow
42.941895 0.000000 m /two glyphshow
52.485352 0.000000 m /zero glyphshow
grestore
gsave
/o {
gsave
newpath
translate
0.5 setlinewidth
1 setlinejoin
0 setlinecap
0 0 m
4 0 l
gsave
0.000 setgray
fill
grestore
stroke
grestore
} bind def
95.2625 428.905 o
grestore
gsave
/o {
gsave
newpath
translate
0.5 setlinewidth
1 setlinejoin
0 setlinecap
0 0 m
-4 0 l
gsave
0.000 setgray
fill
grestore
stroke
grestore
} bind def
559.421 428.905 o
grestore
gsave
21.200000 348.415905 translate
90.000000 rotate
/Cmr10 findfont
18.0 scalefont
setfont
0.000000 0.500000 moveto
/parenleft glyphshow

/Cmmi10 findfont
18.0 scalefont
setfont
6.987305 0.500000 moveto
/d glyphshow

16.347656 0.500000 moveto
/E glyphshow

29.627930 0.500000 moveto
/slash glyphshow

38.627930 0.500000 moveto
/d glyphshow

47.988281 0.500000 moveto
/t glyphshow

/Cmr10 findfont
18.0 scalefont
setfont
54.483398 0.500000 moveto
/parenright glyphshow

/Cmmi10 findfont
12.6 scalefont
setfont
61.470703 -4.091687 moveto
/G glyphshow

71.375977 -4.091687 moveto
/W glyphshow


grestore
1.000 setlinewidth
gsave
95.2625 428.905 m
559.421 428.905 l
stroke
grestore
gsave
559.421 351.927 m
559.421 428.905 l
stroke
grestore
gsave
95.2625 351.927 m
559.421 351.927 l
stroke
grestore
gsave
95.2625 351.927 m
95.2625 428.905 l
stroke
grestore
gsave
101.263 388.855 m
216.462 388.855 l
216.462 422.905 l
101.263 422.905 l
101.263 388.855 l
cl
gsave
1.000 setgray
fill
grestore
stroke
grestore
3.000 setlinewidth
2 setlinecap
1.000 0.000 0.000 setrgbcolor
gsave
109.662 413.18 m
126.463 413.18 l
stroke
grestore
0.000 setgray
gsave
139.662500 408.979573 translate
0.000000 rotate
/Cmmi10 findfont
12.0 scalefont
setfont
0.000000 0.093750 moveto
/C glyphshow

/Cmr10 findfont
12.0 scalefont
setfont
10.673438 0.093750 moveto
/equal glyphshow

20.749219 0.093750 moveto
/zero glyphshow

/Cmmi10 findfont
12.0 scalefont
setfont
26.749219 0.093750 moveto
/period glyphshow

/Cmr10 findfont
12.0 scalefont
setfont
30.168750 0.093750 moveto
/zero glyphshow

36.168750 0.093750 moveto
/six glyphshow

/DejaVuSans findfont
12.0 scalefont
setfont
42.168750 0.093750 moveto
/space glyphshow

45.983203 0.093750 moveto
/D glyphshow

55.223438 0.093750 moveto
/B glyphshow

63.455859 0.093750 moveto
/S glyphshow


grestore
1.000 setlinewidth
0 setlinecap
[6 6] 0 setdash
1.000 0.000 0.000 setrgbcolor
gsave
109.662 400.355 m
126.463 400.355 l
stroke
grestore
0.000 setgray
gsave
139.662500 396.154573 translate
0.000000 rotate
/Cmmi10 findfont
12.0 scalefont
setfont
0.000000 0.093750 moveto
/C glyphshow

/Cmr10 findfont
12.0 scalefont
setfont
10.673438 0.093750 moveto
/equal glyphshow

20.749219 0.093750 moveto
/zero glyphshow

/Cmmi10 findfont
12.0 scalefont
setfont
26.749219 0.093750 moveto
/period glyphshow

/Cmr10 findfont
12.0 scalefont
setfont
30.168750 0.093750 moveto
/zero glyphshow

36.168750 0.093750 moveto
/six glyphshow

/DejaVuSans findfont
12.0 scalefont
setfont
42.168750 0.093750 moveto
/space glyphshow

45.983203 0.093750 moveto
/B glyphshow

54.215625 0.093750 moveto
/S glyphshow


grestore
gsave
95.2625 251.857 m
559.421 251.857 l
559.421 328.834 l
95.2625 328.834 l
cl
1.000 setgray
fill
grestore
2.000 setlinewidth
2 setlinecap
[] 0 setdash
0.000 0.000 1.000 setrgbcolor
gsave
464.2 76.98 95.26 251.9 clipbox
95.0979 252.631 m
95.8694 252.645 l
96.6409 252.613 l
102.041 252.249 l
104.356 252.512 l
106.67 252.74 l
108.213 252.686 l
112.07 252.293 l
114.385 252.403 l
118.242 252.714 l
120.556 252.624 l
122.871 252.451 l
125.185 252.456 l
129.814 252.668 l
132.9 252.462 l
135.214 252.353 l
137.529 252.467 l
140.615 252.659 l
142.929 252.561 l
146.787 252.301 l
152.958 252.61 l
157.587 252.468 l
162.987 252.862 l
168.388 252.677 l
174.559 253.218 l
179.96 253.069 l
185.36 253.335 l
192.303 253.311 l
196.161 253.639 l
197.704 253.594 l
200.789 253.37 l
203.104 253.527 l
206.961 254.017 l
209.276 253.977 l
211.59 253.887 l
213.133 254.018 l
216.219 254.642 l
217.762 254.727 l
219.305 254.532 l
221.619 254.201 l
223.162 254.246 l
227.791 254.869 l
229.334 254.727 l
232.42 254.257 l
233.963 254.382 l
237.049 254.827 l
238.592 254.788 l
242.449 254.316 l
243.992 254.448 l
247.849 255.019 l
250.164 254.916 l
252.478 254.782 l
254.792 255.058 l
257.107 255.335 l
258.65 255.349 l
263.279 255.069 l
267.908 255.29 l
274.079 255.39 l
280.251 255.63 l
284.88 256.31 l
289.509 256.654 l
291.052 257.087 l
293.366 257.792 l
294.909 258.09 l
299.538 258.413 l
300.309 258.673 l
304.167 260.537 l
307.253 261.469 l
308.795 262.353 l
309.567 263.07 l
310.338 264.024 l
311.11 265.27 l
314.196 270.946 l
316.51 274.426 l
317.282 276.001 l
318.053 277.951 l
318.825 280.338 l
320.368 286.243 l
321.91 292.265 l
322.682 294.824 l
326.539 305.474 l
328.082 311.366 l
329.625 317.567 l
330.397 319.827 l
331.168 321.468 l
331.94 322.172 l
332.711 322.122 l
333.483 321.777 l
335.797 319.226 l
336.568 318.188 l
337.34 317.598 l
338.111 317.371 l
338.883 317.779 l
339.654 319.078 l
340.426 319.814 l
341.197 319.557 l
341.969 318.301 l
344.283 312.792 l
345.055 311.927 l
345.826 311.849 l
346.598 312.781 l
348.141 315.382 l
348.912 315.904 l
349.683 315.714 l
351.998 313.69 l
352.769 313.551 l
353.541 314.033 l
355.084 315.978 l
355.855 316.402 l
356.627 316.488 l
357.398 316.213 l
358.941 315.064 l
359.713 314.522 l
360.484 313.365 l
361.256 311.854 l
362.798 307.97 l
364.341 303.306 l
365.884 298.01 l
369.742 282.312 l
371.285 276.782 l
372.056 274.349 l
372.828 272.58 l
373.599 271.468 l
374.371 270.648 l
375.142 270.016 l
375.913 269.635 l
376.685 269.387 l
378.228 269.536 l
379.771 270.6 l
380.542 271.265 l
382.857 274.222 l
384.4 276.209 l
386.714 278.793 l
387.486 279.392 l
388.257 279.696 l
391.343 280.504 l
393.657 281.389 l
394.429 281.525 l
395.2 281.218 l
396.743 280.33 l
397.515 279.958 l
398.286 279.799 l
399.058 280.026 l
400.601 280.954 l
402.915 282.683 l
405.229 285.798 l
406.772 287.762 l
407.544 288.426 l
408.315 289.389 l
409.087 290.79 l
411.401 296.202 l
412.173 297.557 l
412.944 298.363 l
413.716 298.683 l
414.487 298.746 l
415.259 298.923 l
416.03 299.233 l
416.801 299.322 l
417.573 299.061 l
419.887 297.357 l
420.659 297.682 l
421.43 297.77 l
422.202 297.479 l
422.973 296.372 l
425.288 291.354 l
426.831 289.207 l
427.602 287.799 l
429.916 282.836 l
430.688 281.334 l
431.459 280.242 l
432.231 279.417 l
433.002 278.783 l
433.774 278.372 l
436.088 277.657 l
439.174 275.949 l
442.26 273.904 l
443.032 273.613 l
445.346 273.049 l
446.889 272.242 l
447.66 271.703 l
448.432 270.663 l
449.975 267.87 l
450.746 266.686 l
453.832 263.36 l
455.375 261.488 l
456.147 260.735 l
456.918 260.284 l
457.689 260.189 l
458.461 260.367 l
460.004 260.954 l
462.318 261.151 l
463.861 261.141 l
465.404 261.476 l
469.262 262.707 l
470.804 262.772 l
473.119 263.277 l
473.89 263.039 l
474.662 262.494 l
475.433 262.149 l
476.205 261.979 l
476.976 262.005 l
477.748 262.388 l
480.062 263.994 l
480.834 264.118 l
483.148 263.786 l
483.919 264.182 l
484.691 264.964 l
486.234 266.842 l
487.005 267.538 l
487.777 267.857 l
488.548 267.974 l
489.32 268.306 l
490.091 268.938 l
490.863 270.077 l
493.177 274.259 l
493.949 274.69 l
494.72 274.377 l
496.263 272.892 l
497.034 272.199 l
497.806 271.836 l
499.349 271.53 l
500.892 270.782 l
501.663 270.539 l
502.435 271.113 l
503.978 273.095 l
504.749 273.552 l
505.521 273.743 l
506.292 273.764 l
507.064 273.526 l
507.835 273.049 l
508.607 272.428 l
510.15 270.946 l
510.921 270.463 l
511.692 270.241 l
512.464 270.387 l
514.778 271.449 l
517.093 271.718 l
518.636 272.779 l
519.407 272.983 l
520.179 272.864 l
520.95 272.347 l
522.493 270.424 l
524.036 268.713 l
524.807 268.325 l
525.579 268.352 l
527.122 268.746 l
527.893 268.759 l
528.665 268.581 l
529.436 268.05 l
530.208 267.206 l
530.979 266.572 l
531.751 266.314 l
534.065 266.146 l
534.837 265.71 l
536.38 264.44 l
537.922 263.141 l
538.694 262.82 l
539.465 262.856 l
541.78 263.701 l
542.551 263.648 l
544.094 263.024 l
544.866 262.844 l
546.409 262.665 l
547.18 262.405 l
547.952 261.823 l
550.266 259.214 l
551.037 258.651 l
551.809 258.472 l
554.123 258.644 l
557.981 257.827 l
558.752 257.393 l
558.752 257.393 l
stroke
grestore
1.000 setlinewidth
0 setlinecap
[6 6] 0 setdash
gsave
464.2 76.98 95.26 251.9 clipbox
95.2008 253.797 m
96.6409 253.857 l
98.1838 253.729 l
100.961 253.562 l
102.298 253.714 l
104.356 254.215 l
106.516 254.663 l
107.853 254.677 l
109.19 254.424 l
111.247 253.791 l
112.687 253.476 l
114.025 253.383 l
116.082 253.488 l
118.551 253.543 l
119.991 253.383 l
121.945 252.974 l
125.545 252.276 l
128.117 252.1 l
136.86 251.937 l
146.838 252.874 l
151.055 253.899 l
153.421 254.055 l
156.918 254.25 l
158.976 254.66 l
161.65 255.186 l
162.885 255.195 l
164.222 254.993 l
169.365 254.041 l
173.479 253.881 l
175.434 253.414 l
178.211 252.652 l
180.474 252.327 l
182.634 252.243 l
186.852 252.34 l
188.909 252.611 l
190.76 253.089 l
192.715 253.848 l
197.138 255.681 l
200.121 256.417 l
202.898 257.208 l
204.338 257.63 l
205.881 257.962 l
208.247 258.103 l
209.07 257.963 l
211.127 257.203 l
212.67 256.635 l
214.316 256.322 l
215.653 256.423 l
216.27 256.684 l
216.99 257.245 l
217.402 257.836 l
217.71 258.694 l
217.916 259.81 l
218.122 261.921 l
218.43 268.744 l
219.253 294.382 l
219.356 293.877 l
219.665 289.288 l
220.179 282.311 l
220.693 278.026 l
221.002 276.951 l
221.208 276.771 l
221.413 276.89 l
221.722 277.516 l
222.648 280.465 l
223.162 282.803 l
223.676 286.597 l
224.602 296.349 l
225.322 302.678 l
226.351 309.757 l
226.762 311.292 l
226.968 311.38 l
227.174 310.952 l
227.482 309.467 l
227.997 305.571 l
229.54 292.867 l
230.568 286.724 l
230.774 286.607 l
230.98 287.21 l
231.391 289.73 l
232.008 294.762 l
232.831 301.391 l
233.448 306.916 l
234.271 314.431 l
234.991 318.259 l
235.197 318.774 l
235.3 318.766 l
235.506 318.182 l
235.814 316.203 l
236.431 310.393 l
237.974 295.706 l
238.283 294.24 l
238.592 293.741 l
239.003 293.274 l
239.414 292.687 l
239.517 292.728 l
239.723 293.219 l
240.546 296.409 l
240.752 295.756 l
241.163 292.733 l
242.089 285.111 l
242.398 284.075 l
242.603 283.996 l
242.809 284.257 l
243.22 285.383 l
244.146 288.436 l
244.558 288.966 l
244.763 289.009 l
244.969 288.839 l
245.381 288.035 l
246.101 286.265 l
246.615 284.206 l
247.026 281.729 l
248.261 271.932 l
248.775 270.55 l
248.981 270.329 l
249.186 270.393 l
249.907 271.268 l
250.112 270.924 l
250.421 269.712 l
251.038 267.216 l
251.758 265.709 l
252.169 265.226 l
253.095 264.826 l
253.301 265.048 l
254.021 266.282 l
254.844 266.676 l
255.255 267.381 l
255.667 268.684 l
256.078 270.021 l
256.284 270.225 l
256.49 269.965 l
256.798 268.876 l
257.621 265.749 l
258.238 264.164 l
258.547 263.817 l
258.856 263.783 l
259.164 263.986 l
259.473 264.462 l
259.884 265.589 l
260.399 267.751 l
261.736 273.867 l
262.044 274.589 l
262.25 274.675 l
262.456 274.414 l
262.764 273.475 l
263.279 270.852 l
263.69 268.906 l
263.999 268.386 l
264.204 268.463 l
264.822 269.059 l
265.027 268.904 l
265.336 268.183 l
266.056 265.474 l
266.673 263.526 l
266.879 263.356 l
267.085 263.488 l
267.702 264.222 l
268.113 264.248 l
268.422 264.127 l
268.73 263.762 l
269.656 262.346 l
269.965 262.25 l
270.17 262.344 l
270.479 262.82 l
271.919 265.968 l
272.228 266.242 l
272.433 266.21 l
272.639 265.954 l
273.051 264.954 l
273.976 262.458 l
274.388 261.901 l
274.799 261.722 l
275.211 261.843 l
275.622 262.292 l
276.548 263.887 l
276.959 265.265 l
278.091 269.389 l
278.605 270.802 l
278.914 271.17 l
279.222 271.251 l
280.045 271.176 l
280.457 271.754 l
280.765 272.056 l
280.971 271.91 l
281.177 271.359 l
281.485 269.733 l
282.411 263.798 l
282.72 263.052 l
282.925 262.894 l
283.131 262.942 l
283.543 263.44 l
283.851 263.733 l
284.057 263.707 l
284.468 263.26 l
284.983 262.717 l
285.497 262.49 l
285.909 262.524 l
286.217 262.808 l
286.834 263.465 l
287.143 263.377 l
288.171 262.479 l
288.994 261.241 l
289.509 260.528 l
289.714 260.473 l
290.023 260.685 l
291.977 262.965 l
292.8 264.488 l
293.212 264.983 l
293.52 265.744 l
294.858 269.854 l
295.269 270.499 l
295.475 270.523 l
295.783 270.185 l
296.812 268.663 l
297.223 268.023 l
297.532 267.143 l
298.046 264.754 l
298.663 262.028 l
299.075 261.206 l
299.384 261.03 l
300.001 260.836 l
300.721 260.436 l
301.029 260.555 l
301.544 261.138 l
302.161 261.828 l
302.469 261.907 l
302.778 261.661 l
303.189 260.913 l
304.115 259.026 l
304.424 258.962 l
304.835 259.274 l
305.452 259.703 l
306.172 260.052 l
307.304 261.078 l
307.715 260.904 l
308.847 260.276 l
309.156 260.467 l
309.567 261.095 l
310.081 262.466 l
311.007 265.203 l
311.521 265.964 l
311.83 266.116 l
312.139 265.957 l
313.681 264.222 l
313.99 263.514 l
314.916 260.88 l
315.224 260.618 l
316.253 260.357 l
317.076 259.675 l
317.385 259.739 l
317.796 259.865 l
318.105 259.656 l
318.619 258.768 l
319.236 257.802 l
319.648 257.481 l
319.956 257.56 l
320.265 257.98 l
321.602 260.49 l
322.116 260.6 l
322.733 260.55 l
323.042 260.325 l
323.453 259.69 l
324.482 257.876 l
325.099 257.305 l
325.614 257.042 l
325.922 257.124 l
326.231 257.557 l
326.642 258.665 l
327.979 262.709 l
328.597 263.725 l
329.111 264.645 l
329.934 266.374 l
330.14 266.397 l
330.448 266.139 l
331.168 265.151 l
331.991 263.492 l
332.608 261.706 l
333.225 260.047 l
333.945 258.879 l
335.077 257.368 l
335.386 257.392 l
335.797 257.769 l
336.62 258.607 l
337.649 259.194 l
338.266 259.334 l
338.78 259.476 l
339.397 259.863 l
339.603 259.768 l
340.014 259.217 l
341.66 256.86 l
342.072 256.605 l
342.072 256.605 l
stroke
grestore
0.500 setlinewidth
[] 0 setdash
0.000 setgray
gsave
/o {
gsave
newpath
translate
0.5 setlinewidth
1 setlinejoin
0 setlinecap
0 0 m
0 4 l
gsave
0.000 setgray
fill
grestore
stroke
grestore
} bind def
153.73 251.857 o
grestore
gsave
/o {
gsave
newpath
translate
0.5 setlinewidth
1 setlinejoin
0 setlinecap
0 0 m
0 -4 l
gsave
0.000 setgray
fill
grestore
stroke
grestore
} bind def
153.73 328.834 o
grestore
gsave
134.425055 236.466074 translate
0.000000 rotate
0.000000 0.000000 m /minus glyphshow
12.568359 0.000000 m /one glyphshow
22.111816 0.000000 m /zero glyphshow
31.655273 0.000000 m /zero glyphshow
grestore
gsave
/o {
gsave
newpath
translate
0.5 setlinewidth
1 setlinejoin
0 setlinecap
0 0 m
0 4 l
gsave
0.000 setgray
fill
grestore
stroke
grestore
} bind def
213.39 251.857 o
grestore
gsave
/o {
gsave
newpath
translate
0.5 setlinewidth
1 setlinejoin
0 setlinecap
0 0 m
0 -4 l
gsave
0.000 setgray
fill
grestore
stroke
grestore
} bind def
213.39 328.834 o
grestore
gsave
209.608944 236.466074 translate
0.000000 rotate
0.000000 0.000000 m /zero glyphshow
grestore
gsave
/o {
gsave
newpath
translate
0.5 setlinewidth
1 setlinejoin
0 setlinecap
0 0 m
0 4 l
gsave
0.000 setgray
fill
grestore
stroke
grestore
} bind def
273.051 251.857 o
grestore
gsave
/o {
gsave
newpath
translate
0.5 setlinewidth
1 setlinejoin
0 setlinecap
0 0 m
0 -4 l
gsave
0.000 setgray
fill
grestore
stroke
grestore
} bind def
273.051 328.834 o
grestore
gsave
260.058458 236.466074 translate
0.000000 rotate
0.000000 0.000000 m /one glyphshow
9.543457 0.000000 m /zero glyphshow
19.086914 0.000000 m /zero glyphshow
grestore
gsave
/o {
gsave
newpath
translate
0.5 setlinewidth
1 setlinejoin
0 setlinecap
0 0 m
0 4 l
gsave
0.000 setgray
fill
grestore
stroke
grestore
} bind def
332.711 251.857 o
grestore
gsave
/o {
gsave
newpath
translate
0.5 setlinewidth
1 setlinejoin
0 setlinecap
0 0 m
0 -4 l
gsave
0.000 setgray
fill
grestore
stroke
grestore
} bind def
332.711 328.834 o
grestore
gsave
319.437659 236.466074 translate
0.000000 rotate
0.000000 0.000000 m /two glyphshow
9.543457 0.000000 m /zero glyphshow
19.086914 0.000000 m /zero glyphshow
grestore
gsave
/o {
gsave
newpath
translate
0.5 setlinewidth
1 setlinejoin
0 setlinecap
0 0 m
0 4 l
gsave
0.000 setgray
fill
grestore
stroke
grestore
} bind def
392.372 251.857 o
grestore
gsave
/o {
gsave
newpath
translate
0.5 setlinewidth
1 setlinejoin
0 setlinecap
0 0 m
0 -4 l
gsave
0.000 setgray
fill
grestore
stroke
grestore
} bind def
392.372 328.834 o
grestore
gsave
379.121548 236.466074 translate
0.000000 rotate
0.000000 0.000000 m /three glyphshow
9.543457 0.000000 m /zero glyphshow
19.086914 0.000000 m /zero glyphshow
grestore
gsave
/o {
gsave
newpath
translate
0.5 setlinewidth
1 setlinejoin
0 setlinecap
0 0 m
0 4 l
gsave
0.000 setgray
fill
grestore
stroke
grestore
} bind def
452.032 251.857 o
grestore
gsave
/o {
gsave
newpath
translate
0.5 setlinewidth
1 setlinejoin
0 setlinecap
0 0 m
0 -4 l
gsave
0.000 setgray
fill
grestore
stroke
grestore
} bind def
452.032 328.834 o
grestore
gsave
438.578875 236.466074 translate
0.000000 rotate
0.000000 0.000000 m /four glyphshow
9.543457 0.000000 m /zero glyphshow
19.086914 0.000000 m /zero glyphshow
grestore
gsave
/o {
gsave
newpath
translate
0.5 setlinewidth
1 setlinejoin
0 setlinecap
0 0 m
0 4 l
gsave
0.000 setgray
fill
grestore
stroke
grestore
} bind def
511.692 251.857 o
grestore
gsave
/o {
gsave
newpath
translate
0.5 setlinewidth
1 setlinejoin
0 setlinecap
0 0 m
0 -4 l
gsave
0.000 setgray
fill
grestore
stroke
grestore
} bind def
511.692 328.834 o
grestore
gsave
498.450264 236.466074 translate
0.000000 rotate
0.000000 0.000000 m /five glyphshow
9.543457 0.000000 m /zero glyphshow
19.086914 0.000000 m /zero glyphshow
grestore
gsave
/o {
gsave
newpath
translate
0.5 setlinewidth
1 setlinejoin
0 setlinecap
0 0 m
4 0 l
gsave
0.000 setgray
fill
grestore
stroke
grestore
} bind def
95.2625 251.857 o
grestore
gsave
/o {
gsave
newpath
translate
0.5 setlinewidth
1 setlinejoin
0 setlinecap
0 0 m
-4 0 l
gsave
0.000 setgray
fill
grestore
stroke
grestore
} bind def
559.421 251.857 o
grestore
gsave
40.746875 247.723887 translate
0.000000 rotate
0.000000 0.000000 m /zero glyphshow
9.543457 0.000000 m /period glyphshow
14.311523 0.000000 m /zero glyphshow
23.854980 0.000000 m /zero glyphshow
33.398438 0.000000 m /zero glyphshow
42.941895 0.000000 m /zero glyphshow
grestore
gsave
/o {
gsave
newpath
translate
0.5 setlinewidth
1 setlinejoin
0 setlinecap
0 0 m
4 0 l
gsave
0.000 setgray
fill
grestore
stroke
grestore
} bind def
95.2625 267.252 o
grestore
gsave
/o {
gsave
newpath
translate
0.5 setlinewidth
1 setlinejoin
0 setlinecap
0 0 m
-4 0 l
gsave
0.000 setgray
fill
grestore
stroke
grestore
} bind def
559.421 267.252 o
grestore
gsave
/o {
gsave
newpath
translate
0.5 setlinewidth
1 setlinejoin
0 setlinecap
0 0 m
4 0 l
gsave
0.000 setgray
fill
grestore
stroke
grestore
} bind def
95.2625 282.648 o
grestore
gsave
/o {
gsave
newpath
translate
0.5 setlinewidth
1 setlinejoin
0 setlinecap
0 0 m
-4 0 l
gsave
0.000 setgray
fill
grestore
stroke
grestore
} bind def
559.421 282.648 o
grestore
gsave
41.246875 278.514821 translate
0.000000 rotate
0.000000 0.000000 m /zero glyphshow
9.543457 0.000000 m /period glyphshow
14.311523 0.000000 m /zero glyphshow
23.854980 0.000000 m /zero glyphshow
33.398438 0.000000 m /zero glyphshow
42.941895 0.000000 m /two glyphshow
grestore
gsave
/o {
gsave
newpath
translate
0.5 setlinewidth
1 setlinejoin
0 setlinecap
0 0 m
4 0 l
gsave
0.000 setgray
fill
grestore
stroke
grestore
} bind def
95.2625 298.043 o
grestore
gsave
/o {
gsave
newpath
translate
0.5 setlinewidth
1 setlinejoin
0 setlinecap
0 0 m
-4 0 l
gsave
0.000 setgray
fill
grestore
stroke
grestore
} bind def
559.421 298.043 o
grestore
gsave
/o {
gsave
newpath
translate
0.5 setlinewidth
1 setlinejoin
0 setlinecap
0 0 m
4 0 l
gsave
0.000 setgray
fill
grestore
stroke
grestore
} bind def
95.2625 313.439 o
grestore
gsave
/o {
gsave
newpath
translate
0.5 setlinewidth
1 setlinejoin
0 setlinecap
0 0 m
-4 0 l
gsave
0.000 setgray
fill
grestore
stroke
grestore
} bind def
559.421 313.439 o
grestore
gsave
40.590625 309.305756 translate
0.000000 rotate
0.000000 0.000000 m /zero glyphshow
9.543457 0.000000 m /period glyphshow
14.311523 0.000000 m /zero glyphshow
23.854980 0.000000 m /zero glyphshow
33.398438 0.000000 m /zero glyphshow
42.941895 0.000000 m /four glyphshow
grestore
gsave
/o {
gsave
newpath
translate
0.5 setlinewidth
1 setlinejoin
0 setlinecap
0 0 m
4 0 l
gsave
0.000 setgray
fill
grestore
stroke
grestore
} bind def
95.2625 328.834 o
grestore
gsave
/o {
gsave
newpath
translate
0.5 setlinewidth
1 setlinejoin
0 setlinecap
0 0 m
-4 0 l
gsave
0.000 setgray
fill
grestore
stroke
grestore
} bind def
559.421 328.834 o
grestore
gsave
30.590625 248.345368 translate
90.000000 rotate
/Cmr10 findfont
18.0 scalefont
setfont
0.000000 0.500000 moveto
/parenleft glyphshow

/Cmmi10 findfont
18.0 scalefont
setfont
6.987305 0.500000 moveto
/d glyphshow

16.347656 0.500000 moveto
/E glyphshow

29.627930 0.500000 moveto
/slash glyphshow

38.627930 0.500000 moveto
/d glyphshow

47.988281 0.500000 moveto
/t glyphshow

/Cmr10 findfont
18.0 scalefont
setfont
54.483398 0.500000 moveto
/parenright glyphshow

/Cmmi10 findfont
12.6 scalefont
setfont
61.470703 -4.091687 moveto
/G glyphshow

71.375977 -4.091687 moveto
/W glyphshow


grestore
1.000 setlinewidth
gsave
95.2625 328.834 m
559.421 328.834 l
stroke
grestore
gsave
559.421 251.857 m
559.421 328.834 l
stroke
grestore
gsave
95.2625 251.857 m
559.421 251.857 l
stroke
grestore
gsave
95.2625 251.857 m
95.2625 328.834 l
stroke
grestore
gsave
101.263 288.784 m
216.462 288.784 l
216.462 322.834 l
101.263 322.834 l
101.263 288.784 l
cl
gsave
1.000 setgray
fill
grestore
stroke
grestore
2.000 setlinewidth
2 setlinecap
0.000 0.000 1.000 setrgbcolor
gsave
109.662 313.109 m
126.463 313.109 l
stroke
grestore
0.000 setgray
gsave
139.662500 308.909036 translate
0.000000 rotate
/Cmmi10 findfont
12.0 scalefont
setfont
0.000000 0.093750 moveto
/C glyphshow

/Cmr10 findfont
12.0 scalefont
setfont
10.673438 0.093750 moveto
/equal glyphshow

20.749219 0.093750 moveto
/zero glyphshow

/Cmmi10 findfont
12.0 scalefont
setfont
26.749219 0.093750 moveto
/period glyphshow

/Cmr10 findfont
12.0 scalefont
setfont
30.168750 0.093750 moveto
/one glyphshow

36.168750 0.093750 moveto
/two glyphshow

/DejaVuSans findfont
12.0 scalefont
setfont
42.168750 0.093750 moveto
/space glyphshow

45.983203 0.093750 moveto
/D glyphshow

55.223438 0.093750 moveto
/B glyphshow

63.455859 0.093750 moveto
/S glyphshow


grestore
1.000 setlinewidth
0 setlinecap
[6 6] 0 setdash
0.000 0.000 1.000 setrgbcolor
gsave
109.662 300.284 m
126.463 300.284 l
stroke
grestore
0.000 setgray
gsave
139.662500 296.084036 translate
0.000000 rotate
/Cmmi10 findfont
12.0 scalefont
setfont
0.000000 0.093750 moveto
/C glyphshow

/Cmr10 findfont
12.0 scalefont
setfont
10.673438 0.093750 moveto
/equal glyphshow

20.749219 0.093750 moveto
/zero glyphshow

/Cmmi10 findfont
12.0 scalefont
setfont
26.749219 0.093750 moveto
/period glyphshow

/Cmr10 findfont
12.0 scalefont
setfont
30.168750 0.093750 moveto
/one glyphshow

36.168750 0.093750 moveto
/two glyphshow

/DejaVuSans findfont
12.0 scalefont
setfont
42.168750 0.093750 moveto
/space glyphshow

45.983203 0.093750 moveto
/B glyphshow

54.215625 0.093750 moveto
/S glyphshow


grestore
gsave
95.2625 151.786 m
559.421 151.786 l
559.421 228.763 l
95.2625 228.763 l
cl
1.000 setgray
fill
grestore
2.000 setlinewidth
2 setlinecap
[] 0 setdash
gsave
464.2 76.98 95.26 151.8 clipbox
95.2238 151.793 m
114.368 151.902 l
116.688 152.233 l
118.429 152.401 l
120.169 152.215 l
121.91 152.023 l
124.23 152.016 l
131.192 152.128 l
163.098 151.932 l
185.143 151.952 l
192.105 151.983 l
199.646 151.968 l
217.63 152.015 l
226.332 151.978 l
255.338 152.186 l
262.3 152.263 l
267.521 152.388 l
273.902 152.555 l
279.704 152.638 l
287.245 152.861 l
291.886 152.968 l
300.008 153.309 l
304.069 153.481 l
317.992 154.759 l
323.793 155.382 l
329.594 155.963 l
337.716 157.181 l
340.617 157.846 l
347.578 159.876 l
349.319 160.596 l
351.639 161.839 l
354.54 163.77 l
358.601 166.694 l
360.341 168.204 l
362.081 169.976 l
363.822 172.124 l
364.982 173.858 l
366.723 177.039 l
369.043 181.287 l
370.783 183.86 l
371.944 185.235 l
373.104 186.3 l
373.684 186.637 l
374.264 186.803 l
374.844 186.794 l
375.424 186.613 l
376.005 186.282 l
377.165 185.227 l
378.905 182.996 l
380.646 180.416 l
382.386 177.501 l
384.126 174.147 l
387.607 167.167 l
389.347 164.242 l
391.088 161.658 l
392.828 159.405 l
394.569 157.559 l
396.309 156.12 l
398.049 155.024 l
399.79 154.215 l
402.11 153.37 l
404.431 152.734 l
406.751 152.381 l
412.552 151.989 l
416.613 151.873 l
463.023 151.802 l
463.023 151.802 l
stroke
grestore
3.000 setlinewidth
0 setlinecap
[3 5 1 5] 0 setdash
gsave
464.2 76.98 95.26 151.8 clipbox
95.2238 151.786 m
172.767 151.893 l
192.685 152.68 l
199.066 153.043 l
204.094 153.042 l
208.928 153.12 l
217.824 153.379 l
224.205 153.126 l
229.62 153.066 l
236.001 153.008 l
241.415 152.665 l
246.443 152.444 l
273.902 151.792 l
281.057 151.925 l
292.66 152.39 l
321.666 154.319 l
335.009 154.059 l
338.49 153.807 l
343.904 153.121 l
348.158 152.716 l
354.54 152.403 l
359.374 152.311 l
362.275 152.478 l
365.175 152.883 l
369.043 153.678 l
375.424 155.223 l
379.292 156.392 l
386.834 158.808 l
389.154 159.211 l
391.475 159.38 l
394.375 159.34 l
397.663 159.062 l
401.143 158.51 l
403.851 157.895 l
410.039 156.295 l
411.972 156.056 l
413.713 156.045 l
415.453 156.244 l
417.387 156.697 l
419.321 157.393 l
421.061 158.247 l
422.801 159.36 l
424.928 161.035 l
427.249 163.158 l
433.05 168.725 l
434.791 169.996 l
436.531 170.997 l
438.271 171.765 l
439.818 172.259 l
441.365 172.547 l
443.299 172.658 l
445.426 172.541 l
447.747 172.179 l
450.261 171.876 l
451.421 171.992 l
452.194 172.273 l
452.968 172.75 l
453.741 173.447 l
454.321 174.182 l
454.708 174.909 l
455.095 176.078 l
455.482 178.025 l
455.868 181.065 l
456.449 187.652 l
457.222 196.767 l
457.802 201.195 l
458.576 204.986 l
459.543 209.705 l
462.056 223.854 l
462.637 225.623 l
463.023 226.126 l
463.217 226.163 l
463.603 225.839 l
463.99 225.081 l
464.57 223.393 l
466.311 217.71 l
467.084 215.979 l
467.858 214.31 l
468.438 212.585 l
469.405 208.84 l
470.952 202.808 l
472.112 199.353 l
474.819 192.35 l
475.786 190.684 l
476.753 189.476 l
477.14 189.222 l
477.526 189.203 l
477.913 189.459 l
478.493 190.293 l
479.46 192.253 l
480.427 194.656 l
481.587 197.762 l
482.941 200.777 l
484.101 204.335 l
484.488 204.888 l
484.875 205.033 l
485.455 204.838 l
486.228 204.351 l
486.615 203.747 l
487.002 202.615 l
487.582 199.98 l
488.936 193.553 l
490.096 188.745 l
490.676 187.347 l
491.063 187.017 l
491.256 187.089 l
491.449 187.348 l
491.836 188.422 l
493.77 196.084 l
494.93 202.754 l
495.124 202.679 l
495.317 201.905 l
495.704 198.567 l
496.284 192.682 l
496.671 190.798 l
496.864 190.716 l
497.057 191.161 l
497.444 193.301 l
499.184 206.427 l
499.571 207.738 l
499.765 207.984 l
499.958 207.912 l
500.151 207.52 l
500.538 205.921 l
501.505 199.874 l
502.859 191.819 l
503.245 190.542 l
503.632 189.991 l
504.019 189.95 l
504.599 190.012 l
505.179 189.71 l
505.566 189.591 l
505.759 189.677 l
506.146 190.244 l
506.726 191.855 l
507.306 193.428 l
507.693 193.868 l
507.886 193.828 l
508.08 193.609 l
508.466 192.67 l
509.047 190.363 l
511.56 179.225 l
513.107 172.285 l
513.494 171.375 l
513.881 170.917 l
514.848 170.133 l
515.428 169.486 l
515.621 169.394 l
515.815 169.444 l
516.008 169.673 l
516.395 170.739 l
516.975 173.676 l
518.135 180.33 l
518.522 181.32 l
518.715 181.479 l
518.909 181.427 l
519.295 180.81 l
520.262 178.094 l
521.036 176.199 l
521.616 175.235 l
522.196 174.743 l
522.776 174.637 l
523.743 174.809 l
524.517 174.849 l
524.903 174.694 l
525.29 174.34 l
525.87 173.414 l
526.45 172.022 l
527.224 169.547 l
527.997 166.444 l
529.931 157.744 l
530.705 155.927 l
531.285 154.965 l
531.671 154.732 l
531.865 154.796 l
532.252 155.258 l
533.218 157.236 l
534.959 160.845 l
535.346 161.144 l
535.732 161.073 l
536.699 160.42 l
537.086 160.492 l
537.473 160.845 l
538.246 162.031 l
539.793 164.396 l
541.147 165.847 l
541.727 167.347 l
542.307 168.984 l
542.694 169.382 l
542.887 169.286 l
543.274 168.658 l
544.628 165.587 l
545.208 163.529 l
546.175 159.96 l
546.755 158.62 l
547.335 157.865 l
548.688 156.769 l
549.269 156.517 l
551.009 156.396 l
551.589 156.507 l
551.976 156.819 l
552.363 157.391 l
552.943 158.788 l
557.777 173.113 l
558.357 174.424 l
558.744 174.725 l
558.937 174.642 l
559.324 173.987 l
559.518 173.438 l
559.518 173.438 l
stroke
grestore
0.500 setlinewidth
[] 0 setdash
gsave
/o {
gsave
newpath
translate
0.5 setlinewidth
1 setlinejoin
0 setlinecap
0 0 m
0 4 l
gsave
0.000 setgray
fill
grestore
stroke
grestore
} bind def
154.203 151.786 o
grestore
gsave
/o {
gsave
newpath
translate
0.5 setlinewidth
1 setlinejoin
0 setlinecap
0 0 m
0 -4 l
gsave
0.000 setgray
fill
grestore
stroke
grestore
} bind def
154.203 228.763 o
grestore
gsave
134.898551 136.395537 translate
0.000000 rotate
0.000000 0.000000 m /minus glyphshow
12.568359 0.000000 m /one glyphshow
22.111816 0.000000 m /five glyphshow
31.655273 0.000000 m /zero glyphshow
grestore
gsave
/o {
gsave
newpath
translate
0.5 setlinewidth
1 setlinejoin
0 setlinecap
0 0 m
0 4 l
gsave
0.000 setgray
fill
grestore
stroke
grestore
} bind def
215.6 151.786 o
grestore
gsave
/o {
gsave
newpath
translate
0.5 setlinewidth
1 setlinejoin
0 setlinecap
0 0 m
0 -4 l
gsave
0.000 setgray
fill
grestore
stroke
grestore
} bind def
215.6 228.763 o
grestore
gsave
196.295153 136.395537 translate
0.000000 rotate
0.000000 0.000000 m /minus glyphshow
12.568359 0.000000 m /one glyphshow
22.111816 0.000000 m /zero glyphshow
31.655273 0.000000 m /zero glyphshow
grestore
gsave
/o {
gsave
newpath
translate
0.5 setlinewidth
1 setlinejoin
0 setlinecap
0 0 m
0 4 l
gsave
0.000 setgray
fill
grestore
stroke
grestore
} bind def
276.996 151.786 o
grestore
gsave
/o {
gsave
newpath
translate
0.5 setlinewidth
1 setlinejoin
0 setlinecap
0 0 m
0 -4 l
gsave
0.000 setgray
fill
grestore
stroke
grestore
} bind def
276.996 228.763 o
grestore
gsave
262.465192 136.395537 translate
0.000000 rotate
0.000000 0.000000 m /minus glyphshow
12.568359 0.000000 m /five glyphshow
22.111816 0.000000 m /zero glyphshow
grestore
gsave
/o {
gsave
newpath
translate
0.5 setlinewidth
1 setlinejoin
0 setlinecap
0 0 m
0 4 l
gsave
0.000 setgray
fill
grestore
stroke
grestore
} bind def
338.393 151.786 o
grestore
gsave
/o {
gsave
newpath
translate
0.5 setlinewidth
1 setlinejoin
0 setlinecap
0 0 m
0 -4 l
gsave
0.000 setgray
fill
grestore
stroke
grestore
} bind def
338.393 228.763 o
grestore
gsave
334.611795 136.395537 translate
0.000000 rotate
0.000000 0.000000 m /zero glyphshow
grestore
gsave
/o {
gsave
newpath
translate
0.5 setlinewidth
1 setlinejoin
0 setlinecap
0 0 m
0 4 l
gsave
0.000 setgray
fill
grestore
stroke
grestore
} bind def
399.79 151.786 o
grestore
gsave
/o {
gsave
newpath
translate
0.5 setlinewidth
1 setlinejoin
0 setlinecap
0 0 m
0 -4 l
gsave
0.000 setgray
fill
grestore
stroke
grestore
} bind def
399.79 228.763 o
grestore
gsave
391.320897 136.395537 translate
0.000000 rotate
0.000000 0.000000 m /five glyphshow
9.543457 0.000000 m /zero glyphshow
grestore
gsave
/o {
gsave
newpath
translate
0.5 setlinewidth
1 setlinejoin
0 setlinecap
0 0 m
0 4 l
gsave
0.000 setgray
fill
grestore
stroke
grestore
} bind def
461.186 151.786 o
grestore
gsave
/o {
gsave
newpath
translate
0.5 setlinewidth
1 setlinejoin
0 setlinecap
0 0 m
0 -4 l
gsave
0.000 setgray
fill
grestore
stroke
grestore
} bind def
461.186 228.763 o
grestore
gsave
448.194062 136.395537 translate
0.000000 rotate
0.000000 0.000000 m /one glyphshow
9.543457 0.000000 m /zero glyphshow
19.086914 0.000000 m /zero glyphshow
grestore
gsave
/o {
gsave
newpath
translate
0.5 setlinewidth
1 setlinejoin
0 setlinecap
0 0 m
0 4 l
gsave
0.000 setgray
fill
grestore
stroke
grestore
} bind def
522.583 151.786 o
grestore
gsave
/o {
gsave
newpath
translate
0.5 setlinewidth
1 setlinejoin
0 setlinecap
0 0 m
0 -4 l
gsave
0.000 setgray
fill
grestore
stroke
grestore
} bind def
522.583 228.763 o
grestore
gsave
509.590664 136.395537 translate
0.000000 rotate
0.000000 0.000000 m /one glyphshow
9.543457 0.000000 m /five glyphshow
19.086914 0.000000 m /zero glyphshow
grestore
gsave
/o {
gsave
newpath
translate
0.5 setlinewidth
1 setlinejoin
0 setlinecap
0 0 m
4 0 l
gsave
0.000 setgray
fill
grestore
stroke
grestore
} bind def
95.2625 151.786 o
grestore
gsave
/o {
gsave
newpath
translate
0.5 setlinewidth
1 setlinejoin
0 setlinecap
0 0 m
-4 0 l
gsave
0.000 setgray
fill
grestore
stroke
grestore
} bind def
559.421 151.786 o
grestore
gsave
40.746875 147.653350 translate
0.000000 rotate
0.000000 0.000000 m /zero glyphshow
9.543457 0.000000 m /period glyphshow
14.311523 0.000000 m /zero glyphshow
23.854980 0.000000 m /zero glyphshow
33.398438 0.000000 m /zero glyphshow
42.941895 0.000000 m /zero glyphshow
grestore
gsave
/o {
gsave
newpath
translate
0.5 setlinewidth
1 setlinejoin
0 setlinecap
0 0 m
4 0 l
gsave
0.000 setgray
fill
grestore
stroke
grestore
} bind def
95.2625 165.782 o
grestore
gsave
/o {
gsave
newpath
translate
0.5 setlinewidth
1 setlinejoin
0 setlinecap
0 0 m
-4 0 l
gsave
0.000 setgray
fill
grestore
stroke
grestore
} bind def
559.421 165.782 o
grestore
gsave
/o {
gsave
newpath
translate
0.5 setlinewidth
1 setlinejoin
0 setlinecap
0 0 m
4 0 l
gsave
0.000 setgray
fill
grestore
stroke
grestore
} bind def
95.2625 179.778 o
grestore
gsave
/o {
gsave
newpath
translate
0.5 setlinewidth
1 setlinejoin
0 setlinecap
0 0 m
-4 0 l
gsave
0.000 setgray
fill
grestore
stroke
grestore
} bind def
559.421 179.778 o
grestore
gsave
40.590625 175.645108 translate
0.000000 rotate
0.000000 0.000000 m /zero glyphshow
9.543457 0.000000 m /period glyphshow
14.311523 0.000000 m /zero glyphshow
23.854980 0.000000 m /zero glyphshow
33.398438 0.000000 m /zero glyphshow
42.941895 0.000000 m /four glyphshow
grestore
gsave
/o {
gsave
newpath
translate
0.5 setlinewidth
1 setlinejoin
0 setlinecap
0 0 m
4 0 l
gsave
0.000 setgray
fill
grestore
stroke
grestore
} bind def
95.2625 193.774 o
grestore
gsave
/o {
gsave
newpath
translate
0.5 setlinewidth
1 setlinejoin
0 setlinecap
0 0 m
-4 0 l
gsave
0.000 setgray
fill
grestore
stroke
grestore
} bind def
559.421 193.774 o
grestore
gsave
/o {
gsave
newpath
translate
0.5 setlinewidth
1 setlinejoin
0 setlinecap
0 0 m
4 0 l
gsave
0.000 setgray
fill
grestore
stroke
grestore
} bind def
95.2625 207.77 o
grestore
gsave
/o {
gsave
newpath
translate
0.5 setlinewidth
1 setlinejoin
0 setlinecap
0 0 m
-4 0 l
gsave
0.000 setgray
fill
grestore
stroke
grestore
} bind def
559.421 207.77 o
grestore
gsave
40.778125 203.636867 translate
0.000000 rotate
0.000000 0.000000 m /zero glyphshow
9.543457 0.000000 m /period glyphshow
14.311523 0.000000 m /zero glyphshow
23.854980 0.000000 m /zero glyphshow
33.398438 0.000000 m /zero glyphshow
42.941895 0.000000 m /eight glyphshow
grestore
gsave
/o {
gsave
newpath
translate
0.5 setlinewidth
1 setlinejoin
0 setlinecap
0 0 m
4 0 l
gsave
0.000 setgray
fill
grestore
stroke
grestore
} bind def
95.2625 221.766 o
grestore
gsave
/o {
gsave
newpath
translate
0.5 setlinewidth
1 setlinejoin
0 setlinecap
0 0 m
-4 0 l
gsave
0.000 setgray
fill
grestore
stroke
grestore
} bind def
559.421 221.766 o
grestore
gsave
30.590625 148.274830 translate
90.000000 rotate
/Cmr10 findfont
18.0 scalefont
setfont
0.000000 0.500000 moveto
/parenleft glyphshow

/Cmmi10 findfont
18.0 scalefont
setfont
6.987305 0.500000 moveto
/d glyphshow

16.347656 0.500000 moveto
/E glyphshow

29.627930 0.500000 moveto
/slash glyphshow

38.627930 0.500000 moveto
/d glyphshow

47.988281 0.500000 moveto
/t glyphshow

/Cmr10 findfont
18.0 scalefont
setfont
54.483398 0.500000 moveto
/parenright glyphshow

/Cmmi10 findfont
12.6 scalefont
setfont
61.470703 -4.091687 moveto
/G glyphshow

71.375977 -4.091687 moveto
/W glyphshow


grestore
1.000 setlinewidth
gsave
95.2625 228.763 m
559.421 228.763 l
stroke
grestore
gsave
559.421 151.786 m
559.421 228.763 l
stroke
grestore
gsave
95.2625 151.786 m
559.421 151.786 l
stroke
grestore
gsave
95.2625 151.786 m
95.2625 228.763 l
stroke
grestore
gsave
101.263 188.713 m
216.462 188.713 l
216.462 222.763 l
101.263 222.763 l
101.263 188.713 l
cl
gsave
1.000 setgray
fill
grestore
stroke
grestore
2.000 setlinewidth
2 setlinecap
gsave
109.662 213.038 m
126.463 213.038 l
stroke
grestore
gsave
139.662500 208.838498 translate
0.000000 rotate
/Cmmi10 findfont
12.0 scalefont
setfont
0.000000 0.093750 moveto
/C glyphshow

/Cmr10 findfont
12.0 scalefont
setfont
10.673438 0.093750 moveto
/equal glyphshow

20.749219 0.093750 moveto
/zero glyphshow

/Cmmi10 findfont
12.0 scalefont
setfont
26.749219 0.093750 moveto
/period glyphshow

/Cmr10 findfont
12.0 scalefont
setfont
30.168750 0.093750 moveto
/one glyphshow

36.168750 0.093750 moveto
/eight glyphshow

/DejaVuSans findfont
12.0 scalefont
setfont
42.168750 0.093750 moveto
/space glyphshow

45.983203 0.093750 moveto
/D glyphshow

55.223438 0.093750 moveto
/B glyphshow

63.455859 0.093750 moveto
/S glyphshow


grestore
3.000 setlinewidth
0 setlinecap
[3 5 1 5] 0 setdash
gsave
109.662 200.213 m
126.463 200.213 l
stroke
grestore
gsave
139.662500 196.013498 translate
0.000000 rotate
/Cmmi10 findfont
12.0 scalefont
setfont
0.000000 0.093750 moveto
/C glyphshow

/Cmr10 findfont
12.0 scalefont
setfont
10.673438 0.093750 moveto
/equal glyphshow

20.749219 0.093750 moveto
/zero glyphshow

/Cmmi10 findfont
12.0 scalefont
setfont
26.749219 0.093750 moveto
/period glyphshow

/Cmr10 findfont
12.0 scalefont
setfont
30.168750 0.093750 moveto
/one glyphshow

36.168750 0.093750 moveto
/eight glyphshow

/DejaVuSans findfont
12.0 scalefont
setfont
42.168750 0.093750 moveto
/space glyphshow

45.983203 0.093750 moveto
/B glyphshow

54.215625 0.093750 moveto
/S glyphshow


grestore
gsave
95.2625 51.7156 m
559.421 51.7156 l
559.421 128.693 l
95.2625 128.693 l
cl
1.000 setgray
fill
grestore
2.000 setlinewidth
2 setlinecap
[] 0 setdash
0.000 0.500 0.000 setrgbcolor
gsave
464.2 76.98 95.26 51.72 clipbox
95.2075 52.7302 m
97.188 52.4119 l
99.1685 52.3247 l
103.79 52.4972 l
109.071 52.5329 l
135.478 52.1969 l
140.76 52.1732 l
150.002 52.1761 l
159.244 52.1291 l
169.147 52.1303 l
177.729 52.1646 l
186.972 52.2366 l
196.214 52.2768 l
206.117 52.4156 l
215.359 52.4947 l
225.922 52.643 l
233.184 52.7355 l
243.747 52.9964 l
250.349 53.0613 l
255.63 53.3591 l
263.552 53.8194 l
268.173 54.0829 l
272.134 54.53 l
279.396 55.6957 l
284.018 56.5183 l
287.319 57.3176 l
289.959 58.2056 l
292.6 59.3052 l
297.881 61.8832 l
301.842 64.0261 l
304.483 65.7063 l
306.464 67.1973 l
308.444 68.9926 l
310.425 71.1174 l
313.065 74.3861 l
315.706 78.0759 l
318.347 82.2066 l
320.327 85.6987 l
322.308 89.7264 l
324.288 94.411 l
326.269 99.7124 l
332.21 116.454 l
333.531 119.607 l
334.851 122.294 l
336.172 124.453 l
337.492 126.058 l
338.152 126.636 l
338.812 127.049 l
339.472 127.293 l
340.133 127.373 l
340.793 127.3 l
341.453 127.082 l
342.113 126.713 l
342.773 126.189 l
343.433 125.501 l
344.754 123.633 l
346.074 121.153 l
347.394 118.152 l
349.375 112.92 l
352.016 105.149 l
355.977 93.4356 l
359.278 84.494 l
361.918 77.9643 l
363.899 73.5756 l
365.879 69.7589 l
367.86 66.5661 l
369.84 63.9742 l
371.821 61.8992 l
373.801 60.2269 l
375.782 58.8541 l
378.423 57.3463 l
381.724 55.7706 l
384.364 54.7122 l
387.005 53.8727 l
389.646 53.2868 l
392.286 52.9357 l
396.908 52.6226 l
411.431 51.8844 l
453.683 51.7551 l
514.419 51.7521 l
514.419 51.7521 l
stroke
grestore
3.000 setlinewidth
0 setlinecap
[1 3] 0 setdash
gsave
464.2 76.98 95.26 51.72 clipbox
95.2075 51.7156 m
134.598 51.8194 l
153.083 52.5891 l
168.267 53.4268 l
175.089 53.6388 l
184.331 54.0094 l
189.613 53.9149 l
196.874 53.8279 l
204.356 53.7475 l
210.078 53.3985 l
217.56 52.9725 l
227.023 52.4534 l
235.165 51.9659 l
242.867 51.788 l
248.808 51.8338 l
253.209 52.1081 l
258.051 52.6522 l
263.332 53.4555 l
267.073 54.2175 l
270.594 55.1626 l
275.215 56.665 l
280.937 58.4899 l
286.878 60.1317 l
293.26 61.7299 l
295.901 62.1483 l
298.101 62.281 l
300.522 62.2055 l
304.043 61.8231 l
306.684 61.6207 l
308.444 61.724 l
309.985 62.0564 l
311.305 62.5575 l
312.625 63.2899 l
313.946 64.2894 l
315.266 65.5947 l
316.586 67.2469 l
317.907 69.2954 l
319.227 71.7959 l
320.547 74.8131 l
321.868 78.3895 l
323.188 82.5372 l
324.949 88.9258 l
327.149 97.9498 l
330.89 113.549 l
332.21 118.188 l
333.311 121.376 l
334.191 123.373 l
335.071 124.829 l
335.731 125.544 l
336.392 125.929 l
337.052 125.977 l
337.712 125.712 l
338.372 125.153 l
339.252 124.001 l
340.133 122.462 l
341.673 119.233 l
343.653 115.129 l
344.754 113.386 l
345.634 112.443 l
346.294 112.034 l
346.954 111.892 l
347.615 112.015 l
348.275 112.382 l
349.155 113.183 l
350.915 115.275 l
352.016 116.381 l
352.676 116.782 l
353.336 116.894 l
353.776 116.78 l
354.216 116.5 l
354.876 115.75 l
355.537 114.584 l
356.197 112.989 l
357.077 110.193 l
357.957 106.672 l
359.278 100.271 l
361.698 86.8772 l
363.459 77.7718 l
364.559 73.052 l
365.659 69.3253 l
366.54 67.1148 l
367.42 65.5794 l
368.08 64.8398 l
368.74 64.4135 l
369.4 64.2543 l
370.061 64.3093 l
370.941 64.6159 l
374.022 65.9453 l
374.902 65.951 l
375.782 65.6697 l
376.662 65.0856 l
377.542 64.2119 l
378.643 62.7734 l
380.183 60.3317 l
382.824 56.0607 l
384.144 54.3724 l
385.245 53.3477 l
386.125 52.8038 l
387.005 52.5019 l
387.885 52.4221 l
388.986 52.5829 l
390.306 53.0444 l
394.487 54.7263 l
395.807 54.9099 l
397.128 54.8432 l
398.448 54.5488 l
400.209 53.9041 l
404.39 52.2511 l
405.93 51.9153 l
407.47 51.7989 l
409.231 51.9045 l
411.652 52.3031 l
415.172 52.8731 l
417.373 52.9883 l
419.794 52.8645 l
428.596 52.1115 l
432.117 52.2587 l
438.279 52.5447 l
442.46 52.4662 l
450.382 52.2783 l
485.811 52.3757 l
518.6 52.3629 l
557.77 52.3632 l
557.77 52.3632 l
stroke
grestore
0.500 setlinewidth
[] 0 setdash
0.000 setgray
gsave
/o {
gsave
newpath
translate
0.5 setlinewidth
1 setlinejoin
0 setlinecap
0 0 m
0 4 l
gsave
0.000 setgray
fill
grestore
stroke
grestore
} bind def
166.066 51.7156 o
grestore
gsave
/o {
gsave
newpath
translate
0.5 setlinewidth
1 setlinejoin
0 setlinecap
0 0 m
0 -4 l
gsave
0.000 setgray
fill
grestore
stroke
grestore
} bind def
166.066 128.693 o
grestore
gsave
146.761623 36.325000 translate
0.000000 rotate
0.000000 0.000000 m /minus glyphshow
12.568359 0.000000 m /one glyphshow
22.111816 0.000000 m /zero glyphshow
31.655273 0.000000 m /zero glyphshow
grestore
gsave
/o {
gsave
newpath
translate
0.5 setlinewidth
1 setlinejoin
0 setlinecap
0 0 m
0 4 l
gsave
0.000 setgray
fill
grestore
stroke
grestore
} bind def
244.737 51.7156 o
grestore
gsave
/o {
gsave
newpath
translate
0.5 setlinewidth
1 setlinejoin
0 setlinecap
0 0 m
0 -4 l
gsave
0.000 setgray
fill
grestore
stroke
grestore
} bind def
244.737 128.693 o
grestore
gsave
230.205961 36.325000 translate
0.000000 rotate
0.000000 0.000000 m /minus glyphshow
12.568359 0.000000 m /five glyphshow
22.111816 0.000000 m /zero glyphshow
grestore
gsave
/o {
gsave
newpath
translate
0.5 setlinewidth
1 setlinejoin
0 setlinecap
0 0 m
0 4 l
gsave
0.000 setgray
fill
grestore
stroke
grestore
} bind def
323.408 51.7156 o
grestore
gsave
/o {
gsave
newpath
translate
0.5 setlinewidth
1 setlinejoin
0 setlinecap
0 0 m
0 -4 l
gsave
0.000 setgray
fill
grestore
stroke
grestore
} bind def
323.408 128.693 o
grestore
gsave
319.626861 36.325000 translate
0.000000 rotate
0.000000 0.000000 m /zero glyphshow
grestore
gsave
/o {
gsave
newpath
translate
0.5 setlinewidth
1 setlinejoin
0 setlinecap
0 0 m
0 4 l
gsave
0.000 setgray
fill
grestore
stroke
grestore
} bind def
402.079 51.7156 o
grestore
gsave
/o {
gsave
newpath
translate
0.5 setlinewidth
1 setlinejoin
0 setlinecap
0 0 m
0 -4 l
gsave
0.000 setgray
fill
grestore
stroke
grestore
} bind def
402.079 128.693 o
grestore
gsave
393.610262 36.325000 translate
0.000000 rotate
0.000000 0.000000 m /five glyphshow
9.543457 0.000000 m /zero glyphshow
grestore
gsave
/o {
gsave
newpath
translate
0.5 setlinewidth
1 setlinejoin
0 setlinecap
0 0 m
0 4 l
gsave
0.000 setgray
fill
grestore
stroke
grestore
} bind def
480.75 51.7156 o
grestore
gsave
/o {
gsave
newpath
translate
0.5 setlinewidth
1 setlinejoin
0 setlinecap
0 0 m
0 -4 l
gsave
0.000 setgray
fill
grestore
stroke
grestore
} bind def
480.75 128.693 o
grestore
gsave
467.757725 36.325000 translate
0.000000 rotate
0.000000 0.000000 m /one glyphshow
9.543457 0.000000 m /zero glyphshow
19.086914 0.000000 m /zero glyphshow
grestore
gsave
/o {
gsave
newpath
translate
0.5 setlinewidth
1 setlinejoin
0 setlinecap
0 0 m
0 4 l
gsave
0.000 setgray
fill
grestore
stroke
grestore
} bind def
559.421 51.7156 o
grestore
gsave
/o {
gsave
newpath
translate
0.5 setlinewidth
1 setlinejoin
0 setlinecap
0 0 m
0 -4 l
gsave
0.000 setgray
fill
grestore
stroke
grestore
} bind def
559.421 128.693 o
grestore
gsave
546.428625 36.325000 translate
0.000000 rotate
0.000000 0.000000 m /one glyphshow
9.543457 0.000000 m /five glyphshow
19.086914 0.000000 m /zero glyphshow
grestore
gsave
281.841656 13.200000 translate
0.000000 rotate
/Cmr10 findfont
20.0 scalefont
setfont
0.000000 0.000000 moveto
/parenleft glyphshow

/Cmmi10 findfont
20.0 scalefont
setfont
7.763672 0.000000 moveto
/t glyphshow

/Cmsy10 findfont
20.0 scalefont
setfont
14.980469 0.000000 moveto
/minus glyphshow

/Cmmi10 findfont
20.0 scalefont
setfont
30.517578 0.000000 moveto
/t glyphshow

/Cmmi10 findfont
14.0 scalefont
setfont
37.734375 -5.101875 moveto
/c glyphshow

/Cmr10 findfont
20.0 scalefont
setfont
43.784180 0.000000 moveto
/parenright glyphshow

/Cmmi10 findfont
20.0 scalefont
setfont
51.547852 0.000000 moveto
/slash glyphshow

61.547852 0.000000 moveto
/M glyphshow

/Cmr10 findfont
14.0 scalefont
setfont
80.952148 -5.101875 moveto
/zero glyphshow


grestore
gsave
/o {
gsave
newpath
translate
0.5 setlinewidth
1 setlinejoin
0 setlinecap
0 0 m
4 0 l
gsave
0.000 setgray
fill
grestore
stroke
grestore
} bind def
95.2625 51.7156 o
grestore
gsave
/o {
gsave
newpath
translate
0.5 setlinewidth
1 setlinejoin
0 setlinecap
0 0 m
-4 0 l
gsave
0.000 setgray
fill
grestore
stroke
grestore
} bind def
559.421 51.7156 o
grestore
gsave
40.746875 47.582813 translate
0.000000 rotate
0.000000 0.000000 m /zero glyphshow
9.543457 0.000000 m /period glyphshow
14.311523 0.000000 m /zero glyphshow
23.854980 0.000000 m /zero glyphshow
33.398438 0.000000 m /zero glyphshow
42.941895 0.000000 m /zero glyphshow
grestore
gsave
/o {
gsave
newpath
translate
0.5 setlinewidth
1 setlinejoin
0 setlinecap
0 0 m
4 0 l
gsave
0.000 setgray
fill
grestore
stroke
grestore
} bind def
95.2625 67.1111 o
grestore
gsave
/o {
gsave
newpath
translate
0.5 setlinewidth
1 setlinejoin
0 setlinecap
0 0 m
-4 0 l
gsave
0.000 setgray
fill
grestore
stroke
grestore
} bind def
559.421 67.1111 o
grestore
gsave
/o {
gsave
newpath
translate
0.5 setlinewidth
1 setlinejoin
0 setlinecap
0 0 m
4 0 l
gsave
0.000 setgray
fill
grestore
stroke
grestore
} bind def
95.2625 82.5066 o
grestore
gsave
/o {
gsave
newpath
translate
0.5 setlinewidth
1 setlinejoin
0 setlinecap
0 0 m
-4 0 l
gsave
0.000 setgray
fill
grestore
stroke
grestore
} bind def
559.421 82.5066 o
grestore
gsave
40.590625 78.373747 translate
0.000000 rotate
0.000000 0.000000 m /zero glyphshow
9.543457 0.000000 m /period glyphshow
14.311523 0.000000 m /zero glyphshow
23.854980 0.000000 m /zero glyphshow
33.398438 0.000000 m /zero glyphshow
42.941895 0.000000 m /four glyphshow
grestore
gsave
/o {
gsave
newpath
translate
0.5 setlinewidth
1 setlinejoin
0 setlinecap
0 0 m
4 0 l
gsave
0.000 setgray
fill
grestore
stroke
grestore
} bind def
95.2625 97.902 o
grestore
gsave
/o {
gsave
newpath
translate
0.5 setlinewidth
1 setlinejoin
0 setlinecap
0 0 m
-4 0 l
gsave
0.000 setgray
fill
grestore
stroke
grestore
} bind def
559.421 97.902 o
grestore
gsave
/o {
gsave
newpath
translate
0.5 setlinewidth
1 setlinejoin
0 setlinecap
0 0 m
4 0 l
gsave
0.000 setgray
fill
grestore
stroke
grestore
} bind def
95.2625 113.297 o
grestore
gsave
/o {
gsave
newpath
translate
0.5 setlinewidth
1 setlinejoin
0 setlinecap
0 0 m
-4 0 l
gsave
0.000 setgray
fill
grestore
stroke
grestore
} bind def
559.421 113.297 o
grestore
gsave
40.778125 109.164682 translate
0.000000 rotate
0.000000 0.000000 m /zero glyphshow
9.543457 0.000000 m /period glyphshow
14.311523 0.000000 m /zero glyphshow
23.854980 0.000000 m /zero glyphshow
33.398438 0.000000 m /zero glyphshow
42.941895 0.000000 m /eight glyphshow
grestore
gsave
/o {
gsave
newpath
translate
0.5 setlinewidth
1 setlinejoin
0 setlinecap
0 0 m
4 0 l
gsave
0.000 setgray
fill
grestore
stroke
grestore
} bind def
95.2625 128.693 o
grestore
gsave
/o {
gsave
newpath
translate
0.5 setlinewidth
1 setlinejoin
0 setlinecap
0 0 m
-4 0 l
gsave
0.000 setgray
fill
grestore
stroke
grestore
} bind def
559.421 128.693 o
grestore
gsave
30.590625 48.204293 translate
90.000000 rotate
/Cmr10 findfont
18.0 scalefont
setfont
0.000000 0.500000 moveto
/parenleft glyphshow

/Cmmi10 findfont
18.0 scalefont
setfont
6.987305 0.500000 moveto
/d glyphshow

16.347656 0.500000 moveto
/E glyphshow

29.627930 0.500000 moveto
/slash glyphshow

38.627930 0.500000 moveto
/d glyphshow

47.988281 0.500000 moveto
/t glyphshow

/Cmr10 findfont
18.0 scalefont
setfont
54.483398 0.500000 moveto
/parenright glyphshow

/Cmmi10 findfont
12.6 scalefont
setfont
61.470703 -4.091687 moveto
/G glyphshow

71.375977 -4.091687 moveto
/W glyphshow


grestore
1.000 setlinewidth
gsave
95.2625 128.693 m
559.421 128.693 l
stroke
grestore
gsave
559.421 51.7156 m
559.421 128.693 l
stroke
grestore
gsave
95.2625 51.7156 m
559.421 51.7156 l
stroke
grestore
gsave
95.2625 51.7156 m
95.2625 128.693 l
stroke
grestore
gsave
101.263 88.643 m
216.462 88.643 l
216.462 122.693 l
101.263 122.693 l
101.263 88.643 l
cl
gsave
1.000 setgray
fill
grestore
stroke
grestore
2.000 setlinewidth
2 setlinecap
0.000 0.500 0.000 setrgbcolor
gsave
109.662 112.968 m
126.463 112.968 l
stroke
grestore
0.000 setgray
gsave
139.662500 108.767961 translate
0.000000 rotate
/Cmmi10 findfont
12.0 scalefont
setfont
0.000000 0.093750 moveto
/C glyphshow

/Cmr10 findfont
12.0 scalefont
setfont
10.673438 0.093750 moveto
/equal glyphshow

20.749219 0.093750 moveto
/zero glyphshow

/Cmmi10 findfont
12.0 scalefont
setfont
26.749219 0.093750 moveto
/period glyphshow

/Cmr10 findfont
12.0 scalefont
setfont
30.168750 0.093750 moveto
/two glyphshow

36.168750 0.093750 moveto
/two glyphshow

/DejaVuSans findfont
12.0 scalefont
setfont
42.168750 0.093750 moveto
/space glyphshow

45.983203 0.093750 moveto
/D glyphshow

55.223438 0.093750 moveto
/B glyphshow

63.455859 0.093750 moveto
/S glyphshow


grestore
3.000 setlinewidth
0 setlinecap
[1 3] 0 setdash
0.000 0.500 0.000 setrgbcolor
gsave
109.662 100.143 m
126.463 100.143 l
stroke
grestore
0.000 setgray
gsave
139.662500 95.942961 translate
0.000000 rotate
/Cmmi10 findfont
12.0 scalefont
setfont
0.000000 0.093750 moveto
/C glyphshow

/Cmr10 findfont
12.0 scalefont
setfont
10.673438 0.093750 moveto
/equal glyphshow

20.749219 0.093750 moveto
/zero glyphshow

/Cmmi10 findfont
12.0 scalefont
setfont
26.749219 0.093750 moveto
/period glyphshow

/Cmr10 findfont
12.0 scalefont
setfont
30.168750 0.093750 moveto
/two glyphshow

36.168750 0.093750 moveto
/two glyphshow

/DejaVuSans findfont
12.0 scalefont
setfont
42.168750 0.093750 moveto
/space glyphshow

45.983203 0.093750 moveto
/B glyphshow

54.215625 0.093750 moveto
/S glyphshow


grestore

end
showpage
