\relax 
\providecommand\hyper@newdestlabel[2]{}
\providecommand\HyperFirstAtBeginDocument{\AtBeginDocument}
\HyperFirstAtBeginDocument{\ifx\hyper@anchor\@undefined
\global\let\oldcontentsline\contentsline
\gdef\contentsline#1#2#3#4{\oldcontentsline{#1}{#2}{#3}}
\global\let\oldnewlabel\newlabel
\gdef\newlabel#1#2{\newlabelxx{#1}#2}
\gdef\newlabelxx#1#2#3#4#5#6{\oldnewlabel{#1}{{#2}{#3}}}
\AtEndDocument{\ifx\hyper@anchor\@undefined
\let\contentsline\oldcontentsline
\let\newlabel\oldnewlabel
\fi}
\fi}
\global\let\hyper@last\relax 
\gdef\HyperFirstAtBeginDocument#1{#1}
\providecommand\HyField@AuxAddToFields[1]{}
\providecommand\HyField@AuxAddToCoFields[2]{}
\citation{bezpalen,palenpani}
\citation{palenpani}
\citation{frie}
\citation{liebpa}
\bibdata{darkstarNotes,biblio}
\bibcite{bezpalen}{{1}{}{{}}{{}}}
\bibcite{palenpani}{{2}{}{{}}{{}}}
\newlabel{FirstPage}{{}{1}{}{Doc-Start}{}}
\@writefile{toc}{\contentsline {title}{DRAFT}{1}{section*.1}}
\@writefile{toc}{\contentsline {section}{\numberline {I}Introduction}{1}{section*.2}}
\@writefile{toc}{\contentsline {section}{\numberline {II}Setup}{1}{section*.3}}
\@writefile{toc}{\contentsline {subsection}{\numberline {A}Framework}{1}{section*.4}}
\newlabel{action}{{1}{1}{}{equation.2.1}{}}
\@writefile{toc}{\contentsline {subsection}{\numberline {B}Initial Data of Dark Stars}{1}{section*.5}}
\@writefile{toc}{\contentsline {section}{\numberline {III}Coalescence of DSs}{1}{section*.6}}
\@writefile{toc}{\contentsline {subsection}{\numberline {A}Dynamics of binaries of DSs}{1}{section*.7}}
\@writefile{toc}{\contentsline {subsection}{\numberline {B}Gravitational Waves}{1}{section*.8}}
\@writefile{toc}{\contentsline {subsection}{\numberline {}Acknowledgments}{1}{section*.9}}
\@writefile{toc}{\contentsline {section}{\numberline {}References}{1}{section*.10}}
\bibcite{frie}{{3}{}{{}}{{}}}
\bibcite{liebpa}{{4}{}{{}}{{}}}
\bibstyle{utphys}
\providecommand\NAT@force@numbers{}\NAT@force@numbers
\newlabel{LastBibItem}{{4}{2}{}{section*.10}{}}
\newlabel{LastPage}{{}{2}{}{}{}}
